{
  "page": 10,
  "perPage": 50,
  "totalPages": 69,
  "totalCount": 3406,
  "nextPage": 11,
  "prevPage": 9,
  "items": [
    {
      "id": 451,
      "chapterId": 1,
      "bookId": 9,
      "arabic": "أَخْبَرَنَا مُسْلِمُ بْنُ إِبْرَاهِيمَ  ، حَدَّثَنَا وُهَيْبٌ  ، حَدَّثَنَا عَبْدُ اللَّهِ بْنُ عُثْمَانَ بْنِ خُثَيْمٍ  ، عَنْ ابْنِ سَابِطٍ  ، قَالَ : سَأَلْتُ حَفْصَةَ بِنْتَ عَبْدِ الرَّحْمَنِ  هُوَ ابْنُ أَبِي بَكْرٍ، قُلْتُ لَهَا : إِنِّي أُرِيدُ أَنْ أَسْأَلَكِ عَنْ شَيْءٍ، وَأَنَا أَسْتَحْيِي أَنْ أَسْأَلَكِ عَنْهُ، قَالَتْ : سَلْ يَا ابْنَ أَخِي عَمَّا بَدَا لَكَ، قَالَ : أَسْأَلُكِ عَنْ إِتْيَانِ النِّسَاءِ فِي أَدْبَارِهِنَّ، فَقَالَتْ : حَدَّثَتْنِي أُمُّ سَلَمَةَ   رَضِيَ اللهُ عَنْهَا، قَالَتْ : كَانَتْ الْأَنْصَارُ لَا تُجَبِّي، وَكَانَتْ الْمُهَاجِرُونَ تُجَبِّي، فَتَزَوَّجَ رَجُلٌ مِنْ الْمُهَاجِرِينَ امْرَأَةً مِنْ الْأَنْصَارِ، فَجَبَّاهَا، فَأَبَتْ الْأَنْصَارِيَّةُ، فَأَتَتْ أُمَّ سَلَمَةَ ، فَذَكَرَتْ ذَلِكَ لَهَا، فَلَمَّا أَنْ جَاءَ النَّبِيُّ صَلَّى اللَّهُ عَلَيْهِ وَسَلَّمَ اسْتَحْيَتْ الْأَنْصَارِيَّةُ وَخَرَجَتْ، فَذَكَرَتْ ذَلِكَ أُمُّ سَلَمَةَ لِلنَّبِيِّ صَلَّى اللَّهُ عَلَيْهِ وَسَلَّمَ فَقَالَ :\" ادْعُوهَا لِي \"، فَدُعِيَتْ لَهُ، فَقَالَ لَهَا : \" # نِسَاؤُكُمْ حَرْثٌ لَكُمْ فَأْتُوا حَرْثَكُمْ أَنَّى شِئْتُمْ سورة البقرة آية 223 #، صِمَامًا وَاحِدًا \"، وَالصِّمَامُ : السَّبِيلُ الْوَاحِدُ",
      "english": {
        "narrator": "",
        "text": ""
      }
    },
    {
      "id": 452,
      "chapterId": 1,
      "bookId": 9,
      "arabic": "أَخْبَرَنَا الْحَكَمُ بْنُ الْمُبَارَكِ  ، أَخْبَرَنَا مُحَمَّدُ بْنُ سَلَمَةَ  ، عَنْ مُحَمَّدِ بْنِ إِسْحَاق  ، عَنْ أَبَانَ بْنِ صَالِحٍ  ، عَنْ مُجَاهِدٍ  ، قَالَ : لَقَدْ عَرَضْتُ الْقُرْآنَ عَلَى ابْنِ عَبَّاسٍ   رَضِيَ اللهُ عَنْهُمَا ثَلَاثَ عَرَضَاتٍ، أَقِفُ عِنْدَ كُلِّ آيَةٍ أَسْأَلُهُ فِيمَ أُنْزِلَتْ، وَفِيمَ كَانَتْ؟، فَقُلْتُ : يَا ابْنَ عَبَّاسٍ، أَرَأَيْتَ قَوْلَ اللَّهِ تَعَالَى : # فَإِذَا تَطَهَّرْنَ فَأْتُوهُنَّ مِنْ حَيْثُ أَمَرَكُمُ اللَّهُ سورة البقرة آية 222 #، قَالَ :\" مِنْ حَيْثُ أَمَرَكُمْ أَنْ تَعْتَزِلُوهُنَّ \"",
      "english": {
        "narrator": "",
        "text": ""
      }
    },
    {
      "id": 453,
      "chapterId": 1,
      "bookId": 9,
      "arabic": "أَخْبَرَنَا مُحَمَّدُ بْنُ يُوسُفَ ، حَدَّثَنَا سُفْيَانُ ، عَنْ عُثْمَانَ بْنِ الْأَسْوَدِ ، عَنْ مُجَاهِدٍ  : # فَأْتُوهُنَّ مِنْ حَيْثُ أَمَرَكُمُ اللَّهُ سورة البقرة آية 222 #، قَالَ :\" أُمِرُوا أَنْ يَأْتُوا مِنْ حَيْثُ نُهُوا \"",
      "english": {
        "narrator": "",
        "text": ""
      }
    },
    {
      "id": 454,
      "chapterId": 1,
      "bookId": 9,
      "arabic": "أَخْبَرَنَا مُحَمَّدُ بْنُ يُوسُفَ ، حَدَّثَنَا سُفْيَانُ ، عَنْ الْأَعْمَشِ ، عَنْ أَبِي رَزِينٍ  : # فَأْتُوهُنَّ مِنْ حَيْثُ أَمَرَكُمُ اللَّهُ سورة البقرة آية 222 #، قَالَ :\" مِنْ قِبَلِ الطُّهْرِ \"",
      "english": {
        "narrator": "",
        "text": ""
      }
    },
    {
      "id": 455,
      "chapterId": 1,
      "bookId": 9,
      "arabic": "أَخْبَرَنَا مُحَمَّدُ بْنُ يَزِيدَ الْبَزَّازُ ، حَدَّثَنَا شَرِيكٌ ، عَنْ إِبْرَاهِيمَ بْنِ مُهَاجِرٍ ، عَنْ مُجَاهِدٍ  : # وَتَذَرُونَ مَا خَلَقَ لَكُمْ رَبُّكُمْ مِنْ أَزْوَاجِكُمْ سورة الشعراء آية 166 #، قَالَ :\" هُوَ وَاللَّهِ الْقُبُلُ \"",
      "english": {
        "narrator": "",
        "text": ""
      }
    },
    {
      "id": 456,
      "chapterId": 1,
      "bookId": 9,
      "arabic": "أَخْبَرَنَا عُثْمَانُ بْنُ عُمَرَ ، حَدَّثَنَا خَالِدُ بْنُ رَبَاحٍ ، عَنْ عِكْرِمَةَ  : # نِسَاؤُكُمْ حَرْثٌ لَكُمْ فَأْتُوا حَرْثَكُمْ أَنَّى شِئْتُمْ سورة البقرة آية 223 #، قَالَ :\" إِنَّمَا هُوَ الْفَرْجُ \"",
      "english": {
        "narrator": "",
        "text": ""
      }
    },
    {
      "id": 457,
      "chapterId": 1,
      "bookId": 9,
      "arabic": "أَخْبَرَنَا أَبُو نُعَيْمٍ ، حَدَّثَنَا عَلِيُّ بْنُ عَلِيٍّ الرِّفَاعِيُّ ، قَالَ : سَمِعْتُ الْحَسَنَ ، يَقُولُ : كَانَتْ الْيَهُودُ لَا تَأْلُو مَا شَدَّدَتْ عَلَى الْمُسْلِمِينَ، كَانُوا يَقُولُونَ : يَا أَصْحَابَ مُحَمَّدٍ ، إِنَّهُ وَاللَّهِ مَا يَحِلُّ لَكُمْ أَنْ تَأْتُوا نِسَاءَكُمْ إِلَّا مِنْ وَجْهٍ وَاحِدٍ، قَالَ : فَأَنْزَلَ اللَّهُ : # نِسَاؤُكُمْ حَرْثٌ لَكُمْ فَأْتُوا حَرْثَكُمْ أَنَّى شِئْتُمْ سورة البقرة آية 223 #\" فَخَلَّى اللَّهُ بَيْنَ الْمُؤْمِنِينَ وَبَيْنَ حَاجَتِهِمْ \"",
      "english": {
        "narrator": "",
        "text": ""
      }
    },
    {
      "id": 458,
      "chapterId": 1,
      "bookId": 9,
      "arabic": "أَخْبَرَنَا عَمْرُو بْنُ عَوْنٍ  ، عَنْ خَالِدِ بْنِ عَبْدِ اللَّهِ  ، عَنْ عَطَاءِ بْنِ السَّائِبِ  ، عَنْ سَعِيدِ بْنِ جُبَيْرٍ  ، عَنْ ابْنِ عَبَّاسٍ   رَضِيَ اللهُ عَنْهُمَا : # فَأْتُوا حَرْثَكُمْ أَنَّى شِئْتُمْ سورة البقرة آية 223 #، قَالَ :\" ائْتِهَا مِنْ بَيْنِ يَدَيْهَا وَمِنْ خَلْفِهَا بَعْدَ أَنْ يَكُونَ فِي الْمَأْتَى \"",
      "english": {
        "narrator": "",
        "text": ""
      }
    },
    {
      "id": 459,
      "chapterId": 1,
      "bookId": 9,
      "arabic": "أَخْبَرَنَا خَلِيفَةُ بْنُ خَيَّاطٍ  ، حَدَّثَنَا عَبْدُ الْوَهَّابِ  ، حَدَّثَنَا خَالِدٌ  ، عَنْ عِكْرِمَةَ  ، قَالَ : كَانَ أَهْلُ الْجَاهِلِيَّةِ يَصْنَعُونَ فِي الْحَائِضِ نَحْوًا مِنْ صَنِيعِ الْمَجُوسِ ، فَذُكِرَ ذَلِكَ لِلنَّبِيِّ صَلَّى اللَّهُ عَلَيْهِ وَسَلَّمَ فَنَزَلَتْ\" # وَيَسْأَلُونَكَ عَنِ الْمَحِيضِ قُلْ هُوَ أَذًى فَاعْتَزِلُوا النِّسَاءَ فِي الْمَحِيضِ وَلا تَقْرَبُوهُنَّ حَتَّى يَطْهُرْنَ سورة البقرة آية 222 #، فَلَمْ يَزْدَدْ الْأَمْرُ فِيهِنَّ إِلَّا شِدَّةً \"",
      "english": {
        "narrator": "",
        "text": ""
      }
    },
    {
      "id": 460,
      "chapterId": 1,
      "bookId": 9,
      "arabic": "أَخْبَرَنَا خَلِيفَةُ ، حَدَّثَنَا مُؤَمَّلٌ ، عَنْ سُفْيَانَ ، عَنْ ابْنِ أَبِي نَجِيحٍ ، عَنْ مُجَاهِدٍ \" # قُلْ هُوَ أَذًى سورة البقرة آية 222 #، قَالَ : هُوَ الدَّمُ \"",
      "english": {
        "narrator": "",
        "text": ""
      }
    },
    {
      "id": 461,
      "chapterId": 1,
      "bookId": 9,
      "arabic": "أَخْبَرَنَا مُحَمَّدُ بْنُ الصَّلْتِ ، حَدَّثَنَا ابْنُ الْمُبَارَكِ ، عَنْ مَعْمَرٍ ، عَنْ قَتَادَةَ \" # قُلْ هُوَ أَذًى سورة البقرة آية 222 #، قَالَ : قَذَرٌ \"",
      "english": {
        "narrator": "",
        "text": ""
      }
    },
    {
      "id": 462,
      "chapterId": 1,
      "bookId": 9,
      "arabic": "أَخْبَرَنَا خَلِيفَةُ بْنُ خَيَّاطٍ ، حَدَّثَنَا الْمُعْتَمِرُ ، قَالَ : سَمِعْتُ لَيْثًا حَدَّثَ، عَنْ عِيسَى بْنِ قَيْسٍ ، عَنْ سَعِيدِ بْنِ الْمُسَيِّبِ  : # نِسَاؤُكُمْ حَرْثٌ لَكُمْ فَأْتُوا حَرْثَكُمْ أَنَّى شِئْتُمْ سورة البقرة آية 223 #، قَالَ :\" إِنْ شِئْتَ فَاعْزِلْ، وَإِنْ شِئْتَ فَلَا تَعْزِلْ \"",
      "english": {
        "narrator": "",
        "text": ""
      }
    },
    {
      "id": 463,
      "chapterId": 1,
      "bookId": 9,
      "arabic": "أَخْبَرَنَا خَلِيفَةُ ، حَدَّثَنَا عَبْدُ الْوَهَّابِ ، عَنْ عَوْفٍ ، عَنْ الْحَسَنِ ، قَالَ :\" كَيْفَ شِئْتَ، يَعْنِي : إِتْيَانَهَا فِي الْفَرْجِ \"",
      "english": {
        "narrator": "",
        "text": ""
      }
    },
    {
      "id": 464,
      "chapterId": 1,
      "bookId": 9,
      "arabic": "أَخْبَرَنَا أَحْمَدُ بْنُ عَبْدِ اللَّهِ بْنِ يُونُسَ  ، حَدَّثَنَا مَالِكٌ  ، عَنْ مُحَمَّدِ بْنِ الْمُنْكَدِرِ  ، عَنْ جَابِرِ بْنِ عَبْدِ اللَّهِ الْأَنْصَارِيِّ   رَضِيَ اللهُ عَنْهُ\" أَنَّ الْيَهُودَ قَالُوا لِلْمُسْلِمِينَ : مَنْ أَتَى امْرَأَتَهُ وَهِيَ مُدْبِرَةٌ، جَاءَ وَلَدُهُ أَحْوَلَ، فَأَنْزَلَ اللَّهُ تَعَالَى : # نِسَاؤُكُمْ حَرْثٌ لَكُمْ فَأْتُوا حَرْثَكُمْ أَنَّى شِئْتُمْ سورة البقرة آية 223 # \"",
      "english": {
        "narrator": "",
        "text": ""
      }
    },
    {
      "id": 465,
      "chapterId": 1,
      "bookId": 9,
      "arabic": "حَدَّثَنَا عَمْرُو بْنُ عَوْنٍ ، عَنْ خَالِدِ بْنِ عَبْدِ اللَّهِ ، عَنْ خَالِدٍ الْحَذَّاءِ ، عَنْ عِكْرِمَةَ  : # فَأْتُوا حَرْثَكُمْ أَنَّى شِئْتُمْ سورة البقرة آية 223 #، قَالَ :\" يَأْتِي أَهْلَهُ كَيْفَ شَاءَ قَائِمًا وَقَاعِدًا وَبَيْنَ يَدَيْهَا وَمِنْ خَلْفِهَا \"",
      "english": {
        "narrator": "",
        "text": ""
      }
    },
    {
      "id": 466,
      "chapterId": 1,
      "bookId": 9,
      "arabic": "حَدَّثَنَا عَبْدُ اللَّهِ بْنُ سَعِيدٍ الْأَشَجُّ ، حَدَّثَنَا ابْنُ إِدْرِيسَ ، عَنْ أَبِيهِ ، عَنْ يَزِيدَ بْنِ الْوَلِيدِ ، عَنْ إِبْرَاهِيمَ \" # فَأْتُوهُنَّ مِنْ حَيْثُ أَمَرَكُمُ اللَّهُ سورة البقرة آية 222 #، قَالَ : فِي الْفَرْجِ \"",
      "english": {
        "narrator": "",
        "text": ""
      }
    },
    {
      "id": 467,
      "chapterId": 1,
      "bookId": 9,
      "arabic": "حَدَّثَنَا عُبَيْدُ اللَّهِ بْنُ مُوسَى ، عَنْ عُثْمَانَ بْنِ الْأَسْوَدِ ، عَنْ مُجَاهِدٍ ، قَالَ :\" مَنْ أَتَى امْرَأَتَهُ فِي دُبُرِهَا فَهُوَ مِنْ الْمَرْأَةِ مِثْلُهُ مِنْ الرَّجُلِ، ثُمَّ تَلَا : # وَيَسْأَلُونَكَ عَنِ الْمَحِيضِ قُلْ هُوَ أَذًى فَاعْتَزِلُوا النِّسَاءَ فِي الْمَحِيضِ وَلا تَقْرَبُوهُنَّ حَتَّى يَطْهُرْنَ فَإِذَا تَطَهَّرْنَ فَأْتُوهُنَّ مِنْ حَيْثُ أَمَرَكُمُ اللَّهُ سورة البقرة آية 222 #، أَنْ تَعْتَزِلُوهُنَّ فِي الْمَحِيضِ : الْفَرْجَ، ثُمَّ تَلَا : # نِسَاؤُكُمْ حَرْثٌ لَكُمْ فَأْتُوا حَرْثَكُمْ أَنَّى شِئْتُمْ سورة البقرة آية 223 # قَائِمَةً، وَقَاعِدَةً، وَمُقْبِلَةً، وَمُدْبِرَةً فِي الْفَرْجِ \"",
      "english": {
        "narrator": "",
        "text": ""
      }
    },
    {
      "id": 468,
      "chapterId": 1,
      "bookId": 9,
      "arabic": "أَخْبَرَنَا أَبُو نُعَيْمٍ  ، عَنْ حَمَّادِ بْنِ سَلَمَةَ  ، عَنْ حَكِيمٍ الْأَثْرَمِ  ، عَنْ أَبِي تَمِيمَةَ الْهُجَيْمِيِّ  ، عَنْ أَبِي هُرَيْرَةَ   رَضِيَ اللهُ عَنْهُ، عَنْ النَّبِيِّ صَلَّى اللَّهُ عَلَيْهِ وَسَلَّمَ قَالَ :\" مَنْ أَتَى حَائِضًا، أَوْ امْرَأَةً فِي دُبُرِهَا، أَوْ كَاهِنًا فَصَدَّقَهُ بِمَا يَقُولُ، فَقَدْ كَفَرَ بِمَا أَنْزَلَ اللَّهُ عَلَى مُحَمَّدٍ \"",
      "english": {
        "narrator": "",
        "text": ""
      }
    },
    {
      "id": 469,
      "chapterId": 1,
      "bookId": 9,
      "arabic": "أَخْبَرَنَا أَبُو نُعَيْمٍ  ، حَدَّثَنَا أَبُو هِلَالٍ  ، عَنْ أَبِي عَبْدِ اللَّهِ الشَّقَرِيِّ  ، عَنْ أَبِي الْقَعْقَاعِ الْجَرْمِيِّ  ، قَالَ : جَاءَ رَجُلٌ إِلَى عَبْدِ اللَّهِ بْنِ مَسْعُودٍ  ،  فَقَالَ : يَا أَبَا عَبْدِ الرَّحْمَنِ آتِي امْرَأَتِي حَيْثُ شِئْتُ؟، قَالَ : نَعَمْ، قَالَ : وَمِنْ أَيْنَ شِئْتُ؟، قَالَ : نَعَمْ، قَالَ : وَكَيْفَ شِئْتُ؟، قَالَ : نَعَمْ، فَقَالَ لَهُ رَجُلٌ : يَا أَبَا عَبْدِ الرَّحْمَنِ، إِنَّ هَذَا يُرِيدُ السُّوءَ، قَالَ :\" لَا، مَحَاشُّ النِّسَاءِ عَلَيْكُمْ حَرَامٌ \"، سُئِلَ عَبْد اللَّهِ تَقُولُ بِهِ؟، قَالَ : نَعَمْ",
      "english": {
        "narrator": "",
        "text": ""
      }
    },
    {
      "id": 470,
      "chapterId": 1,
      "bookId": 9,
      "arabic": "أَخْبَرَنَا أَبُو النُّعْمَانِ  ، حَدَّثَنَا وُهَيْبٌ  ، عَنْ دَاوُدَ  ، عَنْ عِكْرِمَةَ  ، عَنْ ابْنِ عَبَّاسٍ  ، أَنَّهُ كَانَ\" يَكْرَهُ إِتْيَانَ الرَّجُلِ امْرَأَتَهُ فِي دُبُرِهَا، وَيَعِيبُهُ عَيْبًا شَدِيدًا \"",
      "english": {
        "narrator": "",
        "text": ""
      }
    },
    {
      "id": 471,
      "chapterId": 1,
      "bookId": 9,
      "arabic": "حَدَّثَنَا الْمُعَلَّى بْنُ أَسَدٍ ، حَدَّثَنَا إِسْمَاعِيل ابْنُ عُلَيَّةَ ، حَدَّثَنَا ابْنُ أَبِي نَجِيحٍ ، عَنْ عَمْرِو بْنِ دِينَارٍ  : # إِنَّكُمْ لَتَأْتُونَ الْفَاحِشَةَ مَا سَبَقَكُمْ بِهَا مِنْ أَحَدٍ مِنَ الْعَالَمِينَ سورة العنكبوت آية 28 #، قَالَ :\" مَا نَزَا ذَكَرٌ عَلَى ذَكَرٍ حَتَّى كَانَ قَوْمُ لُوطٍ \"",
      "english": {
        "narrator": "",
        "text": ""
      }
    },
    {
      "id": 472,
      "chapterId": 1,
      "bookId": 9,
      "arabic": "أَخْبَرَنَا عُبَيْدُ اللَّهِ بْنُ مُوسَى  ، عَنْ سُفْيَانَ  ، عَنْ سُهَيْلِ بْنِ أَبِي صَالِحٍ  ، عَنْ الْحَارِثِ بْنِ مُخَلَّدٍ  ، عَنْ أَبِي هُرَيْرَةَ  ، عَنْ النَّبِيِّ صَلَّى اللَّهُ عَلَيْهِ وَسَلَّمَ قَالَ :\" مَنْ أَتَى امْرَأَتَهُ فِي دُبُرِهَا لَمْ يَنْظُرْ اللَّهُ تَعَالَى إِلَيْهِ يَوْمَ الْقِيَامَةِ \"",
      "english": {
        "narrator": "",
        "text": ""
      }
    },
    {
      "id": 473,
      "chapterId": 1,
      "bookId": 9,
      "arabic": "أَخْبَرَنَا عَبْدُ اللَّهِ بْنُ يَحْيَى  ، حَدَّثَنَا عَبْدُ الْوَاحِدِ بْنُ زِيَادٍ  ، عَنْ عَاصِمٍ الْأَحْوَلِ  ، عَنْ عِيسَى بْنِ حِطَّانَ  ، عَنْ مُسْلِمِ بْنِ سَلَّامٍ الْحَنَفِيِّ  ، عَنْ عَلِيِّ بْنِ طَلْقٍ  ، قَالَ : قَالَ رَسُولُ اللَّهِ صَلَّى اللَّهُ عَلَيْهِ وَسَلَّمَ :\" إِذَا أَحْدَثَ أَحَدُكُمْ فِي الصَّلَاةِ، فَلْيَنْصَرِفْ، وَلْيَتَوَضَّأْ، ثُمَّ يُصَلِّي \"، وَقَالَ رَسُولُ اللَّهِ صَلَّى اللَّهُ عَلَيْهِ وَسَلَّمَ : \" لَا تَأْتُوا النِّسَاءَ فِي أَدْبَارِهِنَّ، فَإِنَّ اللَّهَ لَا يَسْتَحْيِي مِنْ الْحَقِّ \"، سُئِلَ عَبْد اللَّهِ : عَلِيُّ بْنُ طَلْقٍ لَهُ صُحْبَةٌ؟، قَالَ : نَعَمْ",
      "english": {
        "narrator": "",
        "text": ""
      }
    },
    {
      "id": 474,
      "chapterId": 1,
      "bookId": 9,
      "arabic": "أَخْبَرَنَا عَبْدُ اللَّهِ بْنُ صَالِحٍ  ، حَدَّثَنِي اللَّيْثُ  ، حَدَّثَنِي الْحَارِثُ بْنُ يَعْقُوبَ  ، عَنْ سَعِيدِ بْنِ يَسَارٍ أَبِي الْحُبَابِ  ، قَالَ : قُلْت لِابْنِ عُمَرَ   رَضِيَ اللهُ عَنْهُ :\" مَا تَقُولُ فِي الْجَوَارِي حِينَ أُحَمِّضُ لَهُنَّ؟، قَالَ : وَمَا التَّحْمِيضُ؟ فَذَكَرْتُ الدُّبُرَ، فَقَالَ : هَلْ يَفْعَلُ ذَاكَ أَحَدٌ مِنْ الْمُسْلِمِينَ؟ \"",
      "english": {
        "narrator": "",
        "text": ""
      }
    },
    {
      "id": 475,
      "chapterId": 1,
      "bookId": 9,
      "arabic": "أَخْبَرَنَا مُحَمَّدُ بْنُ عَبْدِ اللَّهِ الرَّقَاشِيُّ  ، حَدَّثَنَا يَزِيدُ بْنُ زُرَيْعٍ  ، حَدَّثَنَا مُحَمَّدُ بْنُ إِسْحَاق  ، حَدَّثَنِي عُبَيْدُ اللَّهِ بْنُ عَبْدِ اللَّهِ بْنِ حُصَيْنٍ الْأَنْصَارِيِّ  ، حَدَّثَنِي عَبْدُ الْمَلِكِ بْنُ عَمْرِو بْنِ قَيْسٍ  رَجُلٌ مِنْ قَوْمِي وَكَانَ مِنْ أَسْنَانِي، حَدَّثَنِي هَرَمِيُّ بْنُ عَبْدِ اللَّهِ  ، قَالَ : تَذَاكَرْنَا شَأْنَ النِّسَاءِ فِي مَجْلِسِ بَنِي وَاقِفٍ وَمَا يُؤْتَى مِنْهُنَّ، فَقَالَ خُزَيْمَةُ بْنُ ثَابِتٍ   رَضِيَ اللهُ عَنْهُ، سَمِعْتُ رَسُولَ اللَّهِ صَلَّى اللَّهُ عَلَيْهِ وَسَلَّمَ يَقُولُ : \" أَيُّهَا النَّاسُ،إِنَّ اللَّهَ لَا يَسْتَحْيِي مِنْ الْحَقِّ لَا تَأْتُوا النِّسَاءَ فِي أَعْجَازِهِنَّ \"",
      "english": {
        "narrator": "",
        "text": ""
      }
    },
    {
      "id": 476,
      "chapterId": 1,
      "bookId": 9,
      "arabic": "أَخْبَرَنَا الْمُعَلَّى بْنُ أَسَدٍ  ، حَدَّثَنَا عَبْدُ الْوَاحِدِ  ، حَدَّثَنَا خُصَيْفٌ  ، عَنْ مُجَاهِدٍ  ، قَالَ : \" كَانُوا يَجْتَنِبُونَ النِّسَاءَ فِي الْمَحِيضِ، وَيَأْتُونَهُنَّ فِي أَدْبَارِهِنَّ، فَسَأَلُوا رَسُولَ اللَّهِ صَلَّى اللَّهُ عَلَيْهِ وَسَلَّمَ عَنْ ذَلِكَ، فَأَنْزَلَ اللَّهُ تَعَالَى :\" # وَيَسْأَلُونَكَ عَنِ الْمَحِيضِ قُلْ هُوَ أَذًى فَاعْتَزِلُوا النِّسَاءَ فِي الْمَحِيضِ وَلا تَقْرَبُوهُنَّ حَتَّى يَطْهُرْنَ فَإِذَا تَطَهَّرْنَ فَأْتُوهُنَّ مِنْ حَيْثُ أَمَرَكُمُ اللَّهُ سورة البقرة آية 222 #، فِي الْفَرْجِ وَلَا تَعْدُوهُ \"",
      "english": {
        "narrator": "",
        "text": ""
      }
    },
    {
      "id": 477,
      "chapterId": 1,
      "bookId": 9,
      "arabic": "أَخْبَرَنَا مُحَمَّدُ بْنُ يَزِيدَ ، حَدَّثَنَا يُونُسُ بْنُ بُكَيْرٍ ، حَدَّثَنِي ابْنُ إِسْحَاق ، حَدَّثَنِي أَبَانُ بْنُ صَالِحٍ ، عَنْ طَاوُسٍ ، وَسَعِيدٍ ، وَمُجَاهِدٍ ، وَعَطَاءٍ ، أَنَّهُمْ كَانُوا\" يُنْكِرُونَ إِتْيَانَ النِّسَاءِ فِي أَدْبَارِهِنَّ، وَيَقُولُونَ : هُوَ الْكُفْرُ \"",
      "english": {
        "narrator": "",
        "text": ""
      }
    },
    {
      "id": 478,
      "chapterId": 1,
      "bookId": 9,
      "arabic": "أَخْبَرَنَا مُحَمَّدُ بْنُ يُوسُفَ ، حَدَّثَنَا الْأَوْزَاعِيُّ ، عَنْ عَطَاءٍ ، وَالزُّهْرِيِّ ، قَالَا :\" الْغُسْلُ مِنْ الْجَنَابَةِ، وَالْحَيْضِ وَاحِدٌ \"",
      "english": {
        "narrator": "",
        "text": ""
      }
    },
    {
      "id": 479,
      "chapterId": 1,
      "bookId": 9,
      "arabic": "أَخْبَرَنَا مُحَمَّدُ بْنُ يُوسُفَ  ، حَدَّثَنَا شَرِيكٌ  ، عَنْ الْأَعْمَشِ  ، عَنْ إِبْرَاهِيمَ  ، عَنْ حُذَيْفَةَ   رَضِيَ اللهُ عَنْهُ، قَالَ :\" لِامْرَأَتِهِ خَلِّلِي شَعْرَكِ بِالْمَاءِ قَبْلَ أَنْ تَخَلَّلَهُ نَارٌ قَلِيلَةُ الْبُقْيَا عَلَيْهِ \"",
      "english": {
        "narrator": "",
        "text": ""
      }
    },
    {
      "id": 480,
      "chapterId": 1,
      "bookId": 9,
      "arabic": "أَخْبَرَنَا أَبُو الْوَلِيدِ  ، حَدَّثَنَا زَائِدَةُ  ، عَنْ صَدَقَةَ بْنِ سَعِيدٍ الْحَنَفِيِّ  ، حَدَّثَنِي جُمَيْعُ بْنُ عُمَيْرٍ  أَحَدُ بَنِي تَيْمِ اللَّهِ بْنِ ثَعْلَبَةَ، قَالَ : دَخَلْتُ مَعَ أُمِّي وَخَالَتِي عَلَى عَائِشَةَ   رَضِيَ اللهُ عَنْهَا، فَسَأَلَتْهَا إِحْدَاهُمَا : كَيْفَ تَصْنَعِينَ عِنْدَ الْغُسْلِ؟، فَقَالَتْ : كَانَ رَسُولُ اللَّهِ صَلَّى اللَّهُ عَلَيْهِ وَسَلَّمَ\" يَتَطَهَّرُ طُهُورَهُ لِلصَّلَاةِ، وَيُفِيضُ عَلَى رَأْسِهِ ثَلَاثَ مَرَّاتٍ، وَنَحْنُ نُفِيضُ عَلَى رُءُوسِنَا خَمْسًا مِنْ أَجْلِ الضَّفْرِ \"",
      "english": {
        "narrator": "",
        "text": ""
      }
    },
    {
      "id": 481,
      "chapterId": 1,
      "bookId": 9,
      "arabic": "أَخْبَرَنَا سَعِيدُ بْنُ عَامِرٍ  ، عَنْ يَزِيدَ بْنِ زَاذِي  ، عَنْ أَبِي زُرْعَةَ  ، عَنْ أَبِي هُرَيْرَةَ  رَضِيَ اللهُ عَنْهُ، أَنَّهُ سَأَلَ عَائِشَةَ   عَنْ الْمَرْأَةِ تَغْتَسِلُ، تَنْقُضُ شَعْرَهَا؟، فَقَالَتْ :\" بَخٍ، وَإِنْ أَنْفَقَتْ فِيهِ أُوقِيَّةً؟ إِنَّمَا يَكْفِيهَا أَنْ تُفْرِغَ عَلَى رَأْسِهَا ثَلَاثًا \"",
      "english": {
        "narrator": "",
        "text": ""
      }
    },
    {
      "id": 482,
      "chapterId": 1,
      "bookId": 9,
      "arabic": "حَدَّثَنَا عَبْدُ اللَّهِ بْنُ سَعِيدٍ  ، حَدَّثَنَا أَبُو خَالِدٍ  ، عَنْ حَجَّاجٍ  ، عَنْ فُضَيْلِ بْنِ عَمْرٍو  ، عَنْ إِبْرَاهِيمَ  ، عَنْ عَلْقَمَةَ  ، عَنْ عَبْدِ اللَّهِ   رَضِيَ اللهُ عَنْهُ، قَالَ :\" تُخَلِّلُهُ بِأَصَابِعِهَا \"",
      "english": {
        "narrator": "",
        "text": ""
      }
    },
    {
      "id": 483,
      "chapterId": 1,
      "bookId": 9,
      "arabic": "أَخْبَرَنَا عَبْدُ اللَّهِ بْنُ سَعِيدٍ  ، حَدَّثَنَا أَبُو خَالِدٍ  ، عَنْ حَجَّاجٍ  ، عَنْ أَبِي الزُّبَيْرِ  ، عَنْ جَابِرٍ   رَضِيَ اللهُ عَنْهُ، فِي الْحَائِضِ وَالْجُنُبِ\" يَصُبَّانِ الْمَاءَ صَبًّا \"، وَلَا يَنْقُضَانِ شُعُورَهُمَا \"، حَدَّثَنَا عَبْدُ اللَّهِ بْنُ سَعِيدٍ  ، حَدَّثَنَا أَبُو خَالِدٍ  ، عَنْ حَجَّاجٍ  ، عَنْ عَطَاءٍ  ، مِثْلَهُ",
      "english": {
        "narrator": "",
        "text": ""
      }
    },
    {
      "id": 484,
      "chapterId": 1,
      "bookId": 9,
      "arabic": "حَدَّثَنَا سَعِيدُ بْنُ عَامِرٍ ، عَنْ شُعْبَةَ ، عَنْ مَنْصُورٍ ، قَالَ : قَالَ إِبْرَاهِيمُ  :\" إِذَا بَلَّتْ أُصُولَهُ وَأَطْرَافَهُ، لَمْ تَنْقُضْهُ \"",
      "english": {
        "narrator": "",
        "text": ""
      }
    },
    {
      "id": 485,
      "chapterId": 1,
      "bookId": 9,
      "arabic": "حَدَّثَنَا حَجَّاجُ بْنُ مِنْهَالٍ ، حَدَّثَنَا حَمَّادٌ ، عَنْ عُبَيْدِ اللَّهِ بْنِ عُمَرَ ، عَنْ نَافِعٍ ، أَنَّنِسَاءَ ابْنِ عُمَرَ، وَأُمَّهَاتِ أَوْلَادِهِ كُنَّ إِذَا اغْتَسَلْنَ لَمْ يَنْقُضْنَ عِقَصَهُنَّ مِنْ حَيْضٍ، وَلَا جَنَابَةٍ \"",
      "english": {
        "narrator": "",
        "text": ""
      }
    },
    {
      "id": 486,
      "chapterId": 1,
      "bookId": 9,
      "arabic": "حَدَّثَنَا حَجَّاجٌ  ، حَدَّثَنَا حَمَّادٌ  ، عَنْ عَلِيِّ بْنِ زَيْدٍ  ، عَنْ أُمِّ مُحَمَّدٍ  ، عَنْ أُمِّ سَلَمَةَ  ، أَنَّهَا قَالَتْ :\" لَا يَنْقُضْنَ عِقَصَهُنَّ مِنْ حَيْضٍ، وَلَا مِنْ جَنَابَةٍ \"",
      "english": {
        "narrator": "",
        "text": ""
      }
    },
    {
      "id": 487,
      "chapterId": 1,
      "bookId": 9,
      "arabic": "حَدَّثَنَا حَجَّاجٌ  ، حَدَّثَنَا عُبَيْدُ اللَّهِ  ، عَنْ أُسَامَةَ بْنِ زَيْدٍ  ، عَنْ سَعِيدِ بْنِ أَبِي سَعِيدٍ الْمَقْبُرِيِّ  ، عَنْ أُمِّ سَلَمَةَ   زَوْجِ النَّبِيِّ صَلَّى اللَّهُ عَلَيْهِ وَسَلَّمَ، قَالَتْ : جَاءَتْ امْرَأَةٌ إِلَى النَّبِيِّ صَلَّى اللَّهُ عَلَيْهِ وَسَلَّمَ فَقَالَتْ : إِنِّي أَشُدُّ ضَفْرَ رَأْسِي أَوْ عُقَدَهُ، قَالَ :\" احْفِنِي عَلَى رَأْسِكِ ثَلَاثَ حَفَنَاتٍ، ثُمَّ اغْمِزِي عَلَى إِثْرِ كُلِّ حَفْنَةٍ غَمْزَةً \"",
      "english": {
        "narrator": "",
        "text": ""
      }
    },
    {
      "id": 488,
      "chapterId": 1,
      "bookId": 9,
      "arabic": "أَخْبَرَنَا أَبُو الْوَلِيدِ  ، حَدَّثَنَا زَائِدَةُ  ، عَنْ مَنْصُورٍ  ، عَنْ إِبْرَاهِيمَ  ، عَنْ هَمَّامِ بْنِ الْحَارِثِ  ، عَنْ حُذَيْفَةَ  ، أَنَّهُ قَالَ لِامْرَأَتِهِ :\" اسْتَأْصِلِي الشَّعْرَ لَا تَخَلَّلُهُ نَارٌ قَلِيلٌ بُقْيَاهَا عَلَيْهِ \"، قَالَ مَنْصُورٌ : يَعْنِي : الْجَنَابَةَ",
      "english": {
        "narrator": "",
        "text": ""
      }
    },
    {
      "id": 489,
      "chapterId": 1,
      "bookId": 9,
      "arabic": "أَخْبَرَنَا يَزِيدُ بْنُ هَارُونَ  ، عَنْ جَعْفَرِ بْنِ الْحَارِثِ  ، عَنْ مَنْصُورٍ  ، عَنْ إِبْرَاهِيمَ  ، عَنْ هَمَّامِ بْنِ الْحَارِثِ  ، عَنْ حُذَيْفَةَ  ، أَنَّهُ قَالَ لِامْرَأَتِهِ :\" اسْتَأْصِلِي الشَّعْرَ بِالْمَاءِ لَا تَخَلَّلُهُ نَارٌ قَلِيلٌ بُقْيَاهَا عَلَيْهِ \"",
      "english": {
        "narrator": "",
        "text": ""
      }
    },
    {
      "id": 490,
      "chapterId": 1,
      "bookId": 9,
      "arabic": "أَخْبَرَنَا عَمْرُو بْنُ عَوْنٍ  ، عَنْ خَالِدِ بْنِ عَبْدِ اللَّهِ  ، عَنْ ابْنِ أَبِي لَيْلَى  ، عَنْ أَبِي الزُّبَيْرِ  ، عَنْ جَابِرٍ   رَضِيَ اللهُ عَنْهُ، قَالَ :\" إِذَا اغْتَسَلَتْ الْمَرْأَةُ مِنْ الْجَنَابَةِ، فَلَا تَنْقُضْ شَعْرَهَا وَلَكِنْ تَصُبُّ الْمَاءَ عَلَى أُصُولِهِ وَتَبُلُّهُ \"",
      "english": {
        "narrator": "",
        "text": ""
      }
    },
    {
      "id": 491,
      "chapterId": 1,
      "bookId": 9,
      "arabic": "أَخْبَرَنَا يَعْلَى ، حَدَّثَنَا عَبْدُ الْمَلِكِ ، عَنْ عَطَاءٍ  فِي الْمَرْأَةِ تُصِيبُهَا الْجَنَابَةُ، وَرَأْسُهَا مَعْقُوصٌ تَحُلُّهُ؟، قَالَ :\" لَا، وَلَكِنْ تَصُبُّ عَلَى رَأْسِهَا الْمَاءَ صَبًّا حَتَّى تُرَوِّيَ أُصُولَ الشَّعْرِ \"",
      "english": {
        "narrator": "",
        "text": ""
      }
    },
    {
      "id": 492,
      "chapterId": 1,
      "bookId": 9,
      "arabic": "أَخْبَرَنَا مُحَمَّدُ بْنُ الْمِنْهَالِ  ، حَدَّثَتْنِي حَبِيبَةُ بِنْتُ حَمَّادٍ L2277 ، حَدَّثَتْنِي عَمْرَةُ بِنْتُ حَيَّانَ السَّهْمِيَّةُ L6057 ، قَالَتْ : قَالَتْ لِي عَائِشَةُ   أُمُّ الْمُؤْمِنِينَ رَضِيَ اللهُ عَنْهَا :\" أَمَا تَسْتَطِيعُ إِحْدَاكُنَّ إِذَا تطَهُرَتْ مِنْ حَيْضِهَا أَنْ تَتَدَخِّنَ شَيْئًا مِنْ قُسْطٍ، فَإِنْ لَمْ تَجِدْ فَشَيْئًا مِنْ آسٍ، فَإِنْ لَمْ تَجِدْ فَشَيْئًا مِنْ نَوًى، فَإِنْ لَمْ تَجِدْ فَشَيْئًا مِنْ مِلْحٍ \"",
      "english": {
        "narrator": "",
        "text": ""
      }
    },
    {
      "id": 493,
      "chapterId": 1,
      "bookId": 9,
      "arabic": "أَخْبَرَنَا أَبُو النُّعْمَانِ  ، حَدَّثَنَا ثَابِتُ بْنُ يَزِيدَ  ، حَدَّثَنَا عَاصِمٌ  ، عَنْ مُعَاذَةَ الْعَدَوِيَّةِ  ، عَنْ عَائِشَةَ   رَضِيَ اللهُ عَنْهَا، قَالَتْ :\" إِذَا اغْتَسَلَتْ الْمَرْأَةُ مِنْ الْحَيْضِ، فَلْتُمِسَّ أَثَرَ الدَّمِ بِطِيبٍ \"",
      "english": {
        "narrator": "",
        "text": ""
      }
    },
    {
      "id": 494,
      "chapterId": 1,
      "bookId": 9,
      "arabic": "أَخْبَرَنَا مُحَمَّدُ بْنُ عُيَيْنَةَ  ، عَنْ عَلِيِّ بْنِ مُسْهِرٍ  ، عَنْ عُبَيْدِ اللَّهِ  ، عَنْ نَافِعٍ  ، عَنْ ابْنِ عُمَرَ   رَضِيَ اللهُ عَنْهُ، أَنَّ\" نِسَاءَهُ وَأُمَّهَاتِ أَوْلَادِهِ كُنَّ يَغْتَسِلْنَ مِنْ الْحِيضَةِ وَالْجَنَابَةِ، وَلَا يَنْقُضْنَ شُعُورَهُنَّ، وَلَكِنْ يُبَالِغْنَ فِي بَلِّهَا \"",
      "english": {
        "narrator": "",
        "text": ""
      }
    },
    {
      "id": 495,
      "chapterId": 1,
      "bookId": 9,
      "arabic": "أَخْبَرَنَا الْمُعَلَّى بْنُ أَسَدٍ حَدَّثَنَا أَبُو عَوَانَةَ ، عَنْ مُغِيرَةَ ، عَنْ إِبْرَاهِيمَ ، قَالَ :\" لَا بَأْسَ أَنْ تَتَنَاوَلَ الْحَائِضُ مِنْ الْمَسْجِدِ الشَّيْءَ \"",
      "english": {
        "narrator": "",
        "text": ""
      }
    },
    {
      "id": 496,
      "chapterId": 1,
      "bookId": 9,
      "arabic": "أَخْبَرَنَا يَزِيدُ بْنُ هَارُونَ ، عَنْ جَعْفَرِ بْنِ الْحَارِثِ ، عَنْ مَنْصُورٍ ، عَنْ إِبْرَاهِيمَ ، قَالَ :\" تَتَنَاوَلُ الْحَائِضُ الشَّيْءَ مِنْ الْمَسْجِدِ، وَلَا تَدْخُلُهُ \"",
      "english": {
        "narrator": "",
        "text": ""
      }
    },
    {
      "id": 497,
      "chapterId": 1,
      "bookId": 9,
      "arabic": "أَخْبَرَنَا مُسْلِمٌ ، حَدَّثَنَا هِشَامٌ ، عَنْ قَتَادَةَ ، قَالَ :\" الْجُنُبُ يَأْخُذُ مِنْ الْمَسْجِدِ وَلَا يَضَعُ فِيهِ \"",
      "english": {
        "narrator": "",
        "text": ""
      }
    },
    {
      "id": 498,
      "chapterId": 1,
      "bookId": 9,
      "arabic": "أَخْبَرَنَا يَعْلَى ، حَدَّثَنَا عَبْدُ الْمَلِكِ ، عَنْ عَطَاءٍ ، فِي الْحَائِضِ\" تَنَاوَلُ مِنْ الْمَسْجِدِ الشَّيْءَ، قَالَ : نَعَمْ، إِلَّا الْمُصْحَفَ \"",
      "english": {
        "narrator": "",
        "text": ""
      }
    },
    {
      "id": 499,
      "chapterId": 1,
      "bookId": 9,
      "arabic": "أَخْبَرَنَا مُسْلِمُ بْنُ إِبْرَاهِيمَ  ، حَدَّثَنَا هِشَامٌ  ، حَدَّثَنَا قَتَادَةُ  ، عَنْ أَبِي مِجْلَزٍ  ، عَنْ ابْنِ عَبَّاسٍ   رَضِيَ اللهُ عَنْهُ فِي قَوْلِهِ :\" # وَلا جُنُبًا إِلا عَابِرِي سَبِيلٍ سورة النساء آية 43 #، قَالَ : هُوَ الْمُسَافِرُ \"",
      "english": {
        "narrator": "",
        "text": ""
      }
    },
    {
      "id": 500,
      "chapterId": 1,
      "bookId": 9,
      "arabic": "أَخْبَرَنَا مُسْلِمٌ  ، حَدَّثَنَا الْحَسَنُ بْنُ أَبِي جَعْفَرٍ  ، حَدَّثَنَا سَلْمٌ الْعَلَوِيُّ  ، عَنْ أَنَسٍ   رَضِيَ اللهُ عَنْهُ : # وَلا جُنُبًا إِلا عَابِرِي سَبِيلٍ سورة النساء آية 43 #، قَالَ :\" الْجُنُبُ يَجْتَازُ بِالْمَسْجِدِ وَلَا يَجْلِسُ فِيهِ \"",
      "english": {
        "narrator": "",
        "text": ""
      }
    }
  ]
}