{
  "page": 15,
  "perPage": 50,
  "totalPages": 69,
  "totalCount": 3406,
  "nextPage": 16,
  "prevPage": 14,
  "items": [
    {
      "id": 191,
      "chapterId": 2,
      "bookId": 9,
      "arabic": "أَخْبَرَنَا عَبْدُ اللَّهِ بْنُ صَالِحٍ  ، حَدَّثَنِي بَكْرٌ هُوَ ابْنُ مُضَرَ  ، عَنْ عَمْرٍو يَعْنِي ابْنَ الْحَارِثِ  ، عَنْ بُكَيْرٍ  ، أَنَّ كُرَيْبًا  مَوْلَى ابْنِ عَبَّاسٍ حَدَّثَهُ، أَنَّ ابْنَ عَبَّاسٍ رَضِيَ اللهِ عَنْهُ رَأَى عَبْدَ اللَّهِ بْنَ الْحَارِثِ يُصَلِّي وَرَأْسُهُ مَعْقُوصٌ مِنْ وَرَائِهِ فَقَامَ وَرَاءَهُ، فَجَعَلَ يَحُلُّهُ، وَأَقَرَّ لَهُ الْآخَرُ، ثُمَّ انْصَرَفَ إِلَى ابْنِ عَبَّاسٍ  ، فَقَالَ : مَا لَكَ وَرَأْسِي؟ قَالَ : إِنِّي سَمِعْتُ رَسُولَ اللَّهِ صَلَّى اللَّهُ عَلَيْهِ وَسَلَّمَ، يَقُولُ : \" إِنَّمَامَثَلُ هَذَا كَمَثَلِ الَّذِي يُصَلِّي وَهُوَ مَكْتُوفٌ \"",
      "english": {
        "narrator": "",
        "text": ""
      }
    },
    {
      "id": 192,
      "chapterId": 2,
      "bookId": 9,
      "arabic": "أَخْبَرَنَا نُعَيْمُ بْنُ حَمَّادٍ  ، حَدَّثَنَا عَبْدُ الْعَزِيزِ هُوَ ابْنُ مُحَمَّدٍ  ، عَنْ سُهَيْلٍ  ، عَنْ عَبْدِ الرَّحْمَنِ بْنِ أَبِي سَعِيدٍ  ، عَنْ أَبِيهِ  ، عَنْ النَّبِيِّ صَلَّى اللَّهُ عَلَيْهِ وَسَلَّمَ، قَالَ :\" إِذَا تَثَاءَبَ أَحَدُكُمْ، فَلْيَشُدَّ يَدَهُ، فَإِنَّ الشَّيْطَانَ يَدْخُلُ \".\nقَالَ أَبُو مُحَمَّد : يَعْنِي عَلَى فِيهِ",
      "english": {
        "narrator": "",
        "text": ""
      }
    },
    {
      "id": 193,
      "chapterId": 2,
      "bookId": 9,
      "arabic": "أَخْبَرَنَا حَجَّاجُ بْنُ مِنْهَالٍ  ، حَدَّثَنَا حَمَّادُ بْنُ سَلَمَةَ  ، عَنْ هِشَامِ بْنِ عُرْوَةَ  ، عَنْ أَبِيهِ  ، عَنْ عَائِشَةَ  ، عَنْ النَّبِيِّ صَلَّى اللَّهُ عَلَيْهِ وَسَلَّمَ، قَالَ :\" إِذَا وَجَدَ أَحَدُكُمْ النَّوْمَ وَهُوَ يُصَلِّي فَلْيَنَمْ، حَتَّى يَذْهَبَ نَوْمُهُ، فَإِنَّهُ عَسَى يُرِيدُ أَنْ يَسْتَغْفِرَ، فَيَسُبَّ نَفْسَهُ \"",
      "english": {
        "narrator": "",
        "text": ""
      }
    },
    {
      "id": 194,
      "chapterId": 2,
      "bookId": 9,
      "arabic": "أَخْبَرَنَا يَزِيدُ بْنُ هَارُونَ  ، حَدَّثَنَا جَعْفَرٌ هُوَ ابْنُ الْحَارِثِ  ، عَنْ مَنْصُورٍ  ، عَنْ هِلَالٍ  ، عَنْ أَبِي يَحْيَى  ، عَنْ عَبْدِ اللَّهِ بْنِ عَمْرٍو  ، قَالَ : بَلَغَنِي أَنَّ النَّبِيَّ صَلَّى اللَّهُ عَلَيْهِ وَسَلَّمَ قَالَ :\" صَلَاةُ الرَّجُلِ جَالِسًا نِصْفُ الصَّلَاةِ \"",
      "english": {
        "narrator": "",
        "text": ""
      }
    },
    {
      "id": 195,
      "chapterId": 2,
      "bookId": 9,
      "arabic": "قَالَ : فَدَخَلْتُ عَلَى النَّبِيِّ صَلَّى اللَّهُ عَلَيْهِ وَسَلَّمَ وَهُوَ يُصَلِّي جَالِسًا، فَقُلْتُ : يَا رَسُولَ اللَّهِ، إِنَّهُ بَلَغَنِي أَنَّكَ قُلْتَ : \" صَلَاةُ الرَّجُلِ جَالِسًا نِصْفُ الصَّلَاةِ \"، وَأَنْتَ تُصَلِّي جَالِسًا؟ قَالَ : \" أَجَلْ، وَلَكِنِّيلَسْتُ كَأَحَدٍ مِنْكُمْ \"",
      "english": {
        "narrator": "",
        "text": ""
      }
    },
    {
      "id": 196,
      "chapterId": 2,
      "bookId": 9,
      "arabic": "أَخْبَرَنَا عَبْدُ اللَّهِ بْنُ صَالِحٍ  ، حَدَّثَنِي اللَّيْثُ  ، حَدَّثَنِي يُونُسُ  ، عَنْ ابْنِ شِهَابٍ  ، حَدَّثَنِي السَّائِبُ بْنُ يَزِيدَ  ، عَنْ الْمُطَّلِبِ بْنِ أَبِي وَدَاعَةَ  ، أَنَّ حَفْصَةَ   زَوْجَ النَّبِيِّ صَلَّى اللَّهُ عَلَيْهِ وَسَلَّمَ، قَالَتْ :\" لَمْ أَرَ رَسُولَ اللَّهِ صَلَّى اللَّهُ عَلَيْهِ وَسَلَّمَ يُصَلِّي فِي سُبْحَتِهِ وَهُوَ جَالِسٌ، حَتَّى كَانَ قَبْلَ أَنْ يُتَوَفَّى بِعَامٍ وَاحِدٍ أَوْ عَامَيْنِ، فَرَأَيْتُهُ يُصَلِّي فِي سُبْحَتِهِ وَهُوَ جَالِسٌ، فَيُرَتِّلُ السُّورَةَ حَتَّى تَكُونَ أَطْوَلَ مِنْ أَطْوَلَ مِنْهَا \".\nأَخْبَرَنَا عُثْمَانُ بْنُ عُمَرَ  ، أَنْبأَنَا مَالِكٌ  ، عَنْ الزُّهْرِيِّ  ، عَنْ السَّائِبِ بْنِ يَزِيدَ  ، عَنْ الْمُطَّلِبِ بْنِ أَبِي وَدَاعَةَ  ، عَنْ حَفْصَةَ  ، عَنْ النَّبِيِّ صَلَّى اللَّهُ عَلَيْهِ وَسَلَّمَ بِهَذَا الْحَدِيثِ",
      "english": {
        "narrator": "",
        "text": ""
      }
    },
    {
      "id": 197,
      "chapterId": 2,
      "bookId": 9,
      "arabic": "حَدَّثَنَا وَهْبُ بْنُ جَرِيرٍ  ، حَدَّثَنَا هِشَامٌ  ، عَنْ يَحْيَى بْنِ أَبِي كَثِيرٍ  ، عَنْ أَبِي سَلَمَةَ  ، حَدَّثَنِي مُعَيْقِيبٌ  ، أَنّ رَسُولَ اللَّهِ صَلَّى اللَّهُ عَلَيْهِ وَسَلَّمَ،قِيلَ لَهُ فِي الْمَسْحِ فِي الْمَسْجِدِ قَالَ : \" إِنْ كُنْتَ لَا بُدَّ فَاعِلًا، فَوَاحِدَةً \".\nقَالَ هِشَامٌ : أُرَاهُ قَالَ : يَعْنِي : مَسْحِ الْحَصَا",
      "english": {
        "narrator": "",
        "text": ""
      }
    },
    {
      "id": 198,
      "chapterId": 2,
      "bookId": 9,
      "arabic": "أَخْبَرَنَا مُحَمَّدُ بْنُ يُوسُفَ  ، حَدَّثَنَا ابْنُ عُيَيْنَةَ  ، عَنْ الزُّهْرِيِّ  ، عَنْ أَبِي الْأَحْوَصِ  ، عَنْ أَبِي ذَرٍّ  ، قَالَ : قَالَ رَسُولُ اللَّهِ صَلَّى اللَّهُ عَلَيْهِ وَسَلَّمَ :\" إِذَا قَامَ أَحَدُكُمْ إِلَى الصَّلَاةِ، فَإِنَّ الرَّحْمَةَ تُوَاجِهُهُ، فَلَا يَمسْحِ الْحَصَا \"",
      "english": {
        "narrator": "",
        "text": ""
      }
    },
    {
      "id": 199,
      "chapterId": 2,
      "bookId": 9,
      "arabic": "أَخْبَرَنَا يَحْيَى بْنُ حَسَّانَ  ، حَدَّثَنَا هُشَيْمٌ  ، حَدَّثَنَا سَيَّارٌ  ، قَالَ : سَمِعْتُ يَزِيدَ الْفَقِيرَ  يَقُولُ : سَمِعْتُ جَابِرَ بْنَ عَبْدِ اللَّهِ  ، يَقُولُ : قَالَ رَسُولُ اللَّهِ صَلَّى اللَّهُ عَلَيْهِ وَسَلَّمَ :\" أُعْطِيتُ خَمْسًا لَمْ يُعْطَهُنَّ نَبِيٌّ قَبْلِي : كَانَ النَّبِيُّ يُبْعَثُ إِلَى قَوْمِهِ خَاصَّةً، وَبُعِثْتُ إِلَى النَّاسِ كَافَّةً، وَأُحِلَّتْ لِيَ الْمَغَانِمُ، وَحُرِّمَتْ عَلَى مَنْ كَانَ قَبْلِي، وَجُعِلَتْ لِيَ الْأَرْضُ طَيِّبَةً مَسْجِدًا وَطَهُورًا، وَيَرْعَبُ مِنَّا عَدُوُّنَا مَسِيرَةَ شَهْرٍ، وَأُعْطِيتُ الشَّفَاعَةَ \"",
      "english": {
        "narrator": "",
        "text": ""
      }
    },
    {
      "id": 200,
      "chapterId": 2,
      "bookId": 9,
      "arabic": "أَخْبَرَنَا سَعِيدُ بْنُ مَنْصُورٍ  ، حَدَّثَنَا عَبْدُ الْعَزِيزِ بْنُ مُحَمَّدٍ  ، أَنْبأَنَا سَأَلْتُهُ عَنْهُ، قَالَ : أَخْبَرَنِي عَمْرُو بْنُ يَحْيَى  ، عَنْ أَبِيهِ  ، عَنْ أَبِي سَعِيدٍ الْخُدْرِيِّ  ، قَالَ : قَالَ رَسُولُ اللَّهِ صَلَّى اللَّهُ عَلَيْهِ وَسَلَّمَ :\" الْأَرْضُ كُلُّهَا مَسْجِدٌ إِلَّا الْمَقْبَرَةَ وَالْحَمَّامَ \".\nقِيلَ لِأَبِي مُحَمَّدٍ : تُجْزِئُ الصَّلَاةُ فِي الْمَقْبَرَةِ؟ قَالَ : إِذَا لَمْ تَكُنْ عَلَى الْقَبْرِ فَنَعَمْ، وَقَالَ : الْحَدِيثُ أَكْثَرُهُمْ أَرْسَلُوهُ",
      "english": {
        "narrator": "",
        "text": ""
      }
    },
    {
      "id": 201,
      "chapterId": 2,
      "bookId": 9,
      "arabic": "أَخْبَرَنَا مُحَمَّدُ بْنُ مِنْهَالٍ  ، حَدَّثَنَا يَزِيدُ بْنُ زُرَيْعٍ  ، حَدَّثَنَا هِشَامُ بْنُ حَسَّانَ  ، عَنْ مُحَمَّدٍ  ، عَنْ أَبِي هُرَيْرَةَ   رَضِيَ اللهِ عَنْهُ، قَالَ : قَالَ رَسُولُ اللَّهِ صَلَّى اللَّهُ عَلَيْهِ وَسَلَّمَ :\" إِذَا حَضَرَتْ الصَّلَاةُ فَلَمْ تَجِدُوا إِلَّا مَرَابِضَ الْغَنَمِ، وَأَعْطَانَ الْإِبِلِ، فَصَلُّوا فِي مَرَابِضِ الْغَنَمِ، وَلَا تُصَلُّوا فِي أَعْطَانِ الْإِبِلِ \"",
      "english": {
        "narrator": "",
        "text": ""
      }
    },
    {
      "id": 202,
      "chapterId": 2,
      "bookId": 9,
      "arabic": "حَدَّثَنَا أَبُو عَاصِمٍ  ، عَنْ عَبْدِ الْحَمِيدِ بْنِ جَعْفَرٍ  ، حَدَّثَنِي أَبِي  ، عَنْ مَحْمُودِ بْنِ لَبِيدٍ  ، أَنَّ عُثْمَانَ لَمَّا أَرَادَ أَنْ يَبْنِيَ الْمَسْجِدَ كَرِهَ النَّاسُ ذَلِكَ، فَقَالَ عُثْمَانُ   : سَمِعْتُ رَسُولَ اللَّهِ صَلَّى اللَّهُ عَلَيْهِ وَسَلَّمَ، يَقُولُ :\" مَنْ بَنَى لِلَّهِ مَسْجِدًا، بَنَى اللَّهُ لَهُ فِي الْجَنَّةِ مِثْلَهُ \"",
      "english": {
        "narrator": "",
        "text": ""
      }
    },
    {
      "id": 203,
      "chapterId": 2,
      "bookId": 9,
      "arabic": "أَخْبَرَنَا يَحْيَى بْنُ حَسَّانَ  ، حَدَّثَنَا مَالِكُ بْنُ أَنَسٍ  ، وَفُلَيْحُ بْنُ سُلَيْمَانَ  ، عَنْ عَامِرِ بْنِ عَبْدِ اللَّهِ بْنِ الزُّبَيْرِ  ، عَنْ عَمْرِو بْنِ سُلَيْمٍ الزُّرَقِيّ  ، عَنْ أَبِي قَتَادَةَ  ، أَنَّ رَسُولَ اللَّهِ صَلَّى اللَّهُ عَلَيْهِ وَسَلَّمَ، قَالَ :\" إِذَا جَاءَ أَحَدُكُمْ الْمَسْجِدَ، فَلْيَرْكَعْ رَكْعَتَيْنِ قَبْلَ أَنْ يَجْلِسَ \"",
      "english": {
        "narrator": "",
        "text": ""
      }
    },
    {
      "id": 204,
      "chapterId": 2,
      "bookId": 9,
      "arabic": "حَدَّثَنَا يَحْيَى بْنُ حَسَّانَ  ، أَنْبأَنَا عَبْدُ الْعَزِيزِ بْنُ مُحَمَّدٍ  ، عَنْ رَبِيعَةَ بْنِ أَبِي عَبْدِ الرَّحْمَنِ  ، عَنْ عَبْدِ الْمَلِكِ بْنِ سَعِيدِ بْنِ سُوَيْدٍ  ، قَالَ : سَمِعْتُ أَبَا حُمَيْدٍ  ، أَوْ أَبَا أُسَيْدٍ الْأَنْصَارِيَّ  ، يَقُولُ : قَالَ رَسُولُ اللَّهِ صَلَّى اللَّهُ عَلَيْهِ وَسَلَّمَ :\" إِذَا دَخَلَ أَحَدُكُمْ الْمَسْجِدَ، فَلْيُسَلِّمْ عَلَى النَّبِيِّ، ثُمَّ لِيَقُلْ : اللَّهُمَّ افْتَحْ لِي أَبْوَابَ رَحْمَتِكَ، وَإِذَا خَرَجَ، فَلْيَقُلْ : اللَّهُمَّ إِنِّي أَسْأَلُكَ مِنْ فَضْلِكَ \"",
      "english": {
        "narrator": "",
        "text": ""
      }
    },
    {
      "id": 205,
      "chapterId": 2,
      "bookId": 9,
      "arabic": "حَدَّثَنَا هَاشِمُ بْنُ الْقَاسِمِ  ، حَدَّثَنَا شُعْبَةُ  ، قَالَ : قُلْتُ لِقَتَادَةَ  : أَسَمِعْتَ أَنَسًا  ، يَقُولُ عَنْ النَّبِيِّ صَلَّى اللَّهُ عَلَيْهِ وَسَلَّمَ، قَالَ :\" الْبُزَاقُ فِي الْمَسْجِدِ خَطِيئَةٌ؟ \" قَالَ : نَعَمْ، وَكَفَّارَتُهَا دَفْنُهَا \"",
      "english": {
        "narrator": "",
        "text": ""
      }
    },
    {
      "id": 206,
      "chapterId": 2,
      "bookId": 9,
      "arabic": "أَخْبَرَنَا يَزِيدُ بْنُ هَارُونَ  ، أَنْبأَنَا حُمَيْدٌ  ، عَنْ أَنَسٍ  ، أَنّ رَسُولَ اللَّهِ صَلَّى اللَّهُ عَلَيْهِ وَسَلَّمَ، قَالَ : \" إِنَّالْعَبْدَ إِذَا صَلَّى، فَإِنَّمَا يُنَاجِي رَبَّهُ أَوْ رَبُّهُ بَيْنَهُ وَبَيْنَ الْقِبْلَةِ ، فَإِذَا بَزَقَ أَحَدُكُمْ، فَلْيَبْصُقْ عَنْ يَسَارِهِ أَوْ تَحْتَ قَدَمِهِ ، أَوْ يَقُولُ هَكَذَا \"، وَبَزَقَ فِي ثَوْبِهِ وَدَلَكَ بَعْضَهُ بِبَعْضٍ",
      "english": {
        "narrator": "",
        "text": ""
      }
    },
    {
      "id": 207,
      "chapterId": 2,
      "bookId": 9,
      "arabic": "أَخْبَرَنَا سُلَيْمَانُ بْنُ حَرْبٍ  ، حَدَّثَنَا حَمَّادُ بْنُ زَيْدٍ  ، عَنْ أَيُّوبَ  ، عَنْ نَافِعٍ  ، عَنْ ابْنِ عُمَرَ  ، قَالَ : بَيْنَا النَّبِيُّ صَلَّى اللَّهُ عَلَيْهِ وَسَلَّمَ يَخْطُبُ، إِذْ رَأَى نُخَامَةً فِي قِبْلَةِ الْمَسْجِدِ، فَتَغَيَّظَ عَلَى أَهْلِ الْمَسْجِدِ، وَقَالَ : \" إِنَّاللَّهَ قِبَلَ أَحَدِكُمْ إِذَا كَانَ فِي صَلَاتِهِ، فَلَا يَبْزُقَنَّ أَوْ قَالَ : لَا يَتَنَخَّعَنَّ \"، ثُمَّ أَمَرَ بِهَا فَحُكَّ مَكَانُهَا، وَأَمَرَ بِهَا فَلُطِخَتْ.\nقَالَ حَمَّادٌ : لَا أَعْلَمُهُ إِلَّا قَالَ : بِزَعْفَرَانٍ",
      "english": {
        "narrator": "",
        "text": ""
      }
    },
    {
      "id": 208,
      "chapterId": 2,
      "bookId": 9,
      "arabic": "حَدَّثَنَا سُلَيْمَانُ بْنُ دَاوُدَ  ، حَدَّثَنَا إِبْرَاهِيمُ بْنُ سَعْدٍ  ، عَنْ الزُّهْرِيِّ  ، عَنْ حُمَيْدِ بْنِ عَبْدِ الرَّحْمَنِ  ، أَنَّ أَبَا سَعِيدٍ  ، وَأَبَا هُرَيْرَةَ   أَخْبَرَاهُ، أَنّ رَسُولَ اللَّهِ صَلَّى اللَّهُ عَلَيْهِ وَسَلَّمَ رَأَى نُخَامَةً فِي جِدَارِ الْمَسْجِدِ، فَتَنَاوَلَ رَسُولُ اللَّهِ صَلَّى اللَّهُ عَلَيْهِ وَسَلَّمَ حَصَاةً وَحَتَّهَا ثُمَّ قَالَ :\" إِذَا تَنَخَّمَ أَحَدُكُمْ، فَلَا يَتَنَخَّمَنَّ قِبَلَ وَجْهِهِ، وَلَا عَنْ يَمِينِهِ، وَلْيَبْصُقْ عَنْ يَسَارِهِ أَوْ تَحْتَ قَدَمِهِ \"",
      "english": {
        "narrator": "",
        "text": ""
      }
    },
    {
      "id": 209,
      "chapterId": 2,
      "bookId": 9,
      "arabic": "حَدَّثَنَا سَعِيدُ بْنُ الْمُغِيرَةِ  ، حَدَّثَنَا مُعْتَمِرٌ  ، عَنْ دَاوُدَ بْنِ أَبِي هِنْدٍ  ، عَنْ أَبِي حَرْبِ بْنِ أَبِي الْأَسْوَدِ الدِّئلِيِّ  ، عَنْ عَمِّهِ  ، عَنْ أَبِي ذَرٍّ  ، قَالَ : أَتَانِي نَبِيُّ اللَّهِ صَلَّى اللَّهُ عَلَيْهِ وَسَلَّمَ وَأَنَا نَائِمٌ فِي الْمَسْجِدِ فَضَرَبَنِي بِرِجْلِهِ، قَالَ :\" أَلَا أَرَاكَ نَائِمًا فِيهِ؟ \" قُلْتُ : يَا نَبِيَّ اللَّهِ، غَلَبَتْنِي عَيْنِي",
      "english": {
        "narrator": "",
        "text": ""
      }
    },
    {
      "id": 210,
      "chapterId": 2,
      "bookId": 9,
      "arabic": "حَدَّثَنَا مُوسَى بْنُ خَالِدٍ  ، عَنْ أَبِي إِسْحَاق الْفَزَارِيِّ  ، عَنْ عُبَيْدِ اللَّهِ بْنِ عُمَرَ  ، عَنْ نَافِعٍ  ، عَنْ ابْنِ عُمَرَ  ، قَالَ : كُنْتُ أَبِيتُ فِي الْمَسْجِدِ وَلَمْ يَكُنْ لِي أَهْلٌ، فَرَأَيْتُ فِي الْمَنَامِ كَأَنَّمَا انْطُلِقَ بِي إِلَى بِئْرٍ فِيهَا رِجَالٌ مُعَلَّقُونَ، فَقِيلَ : انْطَلِقُوا بِهِ إِلَى ذَاتِ الْيَمِينِ.\nفَذَكَرْتُ الرُّؤْيَا لِحَفْصَةَ ، فَقُلْتُ : قُصِّيهَا عَلَى رَسُولِ اللَّهِ صَلَّى اللَّهُ عَلَيْهِ وَسَلَّمَ، فَقَصَّتْهَا عَلَيْهِ، فَقَالَ : \" مَنْ رَأَى هَذِهِ؟ قَالَتْ : ابْنُ عُمَرَ.\nفَقَالَ رَسُولُ اللَّهِ صَلَّى اللَّهُ عَلَيْهِ وَسَلَّمَ : \" نِعْمَ الْفَتَى أَوْ قَالَ : نِعْمَ الرَّجُلُلَوْ كَانَ يُصَلِّي مِنْ اللَّيْلِ \".\n قَالَ : وَكُنْتُ إِذَا نِمْتُ لَمْ أَقُمْ حَتَّى أُصْبِحَ.\nقَالَ : فَكَانَ ابْنُ عُمَرَ يُصَلِّي اللَّيْلَ",
      "english": {
        "narrator": "",
        "text": ""
      }
    },
    {
      "id": 211,
      "chapterId": 2,
      "bookId": 9,
      "arabic": "أَخْبَرَنَا الْحَسَنُ بْنُ أَبِي زَيْدٍ الْكُوفِيُّ  ، حَدَّثَنَا عَبْدُ الْعَزِيزِ بْنُ مُحَمَّدٍ  ، أَخْبَرَنِي يَزِيدُ بْنُ خُصَيْفَةَ  ، عَنْ مُحَمَّدِ بْنِ عَبْدِ الرَّحْمَنِ بْنِ ثَوْبَانَ  ، عَنْ أَبِي هُرَيْرَةَ  ، أَنَّ رَسُولَ اللَّهِ صَلَّى اللَّهُ عَلَيْهِ وَسَلَّمَ قَالَ :\" إِذَا رَأَيْتُمْ مَنْ يَبِيعُ، أَوْ يَبْتَاعُ فِي الْمَسْجِدِ، فَقُولُوا : لَا أَرْبَحَ اللَّهُ تِجَارَتَكَ، وَإِذَا رَأَيْتُمْ مَنْ يَنْشُدُ فِيهِ الضَّالَّةَ، فَقُولُوا : لَا أَدَّى اللَّهُ عَلَيْكَ \"",
      "english": {
        "narrator": "",
        "text": ""
      }
    },
    {
      "id": 212,
      "chapterId": 2,
      "bookId": 9,
      "arabic": "أَخْبَرَنَا مُحَمَّدُ بْنُ الْمُبَارَكِ  ، حَدَّثَنَا سُفْيَانُ بْنُ عُيَيْنَةَ  ، قَالَ : قُلْتُ لِعَمْرِو بْنِ دِينَارٍ  : أَسَمِعْتَ جَابِرَ بْنَ عَبْدِ اللَّهِ   يَقُولُ : مَرَّ رَجُلٌ فِي الْمَسْجِدِ يَحْمِلُ نَبْلًا، فَقَالَ لَهُ النَّبِيُّ صَلَّى اللَّهُ عَلَيْهِ وَسَلَّمَ :\" أَمْسِكْ نُصُولَهَا \"؟ قَالَ : نَعَمْ",
      "english": {
        "narrator": "",
        "text": ""
      }
    },
    {
      "id": 213,
      "chapterId": 2,
      "bookId": 9,
      "arabic": "أَخْبَرَنَا الْحَكَمُ بْنُ نَافِعٍ  ، أَنْبأَنَا شُعَيْبٌ  ، عَنْ الزُّهْرِيِّ  ، أَخْبَرَنِي عُبَيْدُ اللَّهِ بْنُ عَبْدِ اللَّهِ  ، أَنَّ ابْنَ عَبَّاسٍ  ، وَعَائِشَةَ   ، قَالَا : لَمَّا نُزِلَ بِالنَّبِيِّ صَلَّى اللَّهُ عَلَيْهِ وَسَلَّمَ، طَفِقَ يَطْرَحُ خَمِيصَةً لَهُ عَلَى وَجْهِهِ، فَإِذَا اغْتَمَّ، كَشَفَهَا عَنْ وَجْهِهِ، فَقَالَ وَهُوَ كَذَلِكَ :\" لَعْنَةُ اللَّهِ عَلَى الْيَهُودِ وَالنَّصَارَى ، اتَّخَذُوا قُبُورَ أَنْبِيَائِهِمْ مَسَاجِدَ \".\nيُحَذِّرُ مِثْلَ مَا صَنَعُوا",
      "english": {
        "narrator": "",
        "text": ""
      }
    },
    {
      "id": 214,
      "chapterId": 2,
      "bookId": 9,
      "arabic": "حَدَّثَنَا عُثْمَانُ بْنُ عُمَرَ  ، أَنْبأَنَا دَاوُدُ بْنُ قَيْسٍ الْفَرَّاءُ  ، عَنْ سَعْدِ بْنِ إِسْحَاق  ، عَنْ أَبِي ثُمَامَةَ الْحَنَّاطِ  ، قَالَ : أَدْرَكَنِي كَعْبُ بْنُ عُجْرَةَ   بِالْبَلَاطِ، وَأَنَا مُشَبِّكٌ بَيْنَ أَصَابِعِي، فَقَالَ : إِنَّ رَسُولَ اللَّهِ صَلَّى اللَّهُ عَلَيْهِ وَسَلَّمَ قَالَ :\" إِذَا تَوَضَّأَ أَحَدُكُمْ ثُمَّ خَرَجَ عَامِدًا إِلَى الصَّلَاةِ، فَلَا يُشَبِّكُ بَيْنَ أَصَابِعِهِ \"",
      "english": {
        "narrator": "",
        "text": ""
      }
    },
    {
      "id": 215,
      "chapterId": 2,
      "bookId": 9,
      "arabic": "أَخْبَرَنَا مُحَمَّدُ بْنُ يُوسُفَ  ، حَدَّثَنَا سُفْيَانُ  ، عَنْ مُحَمَّدِ بْنِ عَجْلَانَ  ، عَنْ الْمَقْبُرِيِّ  ، عَنْ كَعْبِ بْنِ عُجْرَةَ  ، قَالَ : قَالَ رَسُولُ اللَّهِ صَلَّى اللَّهُ عَلَيْهِ وَسَلَّمَ :\" إِذَا تَوَضَّأْتَ فَعَمَدْتَ إِلَى الْمَسْجِدِ، فَلَا تُشَبِّكَنَّ بَيْنَ أَصَابِعِكَ، فَإِنَّكَ فِي صَلَاةٍ \"",
      "english": {
        "narrator": "",
        "text": ""
      }
    },
    {
      "id": 216,
      "chapterId": 2,
      "bookId": 9,
      "arabic": "أَخْبَرَنَا الْهَيْثَمُ بْنُ جَمِيلٍ  ، عَنْ مُحَمَّدِ بْنِ مُسْلِمٍ  ، عَنْ إِسْمَاعِيل بْنِ أُمَيَّةَ  ، عَنْ الْمَقْبُرِيِّ  ، عَنْ أَبِي هُرَيْرَةَ  ، قَالَ : قَالَ رَسُولُ اللَّهِ صَلَّى اللَّهُ عَلَيْهِ وَسَلَّمَ :\" مَنْ تَوَضَّأَ ثُمَّ خَرَجَ يُرِيدُ الصَّلَاةَ، فَهُوَ فِي صَلَاةٍ حَتَّى يَرْجِعَ إِلَى بَيْتِهِ، فَلَا تَقُولُوا هَكَذَا \"يَعْنِي : يُشَبِّكُ بَيْنَ أَصَابِعِهِ",
      "english": {
        "narrator": "",
        "text": ""
      }
    },
    {
      "id": 217,
      "chapterId": 2,
      "bookId": 9,
      "arabic": "أَخْبَرَنَا يَزِيدُ بْنُ هَارُونَ  ، أَنْبأَنَا مُحَمَّدُ بْنُ عَمْرٍو  ، عَنْ أَبِي سَلَمَةَ  ، عَنْ أَبِي هُرَيْرَةَ  ، قَالَ : قَالَ رَسُولُ اللَّهِ صَلَّى اللَّهُ عَلَيْهِ وَسَلَّمَ :\" لَا تَزَالُ الْمَلَائِكَةُ تُصَلِّي عَلَى الْعَبْدِ مَا دَامَ فِي مُصَلَّاهُ الَّذِي يُصَلِّي فِيهِ، مَا لَمْ يَقُمْ أَوْ يُحْدِثْ، تَقُولُ : اللَّهُمَّ اغْفِرْ لَهُ، اللَّهُمَّ ارْحَمْهُ \"",
      "english": {
        "narrator": "",
        "text": ""
      }
    },
    {
      "id": 218,
      "chapterId": 2,
      "bookId": 9,
      "arabic": "أَخْبَرَنَا عَفَّانُ  ، حَدَّثَنَا حَمَّادُ بْنُ سَلَمَةَ  ، حَدَّثَنَا أَيُّوبُ  ، عَنْ أَبِي قِلَابَةَ  ،  عَنْ أَنَسِ بْنِ مَالِكٍ  ، عَنْ النَّبِيِّ صَلَّى اللَّهُ عَلَيْهِ وَسَلَّمَ، قَالَ :\" لَا تَقُومُ السَّاعَةُ حَتَّى يَتَبَاهَى النَّاسُ فِي الْمَسَاجِدِ \"",
      "english": {
        "narrator": "",
        "text": ""
      }
    },
    {
      "id": 219,
      "chapterId": 2,
      "bookId": 9,
      "arabic": "أَخْبَرَنَا أَبُو الْوَلِيدِ الطَّيَالِسِيُّ  ، حَدَّثَنَا شُعْبَةُ  ، عَنْ الْحَكَمِ بْنِ عُتَيْبَةَ  ، قَالَ : سَمِعْتُ أَبَا جُحَيْفَةَ   يَقُولُ : \" خَرَجَ رَسُولُ اللَّهِ صَلَّى اللَّهُ عَلَيْهِ وَسَلَّمَ إِلَى الْبَطْحَاءِ بِالْهَاجِرَةِ،فَصَلَّى الظُّهْرَ رَكْعَتَيْنِ، وَالْعَصْرَ رَكْعَتَيْنِ، وَبَيْنَ يَدَيْهِ عَنَزَةٌ، وَإِنَّ الظُّعُنَ لَتَمُرُّ بَيْنَ يَدَيْهِ \"",
      "english": {
        "narrator": "",
        "text": ""
      }
    },
    {
      "id": 220,
      "chapterId": 2,
      "bookId": 9,
      "arabic": "أَخْبَرَنَا مُسَدَّدٌ  ، حَدَّثَنَا يَحْيَى بْنُ سَعِيدٍ  ، عَنْ عُبَيْدِ اللَّهِ  ، عَنْ نَافِعٍ  ، عَنْ ابْنِ عُمَرَ  ، أَنّ رَسُولَ اللَّهِ صَلَّى اللَّهُ عَلَيْهِ وَسَلَّمَ \" كَانَتْتُرْكَزُ لَهُ الْعَنَزَةُ يُصَلِّي إِلَيْهَا \"",
      "english": {
        "narrator": "",
        "text": ""
      }
    },
    {
      "id": 221,
      "chapterId": 2,
      "bookId": 9,
      "arabic": "أَخْبَرَنَا عُبَيْدُ اللَّهِ بْنُ عَبْدِ الْمَجِيدِ  ، حَدَّثَنَا مَالِكٌ  ، عَنْ زَيْدِ بْنِ أَسْلَمَ  ، عَنْ عَبْدِ الرَّحْمَنِ بْنِ أَبِي سَعِيدٍ  ، عَنْ أَبِي سَعِيدٍ الْخُدْرِيِّ  ، أَنَّ رَسُولَ اللَّهِ صَلَّى اللَّهُ عَلَيْهِ وَسَلَّمَ قَالَ :\" إِذَا كَانَ أَحَدُكُمْ يُصَلِّي، فَلَا يَدَعْ أَحَدًا يَمُرُّ بَيْنَ يَدَيْهِ، فَإِنْ أَبَى، فَلْيُقَاتِلْهُ، فَإِنَّمَا هُوَ شَيْطَانٌ \"",
      "english": {
        "narrator": "",
        "text": ""
      }
    },
    {
      "id": 222,
      "chapterId": 2,
      "bookId": 9,
      "arabic": "أَخْبَرَنَا الْحَكَمُ بْنُ الْمُبَارَكِ  ، وَعَبْدُ اللَّهِ بْنُ سَعِيدٍ  ، عَنْ أَبِي خَالِدٍ الْأَحْمَرِ  ، عَنْ عُبَيْدِ اللَّهِ  ، عَنْ نَافِعٍ  ، عَنْ ابْنِ عُمَرَ  ، أَنّ النَّبِيَّ صَلَّى اللَّهُ عَلَيْهِ وَسَلَّمَ \" كَانَيُصَلِّي إِلَى رَاحِلَتِهِ \"",
      "english": {
        "narrator": "",
        "text": ""
      }
    },
    {
      "id": 223,
      "chapterId": 2,
      "bookId": 9,
      "arabic": "أَخْبَرَنَا عَبْدُ اللَّهِ بْنُ صَالِحٍ  ، حَدَّثَنِي اللَّيْثُ  ، حَدَّثَنِي عُقَيْلٌ  ، عَنْ ابْنِ شِهَابٍ  ، حَدَّثَنِي عُرْوَةُ بْنُ الزُّبَيْرِ  ، أَنَّ عَائِشَةَ   أَخْبَرَتْهُ، أَنّ رَسُولَ اللَّهِ صَلَّى اللَّهُ عَلَيْهِ وَسَلَّمَ \" كَانَيُصَلِّي وَهِيَ بَيْنَهُ وَبَيْنَ الْقِبْلَةِ عَلَى فِرَاشِ أَهْلِهِ اعْتِرَاضَ الْجَنَازَةِ \"",
      "english": {
        "narrator": "",
        "text": ""
      }
    },
    {
      "id": 224,
      "chapterId": 2,
      "bookId": 9,
      "arabic": "أَخْبَرَنَا أَبُو الْوَلِيدِ  ، وَحَجَّاجٌ  ، قَالَا : حَدَّثَنَا شُعْبَةُ  ، أَخْبَرَنِي حُمَيْدُ بْنُ هِلَالٍ  ، قَالَ : سَمِعْتُ عَبْدَ اللَّهِ بْنَ الصَّامِتِ  ، عَنْ أَبِي ذَرٍّ  ، أَنَّهُ قَالَ :\" يَقْطَعُ صَلَاةَ الرَّجُلِ إِذَا لَمْ يَكُنْ بَيْنَ يَدَيْهِ كَآخِرَةِ الرَّحْلِ : الْحِمَارُ وَالْكَلْبُ الْأَسْوَدُ، وَالْمَرْأَةُ \"",
      "english": {
        "narrator": "",
        "text": ""
      }
    },
    {
      "id": 225,
      "chapterId": 2,
      "bookId": 9,
      "arabic": "قَالَ : قُلْتُ : فَمَا بَالُ الْأَسْوَدِ مِنْ الْأَحْمَرِ مِنْ الْأَصْفَرِ، فَقَالَ : سَأَلْتُ رَسُولَ اللَّهِ صَلَّى اللَّهُ عَلَيْهِ وَسَلَّمَ كَمَا سَأَلْتَنِي، فَقَالَ :\" الْأَسْوَدُ شَيْطَانٌ \"",
      "english": {
        "narrator": "",
        "text": ""
      }
    },
    {
      "id": 226,
      "chapterId": 2,
      "bookId": 9,
      "arabic": "أَخْبَرَنَا أَبُو نُعَيْمٍ  ، حَدَّثَنَا ابْنُ عُيَيْنَةَ  ، عَنْ الزُّهْرِيِّ  ، عَنْ عُبَيْدِ اللَّهِ بْنِ عَبْدِ اللَّهِ  ، عَنْ ابْنِ عَبَّاسٍ  ، قَالَ : جِئْتُ أَنَا وَالْفَضْلُ يَعْنِي : عَلَى أَتَانٍ، وَالنَّبِيُّ صَلَّى اللَّهُ عَلَيْهِ وَسَلَّمَيُصَلِّي بِمِنًى أَوْ بِعَرَفَةَ ، فَمَرَرْتُ عَلَى بَعْضِ الصَّفِّ فَنَزَلْتُ عَنْهَا وَتَرَكْتُهَا تَرْعَى، وَدَخَلْتُ فِي الصَّفِّ \"",
      "english": {
        "narrator": "",
        "text": ""
      }
    },
    {
      "id": 227,
      "chapterId": 2,
      "bookId": 9,
      "arabic": "حَدَّثَنَا يَحْيَى بْنُ حَسَّانَ  ، أَنْبأَنَا ابْنُ عُيَيْنَةَ  ، عَنْ سَالِمٍ أَبِي النَّضْرِ  ، عَنْ بُسْرِ بْنِ سَعِيدٍ  ، قَالَ : أَرْسَلَنِي أَبُو جُهَيْمٍ الْأَنْصَارِيُّ إِلَى زَيْدِ بْنِ خَالِدٍ الْجُهَنِيِّ   أَسْأَلُهُ مَا سَمِعَ مِنْ النَّبِيِّ صَلَّى اللَّهُ عَلَيْهِ وَسَلَّمَ فِي الَّذِي يَمُرُّ بَيْنَ يَدَيْ الْمُصَلِّي، فَقَالَ : إِنَّ رَسُولَ اللَّهِ صَلَّى اللَّهُ عَلَيْهِ وَسَلَّمَ، قَالَ :\" لَأَنْ يَقُومَ أَحَدُكُمْ أَرْبَعِينَ، خَيْرٌ لَهُ مِنْ أَنْ يَمُرَّ بَيْنَ يَدَيْ الْمُصَلِّي \".\nقَالَ : فَلَا أَدْرِي سَنَةً أَوْ شَهْرًا أَوْ يَوْمًا",
      "english": {
        "narrator": "",
        "text": ""
      }
    },
    {
      "id": 228,
      "chapterId": 2,
      "bookId": 9,
      "arabic": "أَخْبَرَنَا عُبَيْدُ اللَّهِ بْنُ عَبْدِ الْمَجِيدِ  ، حَدَّثَنَا مَالِكٌ  ، عَنْ أَبِي النَّضْرِ  مَوْلَى عُمَرَ بْنِ عُبَيْدِ اللَّهِ بْنِ مَعْمَرٍ، أَنَّ بُسْرَ بْنَ سَعِيدٍ  أَخْبَرَهُ، أَنَّ زَيْدَ بْنَ خَالِدٍ الْجُهَنِيَّ أَرْسَلَهُ إِلَى أَبِي جُهَيْمٍ يَسْأَلُهُ : مَاذَا سَمِعَ مِنْ رَسُولِ اللَّهِ صَلَّى اللَّهُ عَلَيْهِ وَسَلَّمَ، يَقُولُ فِي الْمَارِّ بَيْنَ يَدَيْ الْمُصَلِّي.\n فَقَالَ أَبُو جُهَيْمٍ   : قَالَ رَسُولُ اللَّهِ صَلَّى اللَّهُ عَلَيْهِ وَسَلَّمَ :\" لَوْ يَعْلَمُ الْمَارُّ بَيْنَ يَدَيْ الْمُصَلِّي مَاذَا عَلَيْهِ فِي ذَلِكَ، لَكَانَ أَنْ يَقِفَ أَرْبَعِينَ خَيْرًا لَهُ مِنْ أَنْ يَمُرَّ بَيْنَ يَدَيْهِ \".\nقَالَ أَبُو النَّضْرِ : لَا أَدْرِي : أَرْبَعِينَ يَوْمًا، أَوْ شَهْرًا، أَوْ سَنَةً",
      "english": {
        "narrator": "",
        "text": ""
      }
    },
    {
      "id": 229,
      "chapterId": 2,
      "bookId": 9,
      "arabic": "أَخْبَرَنَا عُبَيْدُ اللَّهِ بْنُ عَبْدِ الْمَجِيدِ  ، حَدَّثَنَا أَفْلَحُ هُوَ ابْنُ حُمَيْدٍ  ، حَدَّثَنِي أَبُو بَكْرِ بْنُ مُحَمَّدٍ  ، حَدَّثَنِي سَلْمَانُ الْأَغَرُّ  ، قَالَ : سَمِعْتُ أَبَا هُرَيْرَةَ  ، يَقُولُ : قَالَ رَسُولُ اللَّهِ صَلَّى اللَّهُ عَلَيْهِ وَسَلَّمَ :\" صَلَاةٌ فِي مَسْجِدِي هَذَا كَأَلْفِ صَلَاةٍ فِيمَا سِوَاهُ مِنْ الْمَسَاجِدِ، إِلَّا الْمَسْجِدَ الْحَرَامَ \"",
      "english": {
        "narrator": "",
        "text": ""
      }
    },
    {
      "id": 230,
      "chapterId": 2,
      "bookId": 9,
      "arabic": "أَخْبَرَنَا مُسَدَّدٌ  ، حَدَّثَنَا بِشْرُ بْنُ الْمُفَضَّلِ  ، حَدَّثَنَا عُبَيْدُ اللَّهِ  ، عَنْ نَافِعٍ  ،  عَنْ ابْنِ عُمَرَ  ، قَالَ : قَالَ رَسُولُ اللَّهِ صَلَّى اللَّهُ عَلَيْهِ وَسَلَّمَ :\" صَلَاةٌ فِي مَسْجِدِي هَذَا أَفْضَلُ مِنْ أَلْفِ صَلَاةٍ فِيمَا سِوَاهُ، إِلَّا الْمَسْجِدَ الْحَرَامَ \"",
      "english": {
        "narrator": "",
        "text": ""
      }
    },
    {
      "id": 231,
      "chapterId": 2,
      "bookId": 9,
      "arabic": "حَدَّثَنَا حَجَّاجُ بْنُ مِنْهَالٍ  ، حَدَّثَنَا ابْنُ عُيَيْنَةَ  ، عَنْ الزُّهْرِيِّ  ، عَنْ سَعِيدِ بْنِ الْمُسَيِّبِ  ، عَنْ أَبِي هُرَيْرَةَ  ، عَنْ النَّبِيِّ صَلَّى اللَّهُ عَلَيْهِ وَسَلَّمَ، قَالَ :\" صَلَاةٌ فِي مَسْجِدِي هَذَا أَفْضَلُ مِنْ أَلْفِ صَلَاةٍ فِيمَا سِوَاهُ إِلَّا الْمَسْجِدَ الْحَرَامَ \"",
      "english": {
        "narrator": "",
        "text": ""
      }
    },
    {
      "id": 232,
      "chapterId": 2,
      "bookId": 9,
      "arabic": "أَخْبَرَنَا يَزِيدُ بْنُ هَارُونَ  ، حَدَّثَنَا مُحَمَّدُ بْنُ عَمْرٍو  ، عَنْ أَبِي سَلَمَةَ  ، عَنْ أَبِي هُرَيْرَةَ  ، قَالَ : قَالَ رَسُولُ اللَّهِ صَلَّى اللَّهُ عَلَيْهِ وَسَلَّمَ :\" لَا تُشَدُّ الرِّحَالُ إِلَّا إِلَى ثَلَاثَةِ مَسَاجِدَ : مَسْجِدُ الْكَعْبَةِ ، وَمَسْجِدِي هَذَا ، وَمَسْجِدِ الْأَقْصَى \"",
      "english": {
        "narrator": "",
        "text": ""
      }
    },
    {
      "id": 233,
      "chapterId": 2,
      "bookId": 9,
      "arabic": "حَدَّثَنَا زَكَرِيَّا بْنُ عَدِيٍّ  ، عَنْ عُبَيْدِ اللَّهِ بْنِ عَمْرٍو  ، عَنْ زَيْدِ بْنِ أَبِي أُنَيْسَةَ  ، عَنْ جُنَادَةَ  ، عَنْ مَكْحُولٍ  ، عَنْ أَبِي إِدْرِيسَ  ، عَنْ أَبِي الدَّرْدَاءِ  ، عَنْ النَّبِيِّ صَلَّى اللَّهُ عَلَيْهِ وَسَلَّمَ، قَالَ :\" مَنْ مَشَى فِي ظُلْمَةِ لَيْلٍ إِلَى صَلَاةٍ، آتَاهُ اللَّهُ نُورًا يَوْمَ الْقِيَامَةِ \"",
      "english": {
        "narrator": "",
        "text": ""
      }
    },
    {
      "id": 234,
      "chapterId": 2,
      "bookId": 9,
      "arabic": "حَدَّثَنَا عَبْدُ اللَّهِ بْنُ صَالِحٍ  ، حَدَّثَنِي اللَّيْثُ  ، حَدَّثَنِي يُونُسُ  ، عَنْ ابْنِ شِهَابٍ  ، قَالَ : سَمِعْتُ أَبَا الْأَحْوَصِ  يُحَدِّثُ، عَنْ ابْنِ الْمُسَيَّبِ  ، أَنَّ أَبَا ذَرٍّ  ، قَالَ : قَالَ رَسُولُ اللَّهِ صَلَّى اللَّهُ عَلَيْهِ وَسَلَّمَ :\" لَا يَزَالُ اللَّهُ مُقْبِلًا عَلَى الْعَبْدِ مَا لَمْ يَلْتَفِتْ، فَإِذَا صَرَفَ وَجْهَهُ، انْصَرَفَ عَنْهُ \"",
      "english": {
        "narrator": "",
        "text": ""
      }
    },
    {
      "id": 235,
      "chapterId": 2,
      "bookId": 9,
      "arabic": "أَخْبَرَنَا أَحْمَدُ بْنُ عَبْدِ اللَّهِ  ، حَدَّثَنَا حَجَّاجُ بْنُ مُحَمَّدٍ  ، قَالَ : قَالَ ابْنُ جُرَيْجٍ  : أَخْبَرَنِي عُثْمَانُ بْنُ أَبِي سُلَيْمَانَ  ، عَنْ عَلِيٍّ الْأَزْدِيِّ  ، عَنْ عُبَيْدِ بْنِ عُمَيْرٍ اللَّيْثِيِّ  ، عَنْ عَبْدِ اللَّهِ بْنِ حُبْشِيٍّ  ، أَنّ النَّبِيَّ صَلَّى اللَّهُ عَلَيْهِ وَسَلَّمَ سُئِلَ : أَيُّ الْأَعْمَالِ أَفْضَلُ؟ قَالَ :\" إِيمَانٌ لَا شَكَّ فِيهِ، وَجِهَادٌ لَا غُلُولَ فِيهِ، وَحَجَّةٌ مَبْرُورَةٌ \".\nقِيلَ : فَأَيُّ الصَّلَاةِ أَفْضَلُ؟ قَالَ : \" طُولُ الْقِيَامِ \".\n قِيلَ : فَأَيُّ الصَّدَقَةِ أَفْضَلُ؟ قَالَ : \" جُهْدُ مُقِلٍّ \".\nقِيلَ : فَأَيُّ الْهِجْرَةِ أَفْضَلُ؟ قَالَ : \" أَنْ تَهْجُرَ مَا حَرَّمَ اللَّهُ عَلَيْكَ \".\nقِيلَ : فَأَيُّ الْجِهَادِ أَفْضَلُ؟ قَالَ : \" مَنْ جَاهَدَ الْمُشْرِكِينَ بِمَالِهِ وَنَفْسِهِ \".\nقِيلَ : فَأَيُّ الْقَتْلِ أَشْرَفُ؟ قَالَ : \" مَنْ عُقِرَ جَوَادُهُ وَأُهْرِيقَ دَمُهُ \"",
      "english": {
        "narrator": "",
        "text": ""
      }
    },
    {
      "id": 236,
      "chapterId": 2,
      "bookId": 9,
      "arabic": "حَدَّثَنَا عَفَّانُ  ، أَخْبَرَنَا هَمَّامٌ  ، عَنْ أَبِي جَمْرَةَ  ، عَنْ أَبِي بَكْرِ بْنِ أَبِي مُوسَى  ، عَنْ أَبِيهِ  ، قَالَ : قَالَ رَسُولُ اللَّهِ صَلَّى اللَّهُ عَلَيْهِ وَسَلَّمَ :\" مَنْ صَلَّى الْبَرْدَيْنِ، دَخَلَ الْجَنَّةَ \".\nقِيلَ لِأَبِي مُحَمَّدٍ : مَا الْبَرْدَيْنِ؟ قَالَ : الْغَدَاةُ وَالْعَصْرُ",
      "english": {
        "narrator": "",
        "text": ""
      }
    },
    {
      "id": 237,
      "chapterId": 2,
      "bookId": 9,
      "arabic": "أَخْبَرَنَا يَحْيَى بْنُ حَسَّانَ  ، حَدَّثَنَا سُلَيْمَانُ بْنُ بِلَالٍ  ، عَنْ إِبْرَاهِيمَ بْنِ أَبِي أُسَيْدٍ  ، عَنْ جَدِّهِ  ،  عَنْ أَبِي هُرَيْرَةَ  ، أَنَّ رَسُولَ اللَّهِ صَلَّى اللَّهُ عَلَيْهِ وَسَلَّمَ قَالَ :\" مَنْ صَلَّى الصُّبْحَ، فَهُوَ فِي جِوَارِ اللَّهِ، فَلَا تُخْفِرُوا اللَّهَ فِي جَارِهِ، وَمَنْ صَلَّى الْعَصْرَ، فَهُوَ فِي جِوَارِ اللَّهِ، فَلَا تُخْفِرُوا اللَّهَ فِي جَارِهِ \".\nقَالَ أَبُو مُحَمَّد : إِذَا أُمِّنَ وَلَمْ يَفِ، فَقَدْ غَدَرَ وَأَخْفَرَ",
      "english": {
        "narrator": "",
        "text": ""
      }
    },
    {
      "id": 238,
      "chapterId": 2,
      "bookId": 9,
      "arabic": "حَدَّثَنَا مُحَمَّدُ بْنُ كُنَانَةَ  ، عَنْ هِشَامِ بْنِ عُرْوَةَ  ، عَنْ أَبِيهِ  ،  عَنْ عَبْدِ اللَّهِ بْنِ الْأَرْقَمِ  ، عَنْ النَّبِيِّ صَلَّى اللَّهُ عَلَيْهِ وَسَلَّمَ، ، قَالَ :\" إِذَا حَضَرَتْ الصَّلَاةُ وَأَرَادَ الرَّجُلُ الْخَلَاءَ، فَابْدَأْ بِالْخَلَاءِ \"",
      "english": {
        "narrator": "",
        "text": ""
      }
    },
    {
      "id": 239,
      "chapterId": 2,
      "bookId": 9,
      "arabic": "حَدَّثَنَا عَبْدُ اللَّهِ بْنُ سَعِيدٍ  ، حَدَّثَنَا أَبُو خَالِدٍ  ، عَنْ هِشَامٍ  ، عَنْ ابْنِ سِيرِينَ  ، عَنْ أَبِي هُرَيْرَةَ  ، قَالَ : \" نَهَى رَسُولُ اللَّهِ صَلَّى اللَّهُ عَلَيْهِ وَسَلَّمَ أَنْيُصَلِّيَ الرَّجُلُ مُخْتَصِرًا \"",
      "english": {
        "narrator": "",
        "text": ""
      }
    },
    {
      "id": 240,
      "chapterId": 2,
      "bookId": 9,
      "arabic": "أَخْبَرَنَا حَفْصُ بْنُ عُمَرَ الْحَوْضِيُّ  ، حَدَّثَنَا شُعْبَةُ  ، عَنْ سَيَّارٍ أَبِي الْمِنْهَالِ الرِّيَاحِيِّ  ،  عَنْ أَبِي بَرْزَةَ  ، قَالَ : كَانَ النَّبِيُّ صَلَّى اللَّهُ عَلَيْهِ وَسَلَّمَ\" يَكْرَهُ النَّوْمَ قَبْلَ الْعِشَاءِ، وَالْحَدِيثَ بَعْدَهَا \"",
      "english": {
        "narrator": "",
        "text": ""
      }
    }
  ]
}