{
  "page": 18,
  "perPage": 50,
  "totalPages": 69,
  "totalCount": 3406,
  "nextPage": 19,
  "prevPage": 17,
  "items": [
    {
      "id": 341,
      "chapterId": 2,
      "bookId": 9,
      "arabic": "حَدَّثَنَا أَبُو يَعْقُوبَ يُوسُفُ الْبُوَيْطِيُّ  ، عَنْ مُحَمَّدِ بْنِ إِدْرِيسَ هُوَ الشَّافِعِيُّ  ، حَدَّثَنَا مَالِكُ بْنُ أَنَسٍ  ، عَنْ زَيْدِ بْنِ أَسْلَمَ  ، عَنْ عَطَاءِ بْنِ يَسَارٍ  ،  عَنْ ابْنِ عَبَّاسٍ  ، قَالَ : خَسَفَتْ الشَّمْسُ فَصَلَّى رَسُولُ اللَّهِ صَلَّى اللَّهُ عَلَيْهِ وَسَلَّمَ، فَحَكَى ابْنُ عَبَّاسٍ : أَنَّ صَلَاتَهُ صَلَّى اللَّهُ عَلَيْهِ وَسَلَّمَ رَكْعَتَيْنِ فِي كُلِّ رَكْعَةٍ رَكْعَتَيْنِ، ثُمَّ خَطَبَهُمْ، فَقَالَ : \" إِنَّالشَّمْسَ وَالْقَمَرَ آيَتَانِ مِنْ آيَاتِ اللَّهِ لَا يَخْسِفَانِ لِمَوْتِ أَحَدٍ، وَلَا لِحَيَاتِهِ، فَإِذَا رَأَيْتُمْ ذَلِكَ، فَافْزَعُوا إِلَى ذِكْرِ اللَّهِ \"",
      "english": {
        "narrator": "",
        "text": ""
      }
    },
    {
      "id": 342,
      "chapterId": 2,
      "bookId": 9,
      "arabic": "قَالَ : وَأَخْبَرَنَا مَالِكٌ  ، عَنْ هِشَامِ بْنِ عُرْوَةَ  ، عَنْ أَبِيهِ  ، عَنْ عَائِشَةَ  .\nقَالَ : وَأَخْبَرَنَا مَالِكٌ  ، عَنْ يَحْيَى بْنِ سَعِيدٍ  ، عَنْ عَمْرَةَ  ، عَنْ عَائِشَةَ  ، قَالَتْ : \" خَسَفَتْ الشَّمْسُ فَصَلَّى النَّبِيُّ صَلَّى اللَّهُ عَلَيْهِ وَسَلَّمَ، فَحَكَتْ أَنَّهُصَلَّى رَكْعَتَيْنِ، فِي كُلِّ رَكْعَةٍ رَكْعَتَيْنِ \"",
      "english": {
        "narrator": "",
        "text": ""
      }
    },
    {
      "id": 343,
      "chapterId": 2,
      "bookId": 9,
      "arabic": "أَخْبَرَنَا الْحَكَمُ بْنُ الْمُبَارَكِ  ، حَدَّثَنَا عَبْدُ الْعَزِيزِ بْنُ مُحَمَّدٍ  ، عَنْ هِشَامِ بْنِ عُرْوَةَ  ، عَنْ فَاطِمَةَ بِنْتِ الْمُنْذِرِ  ، عَنْ أَسْمَاءَ بِنْتِ أَبِي بَكْرٍ  ، أَنّ النَّبِيَّ صَلَّى اللَّهُ عَلَيْهِ وَسَلَّمَ\" أَمَرَ حِينَ كَسَفَتْ الشَّمْسُ بِعَتَاقَةٍ \".\nقَالَ حَدَّثَنِي أَبُو حُذَيْفَةَ مُوسَى بْنُ مَسْعُودٍ  ، عَنْ زَائِدَةَ  ، عَنْ هِشَامِ بْنِ عُرْوَة  ، عَنْ فَاطِمَةَ  ، عَنْ أَسْمَاءَ  ، عَنْ النَّبِيِّ صَلَّى اللَّهُ عَلَيْهِ وَسَلَّمَ، نَحْوَهُ",
      "english": {
        "narrator": "",
        "text": ""
      }
    },
    {
      "id": 344,
      "chapterId": 2,
      "bookId": 9,
      "arabic": "أَخْبَرَنَا يَزِيدُ بْنُ هَارُونَ  ، حَدَّثَنَا يَحْيَى بْنُ سَعِيدٍ الْأَنْصَارِيُّ  ، أَنَّ أَبَا بَكْرِ بْنَ مُحَمَّدِ بْنِ عَمْرِو بْنِ حَزْمٍ  أَخْبَرَهُ، عَنْ عَبَّادِ بْنِ تَمِيمٍ  ، أَنَّهُ سَمِعَ عَبْدَ اللَّهِ بْنَ زَيْدٍ   رَضِيَ اللهِ عَنْهُ، يَذْكُرُ أَنَّ رَسُولَ اللَّهِ صَلَّى اللَّهُ عَلَيْهِ وَسَلَّمَ \" خَرَجَ بِالنَّاسِ إِلَى الْمُصَلَّى يَسْتَسْقِي،فَاسْتَقْبَلَ الْقِبْلَةَ وَحَوَّلَ رِدَاءَهُ \"",
      "english": {
        "narrator": "",
        "text": ""
      }
    },
    {
      "id": 345,
      "chapterId": 2,
      "bookId": 9,
      "arabic": "أَخْبَرَنَا الْحَكَمُ بْنُ نَافِعٍ  ، عَنْ شُعَيْبٍ  ، عَنْ الزُّهْرِيِّ  ، أَخْبَرَنِي عَبَّادُ بْنُ تَمِيمٍ  : أَنَّ عَمَّهُ   أَخْبَرَهُ، أَنّ النَّبِيَّ صَلَّى اللَّهُ عَلَيْهِ وَسَلَّمَ \" خَرَجَ بِالنَّاسِ إِلَى الْمُصَلَّى يَسْتَسْقِي لَهُمْ،فَقَامَ فَدَعَا اللَّهَ قَائِمًا، ثُمَّ تَوَجَّهَ قِبَلَ الْقِبْلَةِ، فَحَوَّلَ رِدَاءَهُ فَأُسْقُوا \"",
      "english": {
        "narrator": "",
        "text": ""
      }
    },
    {
      "id": 346,
      "chapterId": 2,
      "bookId": 9,
      "arabic": "حَدَّثَنَا عُثْمَانُ بْنُ مُحَمَّدٍ  ، حَدَّثَنَا عَبْدَةُ  ، عَنْ سَعِيدٍ  ، عَنْ قَتَادَةَ  ، عَنْ أَنَسٍ  ، قَالَ : \" كَانَ رَسُولُ اللَّهِ صَلَّى اللَّهُ عَلَيْهِ وَسَلَّمَلَا يَرْفَعُ يَدَيْهِ فِي شَيْءٍ مِنْ الدُّعَاءِ إِلَّا فِي الِاسْتِسْقَاءِ \"",
      "english": {
        "narrator": "",
        "text": ""
      }
    },
    {
      "id": 347,
      "chapterId": 2,
      "bookId": 9,
      "arabic": "أَخْبَرَنَا خَالِدُ بْنُ مَخْلَدٍ  ، حَدَّثَنَا مَالِكٌ  ، عَنْ نَافِعٍ  ،  عَنْ ابْنِ عُمَرَ  ، قَالَ : قَالَ رَسُولُ اللَّهِ صَلَّى اللَّهُ عَلَيْهِ وَسَلَّمَ :\" إِذَا جَاءَ أَحَدُكُمْ الْجُمُعَةَ فَلْيَغْتَسِلْ \"",
      "english": {
        "narrator": "",
        "text": ""
      }
    },
    {
      "id": 348,
      "chapterId": 2,
      "bookId": 9,
      "arabic": "حَدَّثَنَا خَالِدُ بْنُ مَخْلَدٍ  ، حَدَّثَنَا مَالِكٌ  ، عَنْ صَفْوَانَ بْنِ سُلَيْمٍ  ، عَنْ عَطَاءِ بْنِ يَسَارٍ  ، عَنْ أَبِي سَعِيدٍ الْخُدْرِيِّ  ، قَالَ : قَالَ رَسُولُ اللَّهِ صَلَّى اللَّهُ عَلَيْهِ وَسَلَّمَ :\" غُسْلُ يَوْمِ الْجُمُعَةِ وَاجِبٌ عَلَى كُلِّ مُحْتَلِمٍ \".\nأَخْبَرَنَا أَبُو نُعَيْمٍ  ، حَدَّثَنَا ابْنُ عُيَيْنَةَ  ، عَنْ صَفْوَانَ بْنِ سُلَيْمٍ  ، عَنْ عَطَاءِ بْنِ يَسَارٍ  ، عَنْ أَبِي سَعِيدٍ الْخُدْرِيِّ  ، عَنْ النَّبِيِّ صَلَّى اللَّهُ عَلَيْهِ وَسَلَّمَ، مِثْلَهُ",
      "english": {
        "narrator": "",
        "text": ""
      }
    },
    {
      "id": 349,
      "chapterId": 2,
      "bookId": 9,
      "arabic": "أَخْبَرَنَا مُحَمَّدُ بْنُ يُوسُفَ  ، حَدَّثَنَا الْأَوْزَاعِيُّ  ، عَنْ يَحْيَى بْنِ أَبِي كَثِيرٍ  ، عَنْ أَبِي سَلَمَةَ بْنِ عَبْدِ الرَّحْمَنِ  ، قَالَ : حَدَّثَنِي أَبُو هُرَيْرَةَ  ، قَالَ : بَيْنَمَا عُمَرُ بْنُ الْخَطَّابِ   يَخْطُبُ، إِذْ دَخَلَ رَجُلٌ فَعَرَّضَ بِهِ عُمَرُ، فَقَالَ : يَا أَمِيرَ الْمُؤْمِنِينَ، مَا زِدْتُ أَنْ تَوَضَّأْتُ حِينَ سَمِعْتُ النِّدَاءَ.\nفَقَالَ : وَالْوُضُوءَ أَيْضًا؟ أَلَمْ تَسْمَعْ رَسُولَ اللَّهِ صَلَّى اللَّهُ عَلَيْهِ وَسَلَّمَ، يَقُولُ :\" إِذَا جَاءَ أَحَدُكُمْ إِلَى يَوْمَ الْجُمُعَةِ، فَلْيَغْتَسِلْ \"",
      "english": {
        "narrator": "",
        "text": ""
      }
    },
    {
      "id": 350,
      "chapterId": 2,
      "bookId": 9,
      "arabic": "أَخْبَرَنَا عَفَّانُ  ، حَدَّثَنَا هَمَّامٌ  ، أَنْبأَنَا قَتَادَةُ  ، عَنْ الْحَسَنِ  ، عَنْ سَمُرَةَ  ، أَنّ النَّبِيَّ صَلَّى اللَّهُ عَلَيْهِ وَسَلَّمَ قَالَ :\" مَنْ تَوَضَّأَ لِلْجُمُعَةِ فَبِهَا وَنِعْمَتْ، وَمَنْ اغْتَسَلَ، فَالْغُسْلُ أَفْضَلُ \"",
      "english": {
        "narrator": "",
        "text": ""
      }
    },
    {
      "id": 351,
      "chapterId": 2,
      "bookId": 9,
      "arabic": "أَخْبَرَنَا عُبَيْدُ اللَّهِ بْنُ عَبْدِ الْمَجِيدِ  ، حَدَّثَنَا ابْنُ أَبِي ذِئْبٍ  ، عَنْ الْمَقْبُرِيِّ  ، عَنْ أَبِيهِ  ، عَنْ عَبْدِ اللَّهِ بْنِ وَدِيعَةَ  ، عَنْ سَلْمَانَ الْفَارِسِيِّ   صَاحِبِ رَسُولِ اللَّهِ صَلَّى اللَّهُ عَلَيْهِ وَسَلَّمَ، أَنَّ نَبِيَّ اللَّهِ صَلَّى اللَّهُ عَلَيْهِ وَسَلَّمَ قَالَ :\" مَنْ اغْتَسَلَ يَوْمَ الْجُمُعَةِ فَتَطَهَّرَ بِمَا اسْتَطَاعَ مِنْ طُهْرٍ، ثُمَّ ادَّهَنَ مِنْ دُهْنِهِ، أَوْ مَسَّ مِنْ طِيبِ بَيْتِهِ، ثُمَّ رَاحَ فَلَمْ يُفَرِّقْ بَيْنَ اثْنَيْنِ وَصَلَّى مَا كُتِبَ لَهُ، فَإِذَا خَرَجَ الْإِمَامُ أَنْصَتَ، غُفِرَ لَهُ مَا بَيْنَهُ وَبَيْنَ الْجُمُعَةِ الْأُخْرَى \"",
      "english": {
        "narrator": "",
        "text": ""
      }
    },
    {
      "id": 352,
      "chapterId": 2,
      "bookId": 9,
      "arabic": "أَخْبَرَنَا مُحَمَّدُ بْنُ يُوسُفَ  ، حَدَّثَنَا سُفْيَانُ  ، عَنْ سَعْدِ بْنِ إِبْرَاهِيمَ  ، عَنْ عَبْدِ الرَّحْمَنِ بْنِ هُرْمُزَ  ، عَنْ أَبِي هُرَيْرَةَ  ، قَالَ : كَانَ النَّبِيُّ صَلَّى اللَّهُ عَلَيْهِ وَسَلَّمَ\" يَقْرَأُ يَوْمَ الْجُمُعَةِ فِي صَلَاةِ الْغَدَاةِ تَنْزِيلُ السَّجْدَةَ، وَهَلْ أَتَى عَلَى الْإِنْسَانِ \"",
      "english": {
        "narrator": "",
        "text": ""
      }
    },
    {
      "id": 353,
      "chapterId": 2,
      "bookId": 9,
      "arabic": "أَخْبَرَنَا مُحَمَّدُ بْنُ يُوسُفَ  ، حَدَّثَنَا الْأَوْزَاعِيُّ  ، عَنْ يَحْيَى  ، عَنْ أَبِي سَلَمَةَ بْنِ عَبْدِ الرَّحْمَنِ  ، عَنْ أَبِي هُرَيْرَةَ  ، قَالَ : قَالَ رَسُولُ اللَّهِ صَلَّى اللَّهُ عَلَيْهِ وَسَلَّمَ :\" الْمُتَعَجِّلُ إِلَى الْجُمُعَةِ كَالْمُهْدِي جَزُورًا، ثُمَّ الَّذِي يَلِيهِ كَالْمُهْدِي بَقَرَةً، ثُمَّ الَّذِي يَلِيهِ كَالْمُهْدِي شَاةً، فَإِذَا جَلَسَ الْإِمَامُ عَلَى الْمِنْبَرِ، طُوِيَتْ الصُّحُفُ، وَجَلَسُوا يَسْتَمِعُونَ الذِّكْرَ \"",
      "english": {
        "narrator": "",
        "text": ""
      }
    },
    {
      "id": 354,
      "chapterId": 2,
      "bookId": 9,
      "arabic": "أَخْبَرَنَا نَصْرُ بْنُ عَلِيٍّ  ، حَدَّثَنَا عَبْدُ الْأَعْلَى  ، عَنْ مَعْمَرٍ  ، عَنْ الزُّهْرِيِّ  ، عَنْ الْأَغَرِّ أَبِي عَبْدِ اللَّهِ  صَاحِبِ أَبِي هُرَيْرَةَ، عَنْ أَبِي هُرَيْرَةَ  ، أَنَّ النَّبِيَّ صَلَّى اللَّهُ عَلَيْهِ وَسَلَّمَ قَالَ :\" إِذَا كَانَ يَوْمُ الْجُمُعَةِ، قَعَدَتْ الْمَلَائِكَةُ عَلَى أَبْوَابِ الْمَسْجِدِ، فَكَتَبُوا مَنْ جَاءَ إِلَى الْجُمُعَةِ، فَإِذَا رَاحَ الْإِمَامُ، طَوَتْ الْمَلَائِكَةُ الصُّحُفَ وَدَخَلَتْ تَسْتَمِعُ الذِّكْرَ \"",
      "english": {
        "narrator": "",
        "text": ""
      }
    },
    {
      "id": 355,
      "chapterId": 2,
      "bookId": 9,
      "arabic": "قَالَ : وَقَالَ رَسُولُ اللَّهِ صَلَّى اللَّهُ عَلَيْهِ وَسَلَّمَ :\" الْمُتَهَجِّرُ إِلَى الْجُمُعَةِ كَالْمُهْدِي بَدَنَةً، ثُمَّ كَالْمُهْدِي بَقَرَةً، ثُمَّ كَالْمُهْدِي شَاةً، ثُمَّ كَالْمُهْدِي بَطَّةً، ثُمَّ كَالْمُهْدِي دَجَاجَةً، ثُمَّ كَالْمُهْدِي بَيْضَةً \"",
      "english": {
        "narrator": "",
        "text": ""
      }
    },
    {
      "id": 356,
      "chapterId": 2,
      "bookId": 9,
      "arabic": "أَخْبَرَنَا عُبَيْدُ اللَّهِ بْنُ مُوسَى  ، عَنْ ابْنِ أَبِي ذِئْبٍ  ، عَنْ مُسْلِمِ بْنِ جُنْدُبٍ  ، عَنْ الزُّبَيْرِ بْنِ الْعَوَّامٍ  ، قَالَ : \" كُنَّانُصَلِّي مَعَ النَّبِيِّ صَلَّى اللَّهُ عَلَيْهِ وَسَلَّمَ الْجُمُعَةَ، ثُمَّ نَرْجِعُ فَنَتَبَادِرُ الظِّلَّ فِي أُطُمِ بَنِي غَنْمٍ، فَمَا هُوَ إِلَّا مَوَاضِعُ أَقْدَامِنَا \"",
      "english": {
        "narrator": "",
        "text": ""
      }
    },
    {
      "id": 357,
      "chapterId": 2,
      "bookId": 9,
      "arabic": "أَخْبَرَنَا عَفَّانُ بْنُ مُسْلِمٍ  ، حَدَّثَنَا يَعْلَى بْنُ الْحَارِثِ  ، قَالَ : سَمِعْتُ إِيَاسَ بْنَ سَلَمَةَ بْنِ الْأَكْوَعِ  يُحَدِّثُ، عَنْ أَبِيهِ  ، قَالَ : \" كُنَّانُصَلِّي مَعَ رَسُولِ اللَّهِ صَلَّى اللَّهُ عَلَيْهِ وَسَلَّمَ الْجُمُعَةَ، ثُمَّ نَنْصَرِفُ وَلَيْسَ لِلْحِيطَانِ فَيْءٌ يُسْتَظَلُّ بِهِ \"",
      "english": {
        "narrator": "",
        "text": ""
      }
    },
    {
      "id": 358,
      "chapterId": 2,
      "bookId": 9,
      "arabic": "أَخْبَرَنَا مُحَمَّدُ بْنُ الْمُبَارَكِ  ، حَدَّثَنَا صَدَقَةُ هُوَ ابْنُ خَالِدٍ  ، عَنْ يَحْيَى بْنِ الْحَارِثِ  ، عَنْ أَبِي الْأَشْعَثِ الصَّنْعَانِيِّ  ، يَرُدُّهُ إِلَى أَوْسِ بْنِ أَوْسٍ  ، يَرُدُّهُ إِلَى النَّبِيِّ صَلَّى اللَّهُ عَلَيْهِ وَسَلَّمَ، قَالَ :\" مَنْ غَسَّلَ وَاغْتَسَلَ يَوْمَ الْجُمُعَةِ، ثُمَّ غَدَا وَابْتَكَرَ، ثُمَّ جَلَسَ قَرِيبًا مِنْ الْإِمَامِ وَأَنْصَتَ، وَلَمْ يَلْغُ حَتَّى يَنْصَرِفَ الْإِمَامُ، كَانَ لَهُ بِكُلِّ خُطْوَةٍ يَخْطُوهَا كَعَمَلِ سَنَةٍ صِيَامِهَا وَقِيَامِهَا \"",
      "english": {
        "narrator": "",
        "text": ""
      }
    },
    {
      "id": 359,
      "chapterId": 2,
      "bookId": 9,
      "arabic": "حَدَّثَنَا خَالِدُ بْنُ مَخْلَدٍ  ، حَدَّثَنَا مَالِكٌ  ، عَنْ أَبِي الزِّنَادِ  ، عَنْ الْأَعْرَجِ  ، عَنْ أَبِي هُرَيْرَةَ  ، قَالَ : قَالَ رَسُولُ اللَّهِ صَلَّى اللَّهُ عَلَيْهِ وَسَلَّمَ :\" إِذَا قُلْتَ لِصَاحِبِكَ : أَنْصِتْ وَالْإِمَامُ يَخْطُبُ فَقَدْ لَغَوْتَ \"",
      "english": {
        "narrator": "",
        "text": ""
      }
    },
    {
      "id": 360,
      "chapterId": 2,
      "bookId": 9,
      "arabic": "حَدَّثَنَا خَالِدُ بْنُ مَخْلَدٍ  ، حَدَّثَنَا مَالِكٌ  ، عَنْ الزُّهْرِيِّ  ، عَنْ سَعِيدٍ  ، عَنْ أَبِي هُرَيْرَةَ  ، قَالَ : قَالَ رَسُولُ اللَّهِ صَلَّى اللَّهُ عَلَيْهِ وَسَلَّمَ :\" إِذَا قُلْتَ لِصَاحِبِكَ : أَنْصِتْ، وَالْإِمَامُ يَخْطُبُ فَقَدْ لَغَوْتَ \".\nأَخْبَرَنَا الْمُعَلَّى بْنُ أَسَدٍ  ، حَدَّثَنَا وُهَيْبٌ  ، عَنْ مَعْمَرٍ  ، عَنْ الزُّهْرِيِّ  ، عَنْ سَعِيدِ بْنِ الْمُسَيِّبِ  ، عَنْ أَبِي هُرَيْرَةَ  ، عَنْ النَّبِيِّ صَلَّى اللَّهُ عَلَيْهِ وَسَلَّمَ، مِثْلَهُ",
      "english": {
        "narrator": "",
        "text": ""
      }
    },
    {
      "id": 361,
      "chapterId": 2,
      "bookId": 9,
      "arabic": "حَدَّثَنَا هَاشِمُ بْنُ الْقَاسِمِ  ، حَدَّثَنَا شُعْبَةُ  ، عَنْ عَمْرِو بْنِ دِينَارٍ  ، قَالَ : سَمِعْتُ جَابِرَ بْنَ عَبْدِ اللَّهِ   يُحَدِّثُ، عَنْ النَّبِيِّ صَلَّى اللَّهُ عَلَيْهِ وَسَلَّمَ، قَالَ :\" إِذَا جَاءَ أَحَدُكُمْ وَالْإِمَامُ يَخْطُبُ أَوْ قَدْ خَرَجَ، فَلْيُصَلِّ رَكْعَتَيْنِ \"",
      "english": {
        "narrator": "",
        "text": ""
      }
    },
    {
      "id": 362,
      "chapterId": 2,
      "bookId": 9,
      "arabic": "أَخْبَرَنَا صَدَقَةُ  ، حَدَّثَنَا سُفْيَانُ  ، عَنْ ابْنِ عَجْلَانَ  ، عَنْ عِيَاضِ بْنِ عَبْدِ اللَّهِ  ، قَالَ : جَاءَ أَبُو سَعِيدٍ   وَمَرْوَانُ يَخْطُبُ،\" فَقَامَ يُصَلِّي رَكْعَتَيْنِ، فَأَتَاهُ الْحَرَسُ يَمْنَعُونَهُ، فَقَالَ : مَا كُنْتُ أَتْرُكُهُمَا وَقَدْ رَأَيْتُ رَسُولَ اللَّهِ صَلَّى اللَّهُ عَلَيْهِ وَسَلَّمَ يَأْمُرُ بِهِمَا \"",
      "english": {
        "narrator": "",
        "text": ""
      }
    },
    {
      "id": 363,
      "chapterId": 2,
      "bookId": 9,
      "arabic": "أَخْبَرَنَا مُحَمَّدُ بْنُ يُوسُفَ  ، حَدَّثَنَا سُفْيَانُ  ، عَنْ الرَّبِيعِ هُوَ ابْنُ صَبِيحٍ الْبَصْرِيُّ  ، قَالَ : رَأَيْتُ الْحَسَنَ \" يُصَلِّي رَكْعَتَيْنِ وَالْإِمَامُ يَخْطُبُ \".\nوَقَالَ الْحَسَنُ   : قَالَ رَسُولُ اللَّهِ صَلَّى اللَّهُ عَلَيْهِ وَسَلَّمَ :\" إِذَا جَاءَ أَحَدُكُمْ وَالْإِمَامُ يَخْطُبُ، فَلْيُصَلِّ رَكْعَتَيْنِ خَفِيفَتَيْنِ يَتَجَوَّزُ فِيهِمَا \".\nقَالَ أَبُو مُحَمَّد : أَقُولُ بِهِ",
      "english": {
        "narrator": "",
        "text": ""
      }
    },
    {
      "id": 364,
      "chapterId": 2,
      "bookId": 9,
      "arabic": "أَخْبَرَنَا عَبْدُ اللَّهِ بْنُ صَالِحٍ  ، حَدَّثَنِي اللَّيْثُ  ، أَخْبَرَنِي خَالِدٌ يَعْنِي ابْنَ يَزِيدَ  ، عَنْ سَعِيدِ بْنِ أَبِي هِلَالٍ  ، عَنْ عِيَاضِ بْنِ عَبْدِ اللَّهِ  ، عَنْ أَبِي سَعِيدٍ الْخُدْرِيِّ  ، قَالَ : \" خَطَبَنَا رَسُولُ اللَّهِ صَلَّى اللَّهُ عَلَيْهِ وَسَلَّمَ يَوْمًافَقَرَأَ ص ، فَلَمَّا مَرَّ بِالسَّجْدَةِ نَزَلَ فَسَجَدَ \"",
      "english": {
        "narrator": "",
        "text": ""
      }
    },
    {
      "id": 365,
      "chapterId": 2,
      "bookId": 9,
      "arabic": "أَخْبَرَنَا مُحَمَّدُ بْنُ يُوسُفَ  ، حَدَّثَنَا ابْنُ عُيَيْنَةَ  ، عَنْ عَمْرِو بْنِ دِينَارٍ  ، قَالَ : سَمِعْتُ جَابِرَ بْنَ عَبْدِ اللَّهِ  ، يَقُولُ : دَخَلَ رَجُلٌ الْمَسْجِدَ يَوْمَ الْجُمُعَةِ وَرَسُولُ اللَّهِ صَلَّى اللَّهُ عَلَيْهِ وَسَلَّمَ يَخْطُبُ، قَالَ : \" أَصَلَّيْتَ؟ قَالَ : لَا، قَالَ :\" فَصَلِّ رَكْعَتَيْنِ \".\nقَالَ أَبُو مُحَمَّد : أَقُولُ بِهِ",
      "english": {
        "narrator": "",
        "text": ""
      }
    },
    {
      "id": 366,
      "chapterId": 2,
      "bookId": 9,
      "arabic": "أَخْبَرَنَا الْعَلَاءُ بْنُ عُصَيْمٍ الْجُعْفِيُّ  ، حَدَّثَنَا عَبْدُ الرَّحْمَنِ بْنُ عَبْدِ الْمَلِكِ بْنِ أَبْجَرَ  ، حَدَّثَنِي أَبِي عَبْدُ اللَّهِ بْنُ أبْجَرَ  ، عَنْ وَاصِلِ بْنِ حَيَّانَ  ، عَنْ أَبِي وَائِلٍ  ، قَالَ : خَطَبَنَا عَمَّارُ بْنُ يَاسِرٍ   فَأَبْلَغَ وَأَوْجَزَ، فَقُلْنَا : يَا أَبَا الْيَقْظَانِ، لَوْ كُنْتَ نَفَّسْتَ شَيْئًا؟ قَالَ : سَمِعْتُ رَسُولَ اللَّهِ صَلَّى اللَّهُ عَلَيْهِ وَسَلَّمَ يَقُولُ : \" إِنَّطُولَ صَلَاةِ الرَّجُلِ، وَقِصَرَ خُطْبَتِهِ مَئِنَّةٌ مِنْ فِقْهِهِ، فَأَطِيلُوا هَذِهِ الصَّلَاةَ، وَاقْصُرُوا هَذِهِ الْخُطَبَ، فَإِنَّ مِنْ الْبَيَانِ لَسِحْرًا \"",
      "english": {
        "narrator": "",
        "text": ""
      }
    },
    {
      "id": 367,
      "chapterId": 2,
      "bookId": 9,
      "arabic": "حَدَّثَنَا مُحَمَّدُ بْنُ سَعِيدٍ  ، حَدَّثَنَا أَبُو الْأَحْوَصِ  ، عَنْ سِمَاكٍ  ، عَنْ جَابِرِ بْنِ سَمُرَةَ  ، قَالَ : \" صَلَّيْتُ مَعَ النَّبِيِّ صَلَّى اللَّهُ عَلَيْهِ وَسَلَّمَ فَكَانَتْصَلَاتُهُ قَصْدًا وَخُطْبَتُهُ قَصْدًا \"",
      "english": {
        "narrator": "",
        "text": ""
      }
    },
    {
      "id": 368,
      "chapterId": 2,
      "bookId": 9,
      "arabic": "حَدَّثَنَا مُسَدَّدٌ  ، حَدَّثَنَا بِشْرُ بْنُ الْمُفَضَّلِ  ، حَدَّثَنَا عُبَيْدُ اللَّهِ  ، عَنْ نَافِعٍ  ، عَنْ ابْنِ عُمَرَ  ، أَنّ رَسُولَ اللَّهِ صَلَّى اللَّهُ عَلَيْهِ وَسَلَّمَ \" كَانَيَخْطُبُ خُطْبَتَيْنِ وَهُوَ قَائِمٌ، وَكَانَ يَفْصِلُ بَيْنَهُمَا بِجُلُوسٍ \"",
      "english": {
        "narrator": "",
        "text": ""
      }
    },
    {
      "id": 369,
      "chapterId": 2,
      "bookId": 9,
      "arabic": "أَخْبَرَنَا مُحَمَّدُ بْنُ سَعِيدٍ  ، حَدَّثَنَا أَبُو الْأَحْوَصِ  ، عَنْ سِمَاكٍ  ، عَنْ جَابِرِ بْنِ سَمُرَةَ  ، قَالَ : \" كَانَتْلِلنَّبِيِّ صَلَّى اللَّهُ عَلَيْهِ وَسَلَّمَ خُطْبَتَانِ يَجْلِسُ بَيْنَهُمَا يَقْرَأُ الْقُرْآنَ وَيُذَكِّرُ النَّاسَ \"",
      "english": {
        "narrator": "",
        "text": ""
      }
    },
    {
      "id": 370,
      "chapterId": 2,
      "bookId": 9,
      "arabic": "أَخْبَرَنَا أَحْمَدُ بْنُ عَبْدِ اللَّهِ  ، حَدَّثَنَا أَبُو زُبَيْدٍ  ، حَدَّثَنَا حُصَيْنٌ  قَالَ : رَأَى عُمَارَةُ بْنُ رُوَيْبَةَ   بِشْرَ بْنَ مَرْوَانَ عَلَى الْمِنْبَرِ رَافِعًا يَدَيْهِ، فَقَالَ : \" قَبَّحَ اللَّهُ هَاتَيْنِ الْيَدَيْنِ، لَقَدْ رَأَيْتُ رَسُولَ اللَّهِ صَلَّى اللَّهُ عَلَيْهِ وَسَلَّمَعَلَى الْمِنْبَرِ، وَمَا يُشِيرُ إِلَّا بِإِصْبُعِهِ \"",
      "english": {
        "narrator": "",
        "text": ""
      }
    },
    {
      "id": 371,
      "chapterId": 2,
      "bookId": 9,
      "arabic": "حَدَّثَنَا مُحَمَّدُ بْنُ يُوسُفَ  ، حَدَّثَنَا سُفْيَانُ  ، عَنْ حُصَيْنِ بْنِ عَبْدِ الرَّحْمَنِ  ، عَنْ عُمَارَةَ بْنِ رُوَيْبَةَ  ، قَالَ : رَأَى بِشْرَ بْنَ مَرْوَانَ رَافِعًا يَدَيْهِ يَدْعُو عَلَى الْمِنْبَرِ يَوْمَ الْجُمُعَةِ، قَالَ : فَسَبَّهُ، وَقَالَ : \" لَقَدْ رَأَيْتُ رَسُولَ اللَّهِ صَلَّى اللَّهُ عَلَيْهِ وَسَلَّمَعَلَى الْمِنْبَرِ وَمَا يَقُولُ بِأُصْبُعِهِ إِلَّا هَكَذَا، وَأَشَارَ بِالسَّبَّابَةِ عِنْدَ الْخَاصِرَةِ \"",
      "english": {
        "narrator": "",
        "text": ""
      }
    },
    {
      "id": 372,
      "chapterId": 2,
      "bookId": 9,
      "arabic": "أَخْبَرَنَا مُحَمَّدُ بْنُ كَثِيرٍ  ، عَنْ سُلَيْمَانَ بْنِ كَثِيرٍ  ، عَنْ الزُّهْرِيِّ  ، عَنْ سَعِيدِ بْنِ الْمُسَيِّبِ  ، عَنْ جَابِرِ بْنِ عَبْدِ اللَّهِ  ، قَالَ : \" كَانَ رَسُولُ اللَّهِ صَلَّى اللَّهُ عَلَيْهِ وَسَلَّمَيَقُومُ إِلَى جِذْعٍ قَبْلَ أَنْ يُجْعَلَ الْمِنْبَرُ، فَلَمَّا جُعِلَ الْمِنْبَرُ، حَنَّ ذَلِكَ الْجِذْعُ حَتَّى سَمِعْنَا حَنِينَهُ، فَوَضَعَ رَسُولُ اللَّهِ صَلَّى اللَّهُ عَلَيْهِ وَسَلَّمَ يَدَهُ عَلَيْهِ، فَسَكَنَ \"",
      "english": {
        "narrator": "",
        "text": ""
      }
    },
    {
      "id": 373,
      "chapterId": 2,
      "bookId": 9,
      "arabic": "حَدَّثَنَا حَجَّاجُ بْنُ مِنْهَالٍ  ، حَدَّثَنَا حَمَّادُ بْنُ سَلَمَةَ  ، عَنْ عَمَّارِ بْنِ أَبِي عَمَّارٍ  ، عَنْ ابْنِ عَبَّاسٍ  ، أَنّ النَّبِيَّ صَلَّى اللَّهُ عَلَيْهِ وَسَلَّمَ كَانَيَخْطُبُ إِلَى جِذْعٍ قَبْلَ أَنْ يَتَّخِذَ الْمِنْبَرَ، فَلَمَّا اتَّخَذَ الْمِنْبَرَ، تَحَوَّلَ إِلَيْهِ، حَنَّ الْجِذْعُ فَاحْتَضَنَهُ فَسَكَنَ، وَقَالَ : \" لَوْ لَمْ أَحْتَضِنْهُ، لَحَنَّ إِلَى يَوْمِ الْقِيَامَةِ \".\nحَدَّثَنَا حَجَّاجٌ  ، حَدَّثَنَا حَمَّادٌ  ، عَنْ ثَابِتٍ  ، عَنْ أَنَسٍ   ، عَنْ النَّبِيِّ صَلَّى اللَّهُ عَلَيْهِ وَسَلَّمَ، مِثْلَهُ",
      "english": {
        "narrator": "",
        "text": ""
      }
    },
    {
      "id": 374,
      "chapterId": 2,
      "bookId": 9,
      "arabic": "حَدَّثَنَا عَبْدُ اللَّهِ بْنُ يَزِيدَ  ، حَدَّثَنَا الْمَسْعُودِيُّ  ، عَنْ أَبِي حَازِمٍ  ، عَنْ سَهْلِ بْنِ سَعْدٍ  ، قَالَ : لَمَّا كَثُرَ النَّاسُ بِالْمَدِينَةِ ، جَعَلَ الرَّجُلُ يَجِيءُ وَالْقَوْمُ يَجِيئُونَ فَلَا يَكَادُونَ أَنْ يَسْمَعُونَ كَلَامَ رَسُولِ اللَّهِ صَلَّى اللَّهُ عَلَيْهِ وَسَلَّمَ حَتَّى يَرْجِعُوا مِنْ عِنْدِهِ، فَقَالَ لَهُ النَّاسُ : يَا رَسُولَ اللَّهِ، إِنَّ النَّاسَ قَدْ كَثُرُوا، وَإِنَّ الْجَائِيَ يَجِيءُ فَلَا يَكَادُ يَسْمَعُ كَلَامَكَ.\nقَالَ : \" فَمَا شِئْتُمْ \"، فَأَرْسِلْ إِلَى غُلَامٍ لِامْرَأَةٍ مِنْ الْأَنْصَارِ، نَجَّارٍ، وَإِلَى طَرْفَاءِ الْغَابَةِ، فَجَعَلُوا لَهُ مِرْقَاتَيْنِ أَوْ ثَلَاثَةً، فَكَانَ رَسُولُ اللَّهِ صَلَّى اللَّهُ عَلَيْهِ وَسَلَّمَ\" يَجْلِسُ عَلَيْهِ وَيَخْطُبُ عَلَيْهِ، فَلَمَّا فَعَلُوا ذَلِكَ حَنَّتِ الْخَشَبَةُ الَّتِي كَانَ يَقُومُ عِنْدَهَا، فَقَامَ رَسُولُ اللَّهِ صَلَّى اللَّهُ عَلَيْهِ وَسَلَّمَ إِلَيْهَا فَوَضَعَ يَدَهُ عَلَيْهَا، فَسَكَنَتْ \"",
      "english": {
        "narrator": "",
        "text": ""
      }
    },
    {
      "id": 375,
      "chapterId": 2,
      "bookId": 9,
      "arabic": "أَخْبَرَنَا خَالِدُ بْنُ مَخْلَدٍ  ، حَدَّثَنَا مَالِكٌ  ، عَنْ ضَمْرَةَ بْنِ سَعِيدٍ الْمَازِنِيِّ  ، عَنْ عُبَيْدِ اللَّهِ بْنِ عَبْدِ اللَّهِ بْنِ عُتْبَةَ  ، أَنَّ الضَّحَّاكَ بْنَ قَيْسٍ سَأَلَ النُّعْمَانَ بْنَ بَشِيرٍ الْأَنْصَارِيّ   :\" مَا كَانَ رَسُولُ اللَّهِ صَلَّى اللَّهُ عَلَيْهِ وَسَلَّمَ يَقْرَأُ يَوْمِ الْجُمُعَةِ عَلَى إِثْرِ سُورَةِ الْجُمُعَةِ ؟ قَالَ : هَلْ أَتَاكَ حَدِيثُ الْغَاشِيَةِ \"",
      "english": {
        "narrator": "",
        "text": ""
      }
    },
    {
      "id": 376,
      "chapterId": 2,
      "bookId": 9,
      "arabic": "حَدَّثَنَا إِسْمَاعِيل بْنُ أَبَانَ  ، حَدَّثَنَا أَبُو أُوَيْسٍ  ، عَنْ ضَمْرَةَ بْنِ سَعِيدٍ الْمَازِنِيِّ  ، عَنْ عُبَيْدِ اللَّهِ بْنِ عَبْدِ اللَّهِ بْنِ عُتْبَةَ  ، عَنْ الضَّحَّاكِ بْنِ قَيْسٍ الْفِهْرِيِّ  ، عَنْ النُّعْمَانِ بْنِ بَشِيرٍ الْأَنْصَارِيِّ  ، قَالَ : سَأَلْنَاهُ :\" مَا كَانَ يَقْرَأُ بِهِمْ النَّبِيُّ يَوْمَ الْجُمُعَةِ مَعَ السُّورَةِ الَّتِي ذُكِرَتْ فِيهَا الْجُمُعَةُ؟ قَالَ : كَانَ يَقْرَأُ مَعَهَا هَلْ أَتَاكَ حَدِيثُ الْغَاشِيَةِ \"",
      "english": {
        "narrator": "",
        "text": ""
      }
    },
    {
      "id": 377,
      "chapterId": 2,
      "bookId": 9,
      "arabic": "حَدَّثَنَا مُحَمَّدُ بْنُ يُوسُفَ  ، حَدَّثَنَا سُفْيَانُ  ، عَنْ إِبْرَاهِيمَ بْنِ مُحَمَّدِ بْنِ الْمُنْتَشِرِ  ، عَنْ أَبِيهِ  ، عَنْ حَبِيبِ بْنِ سَالِمٍ  ، عَنْ النُّعْمَانِ بْنِ بَشِيرٍ  ، قَالَ : \" كَانَ النَّبِيُّ صَلَّى اللَّهُ عَلَيْهِ وَسَلَّمَيَقْرَأُ فِي الْعِيدَيْنِ وَالْجُمُعَةِ ب سَبِّحِ اسْمَ رَبِّكَ الْأَعْلَى وَهَلْ أَتَاكَ حَدِيثُ الْغَاشِيَةِ، وَرُبَّمَا اجْتَمَعَا فَقَرَأَ بِهِمَا \"",
      "english": {
        "narrator": "",
        "text": ""
      }
    },
    {
      "id": 378,
      "chapterId": 2,
      "bookId": 9,
      "arabic": "أَخْبَرَنَا مُحَمَّدُ بْنُ كَثِيرٍ  ، عَنْ مَخْلَدِ بْنِ حُسَيْنٍ  ، عَنْ هِشَامٍ  ، عَنْ ابْنِ سِيرِينَ  ، عَنْ أَبِي هُرَيْرَةَ  ، قَالَ : الْتَقَيْتُ أَنَا وَكَعْبٌ، فَجَعَلْتُ أُحَدِّثُ عَنْ رَسُولِ اللَّهِ صَلَّى اللَّهُ عَلَيْهِ وَسَلَّمَ، وَجَعَلَ يُحَدِّثُنِي عَنْ التَّوْرَاةِ، حَتَّى أَتَيْنَا عَلَى ذِكْرِ يَوْمِ الْجُمُعَةِ.\nفَقُلْتُ : إِنَّ رَسُولَ اللَّهِ صَلَّى اللَّهُ عَلَيْهِ وَسَلَّمَ قَالَ : \" إِنَّفِيهَا لَسَاعَةً لَا يُوَافِقُهَا عَبْدٌ مُسْلِمٌ يُصَلِّي يَسْأَلُ اللَّهَ فِيهَا خَيْرًا، إِلَّا أَعْطَاهُ إِيَّاهُ \"",
      "english": {
        "narrator": "",
        "text": ""
      }
    },
    {
      "id": 379,
      "chapterId": 2,
      "bookId": 9,
      "arabic": "حَدَّثَنَا يَحْيَى بْنُ حَسَّانَ  ، حَدَّثَنَا مُعَاوِيَةُ بْنُ سَلَّامٍ  ، أَخْبَرَنِي زَيْدُ بْنُ سَلَّامٍ  ، أَنَّهُ سَمِعَ أَبَا سَلَّامٍ  ، قَالَ : حَدَّثَنِي الْحَكَمُ بْنُ مِينَا  ،  أَنَّ ابْنَ عُمَرَ  حَدَّثَهُ وَأَبَا هُرَيْرَةَ   ، أَنَّهُمَا سَمِعَا رَسُولَ اللَّهِ صَلَّى اللَّهُ عَلَيْهِ وَسَلَّمَ، يَقُولُ وَهُوَ عَلَى أَعْوَادِ مِنْبَرِهِ :\" لَيَنْتَهِيَنَّ أَقْوَامٌ عَنْ وَدَعِهِمْ الْجُمُعَاتِ، أَوْ لَيَخْتِمَنَّ اللَّهُ عَلَى قُلُوبِهِمْ، ثُمَّ لَيَكُونُنَّ مِنْ الْغَافِلِينَ \"",
      "english": {
        "narrator": "",
        "text": ""
      }
    },
    {
      "id": 380,
      "chapterId": 2,
      "bookId": 9,
      "arabic": "حَدَّثَنَا يَعْلَى  ، حَدَّثَنَا مُحَمَّدُ بْنُ عَمْرٍو  ، عَنْ عَبِيدَةَ بْنِ سُفْيَانَ  ، عَنْ أَبِي الْجَعْدِ الضَّمْرِيِّ  ، قَالَ : قَالَ رَسُولُ اللَّهِ صَلَّى اللَّهُ عَلَيْهِ وَسَلَّمَ :\" مَنْ تَرَكَ الْجُمُعَةَ تَهَاوُنًا بِهَا، طَبَعَ اللَّهُ عَلَى قَلْبِهِ \"",
      "english": {
        "narrator": "",
        "text": ""
      }
    },
    {
      "id": 381,
      "chapterId": 2,
      "bookId": 9,
      "arabic": "أَخْبَرَنَا عُثْمَانُ بْنُ مُحَمَّدٍ  ، حَدَّثَنَا الْحُسَيْنُ بْنُ عَلِيٍّ  ، عَنْ عَبْدِ الرَّحْمَنِ بْنِ يَزِيدَ بْنِ جَابِرٍ  ، عَنْ أَبِي الْأَشْعَثِ الصَّنْعَانِيِّ  ، عَنْ أَوْسِ بْنِ أَوْسٍ  ، قَالَ : قَالَ رَسُولُ اللَّهِ صَلَّى اللَّهُ عَلَيْهِ وَسَلَّمَ : \" إِنَّأَفْضَلَ أَيَّامِكُمْ يَوْمُ الْجُمُعَةِ : فِيهِ خُلِقَ آدَمُ ، وَفِيهِ النَّفْخَةُ، وَفِيهِ الصَّعْقَةُ، فَأَكْثِرُوا عَلَيَّ مِنْ الصَّلَاةِ فِيهِ، فَإِنَّ صَلَاتَكُمْ مَعْرُوضَةٌ عَلَيَّ \"",
      "english": {
        "narrator": "",
        "text": ""
      }
    },
    {
      "id": 382,
      "chapterId": 2,
      "bookId": 9,
      "arabic": "قَالَ رَجُلٌ : يَا رَسُولَ اللَّهِ، كَيْفَ تُعْرَضُ صَلَاتُنَا عَلَيْكَ وَقَدْ أَرَمْتَ؟ يَعْنِي : بَلِيتَ.\nقَالَ : \" إِنَّاللَّهَ حَرَّمَ عَلَى الْأَرْضِ أَنْ تَأْكُلَ أَجْسَادَ الْأَنْبِيَاءِ \"",
      "english": {
        "narrator": "",
        "text": ""
      }
    },
    {
      "id": 383,
      "chapterId": 2,
      "bookId": 9,
      "arabic": "أَخْبَرَنَا أَبُو عَاصِمٍ  ، عَنْ مَالِكٍ  ، عَنْ نَافِعٍ  ، عَنْ ابْنِ عُمَرَ  ، أَنّ النَّبِيَّ صَلَّى اللَّهُ عَلَيْهِ وَسَلَّمَ \" كَانَيُصَلِّي بَعْدَ الْجُمُعَةِ رَكْعَتَيْنِ فِي بَيْتِهِ \"",
      "english": {
        "narrator": "",
        "text": ""
      }
    },
    {
      "id": 384,
      "chapterId": 2,
      "bookId": 9,
      "arabic": "أَخْبَرَنَا مُحَمَّدُ بْنُ أَحْمَدَ بْنِ أَبِي خَلَفٍ  ، حَدَّثَنَا سُفْيَانُ  ، عَنْ عَمْرٍو يَعْنِي : ابْنَ دِينَارٍ  ، عَنْ ابْنِ شِهَابٍ  ، عَنْ سَالِمٍ  ، عَنْ أَبِيهِ  ، أَنّ النَّبِيَّ صَلَّى اللَّهُ عَلَيْهِ وَسَلَّمَ \" كَانَيُصَلِّي بَعْدَ الْجُمُعَةِ رَكْعَتَيْنِ \"",
      "english": {
        "narrator": "",
        "text": ""
      }
    },
    {
      "id": 385,
      "chapterId": 2,
      "bookId": 9,
      "arabic": "أَخْبَرَنَا مُحَمَّدُ بْنُ يُوسُفَ  ، حَدَّثَنَا سُفْيَانُ  ، عَنْ سُهَيْلِ بْنِ أَبِي صَالِحٍ  ، عَنْ أَبِيهِ  ، عَنْ أَبِي هُرَيْرَةَ  ، عَنْ النَّبِيِّ صَلَّى اللَّهُ عَلَيْهِ وَسَلَّمَ، قَالَ :\" مَنْ كَانَ مِنْكُمْ مُصَلِّيًا بَعْدَ الْجُمُعَةِ، فَلْيُصَلِّ بَعْدَهَا أَرْبَعًا \".\nقَالَ أَبُو مُحَمَّد : أُصَلِّي بَعْدَ الْجُمُعَةِ رَكْعَتَيْنِ أَوْ أَرْبَعًا",
      "english": {
        "narrator": "",
        "text": ""
      }
    },
    {
      "id": 386,
      "chapterId": 2,
      "bookId": 9,
      "arabic": "حَدَّثَنَا أَبُو الْوَلِيدِ الطَّيَالِسِيُّ  ، حَدَّثَنَا لَيْثٌ هُوَ ابْنُ سَعْدٍ  ، حَدَّثَنَا يَزِيدُ بْنُ أَبِي حَبِيبٍ  ، عَنْ عَبْدِ اللَّهِ بْنِ رَاشِدٍ الزَّوْفِيِّ  ، عَنْ عَبْدِ اللَّهِ بْنِ أَبِي مُرَّةَ الزَّوْفِيِّ  ، عَنْ خَارِجَةَ بْنِ حُذَافَةَ الْعَدَوِيِّ  ، قَالَ : خَرَجَ عَلَيْنَا رَسُولُ اللَّهِ صَلَّى اللَّهُ عَلَيْهِ وَسَلَّمَ، فَقَالَ : \" إِنَّاللَّهَ قَدْ أَمَدَّكُمْ بِصَلَاةٍ هِيَ خَيْرٌ لَكُمْ مِنْ حُمْرِ النَّعَمِ، جَعَلَهُ لَكُمْ فِيمَا بَيْنَ صَلَاةِ الْعِشَاءِ إِلَى أَنْ يَطْلُعَ الْفَجْرُ \"",
      "english": {
        "narrator": "",
        "text": ""
      }
    },
    {
      "id": 387,
      "chapterId": 2,
      "bookId": 9,
      "arabic": "أَخْبَرَنَا يَزِيدُ بْنُ هَارُونَ  ، أَخْبَرَنَا يَحْيَى بْنُ سَعِيدٍ الْأَنْصَارِيُّ  ، أَنَّ مُحَمَّدَ بْنَ يَحْيَى بْنِ حَبَّانَ  أَخْبَرَهُ، أَنَّ ابْنَ مُحَيْرِيزٍ الْقُرَشِيَّ ثُمَّ الْجُمَحِيَّ  أَخْبَرَهُ وَكَانَ يَسْكُنُ بِالشَّامِ ، وَكَانَ أَدْرَكَ مُعَاوِيَةَ ، أَنَّ الْمُخْدَجِيَّ  رَجُلٌ مِنْ بَنِي كِنَانَةَ أَخْبَرَهُ، أَنَّ رَجُلًا مِنْ الشَّامِ ، وَكَانَتْ لَهُ صُحْبَةٌ، يُكْنَى أَبَا مُحَمَّدٍ، أَخْبَرَهُ : أَنَّ الْوِتْرَ وَاجِبٌ، فَرَاحَ الْمُخْدَجِيُّ إِلَى عُبَادَةَ بْنِ الصَّامِتِ فَذَكَرَ ذَلِكَ لَهُ.\nفَقَالَ عُبَادَةُ   : كَذَبَ أَبُو مُحَمَّدٍ، سَمِعْتُ رَسُولَ اللَّهِ صَلَّى اللَّهُ عَلَيْهِ وَسَلَّمَ يَقُولُ :\" خَمْسُ صَلَوَاتٍ كَتَبَهُنَّ اللَّهُ عَلَى الْعِبَادِ، مَنْ أَتَى بِهِنَّ لَمْ يُضَيِّعْ مِنْ حَقِّهِنَّ شَيْئًا اسْتِخْفَافًا بِحَقِّهِنَّ، كَانَ لَهُ عِنْدَ اللَّهِ عَهْدٌ أَنْ يُدْخِلَهُ الْجَنَّةَ، وَمَنْ لَمْ يَأْتِ بِهِنَّ، جَاءَ وَلَيْسَ لَهُ عِنْدَ اللَّهِ عَهْدٌ إِنْ شَاءَ عَذَّبَهُ، وَإِنْ شَاءَ، أَدْخَلَهُ الْجَنَّةَ \"",
      "english": {
        "narrator": "",
        "text": ""
      }
    },
    {
      "id": 388,
      "chapterId": 2,
      "bookId": 9,
      "arabic": "أَخْبَرَنَا يَحْيَى بْنُ حَسَّانَ  ، حَدَّثَنَا إِسْمَاعِيل بْنُ جَعْفَرٍ  ، عَنْ أَبِي سُهَيْلٍ نَافِعِ بْنِ مَالِكٍ  ، عَنْ أَبِيهِ  ، عَنْ طَلْحَةَ بْنِ عُبَيْدِ اللَّهِ  ، أَنَّ أَعْرَابِيًّا جَاءَ إِلَى رَسُولِ اللَّهِ صَلَّى اللَّهُ عَلَيْهِ وَسَلَّمَ ثَائِرَ الرَّأْسِ، فَقَالَ : يَا رَسُولَ اللَّهِ، مَاذَا فَرَضَ اللَّهُ عَلَيَّ مِنْ الصَّلَاةِ؟ قَالَ :\" الصَّلَوَاتِ الْخَمْسَ، وَالصِّيَامَ \"، فَأَخْبَرَهُ رَسُولُ اللَّهِ صَلَّى اللَّهُ عَلَيْهِ وَسَلَّمَ بِشَرَائِعِ الْإِسْلَامِ، فَقَالَ : وَالَّذِي أَكْرَمَكَ لَا أَتَطَوَّعُ شَيْئًا، وَلَا أَنْقُصُ مِمَّا فَرَضَ اللَّهُ عَلَيَّ.\nفَقَالَ رَسُولُ اللَّهِ صَلَّى اللَّهُ عَلَيْهِ وَسَلَّمَ : \" أَفْلَحَ وَأَبِيهِ إِنْ صَدَقَ، أَوْ دَخَلَ الْجَنَّةَ وَأَبِيهِ إِنْ صَدَقَ \"",
      "english": {
        "narrator": "",
        "text": ""
      }
    },
    {
      "id": 389,
      "chapterId": 2,
      "bookId": 9,
      "arabic": "حَدَّثَنَا عَفَّانُ  ، حَدَّثَنَا شُعْبَةُ  ، عَنْ أَبِي إِسْحَاق  ، قَالَ : سَمِعْتُ عَاصِمَ بْنَ ضَمْرَةَ  ، قَالَ : سَمِعْتُ عَلِيًّا  ، يَقُولُ : \" إِنَّالْوِتْرَ لَيْسَ بِحَتْمٍ كَالصَّلَاةِ، وَلَكِنَّهُ سُنَّةٌ، فَلَا تَدَعُوهُ \"",
      "english": {
        "narrator": "",
        "text": ""
      }
    },
    {
      "id": 390,
      "chapterId": 2,
      "bookId": 9,
      "arabic": "أَخْبَرَنَا الْحَكَمُ بْنُ مُوسَى  ، عَنْ هِقْلِ بْنِ زِيَادٍ  ، عَنْ هِشَامٍ  ، عَنْ ابْنِ سِيرِينَ  ، عَنْ أَبِي هُرَيْرَةَ  ، عَنْ النَّبِيِّ صَلَّى اللَّهُ عَلَيْهِ وَسَلَّمَ، قَالَ : \" إِنَّاللَّهَ وِتْرٌ يُحِبُّ الْوِتْرَ \"",
      "english": {
        "narrator": "",
        "text": ""
      }
    }
  ]
}