{
  "page": 21,
  "perPage": 50,
  "totalPages": 69,
  "totalCount": 3406,
  "nextPage": 22,
  "prevPage": 20,
  "items": [
    {
      "id": 13,
      "chapterId": 4,
      "bookId": 9,
      "arabic": "أَخْبَرَنَا أَبُو الْوَلِيدِ  ، حَدَّثَنَا شَرِيكٌ  ، عَنْ حُصَيْنٍ  ، عَنْ الشَّعْبِيِّ  ،  عَنْ عَدِيِّ بْنِ حَاتِمٍ  ، قَالَ : قُلْتُ : يَا رَسُولَ اللَّهِ، لَقَدْ جَعَلْتُ تَحْتَ وِسَادَتِي خَيْطًا أَبْيَضَ وَخَيْطًا أَسْوَدَ، فَمَا تَبَيَّنَ لِي شَيْءٌ.\nقَالَ : \" إِنَّكَ لَعَرِيضُ الْوِسَادِ، وَإِنَّمَاذَلِكَ اللَّيْلُ مِنْ النَّهَارِ فِي قَوْلِهِ تَعَالَى : # وَكُلُوا وَاشْرَبُوا حَتَّى يَتَبَيَّنَ لَكُمُ الْخَيْطُ الأَبْيَضُ مِنَ الْخَيْطِ الأَسْوَدِ مِنَ الْفَجْرِ ثُمَّ أَتِمُّوا الصِّيَامَ إِلَى اللَّيْلِ وَلا تُبَاشِرُوهُنَّ وَأَنْتُمْ عَاكِفُونَ فِي الْمَسَاجِدِ تِلْكَ حُدُودُ اللَّهِ فَلا تَقْرَبُوهَا كَذَلِكَ يُبَيِّنُ اللَّهُ آيَاتِهِ لِلنَّاسِ لَعَلَّهُمْ يَتَّقُونَ سورة البقرة آية 187 # \"",
      "english": {
        "narrator": "",
        "text": ""
      }
    },
    {
      "id": 14,
      "chapterId": 4,
      "bookId": 9,
      "arabic": "أَخْبَرَنَا مُسْلِمُ بْنُ إِبْرَاهِيمَ  ، حَدَّثَنَا هِشَامٌ  ، عَنْ قَتَادَةَ  ، عَنْ أَنَسٍ  ،  عَنْ زَيْدِ بْنِ ثَابِتٍ  ، قَالَ :\" تَسَحَّرْنَا مَعَ رَسُولِ اللَّهِ صَلَّى اللَّهُ عَلَيْهِ وَسَلَّمَ، قَالَ : ثُمَّ قَامَ إِلَى الصَّلَاةِ.\nقَالَ : قُلْتُ : كَمْ كَانَ بَيْنَ الْأَذَانِ وَالسُّحُورِ؟ قَالَ : قَدْرُ قِرَاءَةِ خَمْسِينَ آيَةً \"",
      "english": {
        "narrator": "",
        "text": ""
      }
    },
    {
      "id": 15,
      "chapterId": 4,
      "bookId": 9,
      "arabic": "أَخْبَرَنَا سَعِيدُ بْنُ عَامِرٍ  ، عَنْ شُعْبَةَ  ، عَنْ عَبْدِ الْعَزِيزِ بْنِ صُهَيْبٍ  ، عَنْ أَنَسٍ  ، قَالَ : قَالَ رَسُولُ اللَّهِ صَلَّى اللَّهُ عَلَيْهِ وَسَلَّمَ :\" تَسَحَّرُوا فَإِنَّ فِي السُّحُورِ بَرَكَةً \"",
      "english": {
        "narrator": "",
        "text": ""
      }
    },
    {
      "id": 16,
      "chapterId": 4,
      "bookId": 9,
      "arabic": "حَدَّثَنَا وَهْبُ بْنُ جَرِيرٍ  ، حَدَّثَنَا مُوسَى بْنُ عُلَيٍّ  ، قَالَ : سَمِعْتُ أَبِي  يُحَدِّثُ، عَنْ أَبِي قَيْسٍ  مَوْلَى عَمْرِو بْنِ الْعَاصِ، قَالَ : كَانَ عَمْرُو بْنُ الْعَاصِ   يَأْمُرُنَا أَنْ نَصْنَعَ لَهُ الطَّعَامَ يَتَسَحَّرُ بِهِ فَلَا يُصِيبُ مِنْهُ كَثِيرًا، فَقُلْنَا : تَأْمُرُنَا بِهِ وَلَا تُصِيبُ مِنْهُ كَثِيرًا؟ قَالَ : إِنِّي لَا آمُرُكُمْ بِهِ أَنِّي أَشْتَهِيهِ، وَلَكِنِّي سَمِعْتُ رَسُولَ اللَّهِ صَلَّى اللَّهُ عَلَيْهِ وَسَلَّمَ يَقُولُ :\" فَصْلُ مَا بَيْنَ صِيَامِنَا وَصِيَامِ أَهْلِ الْكِتَابِ أَكْلَةُ السَّحَرِ \"",
      "english": {
        "narrator": "",
        "text": ""
      }
    },
    {
      "id": 17,
      "chapterId": 4,
      "bookId": 9,
      "arabic": "حَدَّثَنَا سَعِيدُ بْنُ شُرَحْبِيلَ  ، حَدَّثَنَا لَيْثُ بْنُ سَعْدٍ  ، عَنْ يَحْيَى بْنِ أَيُّوبَ  ، عَنْ عَبْدِ اللَّهِ بْنِ أَبِي بَكْرٍ  ، عَنْ سَالِمِ بْنِ عَبْدِ اللَّهِ بْنِ عُمَرَ  ، عَنْ ابْنِ عُمَرَ  ،  عَنْ حَفْصَةَ  ، عَنْ رَسُولِ اللَّهِ صَلَّى اللَّهُ عَلَيْهِ وَسَلَّمَ، قَالَ :\" مَنْ لَمْ يُبَيِّتْ الصِّيَامَ قَبْلَ الْفَجْرِ، فَلَا صِيَامَ لَهُ \".\nقَالَ عَبْد اللَّهِ : فِي فَرْضِ الْوَاجِبِ أَقُولُ بِهِ",
      "english": {
        "narrator": "",
        "text": ""
      }
    },
    {
      "id": 18,
      "chapterId": 4,
      "bookId": 9,
      "arabic": "أَخْبَرَنَا مُحَمَّدُ بْنُ يُوسُفَ  ، عَنْ سُفْيَانَ الثَّوْرِيِّ  ، عَنْ أَبِي حَازِمٍ  ، عَنْ سَهْلِ بْنِ سَعْدٍ  ، قَالَ : قَالَ رَسُولُ اللَّهِ صَلَّى اللَّهُ عَلَيْهِ وَسَلَّمَ :\" لَا يَزَالُ النَّاسُ بِخَيْرٍ مَا عَجَّلُوا الْفِطْرَ \"",
      "english": {
        "narrator": "",
        "text": ""
      }
    },
    {
      "id": 19,
      "chapterId": 4,
      "bookId": 9,
      "arabic": "حَدَّثَنَا عُثْمَانُ بْنُ مُحَمَّدٍ  ، حَدَّثَنَا عَبْدَةُ  ، عَنْ هِشَامِ بْنِ عُرْوَةَ  ، عَنْ أَبِيهِ  ، عَنْ عَاصِمِ بْنِ عُمَرَ  ، عَنْ عُمَرَ  ، قَالَ : قَالَ رَسُولُ اللَّهِ صَلَّى اللَّهُ عَلَيْهِ وَسَلَّمَ :\" إِذَا أَقْبَلَ اللَّيْلُ وَأَدْبَرَ النَّهَارُ وَغَابَتْ الشَّمْسُ، فَقَدْ أَفْطَرْتَ \"",
      "english": {
        "narrator": "",
        "text": ""
      }
    },
    {
      "id": 20,
      "chapterId": 4,
      "bookId": 9,
      "arabic": "أَخْبَرَنَا أَبُو النُّعْمَانِ  ، حَدَّثَنَا ثَابِتُ بْنُ يَزِيدَ  ، حَدَّثَنَا عَاصِمٌ  ، عَنْ حَفْصَةَ  ، عَنْ الرَّبَاب الضَّبِّيَّةِ  ،  عَنْ عَمِّهَا سَلْمَانَ بْنِ عَامِرٍ  ، أَنَّ النَّبِيَّ صَلَّى اللَّهُ عَلَيْهِ وَسَلَّمَ قَالَ :\" إِذَا أَفْطَرَ أَحَدُكُمْ، فَلْيُفْطِرْ عَلَى تَمْرٍ، فَإِنْ لَمْ يَجِدْ، فَلْيُفْطِرْ عَلَى مَاءٍ، فَإِنَّ الْمَاءَ طَهُورٌ \"",
      "english": {
        "narrator": "",
        "text": ""
      }
    },
    {
      "id": 21,
      "chapterId": 4,
      "bookId": 9,
      "arabic": "أَخْبَرَنَا يَعْلَى  ، حَدَّثَنَا عَبْدُ الْمَلِكِ  ، عَنْ عَطَاءٍ  ، عَنْ زَيْدِ بْنِ خَالِدٍ الْجُهَنِيِّ  ، عَنْ النَّبِيِّ صَلَّى اللَّهُ عَلَيْهِ وَسَلَّمَ، قَالَ :\" مَنْ فَطَّرَ صَائِمًا، كُتِبَ لَهُ مِثْلُ أَجْرِهِ، إِلَّا أَنَّهُ لَا يَنْقُصُ مِنْ أَجْرِ الصَّائِمِ \"",
      "english": {
        "narrator": "",
        "text": ""
      }
    },
    {
      "id": 22,
      "chapterId": 4,
      "bookId": 9,
      "arabic": "أَخْبَرَنَا خَالِدُ بْنُ مَخْلَدٍ  ، حَدَّثَنَا مَالِكٌ  ، عَنْ أَبِي الزِّنَادِ  ، عَنْ الْأَعْرَجِ  ، عَنْ أَبِي هُرَيْرَةَ  ، قَالَ : قَالَ رَسُولُ اللَّهِ صَلَّى اللَّهُ عَلَيْهِ وَسَلَّمَ : \" إِيَّاكُمْ وَالْوِصَالَ \" مَرَّتَيْنِ.\nقَالُوا : فَإِنَّكَ تُوَاصِلُ؟ قَالَ : \" إِنِّيلَسْتُ مِثْلَكُمْ، إِنِّي أَبِيتُ يُطْعِمُنِي رَبِّي وَيَسْقِينِي \"",
      "english": {
        "narrator": "",
        "text": ""
      }
    },
    {
      "id": 23,
      "chapterId": 4,
      "bookId": 9,
      "arabic": "حَدَّثَنَا سَعِيدُ بْنُ الرَّبِيعِ  ، حَدَّثَنَا شُعْبَةُ  ، عَنْ قَتَادَةَ  ، عَنْ أَنَسٍ  ، قَالَ : قَالَ رَسُولُ اللَّهِ صَلَّى اللَّهُ عَلَيْهِ وَسَلَّمَ : \" لَا تُوَاصِلُوا.\nقِيلَ : إِنَّكَ تَفْعَلُ ذَلِكَ.\nقَالَ : \" إِنِّيلَسْتُ كَأَحَدِكُمْ، إِنِّي أُطْعَمُ وَأُسْقَى \"",
      "english": {
        "narrator": "",
        "text": ""
      }
    },
    {
      "id": 24,
      "chapterId": 4,
      "bookId": 9,
      "arabic": "حَدَّثَنَا عَبْدُ اللَّهِ بْنُ صَالِحٍ  ، حَدَّثَنِي اللَّيْثُ  ، حَدَّثَنِي يَزِيدُ بْنُ عَبْدِ اللَّهِ  ، عَنْ عَبْدِ اللَّهِ بْنِ خَبَّابٍ  ، عَنْ أَبِي سَعِيدٍ الْخُدْرِيِّ  ، أَنَّهُ سَمِعَ رَسُولَ اللَّهِ صَلَّى اللَّهُ عَلَيْهِ وَسَلَّمَ، يَقُولُ : \" لَا تُوَاصِلُوا، فَأَيُّكُمْ يُرِيدُ أَنْ يُوَاصِلَ، فَلْيُوَاصِلْ إِلَى السَّحَرِ \".\nقَالُوا : إِنَّكَ تُوَاصِلُ يَا رَسُولَ اللَّهِ.\nقَالَ : \" إِنِّيأَبِيتُ لِي مُطْعِمٌ يُطْعِمُنِي، وَيَسْقِينِي \"",
      "english": {
        "narrator": "",
        "text": ""
      }
    },
    {
      "id": 25,
      "chapterId": 4,
      "bookId": 9,
      "arabic": "حَدَّثَنَا عَبْدُ اللَّهِ بْنُ صَالِحٍ  ، حَدَّثَنِي اللَّيْثُ  ، حَدَّثَنِي عُقَيْلٌ  ، عَنْ ابْنِ شِهَابٍ  ، أَخْبَرَنِي أَبُو سَلَمَةَ بْنُ عَبْدِ الرَّحْمَنِ  ، أَنَّ أَبَا هُرَيْرَةَ   قَالَ : نَهَى رَسُولُ اللَّهِ صَلَّى اللَّهُ عَلَيْهِ وَسَلَّمَ عَنْ الْوِصَالِ.\nفَقَالَ لَهُ رِجَالٌ مِنْ الْمُسْلِمِينَ : فَإِنَّكَ تُوَاصِلُ.\nقَالَ رَسُولُ اللَّهِ صَلَّى اللَّهُ عَلَيْهِ وَسَلَّمَ : \" إِنِّيلَسْتُ مِثْلَكُمْ، إِنِّي أَبِيتُ يُطْعِمُنِي رَبِّي وَيَسْقِينِي \".\nفَلَمَّا أَبَوْا أَنْ يَنْتَهُوا عَنْ الْوِصَالِ، وَاصَلَ بِهِمْ يَوْمًا ثُمَّ يَوْمًا، ثُمَّ رَأَوْا الْهِلَالَ، فَقَالَ : \" لَوْ تَأَخَّرَ لَزِدْتُكُمْ \"، كَالْمُنَكِّلِ لَهُمْ حِينَ أَبَوْا أَنْ يَنْتَهُوا",
      "english": {
        "narrator": "",
        "text": ""
      }
    },
    {
      "id": 26,
      "chapterId": 4,
      "bookId": 9,
      "arabic": "أَخْبَرَنَا مُحَمَّدُ بْنُ يُوسُفَ  ، عَنْ سُفْيَانَ  ، عَنْ هِشَامِ بْنِ عُرْوَةَ  ، عَنْ عُرْوَةَ  ، عَنْ عَائِشَةَ  ، أَنَّ حَمْزَةَ بْنَ عَمْرٍو الْأَسْلَمِيَّ سَأَلَ رَسُولَ اللَّهِ صَلَّى اللَّهُ عَلَيْهِ وَسَلَّمَ، فَقَالَ : رَسُولَ اللَّهِ إِنِّي أُرِيدُ السَّفَرَ، فَمَا تَأْمُرُنِي؟ قَالَ :\" إِنْ شِئْتَ، فَصُمْ، وَإِنْ شِئْتَ، فَأَفْطِرْ \"",
      "english": {
        "narrator": "",
        "text": ""
      }
    },
    {
      "id": 27,
      "chapterId": 4,
      "bookId": 9,
      "arabic": "أَخْبَرَنَا خَالِدُ بْنُ مَخْلَدٍ  ، حَدَّثَنَا مَالِكٌ  ، عَنْ الزُّهْرِيِّ  ، عَنْ عُبَيْدِ اللَّهِ بْنِ عَبْدِ اللَّهِ بْنِ عُتْبَةَ  ، عَنْ ابْنِ عَبَّاسٍ  ، قَالَ : \" خَرَجَ رَسُولُ اللَّهِ صَلَّى اللَّهُ عَلَيْهِ وَسَلَّمَ عَامَ الْفَتْحِفَصَامَ وَصَامَ النَّاسُ حَتَّى بَلَغَ الْكَدِيد، ثُمَّ أَفْطَرَ، فَأَفْطَرَ النَّاسُ، فَكَانُوا يَأْخُذُونَ بِالْأَحْدَثِ فَالْأَحْدَثِ مِنْ فِعْلِ رَسُولِ اللَّهِ صَلَّى اللَّهُ عَلَيْهِ وَسَلَّمَ \"",
      "english": {
        "narrator": "",
        "text": ""
      }
    },
    {
      "id": 28,
      "chapterId": 4,
      "bookId": 9,
      "arabic": "أَخْبَرَنَا هَاشِمُ بْنُ الْقَاسِمِ  ، وَأَبُو الْوَلِيدِ  ، قَالَا : حَدَّثَنَا شُعْبَةُ  ، عَنْ مُحَمَّدِ بْنِ عَبْدِ الرَّحْمَنِ الْأَنْصَارِيِّ  ، قَالَ : سَمِعْتُ مُحَمَّدَ بْنَ عَمْرِو بْنِ الْحَسَنِ  يُحَدِّثُ، عَنْ جَابِرِ بْنِ عَبْدِ اللَّهِ  ، أَنَّهُ ذَكَرَ أَنَّ النَّبِيَّ صَلَّى اللَّهُ عَلَيْهِ وَسَلَّمَ كَانَ فِي سَفَرٍ فَرَأَى زِحَامًا وَرَجُلٌ قَدْ ظُلِّلَ عَلَيْهِ، فَقَالَ : \" مَا هَذَا؟ قَالُوا : هَذَا صَائِمٌ.\nفَقَالَ النَّبِيُّ صَلَّى اللَّهُ عَلَيْهِ وَسَلَّمَ :\" لَيْسَ مِنْ الْبِرِّ الصَّوْمُ فِي السَّفَرِ \"",
      "english": {
        "narrator": "",
        "text": ""
      }
    },
    {
      "id": 29,
      "chapterId": 4,
      "bookId": 9,
      "arabic": "أَخْبَرَنَا عُثْمَانُ بْنُ مُحَمَّدُ  ، حَدَّثَنَا يُونُسُ  ، عَنْ الزُّهْرِيِّ  ، عَنْ صَفْوَانَ بْنِ عَبْدِ اللَّهِ  ، عَنْ أُمِّ الدَّرْدَاءِ  ، عَنْ كَعْبِ بْنِ عَاصِمٍ الْأَشْعَرِيِّ  ، أَنّ رَسُولَ اللَّهِ صَلَّى اللَّهُ عَلَيْهِ وَسَلَّمَ، قَالَ :\" لَيْسَ مِنْ الْبِرِّ الصِّيَامُ فِي السَّفَرِ \"",
      "english": {
        "narrator": "",
        "text": ""
      }
    },
    {
      "id": 30,
      "chapterId": 4,
      "bookId": 9,
      "arabic": "حَدَّثَنَا مُحَمَّدُ بْنُ أَحْمَدَ  ، حَدَّثَنَا سُفْيَانُ  ، حَدَّثَنَا الزُّهْرِيُّ  ، عَنْ صَفْوَانَ بْنِ عَبْدِ اللَّهِ بْنِ صَفْوَانَ  ، عَنْ أُمِّ الدَّرْدَاءِ  ، عَنْ كَعْبِ بْنِ عَاصِمٍ الْأَشْعَرِيِّ  ، عَنْ النَّبِيِّ صَلَّى اللَّهُ عَلَيْهِ وَسَلَّمَ، قَالَ :\" لَيْسَ مِنْ الْبِرِّ الصِّيَامُ فِي السَّفَرِ \"",
      "english": {
        "narrator": "",
        "text": ""
      }
    },
    {
      "id": 31,
      "chapterId": 4,
      "bookId": 9,
      "arabic": "حَدَّثَنَا أَبُو الْمُغِيرَةِ  ، حَدَّثَنَا الْأَوْزَاعِيُّ  ، عَنْ يَحْيَى  ، عَنْ أَبِي قِلَابَةَ  ، عَنْ أَبِي الْمُهَاجِرِ  ، عَنْ أَبِي أُمَيَّةَ الضَّمْرِيِّ  ، قَالَ : قَدِمْتُ عَلَى رَسُولِ اللَّهِ صَلَّى اللَّهُ عَلَيْهِ وَسَلَّمَ مِنْ سَفَرٍ فَسَلَّمْتُ عَلَيْهِ، فَلَمَّا ذَهَبْتُ لِأَخْرُجَ، قَالَ : \" انْتَظِرْ الْغَدَاءَ يَا أَبَا أُمَيَّةَ \".\nقَالَ : فَقُلْتُ : إِنِّي صَائِمٌ يَا نَبِيَّ اللَّهِ.\nفَقَالَ :\" تَعَالَ أُخْبِرْكَ عَنْ الْمُسَافِرِ، إِنَّ اللَّهَ وَضَعَ عَنْهُ الصِّيَامَ، وَنِصْفَ الصَّلَاةِ \".\n قَالَ أَبُو مُحَمَّد : إِنْ شَاءَ، صَامَ، وَإِنْ شَاءَ، أَفْطَرَ",
      "english": {
        "narrator": "",
        "text": ""
      }
    },
    {
      "id": 32,
      "chapterId": 4,
      "bookId": 9,
      "arabic": "حَدَّثَنَا عَبْدُ اللَّهِ بْنُ يَزِيدَ الْمُقْرِئُ  ، حَدَّثَنَا سَعِيدُ بْنُ أَبِي أَيُّوبَ  ، حَدَّثَنِي يَزِيدُ بْنُ أَبِي حَبِيبٍ  ، أَنَّ كُلَيْبَ بْنَ ذُهْلٍ الْحَضْرَمِيَّ  أَخْبَرَهُ، عَنْ عُبَيْدِ بْنِ جُبَيْرٍ  ، قَالَ : رَكِبْتُ مَعَ أَبِي بَصْرَةَ الْغِفَارِيِّ سَفِينَةً مِنْ الْفُسْطَاطِ فِي رَمَضَانَ، فَدَفَعَ،فَقَرَّبَ غَدَاءَهُ.\nثُمَّ قَالَ : اقْتَرِبْ.\nفَقُلْتُ : أَلَسْتَ تَرَى الْبُيُوتَ؟ فَقَالَ أَبُو بَصْرَةَ   : \" أَرَغِبْتَ عَنْ سُنَّةِ رَسُولِ اللَّهِ صَلَّى اللَّهُ عَلَيْهِ وَسَلَّمَ؟ \"",
      "english": {
        "narrator": "",
        "text": ""
      }
    },
    {
      "id": 33,
      "chapterId": 4,
      "bookId": 9,
      "arabic": "أَخْبَرَنَا مُحَمَّدُ بْنُ يُوسُفَ  ، عَنْ سُفْيَانَ  ، عَنْ حَبِيبِ بْنِ أَبِي ثَابِتٍ  ، عَنْ ابْنِ الْمُطَوِّسِ  ، عَنْ أَبِيهِ  ،  عَنْ أَبِي هُرَيْرَةَ  ، قَالَ : قَالَ رَسُولُ اللَّهِ صَلَّى اللَّهُ عَلَيْهِ وَسَلَّمَ :\" مَنْ أَفْطَرَ يَوْمًا مِنْ شَهْرِ رَمَضَانَ مِنْ غَيْرِ رُخْصَةٍ وَلَا مَرَضٍ، فَلَا يَقْضِيَهِ صِيَامُ الدَّهْرِ كُلِّهِ وَلَوْ صَامَ الدَّهْرَ \"",
      "english": {
        "narrator": "",
        "text": ""
      }
    },
    {
      "id": 34,
      "chapterId": 4,
      "bookId": 9,
      "arabic": "أَخْبَرَنَا أَبُو الْوَلِيدِ  ، حَدَّثَنَا شُعْبَةُ  ، أَخْبَرَنِي حَبِيبُ بْنُ أَبِي ثَابِتٍ  ، قَالَ : سَمِعْتُ عُمَارَةَ بْنَ عُمَيْرٍ  يُحَدِّثُ، عَنْ أَبِي الْمُطَوِّسِ  ، عَنْ أَبِيهِ  ، عَنْ أَبِي هُرَيْرَةَ  ، عَنْ النَّبِيِّ صَلَّى اللَّهُ عَلَيْهِ وَسَلَّمَ، قَالَ :\" مَنْ أَفْطَرَ يَوْمًا مِنْ رَمَضَانَ مِنْ غَيْرِ رُخْصَةٍ رَخَّصَهُ اللَّهُ لَهُ، لَمْ يَقْضِ عَنْهُ صِيَامُ الدَّهْرِ \"",
      "english": {
        "narrator": "",
        "text": ""
      }
    },
    {
      "id": 35,
      "chapterId": 4,
      "bookId": 9,
      "arabic": "حَدَّثَنَا سُلَيْمَانُ بْنُ دَاوُدَ الْهَاشِمِيُّ  ، حَدَّثَنَا إِبْرَاهِيمُ بْنُ سَعْدٍ  ، عَنْ الزُّهْرِيِّ  ، عَنْ حُمَيْدِ بْنِ عَبْدِ الرَّحْمَنِ  ، عَنْ أَبِي هُرَيْرَةَ  ، قَالَ : أَتَى رَسُولَ اللَّهِ صَلَّى اللَّهُ عَلَيْهِ وَسَلَّمَ رَجُلٌ، فَقَالَ : هَلَكْتُ؟ فَقَالَ : \" وَمَا أَهْلَكَكَ؟ قَالَ : وَاقَعْتُ امْرَأَتِي فِي شَهْرِ رَمَضَانَ، قَالَ :\" فَأَعْتِقْ رَقَبَةً \".\nقَالَ : لَيْسَ عِنْدِي.\nقَالَ : \" فَصُمْ شَهْرَيْنِ مُتَتَابِعَيْنِ \".\nقَالَ : لَا أَسْتَطِيعُ.\nقَالَ : \" فَأَطْعِمْ سِتِّينَ مِسْكِينًا \".\nقَالَ : لَا أَجِدُ.\nقَالَ : فَأُتِيَ رَسُولُ اللَّهِ صَلَّى اللَّهُ عَلَيْهِ وَسَلَّمَ بِعَرَقٍ فِيهِ تَمْرٌ، فَقَالَ : \" أَيْنَ السَّائِلُ؟ تَصَدَّقْ بِهَذَا \".\n فَقَالَ : أَعَلَى أَفْقَرَ مِنْ أَهْلِي يَا رَسُولَ اللَّهِ؟ فَوَاللَّهِ مَا بَيْنَ لَابَتَيْهَا أَهْلُ بَيْتٍ أَفْقَرَ مِنَّا، فَقَالَ رَسُولُ اللَّهِ صَلَّى اللَّهُ عَلَيْهِ وَسَلَّمَ : \" فَأَنْتُمْ إِذًا \" وَضَحِكَ حَتَّى بَدَتْ أَنْيَابُهُ.\nحَدَّثَنَا عُبَيْدُ اللَّهِ بْنُ عَبْدِ الْمَجِيدِ  ، حَدَّثَنَا مَالِكٌ  ، عَنْ ابْنِ شِهَابٍ  ، عَنْ حُمَيْدِ بْنِ عَبْدِ الرَّحْمَنِ  ، عَنْ أَبِي هُرَيْرَةَ  ، أَنَّ رَجُلًا أَفْطَرَ فِي رَمَضَانَ فَذَكَرَ الْحَدِيثَ",
      "english": {
        "narrator": "",
        "text": ""
      }
    },
    {
      "id": 36,
      "chapterId": 4,
      "bookId": 9,
      "arabic": "أَخْبَرَنَا يَزِيدُ بْنُ هَارُونَ  ، حَدَّثَنَا يَحْيَى يَعْنِي بْنَ سَعِيدٍ الْأَنْصَارِيَّ  ، أَنَّ عَبْدَ الرَّحْمَنِ بْنَ الْقَاسِمِ  أَخْبَرَهُ، أَنَّ مُحَمَّدَ بْنَ جَعْفَرِ بْنِ الزُّبَيْرِ  أَخْبَرَهُ، أَنَّهُ سَمِعَ عَبَّادَ بْنَ عَبْدِ اللَّهِ بْنِ الزُّبَيْرِ  ، أَنَّهُ سَمِعَ عَائِشَةَ  ، تَقُولُ : إِنَّ رَجُلًا سَأَلَ النَّبِيَّ صَلَّى اللَّهُ عَلَيْهِ وَسَلَّمَ، فَقَالَ : إِنَّهُ احْتَرَقَ، فَسَأَلَهُ : مَا لَهُ؟ فَقَالَ :أَصَابَ أَهْلَهُ فِي رَمَضَانَ.\nفَأُتِيَ النَّبِيُّ صَلَّى اللَّهُ عَلَيْهِ وَسَلَّمَ بِمِكْتَلٍ يُدْعَى الْعَرَقَ فِيهِ تَمْرٌ، فَقَالَ : \" أَيْنَ الْمُحْتَرِقُ؟ \" فَقَامَ الرَّجُلُ، فَقَالَ : \" تَصَدَّقْ بِهَذَا \"",
      "english": {
        "narrator": "",
        "text": ""
      }
    },
    {
      "id": 37,
      "chapterId": 4,
      "bookId": 9,
      "arabic": "أَخْبَرَنَا يَزِيدُ بْنُ هَارُونَ  ، أَخْبَرَنَا شَرِيكٌ  ، عَنْ الْأَعْمَشِ  ، عَنْ أَبِي صَالِحٍ  ، عَنْ أَبِي سَعِيدٍ الْخُدْرِيِّ  ، عَنْ النَّبِيِّ صَلَّى اللَّهُ عَلَيْهِ وَسَلَّمَ، ، أَنَّهُ قَالَ لِامْرَأَةٍ :\" لَا تَصُومِي إِلَّا بِإِذْنِهِ \"",
      "english": {
        "narrator": "",
        "text": ""
      }
    },
    {
      "id": 38,
      "chapterId": 4,
      "bookId": 9,
      "arabic": "أَخْبَرَنَا مُحَمَّدُ بْنُ أَحْمَدَ  ، حَدَّثَنَا سُفْيَانُ  ، عَنْ أَبِي الزِّنَادِ  ، عَنْ الْأَعْرَجِ  ، عَنْ أَبِي هُرَيْرَةَ  ، عَنْ النَّبِيِّ صَلَّى اللَّهُ عَلَيْهِ وَسَلَّمَ، قَالَ :\" لَا تَصُومُ الْمَرْأَةُ يَوْمًا تَطَوُّعًا فِي غَيْرِ رَمَضَانَ، وَزَوْجُهَا شَاهِدٌ إِلَّا بِإِذْنِهِ \"",
      "english": {
        "narrator": "",
        "text": ""
      }
    },
    {
      "id": 39,
      "chapterId": 4,
      "bookId": 9,
      "arabic": "أَخْبَرَنَا مُحَمَّدُ بْنُ يُوسُفَ  ، عَنْ سُفْيَانَ  ، عَنْ أَبِي الزِّنَادِ  ، عَنْ مُوسَى بْنِ أَبِي عُثْمَانَ  ، عَنْ أَبِيهِ  ، عَنْ أَبِي هُرَيْرَةَ  ، عَنْ النَّبِيِّ صَلَّى اللَّهُ عَلَيْهِ وَسَلَّمَ، قَالَ :\" لَا تَصُومُ الْمَرْأَةُ يَوْمًا وَزَوْجُهَا شَاهِدٌ، إِلَّا بِإِذْنِهِ \".\nقَالَ : فِي النُّذُورِ تَفِي بِهَا",
      "english": {
        "narrator": "",
        "text": ""
      }
    },
    {
      "id": 40,
      "chapterId": 4,
      "bookId": 9,
      "arabic": "حَدَّثَنَا حَجَّاجُ بْنُ مِنْهَالٍ  ، حَدَّثَنَا حَمَّادُ بْنُ سَلَمَةَ  ، عَنْ هِشَامِ بْنِ عُرْوَةَ  ، عَنْ أَبِيهِ  ، عَنْ عَائِشَةَ  ، أَنّ رَسُولَ اللَّهِ صَلَّى اللَّهُ عَلَيْهِ وَسَلَّمَ \" كَانَيُقَبِّلُ وَهُوَ صَائِمٌ \".\n فَقَالَ عُرْوَةُ : أَمَا إِنَّهَا لَا تَدْعُو إِلَى خَيْرٍ",
      "english": {
        "narrator": "",
        "text": ""
      }
    },
    {
      "id": 41,
      "chapterId": 4,
      "bookId": 9,
      "arabic": "أَخْبَرَنَا سَعْدُ بْنُ حَفْصٍ الطَّلْحِيُّ  ، حَدَّثَنَا شَيْبَانُ  ، عَنْ يَحْيَى بْنِ كَثِيرٍ  ، عَنْ أَبِي سَلَمَةَ  ، عَنْ عُمَرَ بْنِ عَبْدِ الْعَزِيزِ  ، عَنْ عُرْوَةَ  ، عَنْ عَائِشَةَ  ، أَنَّ النَّبِيَّ صَلَّى اللَّهُ عَلَيْهِ وَسَلَّمَ كَانَ\" يُقَبِّلُهَا وَهُوَ صَائِمٌ \"",
      "english": {
        "narrator": "",
        "text": ""
      }
    },
    {
      "id": 42,
      "chapterId": 4,
      "bookId": 9,
      "arabic": "حَدَّثَنَا أَبُو الْوَلِيدِ الطَّيَالِسِيُّ  ، حَدَّثَنَا لَيْثُ بْنُ سَعْدٍ  ، عَنْ بُكَيْرِ بْنِ عَبْدِ اللَّهِ بْنِ الْأَشَجِّ  ، عَنْ عَبْدِ الْمَلِكِ بْنِ سَعِيدٍ الْأَنْصَارِيِّ  ، عَنْ جَابِرِ بْنِ عَبْدِ اللَّهِ  ، عَنْ عُمَرَ بْنِ الْخَطَّابِ  ، قَالَ : هَشِشْتُ فَقَبَّلْتُ وَأَنَا صَائِمٌ، فَجِئْتُ رَسُولَ اللَّهِ صَلَّى اللَّهُ عَلَيْهِ وَسَلَّمَ، فَقُلْتُ : إِنِّي صَنَعْتُ الْيَوْمَ أَمْرًا عَظِيمًا :قَبَّلْتُ وَأَنَا صَائِمٌ.\nقَالَ : \" أَرَأَيْتَ لَوْ مَضْمَضْتَ مِنْ الْمَاءِ؟ \" قُلْتُ : إِذًا لَا يَضُرُّ.\nقَالَ : \" فَفِيمَ؟ \"",
      "english": {
        "narrator": "",
        "text": ""
      }
    },
    {
      "id": 43,
      "chapterId": 4,
      "bookId": 9,
      "arabic": "أَخْبَرَنَا أَبُو عَاصِمٍ  ، حَدَّثَنَا عَبْدُ الْمَلِكِ يَعْنِي ابْنَ جُرَيْجٍ  ، أَخْبَرَنِي ابْنُ شِهَابٍ  ، أَنَّ أَبَا بَكْرٍ  أَخْبَرَهُ، عَنْ أَبِيهِ  ، أَنَّ أُمَّ سَلَمَةَ  ، وَعَائِشَةَ   أَخْبَرتَاهُ، أَنّ النَّبِيَّ صَلَّى اللَّهُ عَلَيْهِ وَسَلَّمَ \" كَانَيُصْبِحُ جُنُبًا مِنْ أَهْلِهِ، ثُمَّ يَصُومُ \"",
      "english": {
        "narrator": "",
        "text": ""
      }
    },
    {
      "id": 44,
      "chapterId": 4,
      "bookId": 9,
      "arabic": "أَخْبَرَنَا عُثْمَانُ بْنُ مُحَمَّدٍ  ، حَدَّثَنَا جَرِيرٌ  ، عَنْ هِشَامِ  ، عَنْ ابْنِ سِيرِينَ  ، عَنْ أَبِي هُرَيْرَةَ  ، عَنْ النَّبِيِّ صَلَّى اللَّهُ عَلَيْهِ وَسَلَّمَ، قَالَ :\" مَنْ نَسِيَ وَهُوَ صَائِمٌ فَأَكَلَ أَوْ شَرِبَ، فَلْيُتِمَّ صَوْمَهُ، فَإِنَّمَا أَطْعَمَهُ اللَّهُ وَسَقَاهُ \"",
      "english": {
        "narrator": "",
        "text": ""
      }
    },
    {
      "id": 45,
      "chapterId": 4,
      "bookId": 9,
      "arabic": "أَخْبَرَنَا أَبُو جَعْفَرٍ مُحَمَّدُ بْنُ مِهْرَانَ الْجَمَّالُ  ، حَدَّثَنَا حَاتِمُ بْنُ إِسْمَاعِيل  ، عَنْ الْحَارِثِ بْنِ عَبْدِ الرَّحْمَنِ بْنِ أَبِي ذُبَابٍ  ، عَنْ عَمِّهِ  ، عَنْ أَبِي هُرَيْرَةَ  ، قَالَ : قَالَ رَسُولُ اللَّهِ صَلَّى اللَّهُ عَلَيْهِ وَسَلَّمَ :\" إِذَا أَكَلَ أَحَدُكُمْ أَوْ شَرِبَ نَاسِيًا وَهُوَ صَائِمٌ، ثُمَّ ذَكَرَ، فَلْيُتِمَّ صِيَامَهُ، فَإِنَّمَا أَطْعَمَهُ اللَّهُ وَسَقَاهُ \".\nقَالَ أَبُو مُحَمَّد : أَهْلُ الْحِجَازِ يَقُولُونَ : يَقْضِي، وَأَنَا أَقُولُ : لَا يَقْضِي",
      "english": {
        "narrator": "",
        "text": ""
      }
    },
    {
      "id": 46,
      "chapterId": 4,
      "bookId": 9,
      "arabic": "أَخْبَرَنَا عَبْدُ الصَّمَدِ بْنُ عَبْدِ الْوَارِثِ  ، حَدَّثَنِي أَبِي  ، حَدَّثَنِي حُسَيْنٌ الْمُعَلِّمُ  ، عَنْ يَحْيَى بْنِ أَبِي كَثِيرٍ  ، عَنْ الْأَوْزَاعِيِّ  ، عَنْ يَعِيشَ بْنِ الْوَلِيدِ  ، عَنْ أَبِيهِ  ، عَنْ مَعْدَانَ بْنِ أَبِي طَلْحَةَ  ، عَنْ أَبِي الدَّرْدَاءِ  ، أَنَّ النَّبِيَّ صَلَّى اللَّهُ عَلَيْهِ وَسَلَّمَ\" قَاءَ فَأَفْطَرَ \".\nقَالَ : فَلَقِيتُ ثَوْبَانَ بِمَسْجِدِ دِمَشْقَ ، فَذَكَرْتُ ذَلِكَ لَهُ، فَقَالَ : صَدَقَ، أَنَا صَبَبْتُ لَهُ الْوَضُوءَ.\n قَالَ عَبْد اللَّهِ : إِذَا اسْتَقَاءَ",
      "english": {
        "narrator": "",
        "text": ""
      }
    },
    {
      "id": 47,
      "chapterId": 4,
      "bookId": 9,
      "arabic": "أَخْبَرَنَا إِسْحَاق بْنُ إِبْرَاهِيمَ  ، حَدَّثَنَا عِيسَى بْنُ يُونُسَ  ، عَنْ هِشَامِ بْنِ حَسَّانَ  ، عَنْ ابْنِ سِيرِينَ  ، عَنْ أَبِي هُرَيْرَةَ  ، قَالَ : قَالَ رَسُولُ اللَّهِ صَلَّى اللَّهُ عَلَيْهِ وَسَلَّمَ :\" إِذَا ذَرَعَ الصَّائِمَ الْقَيْءُ وَهُوَ لَا يُرِيدُهُ، فَلَا قَضَاءَ عَلَيْهِ، وَإِذَا اسْتَقَاءَ، فَعَلَيْهِ الْقَضَاءُ \".\nقَالَ عِيسَى : زَعَمَ أَهْلُ الْبَصْرَةِ أَنَّ هِشَامًا أَوْهَمَ فِيهِ، فَمَوْضِعُ الْخِلَافِ هَهُنَا",
      "english": {
        "narrator": "",
        "text": ""
      }
    },
    {
      "id": 48,
      "chapterId": 4,
      "bookId": 9,
      "arabic": "أَخْبَرَنَا يَزِيدُ بْنُ هَارُونَ  ، أَخْبَرَنَا عَاصِمٌ  ، عَنْ عَبْدِ اللَّهِ بْنِ زِيدَ  ، عَنْ أَبِي الْأَشْعَثِ الصَّنْعَانِيِّ  ، عَنْ أَبِي أَسْمَاءَ الرَّحَبِيِّ  ، عَنْ شَدَّادِ بْنِ أَوْسٍ  ، قَالَ : مَرَرْتُ مَعَ رَسُولِ اللَّهِ صَلَّى اللَّهُ عَلَيْهِ وَسَلَّمَ فِي ثَمَانِ عَشْرَةَ خَلَتْ مِنْ رَمَضَانَ، فَأَبْصَرَ رَجُلًا يَحْتَجِمُ، فَقَالَ رَسُولُ اللَّهِ صَلَّى اللَّهُ عَلَيْهِ وَسَلَّمَ :\" أَفْطَرَ الْحَاجِمُ وَالْمَحْجُومُ \"",
      "english": {
        "narrator": "",
        "text": ""
      }
    },
    {
      "id": 49,
      "chapterId": 4,
      "bookId": 9,
      "arabic": "أَخْبَرَنَا وَهْبُ بْنُ جَرِيرٍ  ، حَدَّثَنَا هِشَامٌ  ، عَنْ يَحْيَى  ، عَنْ أَبِي قِلَابَةَ  ، أَنَّ أَبَا أَسْمَاءَ الرَّحَبِيَّ  حَدَّثَهُ، أَنَّ ثَوْبَانَ   حَدَّثَهُ، قَالَ : بَيْنَمَا رَسُولُ اللَّهِ صَلَّى اللَّهُ عَلَيْهِ وَسَلَّمَ يَمْشِي بِالْبَقِيعِ إِذَا رَجُلٌ يَحْتَجِمُ، فَقَالَ :\" أَفْطَرَ الْحَاجِمُ وَالْمَحْجُومُ \".\nقَالَ أَبُو مُحَمَّد : أَنَا أَتَّقِي الْحِجَامَةَ فِي الصَّوْمِ فِي رَمَضَانَ",
      "english": {
        "narrator": "",
        "text": ""
      }
    },
    {
      "id": 50,
      "chapterId": 4,
      "bookId": 9,
      "arabic": "أَخْبَرَنَا عَمْرُو بْنُ عَوْنٍ  ، حَدَّثَنَا خَالِدُ بْنُ عَبْدِ اللَّهِ  ، عَنْ وَاصِلٍ  مَوْلَى أَبِي عُيَيْنَةَ، عَنْ بَشَّارِ بْنِ أَبِي سَيْفٍ  ، عَنْ الْوَلِيدِ بْنِ عَبْدِ الرَّحْمَنِ  ، عَنْ عِيَاضِ بْنِ غُطَيْفٍ  ، عَنْ أَبِي عُبَيْدَةَ بْنِ الْجَرَّاحِ  ، قَالَ : سَمِعْتُ رَسُولَ اللَّهِ صَلَّى اللَّهُ عَلَيْهِ وَسَلَّمَ، يَقُولُ :\" الصَّوْمُ جُنَّةٌ مَا لَمْ يَخْرِقْهَا \".\nقَالَ أَبُو مُحَمَّد : يَعْنِي : بِالْغِيبَةِ",
      "english": {
        "narrator": "",
        "text": ""
      }
    },
    {
      "id": 51,
      "chapterId": 4,
      "bookId": 9,
      "arabic": "أَخْبَرَنَا أَبُو نُعَيْمٍ  ، حَدَّثَنَا عَبْدُ الرَّحْمَنِ بْنُ النُّعْمَانِ أَبُو النُّعْمَانِ الْأَنْصَارِيُّ  ، حَدَّثَنِي أَبِي  ، عَنْ جَدِّي  ، وَكَانَ جَدِّي قَدْ أُتِيَ بِهِ النَّبِيُّ صَلَّى اللَّهُ عَلَيْهِ وَسَلَّمَ فَمَسَحَ عَلَى رَأْسِهِ، وَقَالَ :\" لَا تَكْتَحِلْ بِالنَّهَارِ وَأَنْتَ صَائِمٌ، اكْتَحِلْ لَيْلًا، بِالْإِثْمِدِ، فَإِنَّهُ يَجْلُو الْبَصَرَ وَيُنْبِتُ الشَّعَرَ \".\nقَالَ أَبُو مُحَمَّد : لَا أَرَى بِالْكُحْلِ بَأْسًا",
      "english": {
        "narrator": "",
        "text": ""
      }
    },
    {
      "id": 52,
      "chapterId": 4,
      "bookId": 9,
      "arabic": "أَخْبَرَنَا عَبْدُ اللَّهِ بْنُ صَالِحٍ  ، حَدَّثَنِي بَكْرٌ هُوَ ابْنُ مُضَرَ  ، عَنْ عَمْرِو بْنِ الْحَارِثِ  ، عَنْ يَزِيدَ  مَوْلَى سَلَمَةَ بْنِ الْأَكْوَعِ،  عَنْ سَلَمَةَ  ، أَنَّهُ قَالَ : لَمَّا نَزَلَتْ هَذِهِ الْآيَةُ : # وَعَلَى الَّذِينَ يُطِيقُونَهُ فِدْيَةٌ طَعَامُ مِسْكِينٍ سورة البقرة آية 184 #، قَالَ :\" كَانَ مَنْ أَرَادَ أَنْ يُفْطِرَ وَيَفْتَدِيَ، فَعَلَ، حَتَّى نَزَلَتْ الْآيَةُ الَّتِي بَعْدَهَا، فَنَسَخَتْهَا \"",
      "english": {
        "narrator": "",
        "text": ""
      }
    },
    {
      "id": 53,
      "chapterId": 4,
      "bookId": 9,
      "arabic": "أَخْبَرَنَا أَبُو النُّعْمَانِ  ، حَدَّثَنَا حَمَّادُ بْنُ سَلَمَةَ  ، عَنْ سِمَاكِ بْنِ حَرْبٍ  ، عَنْ هَارُونَ ابْنِ ابْنَةِ أُمِّ هَانِئٍ أَوْ ابْنِ ابْنِ أُمِّ هَانِئٍ  ، عَنْ أُمِّ هَانِئٍ  ، أَنّ النَّبِيَّ صَلَّى اللَّهُ عَلَيْهِ وَسَلَّمَ دَخَلَ عَلَيْهَا وَهِيَ صَائِمَةٌ، فَأُتِيَ بِإِنَاءٍ فَشَرِبَ ثُمَّ نَاوَلَهَا فَشَرِبَتْ، فَقَالَ رَسُولُ اللَّهِ صَلَّى اللَّهُ عَلَيْهِ وَسَلَّمَ :\" إِنْ كَانَ قَضَاءَ رَمَضَانَ، فَصُومِي يَوْمًا آخَرَ، وَإِنْ كَانَ تَطَوُّعًا، فَإِنْ شِئْتِ، فَاقْضِيهِ، وَإِنْ شِئْتِ، فَلَا تَقْضِيهِ \"",
      "english": {
        "narrator": "",
        "text": ""
      }
    },
    {
      "id": 54,
      "chapterId": 4,
      "bookId": 9,
      "arabic": "حَدَّثَنَا عُثْمَانُ بْنُ مُحَمَّدٍ  ، حَدَّثَنَا جَرِيرٌ  ، عَنْ يَزِيدَ بْنِ أَبِي زِيَادٍ  ، عَنْ عَبْدِ اللَّهِ بْنِ الْحَارِثِ  ، عَنْ أُمِّ هَانِئٍ  ، قَالَتْ : لَمَّا كَانَ يَوْمُ فَتْحِ مَكَّةَ، جَاءَتْ فَاطِمَةُ فَجَلَسَتْ عَنْ يَسَارِ رَسُولِ اللَّهِ صَلَّى اللَّهُ عَلَيْهِ وَسَلَّمَ وَأُمُّ هَانِئٍ عَنْ يَمِينِهِ.\nقَالَتْ : فَجَاءَتْ الْوَلِيدَةُ بِإِنَاءٍ فِيهِ شَرَابٌ فَنَاوَلَتْهُ، فَشَرِبَ مِنْهُ ثُمَّ نَاوَلَهُ أُمَّ هَانِئٍ ، فَشَرِبَتْ مِنْهُ ثُمَّ قَالَتْ : يَا رَسُولَ اللَّهِ، لَقَدْ أَفْطَرْتُ، وَكُنْتُ صَائِمَةً.\nفَقَالَ لَهَا :\" أَكُنْتِ تَقْضِينَ شَيْئًا؟ قَالَتْ : لَا.\nقَالَ : \" فَلَا يَضُرُّكِ إِنْ كَانَ تَطَوُّعًا \".\n قَالَ أَبُو مُحَمَّد : أَقُولُ بِهِ",
      "english": {
        "narrator": "",
        "text": ""
      }
    },
    {
      "id": 55,
      "chapterId": 4,
      "bookId": 9,
      "arabic": "أَخْبَرَنَا حَجَّاجُ بْنُ مِنْهَالٍ  ، حَدَّثَنَا سُفْيَانُ بْنُ عُيَيْنَةَ  ، عَنْ أَبِي الزِّنَادِ  ، عَنْ الْأَعْرَجِ  ، عَنْ أَبِي هُرَيْرَةَ  ، قَالَ : قَالَ رَسُولُ اللَّهِ صَلَّى اللَّهُ عَلَيْهِ وَسَلَّمَ :\" إِذَا دُعِيَ أَحَدُكُمْ إِلَى طَعَامٍ وَهُوَ صَائِمٌ، فَلْيَقُلْ : إِنِّي صَائِمٌ \"",
      "english": {
        "narrator": "",
        "text": ""
      }
    },
    {
      "id": 56,
      "chapterId": 4,
      "bookId": 9,
      "arabic": "أَخْبَرَنَا هَاشِمُ بْنُ الْقَاسِمِ  ، حَدَّثَنَا شُعْبَةُ  ، عَنْ حَبِيبٍ الْأَنْصَارِيِّ  ، قَالَ : سَمِعْتُ مَوْلَاةً لَنَا يُقَالُ لَهَا لَيْلَى  تُحَدِّثُ، عَنْ جَدَّتِهَا أُمِّ عُمَارَةَ بِنْتِ كَعْبٍ  ، أَنَّ النَّبِيَّ صَلَّى اللَّهُ عَلَيْهِ وَسَلَّمَ دَخَلَ عَلَيْهَا، فَدَعَتْ لَهُ بِطَعَامٍ، فَقَالَ لَهَا : \" كُلِي \".\nفَقَالَتْ : إِنِّي صَائِمَةٌ.\n فَقَالَ النَّبِيُّ صَلَّى اللَّهُ عَلَيْهِ وَسَلَّمَ : \" إِنَّالصَّائِمَ إِذَا أُكِلَ عِنْدَهُ، صَلَّتْ عَلَيْهِ الْمَلَائِكَةُ حَتَّى يَفْرُغُوا، وَرُبَّمَا قَالَ : حَتَّى يَقْضُوا أَكْلَهُمْ \"",
      "english": {
        "narrator": "",
        "text": ""
      }
    },
    {
      "id": 57,
      "chapterId": 4,
      "bookId": 9,
      "arabic": "أَخْبَرَنَا عُبَيْدُ اللَّهِ  ، عَنْ إِسْرَائِيلَ  ، عَنْ مَنْصُورٍ  ، عَنْ سَالِمٍ  ، عَنْ أَبِي سَلَمَةَ  ، عَنْ أُمِّ سَلَمَةَ  ، قَالَتْ :\" مَا رَأَيْتُ رَسُولَ اللَّهِ صَلَّى اللَّهُ عَلَيْهِ وَسَلَّمَ صَامَ شَهْرًا تَامًّا إِلَّا شَعْبَانَ، فَإِنَّهُ كَانَ يَصِلُهُ بِرَمَضَانَ لِيَكُونَا شَهْرَيْنِ مُتَتَابِعَيْنِ، وَكَانَ يَصُومُ مِنْ الشَّهْرِ حَتَّى نَقُولَ : لَا يُفْطِرُ، وَيُفْطِرُ حَتَّى نَقُولَ : لَا يَصُومُ \"",
      "english": {
        "narrator": "",
        "text": ""
      }
    },
    {
      "id": 58,
      "chapterId": 4,
      "bookId": 9,
      "arabic": "أَخْبَرَنَا عَبْدُ الصَّمَدِ بْنُ عَبْدِ الْوَارِثِ  ، حَدَّثَنَا عَبْدُ الرَّحْمَنِ الْحَنَفِيُّ  يُقَالُ : عَبْدُ الرَّحْمَنِ بْنُ إِبْرَاهِيمَ، عَنْ الْعَلَاءِ  ، عَنْ أَبِيهِ  ، عَنْ أَبِي هُرَيْرَةَ  ، قَالَ : قَالَ رَسُولُ اللَّهِ صَلَّى اللَّهُ عَلَيْهِ وَسَلَّمَ :\" إِذَا كَانَ النِّصْفُ مِنْ شَعْبَانَ، فَأَمْسِكُوا عَنْ الصَّوْمِ \".\n  أَخْبَرَنَا الْحَكَمُ بْنُ الْمُبَارَكِ  ، عَنْ عَبْدِ الْعَزِيزِ بْنِ مُحَمَّدٍ  ، عَنْ الْعَلَاءِ  ، عَنْ أَبِيهِ  ، عَنْ أَبِي هُرَيْرَةَ  ، نَحْوَ هَذَا",
      "english": {
        "narrator": "",
        "text": ""
      }
    },
    {
      "id": 59,
      "chapterId": 4,
      "bookId": 9,
      "arabic": "أَخْبَرَنَا يَزِيدُ بْنُ هَارُونَ  ، أَخْبَرَنَا الْجُرَيْرِيُّ  ، عَنْ أَبِي الْعَلَاءِ بْنِ الشِّخِّيرِ  ، عَنْ مُطَرِّفٍ  ، عَنْ عِمْرَانَ بْنِ حُصَيْنٍ  ، أَنّ رَسُولَ اللَّهِ صَلَّى اللَّهُ عَلَيْهِ وَسَلَّمَ قَالَ لِرَجُلٍ : \" هَلْ صُمْتَ مِنْ سَرَرِ هَذَا الشَّهْرِ؟ \" فَقَالَ : لَا.\nقَالَ :\" إِذَا أَفْطَرْتَ مِنْ رَمَضَانَ، فَصُمْ يَوْمَيْنِ \".\nقَالَ أَبُو مُحَمَّد : سَرَرُهُ : آخِرُهُ",
      "english": {
        "narrator": "",
        "text": ""
      }
    },
    {
      "id": 60,
      "chapterId": 4,
      "bookId": 9,
      "arabic": "أَخْبَرَنَا مُحَمَّدُ بْنُ عِيسَى  ، حَدَّثَنَا أَبُو عَوَانَةَ  ، عَنْ أَبِي بِشْرٍ  ، عَنْ سَعِيدِ بْنِ جُبَيْرٍ  ، عَنْ ابْنِ عَبَّاسٍ  ، قَالَ :\" مَا صَامَ النَّبِيُّ صَلَّى اللَّهُ عَلَيْهِ وَسَلَّمَ شَهْرًا كَامِلًا غَيْرَ رَمَضَانَ، وَإِنْ كَانَ لَيَصُومُ إِذَا صَامَ حَتَّى يَقُولَ الْقَائِلُ : لَا وَاللَّهِ لَا يُفْطِرُ، وَيُفْطِرُ إِذَا أَفْطَرَ حَتَّى يَقُولَ الْقَائِلُ : لَا وَاللَّهِ لَا يَصُومُ \"",
      "english": {
        "narrator": "",
        "text": ""
      }
    },
    {
      "id": 61,
      "chapterId": 4,
      "bookId": 9,
      "arabic": "أَخْبَرَنَا مُحَمَّدُ بْنُ يُوسُفَ  ، عَنْ الْأَوْزَاعِيِّ  ، عَنْ قَتَادَةَ  ، عَنْ مُطَرِّفِ بْنِ عَبْدِ اللَّهِ بْنِ الشِّخِّيرِ  ، عَنْ أَبِيهِ  ، قَالَ : ذُكِرَ عِنْدَ رَسُولِ اللَّهِ صَلَّى اللَّهُ عَلَيْهِ وَسَلَّمَ رَجُلٌ يَصُومُ الدَّهْرَ، فَقَالَ :\" لَا صَامَ وَلَا أَفْطَرَ \"",
      "english": {
        "narrator": "",
        "text": ""
      }
    },
    {
      "id": 62,
      "chapterId": 4,
      "bookId": 9,
      "arabic": "أَخْبَرَنَا يَزِيدُ بْنُ هَارُونَ  ، حَدَّثَنَا الْعَوَّامُ  ، حَدَّثَنِي سُلَيْمَانُ بْنُ أَبِي سُلَيْمَانَ  ، أَنَّهُ سَمِعَ أَبَا هُرَيْرَةَ  ، يَقُولُ : أَوْصَانِي خَلِيلِي بِثَلَاثٍ لَسْتُ بِتَارِكِهِنَّ : \" أَنْلَا أَنَامَ إِلَّا عَلَى وِتْرٍ، وَأَنْ أَصُومَ ثَلَاثَةَ أَيَّامٍ مِنْ كُلِّ شَهْرٍ، وَأَنْ لَا أَدَعَ رَكْعَتَيْ الضُّحَى \".\n أَخْبَرَنَا أَبُو الْوَلِيدِ  ، حَدَّثَنَا شُعْبَةُ  ، عَنْ عَبَّاسٍ الْجُرَيْرِيِّ  ، عَنْ أَبِي عُثْمَانَ  ، عَنْ أَبِي هُرَيْرَةَ  ، نَحْوَهُ",
      "english": {
        "narrator": "",
        "text": ""
      }
    }
  ]
}