{
  "page": 22,
  "perPage": 50,
  "totalPages": 69,
  "totalCount": 3406,
  "nextPage": 23,
  "prevPage": 21,
  "items": [
    {
      "id": 63,
      "chapterId": 4,
      "bookId": 9,
      "arabic": "حَدَّثَنَا أَبُو الْوَلِيدِ  ، حَدَّثَنَا شُعْبَةُ  ، عَنْ مُعَاوِيَةَ بْنِ قُرَّةَ  ، عَنْ أَبِيهِ  ، عَنْ النَّبِيِّ صَلَّى اللَّهُ عَلَيْهِ وَسَلَّمَ، قَالَ :\" صِيَامُ الْبِيضِ صِيَامُ الدَّهْرِ وَإِفْطَارُهُ \"",
      "english": {
        "narrator": "",
        "text": ""
      }
    },
    {
      "id": 64,
      "chapterId": 4,
      "bookId": 9,
      "arabic": "أَخْبَرَنَا أَبُو عَاصِمٍ  ، عَنْ ابْنِ جُرَيْجٍ  ، عَنْ عَبْدِ الْحَمِيدِ بْنِ جُبَيْرِ بْنِ شَيْبَةَ  ، عَنْ مُحَمَّدِ بْنِ عَبَّادِ بْنِ جَعْفَرٍ  ، قَالَ : قُلْتُ لِجَابِرٍ   :\" أَنَهَى النَّبِيُّ صَلَّى اللَّهُ عَلَيْهِ وَسَلَّمَ عَنْ صَوْمِ يَوْمِ الْجُمُعَةِ؟ قَالَ : نَعَمْ وَرَبِّ هَذَا الْبَيْتِ \"",
      "english": {
        "narrator": "",
        "text": ""
      }
    },
    {
      "id": 65,
      "chapterId": 4,
      "bookId": 9,
      "arabic": "أَخْبَرَنَا أَبُو عَاصِمٍ  ، عَنْ ثَوْرٍ  ، عَنْ خَالِدِ بْنِ مَعْدَانَ  ، حَدَّثَنِي عَبْدُ اللَّهِ بْنُ بُسْرٍ  ، عَنْ أُخْتِهِ يُقَالُ لَهَا الصَّمَّاءُ  ، أَنَّ رَسُولَ اللَّهِ صَلَّى اللَّهُ عَلَيْهِ وَسَلَّمَ، قَالَ :\" لَا تَصُومُوا يَوْمَ السَّبْتِ إِلَّا فِيمَا افْتُرِضَ عَلَيْكُمْ، وَإِنْ لَمْ يَجِدْ أَحَدُكُمْ إِلَّا كَذَا أَوْ لِحَاءَ شَجَرَةٍ فَلْيَمْضَغْهُ \"",
      "english": {
        "narrator": "",
        "text": ""
      }
    },
    {
      "id": 66,
      "chapterId": 4,
      "bookId": 9,
      "arabic": "حَدَّثَنَا وَهْبُ بْنُ جَرِيرٍ  ، حَدَّثَنَا هِشَامٌ  ، عَنْ يَحْيَى  ، عَنْ عُمَرَ بْنِ الْحَكَمِ بْنِ ثَوْبَانَ  ، أَنَّ مَوْلَى  قُدَامَةَ بْنِ مَظْعُونٍ حَدَّثَهُ، أَنَّ مَوْلَى  أُسَامَةَ حَدَّثَهُ، قَالَ : كَانَ أُسَامَةُ   يَرْكَبُ إِلَى مَالٍ لَهُ بِوَادِي الْقُرَى، فَيَصُومُ الِاثْنَيْنِ وَالْخَمِيسَ فِي الطَّرِيقِ، فَقُلْتُ لَهُ : لِمَ تَصُومُ الِاثْنَيْنِ وَالْخَمِيسَ فِي السَّفَرِ وَقَدْ كَبِرْتَ وَضَعُفْتَ أَوْ رَقِقْتَ؟ فَقَالَ : إِنَّ رَسُولَ اللَّهِ صَلَّى اللَّهُ عَلَيْهِ وَسَلَّمَ كَانَ يَصُومُ الِاثْنَيْنِ وَالْخَمِيسَ، وَقَالَ : \" إِنَّأَعْمَالَ النَّاسِ تُعْرَضُ يَوْمَ الِاثْنَيْنِ وَالْخَمِيسِ \"",
      "english": {
        "narrator": "",
        "text": ""
      }
    },
    {
      "id": 67,
      "chapterId": 4,
      "bookId": 9,
      "arabic": "أَخْبَرَنَا أَبُو عَاصِمٍ  ، عَنْ مُحَمَّدِ بْنِ رِفَاعَةَ  ، عَنْ سُهَيْلٍ  ، عَنْ أَبِيهِ  ، عَنْ أَبِي هُرَيْرَةَ  ، أَنَّ النَّبِيَّ صَلَّى اللَّهُ عَلَيْهِ وَسَلَّمَ كَانَ يَصُومُ يَوْمَ الِاثْنَيْنِ وَالْخَمِيسِ، فَسَأَلْتُهُ، فَقَالَ : \" إِنَّالْأَعْمَالَ تُعْرَضُ يَوْمَ الِاثْنَيْنِ وَالْخَمِيسِ \"",
      "english": {
        "narrator": "",
        "text": ""
      }
    },
    {
      "id": 68,
      "chapterId": 4,
      "bookId": 9,
      "arabic": "أَخْبَرَنَا عُثْمَانُ بْنُ مُحَمَّدٍ  ، حَدَّثَنَا سُفْيَانُ بْنُ عُيَيْنَةَ  ، عَنْ عَمْرٍو يَعْنِي ابْنَ دِينَارٍ  ، عَنْ عَمْرِو بْنِ أَوْسٍ  ، عَنْ عَبْدِ اللَّهِ بْنِ عَمْرٍو  ، يَرْفَعُهُ قَالَ :\" أَحَبُّ الصِّيَامِ إِلَى اللَّهِ G صِيَامُ دَاوُدَ ، كَانَ يَصُومُ يَوْمًا وَيُفْطِرُ يَوْمًا، وَأَحَبُّ الصَّلَاةِ إِلَى اللَّهِ G صَلَاةُ دَاوُدَ ، كَانَ يُصَلِّي نِصْفًا، وَيَنَامُ ثُلُثًا، وَيُسَبِّحُ سُدُسًا \".\nقَالَ أَبُو مُحَمَّد : هَذَا اللَّفْظُ الْأَخِيرُ غَلَطٌ أَوْ خَطَأٌ، إِنَّمَا هُوَ أَنَّهُ كَانَ يَنَامُ نِصْفَ اللَّيْلِ وَيُصَلِّي ثُلُثَهُ، وَيُسَبِّحُ تَسْبِيحَةً",
      "english": {
        "narrator": "",
        "text": ""
      }
    },
    {
      "id": 69,
      "chapterId": 4,
      "bookId": 9,
      "arabic": "حَدَّثَنَا سَعِيدُ بْنُ عَامِرٍ  ، عَنْ شُعْبَةَ  ، عَنْ عَبْدِ الْمَلِكِ بْنِ عُمَيْرٍ  ، عَنْ قَزَعَةَ  مَوْلَى زِيَادٍ، عَنْ أَبِي سَعِيدٍ الْخُدْرِيِّ  ، عَنْ النَّبِيِّ صَلَّى اللَّهُ عَلَيْهِ وَسَلَّمَ، قَالَ :\" لَا صَوْمَ يَوْمَيْنِ : يَوْمَ الْفِطْرِ وَيَوْمَ النَّحْرِ \"",
      "english": {
        "narrator": "",
        "text": ""
      }
    },
    {
      "id": 70,
      "chapterId": 4,
      "bookId": 9,
      "arabic": "حَدَّثَنَا نُعَيْمُ بْنُ حَمَّادٍ  ، حَدَّثَنَا عَبْدُ الْعَزِيزِ بْنُ مُحَمَّدٍ  ، حَدَّثَنَا صَفْوَانُ  ، وسَعْدُ بْنُ سَعِيدٍ  ، عَنْ عُمَرَ بْنِ ثَابِتٍ  ،  عَنْ أَبِي أَيُّوبَ  ، عَنْ النَّبِيِّ صَلَّى اللَّهُ عَلَيْهِ وَسَلَّمَ، قَالَ :\" مَنْ صَامَ رَمَضَانَ ثُمَّ أَتْبَعَهُ سِتَّةً مِنْ شَوَّالٍ، فَذَلِكَ صِيَامُ الدَّهْرِ \"",
      "english": {
        "narrator": "",
        "text": ""
      }
    },
    {
      "id": 71,
      "chapterId": 4,
      "bookId": 9,
      "arabic": "حَدَّثَنَا يَحْيَى بْنُ حَسَّانَ  ، حَدَّثَنَا يَحْيَى بْنُ حَمْزَةَ  ، حَدَّثَنَا يَحْيَى بْنُ الْحَارِثِ الذِّمَارِيُّ  ، عَنْ أَبِي أَسْمَاءَ الرَّحَبِيِّ  ، عَنْ ثَوْبَانَ  ، أَنّ رَسُولَ اللَّهِ صَلَّى اللَّهُ عَلَيْهِ وَسَلَّمَ، قَالَ :\" صِيَامُ شَهْرٍ بِعَشَرَةِ أَشْهُرٍ، وَسِتَّةِ أَيَّامٍ بَعْدَهُنَّ بِشَهْرَيْنِ، فَذَلِكَ تَمَامُ سَنَةٍ \"، يَعْنِي شَهْرَ رَمَضَانَ، وَسِتَّةَ أَيَّامٍ بَعْدَهُ",
      "english": {
        "narrator": "",
        "text": ""
      }
    },
    {
      "id": 72,
      "chapterId": 4,
      "bookId": 9,
      "arabic": "حَدَّثَنَا مُحَمَّدُ بْنُ سَعِيدٍ  ، حَدَّثَنَا مُحَمَّدُ بْنُ فُضَيْلٍ  ، عَنْ عَبْدِ الرَّحْمَنِ بْنِ إِسْحَاق  ، عَنْ النُّعْمَانِ بْنِ سَعْدٍ  ، قَالَ : جَاءَ رَجُلٌ إِلَى عَلِيٍّ فَسَأَلَهُ عَنْ شَهْرٍ بَعْدَ شَهْرِ رَمَضَانَ يَصُومُهُ، فَقَالَ لَهُ عَلِيٌّ   : مَا سَأَلَنِي أَحَدٌ عَنْ هَذَا بَعْدَ إِذْ سَمِعْتُ رَجُلًا سَأَلَ النَّبِيَّ صَلَّى اللَّهُ عَلَيْهِ وَسَلَّمَ : أَيُّ شَهْرٍ يَصُومُهُ مِنْ السَّنَةِ بَعْدَ شَهْرِ رَمَضَانَ.فَأَمَرَهُ بِصِيَامِ الْمُحَرَّمِ، وَقَالَ : \" إِنَّ فِيهِ يَوْمًا تَابَ اللَّهُ عَلَى قَوْمٍ وَيَتُوبُ فِيهِ عَلَى قَوْمٍ \"",
      "english": {
        "narrator": "",
        "text": ""
      }
    },
    {
      "id": 73,
      "chapterId": 4,
      "bookId": 9,
      "arabic": "أَخْبَرَنَا زَيْدُ بْنُ عَوْفٍ  ، حَدَّثَنَا أَبُو عَوَانَةَ  ، عَنْ عَبْدِ الْمَلِكِ بْنِ عُمَيْرٍ  ، عَنْ مُحَمَّدِ بْنِ الْمُنْتَشِرِ  ، عَنْ حُمَيْدِ بْنِ عَبْدِ الرَّحْمَنِ  ، عَنْ أَبِي هُرَيْرَةَ  ، أَنَّ النَّبِيَّ صَلَّى اللَّهُ عَلَيْهِ وَسَلَّمَ قَالَ :\" أَفْضَلُ الصِّيَامِ بَعْدَ شَهْرِ رَمَضَانَ شَهْرُ اللَّهِ الَّذِي تَدْعُونَهُ الْمُحَرَّمَ \"",
      "english": {
        "narrator": "",
        "text": ""
      }
    },
    {
      "id": 74,
      "chapterId": 4,
      "bookId": 9,
      "arabic": "حَدَّثَنَا أَبُو نُعَيْمٍ  ، وَأَخْبَرَنَا يَحْيَى بْنُ حَسَّانَ  ، أَخْبَرَنَا أَبُو عَوَانَةَ  ، عَنْ أَبِي بِشْرٍ  ، عَنْ حُمَيْدِ بْنِ عَبْدِ الرَّحْمَنِ الْحِمْيَرِيِّ  ، عَنْ أَبِي هُرَيْرَةَ  ، أَنّ النَّبِيَّ صَلَّى اللَّهُ عَلَيْهِ وَسَلَّمَ قَالَ :\" أَفْضَلُ الصِّيَامِ بَعْدَ شَهْرِ رَمَضَانَ الْمُحَرَّمُ \"",
      "english": {
        "narrator": "",
        "text": ""
      }
    },
    {
      "id": 75,
      "chapterId": 4,
      "bookId": 9,
      "arabic": "أَخْبَرَنَا سَهْلُ بْنُ حَمَّادٍ  ، حَدَّثَنَا شُعْبَةُ  ، عَنْ أَبِي بِشْرٍ  ، عَنْ سَعِيدِ بْنِ جُبَيْرٍ  ، عَنْ ابْنِ عَبَّاسٍ  ، أَنَّهُ قَالَ : قَدِمَ رَسُولُ اللَّهِ صَلَّى اللَّهُ عَلَيْهِ وَسَلَّمَ الْمَدِينَةَ ، وَالْيَهُودُ يَصُومُونَ يَوْمَ عَاشُورَاءَ، فَسَأَلَهُمْ، فَقَالُوا : هَذَا الْيَوْمُ الَّذِي ظَهَرَ فِيهِ مُوسَى عَلَى فِرْعَوْنَ.\nفَقَالَ رَسُولُ اللَّهِ صَلَّى اللَّهُ عَلَيْهِ وَسَلَّمَ :\" أَنْتُمْ أَوْلَى بِمُوسَى فَصُومُوهُ \"",
      "english": {
        "narrator": "",
        "text": ""
      }
    },
    {
      "id": 76,
      "chapterId": 4,
      "bookId": 9,
      "arabic": "أَخْبَرَنَا عُبَيْدُ اللَّهِ بْنُ عَبْدِ الْمَجِيدِ  ، حَدَّثَنَا ابْنُ أَبِي ذِئْبٍ  ، عَنْ الزُّهْرِيِّ  ، عَنْ عُرْوَةَ  ، عَنْ عَائِشَةَ  ، أَنَّ النَّبِيَّ صَلَّى اللَّهُ عَلَيْهِ وَسَلَّمَ كَانَ يَصُومُ يَوْمَ عَاشُورَاءَ،\" وَيَأْمُرُنَا بِصِيَامِهِ \"",
      "english": {
        "narrator": "",
        "text": ""
      }
    },
    {
      "id": 77,
      "chapterId": 4,
      "bookId": 9,
      "arabic": "أَخْبَرَنَا أَبُو عَاصِمٍ  ، عَنْ يَزِيدَ بْنِ أَبِي عُبَيْدٍ  ، عَنْ سَلَمَةَ بْنِ الْأَكْوَعِ  ، أَنَّ النَّبِيَّ صَلَّى اللَّهُ عَلَيْهِ وَسَلَّمَ بَعَثَ يَوْمَ عَاشُورَاءَ رَجُلًا مِنْ أَسْلَمَ : \" إِنَّالْيَوْمَ يَوْمُ عَاشُورَاءَ، فَمَنْ كَانَ أَكَلَ أَوْ شَرِبَ، فَلْيُتِمَّ بَقِيَّةَ يَوْمِهِ، وَمَنْ لَمْ يَكُنْ أَكَلَ أَوْ شَرِبَ، فَلْيَصُمْهُ \"",
      "english": {
        "narrator": "",
        "text": ""
      }
    },
    {
      "id": 78,
      "chapterId": 4,
      "bookId": 9,
      "arabic": "أَخْبَرَنَا يَعْلَى  ، عَنْ مُحَمَّدِ بْنِ إِسْحَاق  ، عَنْ نَافِعٍ  ، عَنْ ابْنِ عُمَرَ  ، قَالَ : قَالَ رَسُولُ اللَّهِ صَلَّى اللَّهُ عَلَيْهِ وَسَلَّمَ :\" هَذَا يَوْمُ عَاشُورَاءَ، وَكَانَتْ قُرَيْشٌ تَصُومُهُ فِي الْجَاهِلِيَّةِ، فَمَنْ أَحَبَّ مِنْكُمْ أَنْ يَصُومَهُ، فَلْيَصُمْهُ، فَمَنْ أَحَبَّ مِنْكُمْ أَنْ يَتْرُكَهُ فَلْيَتْرُكْهُ \".\nوَكَانَ ابْنُ عُمَرَ لَا يَصُومُهُ إِلَّا أَنْ يُوَافِقَ صِيَامَهُ",
      "english": {
        "narrator": "",
        "text": ""
      }
    },
    {
      "id": 79,
      "chapterId": 4,
      "bookId": 9,
      "arabic": "أَخْبَرَنَا عَبْدُ الْوَهَّابِ بْنُ سَعِيدٍ  ، حَدَّثَنَا شُعَيْبُ بْنُ إِسْحَاق  ، عَنْ هِشَامِ بْنِ عُرْوَةَ  ، عَنْ أَبِيهِ  ، عَنْ عَائِشَةَ  ، قَالَتْ : \" كَانَ يَوْمُ عَاشُورَاءَ يَوْمًا تَصُومُهُ قُرَيْشٌ فِي الْجَاهِلِيَّةِ، فَلَمَّا قَدِمَ رَسُولُ اللَّهِ صَلَّى اللَّهُ عَلَيْهِ وَسَلَّمَ الْمَدِينَةَ ، صَامَهُوَأَمَرَ بِصِيَامِهِ، حَتَّى إِذَا فُرِضَ رَمَضَانُ، كَانَ رَمَضَانُ هُوَ الْفَرِيضَةُ، وَتُرِكَ يَوْمُ عَاشُورَاءَ فَمَنْ شَاءَ صَامَهُ، وَمَنْ شَاءَ تَرَكَهُ \"",
      "english": {
        "narrator": "",
        "text": ""
      }
    },
    {
      "id": 80,
      "chapterId": 4,
      "bookId": 9,
      "arabic": "أَخْبَرَنَا وَهْبُ بْنُ جَرِيرٍ  ، حَدَّثَنَا مُوسَى بْنُ عُلَيٍّ  ، عَنْ أَبِيهِ  ، عَنْ عُقْبَةَ بْنِ عَامِرٍ  ، قَالَ : قَالَ رَسُولُ اللَّهِ صَلَّى اللَّهُ عَلَيْهِ وَسَلَّمَ :\" يَوْمُ عَرَفَةَ ، وَأَيَّامُ التَّشْرِيقِ عِيدُنَا أَهْلَ الْإِسْلَامِ، وَهِيَ أَيَّامُ أَكْلٍ وَشُرْبٍ \"",
      "english": {
        "narrator": "",
        "text": ""
      }
    },
    {
      "id": 81,
      "chapterId": 4,
      "bookId": 9,
      "arabic": "أَخْبَرَنَا الْمُعَلَّى بْنُ أَسَدٍ  ، حَدَّثَنَا إِسْمَاعِيل ابْنُ عُلَيَّةَ  ، حَدَّثَنَا ابْنُ أَبِي نَجِيحٍ  ، عَنْ أَبِيهِ  ، قَالَ : سُئِلَ ابْنُ عُمَرَ   عَنْ صَوْمِ يَوْمِ عَرَفَةَ ، فَقَالَ :\" حَجَجْتُ مَعَ النَّبِيِّ صَلَّى اللَّهُ عَلَيْهِ وَسَلَّمَ فَلَمْ يَصُمْهُ، وَحَجَجْتُ مَعَ أَبِي بَكْرٍ فَلَمْ يَصُمْهُ، وَحَجَجْتُ مَعَ عُمَرَ، فَلَمْ يَصُمْهُ، وَحَجَجْتُ مَعَ عُثْمَانَ، فَلَمْ يَصُمْهُ، وَأَنَا لَا أَصُومُهُ، وَلَا آمُرُ بِهِ، وَلَا أَنْهَى عَنْهُ \"",
      "english": {
        "narrator": "",
        "text": ""
      }
    },
    {
      "id": 82,
      "chapterId": 4,
      "bookId": 9,
      "arabic": "حَدَّثَنَا أَبُو النُّعْمَانِ  ، حَدَّثَنَا حَمَّادُ بْنُ زَيْدٍ  ، عَنْ عَمْرِو بْنِ دِينَارٍ  ، عَنْ نَافِعِ بْنِ جُبَيْرٍ  ، عَنْ بِشْرِ بْنِ سُحَيْمٍ  ، أَنَّ رَسُولَ اللَّهِ صَلَّى اللَّهُ عَلَيْهِ وَسَلَّمَ أَمَرَهُ أَوْ أَمَرَ رَجُلًا يُنَادِي أَيَّامَ التَّشْرِيقِ : \" أَنَّهُلَا يَدْخُلُ الْجَنَّةَ إِلَّا مُؤْمِنٌ، وَهِيَ أَيَّامُ أَكْلٍ وَشُرْبٍ \"",
      "english": {
        "narrator": "",
        "text": ""
      }
    },
    {
      "id": 83,
      "chapterId": 4,
      "bookId": 9,
      "arabic": "أَخْبَرَنَا عَبْدُ اللَّهِ بْنُ صَالِحٍ  ، حَدَّثَنِي اللَّيْثُ  ، حَدَّثَنِي يَزِيدُ بْنُ عَبْدِ اللَّهِ  ، عَنْ أَبِي مُرَّةَ  مَوْلَى عَقِيلٍ، أَنَّهُ : دَخَلَ هُوَ وَعَبْدُ اللَّهِ بْنُ عَمْرٍو عَلَى عَمْرِو بْنِ الْعَاصِ، وَذَلِكَ الْغَدَ أَوْ بَعْدَ الْغَدِ مِنْ يَوْمِ الْأَضْحَى، فَقَرَّبَ إِلَيْهِمْ عَمْرٌو طَعَامًا، فَقَالَ عَبْدُ اللَّهِ : إِنِّي صَائِمٌ.\n فَقَالَ عَمْرٌو   : \" أَفْطِرْ، فَإِنَّهَذِهِ الْأَيَّامَ الَّتِي كَانَ رَسُولُ اللَّهِ صَلَّى اللَّهُ عَلَيْهِ وَسَلَّمَ يَأْمُرُنَا بِفِطْرِهَا وَيَنْهَانَا عَنْ صِيَامِهَا.\nفَأَفْطَرَ عَبْدُ اللَّهِ، فَأَكَلَ وَأَكَلْتُ مَعَهُ \"",
      "english": {
        "narrator": "",
        "text": ""
      }
    },
    {
      "id": 84,
      "chapterId": 4,
      "bookId": 9,
      "arabic": "حَدَّثَنَا سَهْلُ بْنُ حَمَّادٍ  ، حَدَّثَنَا شُعْبَةُ  ، عَنْ أَبِي بِشْرٍ  ، عَنْ سَعِيدِ بْنِ جُبَيْرٍ  ، عَنْ ابْنِ عَبَّاسٍ  ، أَنَّ امْرَأَةً نَذَرَتْ أَنْ تَصُومَ، فَمَاتَتْ، فَجَاءَ أَخُوهَا إِلَى رَسُولِ اللَّهِ صَلَّى اللَّهُ عَلَيْهِ وَسَلَّمَ فَسَأَلَهُ عَنْ ذَلِكَ، فَقَالَ لَهُ رَسُولُ اللَّهِ صَلَّى اللَّهُ عَلَيْهِ وَسَلَّمَ : \" لَوْ كَانَ عَلَيْهَا دَيْنٌ أَكُنْتَ قَاضِيَهُ؟ \" قَالَ : نَعَمْ.\n قَالَ :\" فَاقْضُوا اللَّهَ، فَاللَّهُ أَحَقُّ بِالْوَفَاءِ \".\nقَالَ : فَصَامَ عَنْهَا",
      "english": {
        "narrator": "",
        "text": ""
      }
    },
    {
      "id": 85,
      "chapterId": 4,
      "bookId": 9,
      "arabic": "أَخْبَرَنَا يَزِيدُ بْنُ هَارُونَ  ، أَخْبَرَنَا مُحَمَّدُ بْنُ عَمْرٍو  ، عَنْ أَبِي سَلَمَةَ  ،  عَنْ أَبِي هُرَيْرَةَ  ، قَالَ : قَالَ رَسُولُ اللَّهِ صَلَّى اللَّهُ عَلَيْهِ وَسَلَّمَ :\" لَخُلُوفُ فَمِ الصَّائِمِ أَطْيَبُ عِنْدَ اللَّهِ مِنْ رِيحِ الْمِسْكِ، وَلِلصَّائِمِ فَرْحَتَانِ : فَرْحَةٌ عِنْدَ فِطْرِهِ، وَفَرْحَةٌ يَوْمَ الْقِيَامَةِ \"",
      "english": {
        "narrator": "",
        "text": ""
      }
    },
    {
      "id": 86,
      "chapterId": 4,
      "bookId": 9,
      "arabic": "أَخْبَرَنَا يَزِيدُ  ، أَخْبَرَنَا مُحَمَّدُ بْنُ عَمْرٍو  ، عَنْ أَبِي سَلَمَةَ  ، عَنْ أَبِي هُرَيْرَةَ  ، قَالَ : قَالَ رَسُولُ اللَّهِ صَلَّى اللَّهُ عَلَيْهِ وَسَلَّمَ : \" يَقُولُ اللَّهُ تَعَالَى :كُلُّ عَمَلِ ابْنِ آدَمَ لَهُ : فَالْحَسَنَةُ بِعَشْرِ أَمْثَالِهَا إِلَى سَبْعِ مِئَةِ ضِعْفٍ، إِلَّا الصِّيَامَ هُوَ لِي وَأَنَا أَجْزِي بِهِ، إِنَّهُ يَتْرُكُ الطَّعَامَ وَشَهْوَتَهُ مِنْ أَجْلِي، وَيَتْرُكُ الشَّرَابَ وَشَهْوَتَهُ مِنْ أَجْلِي، فَهُوَ لِي وَأَنَا أَجْزِي بِهِ \"",
      "english": {
        "narrator": "",
        "text": ""
      }
    },
    {
      "id": 87,
      "chapterId": 4,
      "bookId": 9,
      "arabic": "أَخْبَرَنَا أَبُو نُعَيْمٍ  ، حَدَّثَنَا الْأَعْمَشُ  ، عَنْ أَبِي صَالِحٍ  ، عَنْ أَبِي هُرَيْرَةَ  ، قَالَ : قَالَ رَسُولُ اللَّهِ صَلَّى اللَّهُ عَلَيْهِ وَسَلَّمَ :\" الصَّوْمُ جُنَّةٌ \"",
      "english": {
        "narrator": "",
        "text": ""
      }
    },
    {
      "id": 88,
      "chapterId": 4,
      "bookId": 9,
      "arabic": "أَخْبَرَنَا يَزِيدُ بْنُ هَارُونَ  ، أَخْبَرَنَا هِشَامٌ الدَّسْتَوَائِيُّ  ، عَنْ يَحْيَى بْنِ أَبِي كَثِيرٍ  ، عَنْ أَنَسِ بْنِ مَالِكٍ  ، أَنّ النَّبِيَّ صَلَّى اللَّهُ عَلَيْهِ وَسَلَّمَ كَانَ إِذَا أَفْطَرَ عِنْدَ أُنَاسٍ، قَالَ :\" أَفْطَرَ عِنْدَكُمْ الصَّائِمُونَ، وَأَكَلَ طَعَامَكُمْ الْأَبْرَارُ، وَتَنَزَّلَتْ عَلَيْكُمْ الْمَلَائِكَةُ \"",
      "english": {
        "narrator": "",
        "text": ""
      }
    },
    {
      "id": 89,
      "chapterId": 4,
      "bookId": 9,
      "arabic": "حَدَّثَنَا سَعِيدُ بْنُ الرَّبِيعِ  ، حَدَّثَنَا شُعْبَةُ  ، عَنْ سُلَيْمَانَ  ، قَالَ : سَمِعْتُ مُسْلِمًا الْبَطِينَ  ، عَنْ سَعِيدِ بْنِ جُبَيْرٍ  ، عَنْ ابْنِ عَبَّاسٍ   رَضِيَ اللهِ عَنْهُمَا، عَنْ النَّبِيِّ صَلَّى اللَّهُ عَلَيْهِ وَسَلَّمَ، قَالَ :\" مَا الْعَمَلُ، فِي أَيَّامٍ أَفْضَلَ مِنْ الْعَمَلِ فِي عَشْرِ ذِي الْحِجَّةِ \".\nقِيلَ : وَلَا الْجِهَادُ فِي سَبِيلِ اللَّهِ؟ قَالَ : \" وَلَا الْجِهَادُ فِي سَبِيلِ اللَّهِ، إِلَّا رَجُلٌ خَرَجَ بِنَفْسِهِ وَمَالِهِ ثُمَّ لَمْ يَرْجِعْ بِشَيْءٍ \"",
      "english": {
        "narrator": "",
        "text": ""
      }
    },
    {
      "id": 90,
      "chapterId": 4,
      "bookId": 9,
      "arabic": "أَخْبَرَنَا يَزِيدُ بْنُ هَارُونَ  ، أَخْبَرَنَا أَصْبَغُ  ، عَنْ الْقَاسِمِ بْنِ أَبِي أَيُّوبَ  ، عَنْ سَعِيدٍ  ، عَنْ ابْنِ عَبَّاسٍ  ، عَنْ النَّبِيِّ صَلَّى اللَّهُ عَلَيْهِ وَسَلَّمَ، قَالَ :\" مَا مِنْ عَمَلٍ أَزْكَى عِنْدَ اللَّهِ G وَلَا أَعْظَمَ أَجْرًا، مِنْ خَيْرٍ يَعْمَلُهُ فِي عَشْرِ الْأَضْحَى \".\nقِيلَ : وَلَا الْجِهَادُ فِي سَبِيلِ اللَّهِ؟ قَالَ : \" وَلَا الْجِهَادُ فِي سَبِيلِ اللَّهِ G إِلَّا رَجُلٌ خَرَجَ بِنَفْسِهِ وَمَالِهِ فَلَمْ يَرْجِعْ مِنْ ذَلِكَ بِشَيْءٍ \".\n قَالَ : وَكَانَ سَعِيدُ بْنُ جُبَيْرٍ إِذَا دَخَلَ أَيَّامُ الْعَشْرِ، اجْتَهَدَ اجْتِهَادًا شَدِيدًا حَتَّى مَا يَكَادُ يَقْدِرُ عَلَيْهِ",
      "english": {
        "narrator": "",
        "text": ""
      }
    },
    {
      "id": 91,
      "chapterId": 4,
      "bookId": 9,
      "arabic": "حَدَّثَنَا أَبُو الرَّبِيعِ الزَّهْرَانِيُّ  ، حَدَّثَنَا إِسْمَاعِيل بْنُ جَعْفَرٍ  ، حَدَّثَنَا أَبُو سُهَيْلٍ  ، عَنْ أَبِيهِ  ، عَنْ أَبِي هُرَيْرَةَ  ، أَنَّ رَسُولَ اللَّهِ صَلَّى اللَّهُ عَلَيْهِ وَسَلَّمَ قَالَ :\" إِذَا جَاءَ رَمَضَانُ، فُتِحَتْ أَبْوَابُ السَّمَاءِ، وَغُلِّقَتْ أَبْوَابُ النَّارِ، وَصُفِّدَتْ الشَّيَاطِينُ \"",
      "english": {
        "narrator": "",
        "text": ""
      }
    },
    {
      "id": 92,
      "chapterId": 4,
      "bookId": 9,
      "arabic": "حَدَّثَنَا وَهْبُ بْنُ جَرِيرٍ  ، حَدَّثَنَا هِشَامٌ  ، عَنْ يَحْيَى بْنِ أَبِي كَثِيرٍ  ، عَنْ أَبِي سَلَمَةَ بْنِ عَبْدِ الرَّحْمَنِ  ، عَنْ أَبِي هُرَيْرَةَ  ، أَنَّ النَّبِيَّ صَلَّى اللَّهُ عَلَيْهِ وَسَلَّمَ قَالَ :\" مَنْ قَامَ رَمَضَانَ إِيمَانًا وَاحْتِسَابًا ، غُفِرَ لَهُ مَا تَقَدَّمَ مِنْ ذَنْبِهِ، وَمَنْ قَامَ لَيْلَةَ الْقَدْرِ، غُفِرَ لَهُ مَا تَقَدَّمَ مِنْ ذَنْبِهِ \"",
      "english": {
        "narrator": "",
        "text": ""
      }
    },
    {
      "id": 93,
      "chapterId": 4,
      "bookId": 9,
      "arabic": "حَدَّثَنَا زَكَرِيَّا بْنُ عَدِيٍّ  ، حَدَّثَنَا يَزِيدُ بْنُ زُرَيْعٍ  ، عَنْ دَاوُدَ بْنِ أَبِي هِنْدٍ  ، عَنْ الْوَلِيدِ بْنِ عَبْدِ الرَّحْمَنِ  ، عَنْ جُبَيْرِ بْنِ نُفَيْرٍ  ، عَنْ أَبِي ذَرٍّ  ، قَالَ : صُمْنَا مَعَ رَسُولِ اللَّهِ صَلَّى اللَّهُ عَلَيْهِ وَسَلَّمَ شَهْرَ رَمَضَانَ، قَالَ : فَلَمْ يَقُمْ بِنَا مِنْ الشَّهْرِ شَيْئًا حَتَّى بَقِيَ سَبْعٌ.\nقَالَ : فَقَامَ بِنَا حَتَّى ذَهَبَ ثُلُثُ اللَّيْلِ.\nقَالَ : فَلَمَّا كَانَتْ السَّادِسَةُ، لَمْ يَقُمْ بِنَا، فَلَمَّا كَانَتْ الْخَامِسَةُ، قَامَ بِنَا حَتَّى ذَهَبَ شَطْرُ اللَّيْلِ الْآخِرُ، قُلْنَا : يَا رَسُولَ اللَّهِ، لَوْ نَفَّلْتَنَا بَقِيَّةَ هَذِهِ اللَّيْلَةِ، فَقَالَ : \" إِنَّالرَّجُلَ إِذَا قَامَ مَعَ الْإِمَامِ حَتَّى يَنْصَرِفَ مِنْ صَلَاتِهِ، حُسِبَ لَهُ قِيَامُ لَيْلَتِهِ \"، فَلَمَّا كَانَتْ الرَّابِعَةُ لَمْ يَقُمْ بِنَا، فَلَمَّا كَانَتْ الثَّالِثَةُ، جَمَعَ أَهْلَهُ وَنِسَاءَهُ، وَالنَّاسَ فَقَامَ بِنَا حَتَّى خَشِينَا أَنْ يَفُوتَنَا الْفَلَاحُ.\nقُلْنَا : وَمَا الْفَلَاحُ؟ قَالَ : السُّحُورُ، قَالَ : ثُمَّ لَمْ يَقُمْ بِنَا بَقِيَّةَ الشَّهْرِ.\nحَدَّثَنَا عُبَيْدُ اللَّهِ بْنُ مُوسَى  ، عَنْ سُفْيَانَ  ، عَنْ دَاوُدَ  ، عَنْ الْوَلِيدِ بْنِ عَبْدِ الرَّحْمَنِ الْجُرَشِيِّ  ، عَنْ جُبَيْرِ بْنِ نُفَيْرٍ الْحَضْرَمِيِّ  ، عَنْ أَبِي ذَرٍّ  ، نَحْوَهُ",
      "english": {
        "narrator": "",
        "text": ""
      }
    },
    {
      "id": 94,
      "chapterId": 4,
      "bookId": 9,
      "arabic": "حَدَّثَنَا عَاصِمُ بْنُ يُوسُفَ  ، حَدَّثَنَا أَبُو بَكْرِ بْنِ عَيَّاشٍ  ، عَنْ أَبِي حَصِينٍ  ، عَنْ أَبِي صَالِحٍ  ،  عَنْ أَبِي هُرَيْرَةَ  ، قَالَ : \" كَانَ رَسُولُ اللَّهِ صَلَّى اللَّهُ عَلَيْهِ وَسَلَّمَيَعْتَكِفُ الْعَشْرَ الْأَوَاخِرَ، فَلَمَّا كَانَ الْعَامُ الَّذِي قُبِضَ فِيهِ، اعْتَكَفَ عِشْرِينَ يَوْمًا \"",
      "english": {
        "narrator": "",
        "text": ""
      }
    },
    {
      "id": 95,
      "chapterId": 4,
      "bookId": 9,
      "arabic": "حَدَّثَنَا أَبُو الْيَمَانِ  ، أَخْبَرَنَا شُعَيْبُ بْنُ أَبِي حَمْزَةَ  ، عَنْ الزُّهْرِيِّ  ، أَخْبَرَنِي عَلِيُّ بْنُ حُسَيْنٍ  ، أَنَّ صَفِّيَةَ بِنْتَ حُيَيٍّ   أَخْبَرَتْهُ، أَنَّهَا جَاءَتْ النَّبِيَّ صَلَّى اللَّهُ عَلَيْهِ وَسَلَّمَ تَزُورُهُ فِي\" اعْتِكَافِهِ فِي الْمَسْجِدِ، فِي الْعَشْرِ الْأَوَاخِرِ مِنْ رَمَضَانَ، فَتَحَدَّثَتْ عِنْدَهُ سَاعَةً ثُمَّ قَامَتْ \"",
      "english": {
        "narrator": "",
        "text": ""
      }
    },
    {
      "id": 96,
      "chapterId": 4,
      "bookId": 9,
      "arabic": "أَخْبَرَنَا يَزِيدُ بْنُ هَارُونَ  ، حَدَّثَنَا حُمَيْدٌ  ، عَنْ أَنَسٍ  ، عَنْ عُبَادَةَ بْنِ الصَّامِتِ  ، قَالَ : خَرَجَ عَلَيْنَا رَسُولُ اللَّهِ صَلَّى اللَّهُ عَلَيْهِ وَسَلَّمَ وَهُوَ يُرِيدُ أَنْ يُخْبِرَنَا بِلَيْلَةِ الْقَدْرِ، فَتَلَاحَى رَجُلَانِ مِنْ الْمُسْلِمِينَ، فَقَالَ رَسُولُ اللَّهِ صَلَّى اللَّهُ عَلَيْهِ وَسَلَّمَ : \" إِنِّي خَرَجْتُ إِلَيْكُمْ، وَأَنَا أُرِيدُ أَنْ أُخْبِرَكُمْ بِلَيْلَةِ الْقَدْرِ، وَكَانَ بَيْنَ فُلَانٍ وَفُلَانٍ لِحَاءٌ فَرُفِعَتْ، وَعَسَى أَنْ يَكُونَ خَيْرًا،فَالْتَمِسُوهَا فِي الْعَشْرِ الْأَوَاخِرِ : فِي الْخَامِسَةِ، وَالسَّابِعَةِ، وَالتَّاسِعَةِ \"",
      "english": {
        "narrator": "",
        "text": ""
      }
    },
    {
      "id": 97,
      "chapterId": 4,
      "bookId": 9,
      "arabic": "أَخْبَرَنَا عَبْدُ اللَّهِ بْنُ صَالِحٍ  ، حَدَّثَنِي اللَّيْثُ  ، حَدَّثَنِي يُونُسُ  ، عَنْ ابْنِ شِهَابٍ  ، قَالَ : وَقَالَ أَبُو سَلَمَةَ  ،  عَنْ أَبِي هُرَيْرَةَ  ، أَنَّ رَسُولَ اللَّهِ صَلَّى اللَّهُ عَلَيْهِ وَسَلَّمَ قَالَ : \" أُرِيتُ لَيْلَةَ الْقَدْرِ ثُمَّ أَيْقَظَنِي بَعْضُ أَهْلِي فَنَسِيتُهَا،فَالْتَمِسُوهَا فِي الْعَشْرِ الْغَوَابِرِ \"",
      "english": {
        "narrator": "",
        "text": ""
      }
    },
    {
      "id": 98,
      "chapterId": 4,
      "bookId": 9,
      "arabic": "أَخْبَرَنَا عَبْدُ اللَّهِ بْنُ صَالِحٍ  ، حَدَّثَنِي اللَّيْثُ  ، حَدَّثَنِي عُقَيْلٌ  ، عَنْ ابْنِ شِهَابٍ  ، قَالَ : أَخْبَرَنِي سَالِمُ بْنُ عَبْدِ اللَّهِ  ، أَنَّ عَبْدَ اللَّهِ بْنَ عُمَرَ  ، قَالَ : إِنَّ رَسُولَ اللَّهِ صَلَّى اللَّهُ عَلَيْهِ وَسَلَّمَ قَالَ :\" الْتَمِسُوا لَيْلَةَ الْقَدْرِ فِي السَّبْعِ الْأَوَاخِرِ \"",
      "english": {
        "narrator": "",
        "text": ""
      }
    },
    {
      "id": 1,
      "chapterId": 5,
      "bookId": 9,
      "arabic": "حَدَّثَنَا عَبْدُ اللَّهِ بْنُ سَعِيدٍ  ، حَدَّثَنَا أَبُو مُعَاوِيَةَ  ، حَدَّثَنَا الْحَسَنُ بْنُ عَمْرٍو الْفُقَيْمِيُّ  ، عَنْ مِهْرَانَ أَبِي صَفْوَانَ  ، عَنْ ابْنِ عَبَّاسٍ  ، قَالَ : قَالَ رَسُولُ اللَّهِ صَلَّى اللَّهُ عَلَيْهِ وَسَلَّمَ :\" مَنْ أَرَادَ الْحَجَّ فَلْيَتَعَجَّلْ \"",
      "english": {
        "narrator": "",
        "text": ""
      }
    },
    {
      "id": 2,
      "chapterId": 5,
      "bookId": 9,
      "arabic": "أَخْبَرَنَا يَزِيدُ بْنُ هَارُونَ  ، عَنْ شَرِيكٍ  ، عَنْ لَيْثٍ  ، عَنْ عَبْدِ الرَّحْمَنِ بْنِ سَابِطٍ  ، عَنْ أَبِي أُمَامَةَ  ، قَالَ : قَالَ رَسُولُ اللَّهِ صَلَّى اللَّهُ عَلَيْهِ وَسَلَّمَ :\" مَنْ لَمْ يَمْنَعْهُ عَنْ الْحَجِّ حَاجَةٌ ظَاهِرَةٌ، أَوْ سُلْطَانٌ جَائِرٌ، أَوْ مَرَضٌ حَابِسٌ، فَمَاتَ وَلَمْ يَحُجَّ، فَلْيَمُتْ إِنْ شَاءَ يَهُودِيًّا ، وَإِنْ شَاءَ نَصْرَانِيًّا \"",
      "english": {
        "narrator": "",
        "text": ""
      }
    },
    {
      "id": 3,
      "chapterId": 5,
      "bookId": 9,
      "arabic": "أَخْبَرَنَا مُجَاهِدُ بْنُ مُوسَى  ، حَدَّثَنَا يَحْيَى بْنُ آدَمَ  ، حَدَّثَنَا زُهَيْرٌ  ، عَنْ أَبِي إِسْحَاق  ، قَالَ : سَمِعْتُ زَيْدَ بْنَ أَرْقَمَ  ، يَقُولُ :\" حَجَّ النَّبِيُّ صَلَّى اللَّهُ عَلَيْهِ وَسَلَّمَ بَعْدَ هِجْرَتِهِ حَجَّةً \"",
      "english": {
        "narrator": "",
        "text": ""
      }
    },
    {
      "id": 4,
      "chapterId": 5,
      "bookId": 9,
      "arabic": "قَالَ : وَقَالَ أَبُو إِسْحَاق   :\" حَجَّ قَبْلَ هِجْرَتِهِ حَجَّةً \"",
      "english": {
        "narrator": "",
        "text": ""
      }
    },
    {
      "id": 5,
      "chapterId": 5,
      "bookId": 9,
      "arabic": "أَخْبَرَنَا أَبُو الْوَلِيدِ الطَّيَالِسِيُّ  ، حَدَّثَنَا هَمَّامٌ  ، حَدَّثَنَا قَتَادَةُ  ، قَالَ : قُلْتُ لِأَنَسٍ   : كَمْ حَجَّ النَّبِيُّ صَلَّى اللَّهُ عَلَيْهِ وَسَلَّمَ؟ قَالَ :\" حَجَّةً وَاحِدَةً، وَاعْتَمَرَ أَرْبَعًا : عُمْرَتُهُ الْأُولَى الَّتِي صَدَّهُ الْمُشْرِكُونَ عَنْ الْبَيْتِ ، وَعُمْرَتُهُ الثَّانِيَةُ حِينَ صَالَحُوهُ فَرَجَعَ مِنْ الْعَامِ الْمُقْبِلِ، وَعُمْرَتُهُ مِنْ الْجِعْرَانَةِ حِينَ قَسَّمَ غَنِيمَةَ حُنَيْنٍ فِي ذِي الْقَعْدَةِ، وَعُمْرَتُهُ مَعَ حَجَّتِهِ \"",
      "english": {
        "narrator": "",
        "text": ""
      }
    },
    {
      "id": 6,
      "chapterId": 5,
      "bookId": 9,
      "arabic": "حَدَّثَنَا مُحَمَّدُ بْنُ كَثِيرٍ  ، حَدَّثَنَا سُلَيْمَانُ بْنُ كَثِيرٍ  ، عَنْ الزُّهْرِيِّ  ، عَنْ سِنَانٍ  ، عَنْ ابْنِ عَبَّاسٍ  ، قَالَ : قَالَ رَسُولُ اللَّهِ صَلَّى اللَّهُ عَلَيْهِ وَسَلَّمَ :\" كُتِبَ عَلَيْكُمْ الْحَجُّ \".\nفَقِيلَ : يَا رَسُولَ اللَّهِ فِي كُلِّ عَامٍ؟ قَالَ : \" لَا، وَلَوْ قُلْتُهَا لَوَجَبَتْ، الْحَجُّ مَرَّةٌ فَمَا زَادَ فَهُوَ تَطَوُّعٌ \".\n أَخْبَرَنَا عُبَيْدُ اللَّهِ بْنُ مُوسَى  ، عَنْ شَرِيكٍ  ، عَنْ سِمَاكٍ  ، عَنْ عِكْرِمَةَ  ، عَنْ ابْنِ عَبَّاسٍ  ، نَحْوَهُ",
      "english": {
        "narrator": "",
        "text": ""
      }
    },
    {
      "id": 7,
      "chapterId": 5,
      "bookId": 9,
      "arabic": "أَخْبَرَنَا أَحْمَدُ بْنُ عَبْدِ اللَّهِ بْنِ يُونُسَ  ، حَدَّثَنَا مَالِكٌ  ، عَنْ نَافِعٍ  ، عَنْ ابْنِ عُمَرَ  ، قَالَ :\" وَقَّتَ رَسُولُ اللَّهِ صَلَّى اللَّهُ عَلَيْهِ وَسَلَّمَ لِأَهْلِ الْمَدِينَةِ ذَا الْحُلَيْفَةِ ، وَلِأَهْلِ الشَّامِ الْجُحْفَةَ ، وَلِأَهْلِ نَجْدٍ قَرْنًا \".\nقَالَ : قَالَ ابْنُ عُمَرَ : أَمَّا هَذِهِ الثَّلَاثُ فَإِنِّي سَمِعْتُهُنَّ مِنْ رَسُولِ اللَّهِ صَلَّى اللَّهُ عَلَيْهِ وَسَلَّمَ، وَبَلَغَنِي أَنَّهُ وَقَّتَ لِأَهْلِ الْيَمَنِ يَلَمْلَمَ .\nأَخْبَرَنَا أَحْمَدُ بْنُ عَبْدِ اللَّهِ  ، حَدَّثَنَا مَالِكٌ  ، عَنْ عَبْدِ اللَّهِ بْنِ دِينَارَ  ، عَنْ ابْنِ عُمَرَ  ، مِثْلَهُ",
      "english": {
        "narrator": "",
        "text": ""
      }
    },
    {
      "id": 8,
      "chapterId": 5,
      "bookId": 9,
      "arabic": "حَدَّثَنَا مُسْلِمُ بْنُ إِبْرَاهِيمَ  ، حَدَّثَنَا وُهَيْبٌ  ، حَدَّثَنَا ابْنُ طَاوُسٍ  ، عَنْ أَبِيهِ  ، عَنْ ابْنِ عَبَّاسٍ  ، أَنَّ النَّبِيَّ صَلَّى اللَّهُ عَلَيْهِ وَسَلَّمَ\" وَقَّتَ لِأَهْلِ الْمَدِينَةِ ذَا الْحُلَيْفَةِ ، وَلِأَهْلِ الشَّامِ الْجُحْفَةَ ، وَلِأَهْلِ نَجْدٍ قَرْنَ الْمَنَازِلِ ، وَلِأَهْلِ الْيَمَنِ يَلَمْلَمَ ، هُنَّ لِأَهْلِهِنَّ، وَلِكُلِّ آتٍ أَتَى عَلَيْهِنَّ مِنْ غَيْرِهِنَّ مِمَّنْ أَرَادَ الْحَجَّ وَالْعُمْرَةَ، وَمَنْ كَانَ دُونَ ذَلِكَ فَمِنْ حَيْثُ أَنْشَأَ، حَتَّى أَهْلُ مَكَّةَ مِنْ مَكَّةَ \"",
      "english": {
        "narrator": "",
        "text": ""
      }
    },
    {
      "id": 9,
      "chapterId": 5,
      "bookId": 9,
      "arabic": "حَدَّثَنَا مُحَمَّدُ بْنُ يُوسُفَ  ، حَدَّثَنَا ابْنُ عُيَيْنَةَ  ، عَنْ زَيْدِ بْنِ أَسْلَمَ  ، عَنْ إِبْرَاهِيمَ بْنِ عَبْدِ اللَّهِ بْنِ حُنَيْنٍ  ، عَنْ أَبِيهِ  ، قَالَ : امْتَرَى الْمِسْوَرُ بْنُ مَخْرَمَةَ، وَابْنُ عَبَّاسٍ فِي غَسْلِ الْمُحْرِمِ رَأْسَهُ، فَأَرْسَلُونِي إِلَى أَبِي أَيُّوبَ الْأَنْصَارِيّ : كَيْفَ رَأَيْتَ رَسُولَ اللَّهِ صَلَّى اللَّهُ عَلَيْهِ وَسَلَّمَ يَغْسِلُ رَأْسَهُ وَهُوَ مُحْرِمٌ؟ فَأَتَيْتُ أَبَا أَيُّوبَ   وَهُوَ بَيْنَ قَرْنَيْ الْبِئْرِ وَقَدْ سُتِرَ عَلَيْهِ بِثَوْبٍ، فَسَلَّمْتُ عَلَيْهِ فَضَمَّ الثَّوْبَ إِلَيْهِ، فَقُلْتُ : أَرْسَلَنِي إِلَيْكَ ابْنُ أَخِيكَ ابْنُ عَبَّاسٍ : كَيْفَ رَأَيْتَ رَسُولَ اللَّهِ صَلَّى اللَّهُ عَلَيْهِ وَسَلَّمَ يَغْسِلُ رَأْسَهُ؟\" فَأَمَرَّ يَدَيْهِ عَلَى رَأْسِهِ مُقْبِلًا وَمُدْبِرًا \"",
      "english": {
        "narrator": "",
        "text": ""
      }
    },
    {
      "id": 10,
      "chapterId": 5,
      "bookId": 9,
      "arabic": "أَخْبَرَنَا عَبْدُ اللَّهِ بْنُ أَبِي زِيَادٍ  ، حَدَّثَنَا عَبْدُ اللَّهِ بْنُ يَعْقُوبَ الْمَدَنِيُّ  ، عَنْ ابْنِ أَبِي الزِّنَادِ  ، عَنْ أَبِيهِ  ، عَنْ خَارِجَةَ بْنِ زَيْدِ بْنِ ثَابِتٍ  ، عَنْ أَبِيهِ  ، أَنَّ النَّبِيَّ صَلَّى اللَّهُ عَلَيْهِ وَسَلَّمَ\" تَجَرَّدَ لِلْإِهْلَالِ وَاغْتَسَلَ \"",
      "english": {
        "narrator": "",
        "text": ""
      }
    },
    {
      "id": 11,
      "chapterId": 5,
      "bookId": 9,
      "arabic": "أَخْبَرَنَا عُبَيْدُ اللَّهِ بْنُ مُوسَى  ، عَنْ سُفْيَانَ  ، عَنْ سُمَيٍّ  ، عَنْ أَبِي صَالِحٍ  ، عَنْ أَبِي هُرَيْرَةَ  ، أَنَّ النَّبِيَّ صَلَّى اللَّهُ عَلَيْهِ وَسَلَّمَ قَالَ :\" حَجَّةٌ مَبْرُورَةٌ لَيْسَ لَهَا ثَوَابٌ إِلَّا الْجَنَّةُ، وَعُمْرَتَانِ تُكَفِّرَانِ مَا بَيْنَهُمَا مِنْ الذُّنُوبِ \"",
      "english": {
        "narrator": "",
        "text": ""
      }
    },
    {
      "id": 12,
      "chapterId": 5,
      "bookId": 9,
      "arabic": "أَخْبَرَنَا أَبُو الْوَلِيدِ الطَّيَالِسِيُّ  ، حَدَّثَنَا شُعْبَةُ  ، حَدَّثَنِي مَنْصُورٌ  ، قَالَ : سَمِعْتُ أَبَا حَازِمٍ  يُحَدِّثُ، عَنْ أَبِي هُرَيْرَةَ  ، عَنْ النَّبِيِّ صَلَّى اللَّهُ عَلَيْهِ وَسَلَّمَ، أَنَّهُ قَالَ :\" مَنْ حَجَّ الْبَيْتَ فَلَمْ يَرْفُثْ وَلَمْ يَفْسُقْ، رَجَعَ كَمَا وَلَدَتْهُ أُمُّهُ \"",
      "english": {
        "narrator": "",
        "text": ""
      }
    },
    {
      "id": 13,
      "chapterId": 5,
      "bookId": 9,
      "arabic": "حَدَّثَنَا مُحَمَّدُ بْنُ الْعَلَاءِ  ، حَدَّثَنَا مُحَمَّدُ بْنُ إِسْمَاعِيل بْنِ أَبِي فُدَيْكٍ  ، عَنْ الضَّحَّاكِ بْنِ عُثْمَانَ  ، عَنْ مُحَمَّدِ بْنِ الْمُنْكَدِرِ  ، عَنْ عَبْدِ الرَّحْمَنِ بْنِ يَرْبُوعٍ  ، عَنْ أَبِي بَكْرٍ  ، قَالَ : سُئِلَ رَسُولُ اللَّهِ صَلَّى اللَّهُ عَلَيْهِ وَسَلَّمَ : أَيُّ الْحَجِّ أَفْضَلُ؟ قَالَ :\" الْعَجُّ وَالثَّجُّ \".\n  الْعَجُّ يَعْنِي : التَّلْبِيَةَ، وَالثَّجُّ يَعْنِي : إِهْرَاقَ الدَّمِ",
      "english": {
        "narrator": "",
        "text": ""
      }
    },
    {
      "id": 14,
      "chapterId": 5,
      "bookId": 9,
      "arabic": "أَخْبَرَنَا يَزِيدُ بْنُ هَارُونَ  ، أَخْبَرَنَا يَحْيَى هُوَ ابْنُ سَعِيدٍ  ، عَنْ عُمَرَ بْنِ نَافِعٍ  ، عَنْ أَبِيهِ  ، عَنْ ابْنِ عُمَرَ  ، أَنَّ رَجُلًا سَأَلَ النَّبِيَّ صَلَّى اللَّهُ عَلَيْهِ وَسَلَّمَ : مَا نَلْبَسُ مِنْ الثِّيَابِ إِذَا أَحْرَمْنَا؟ قَالَ :\" لَا تَلْبَسُوا الْقُمُصَ، وَلَا السَّرَاوِيلَاتِ، وَلَا الْعَمَائِمَ، وَلَا الْبَرَانِسَ، وَلَا الْخِفَافَ، إِلَّا أَنْ يَكُونَ أَحَدٌ لَيْسَتْ لَهُ نَعْلَانِ، فَلْيَلْبَسْ الْخُفَّيْنِ وَلْيَجْعَلْهُمَا أَسْفَلَ مِنْ الْكَعْبَيْنِ، وَلَا تَلْبَسُوا مِنْ الثِّيَابِ شَيْئًا مَسَّهُ وَرْسٌ وَلَا زَعْفَرَانٌ \"",
      "english": {
        "narrator": "",
        "text": ""
      }
    }
  ]
}