{
  "page": 27,
  "perPage": 50,
  "totalPages": 69,
  "totalCount": 3406,
  "nextPage": 28,
  "prevPage": 26,
  "items": [
    {
      "id": 7,
      "chapterId": 7,
      "bookId": 9,
      "arabic": "أَخْبَرَنَا سُلَيْمَانُ بْنُ حَرْبٍ  ، حَدَّثَنَا شُعْبَةُ  ، عَنْ عَبْدِ اللَّهِ بْنِ أَبِي السَّفَرِ  ، عَنْ الشَّعْبِيِّ  ، قَالَ : سَمِعْتُ عَدِيَّ بْنَ حَاتِمٍ  ، قَالَ : سَأَلْتُ النَّبِيَّ صَلَّى اللَّهُ عَلَيْهِ وَسَلَّمَ عَنْ الْمِعْرَاضِ، فَقَالَ :\" إِذَا أَصَابَ بِحَدِّهِ، فَكُلْ، وَإِذَا أَصَابَ بِعَرْضِهِ فَقَتَلَ، فَإِنَّهُ وَقِيذٌ، فَلَا تَأْكُلْ \"",
      "english": {
        "narrator": "",
        "text": ""
      }
    },
    {
      "id": 8,
      "chapterId": 7,
      "bookId": 9,
      "arabic": "أَخْبَرَنَا مُحَمَّدُ بْنُ يُوسُفَ  ، عَنْ سُفْيَانَ  ، عَنْ أَبِي يَعْفُورٍ  ، عَنْ عَبْدِ اللَّهِ بْنِ أَبِي أَوْفَى  ، قَالَ : \" غَزَوْنَا مَعَ رَسُولِ اللَّهِ صَلَّى اللَّهُ عَلَيْهِ وَسَلَّمَ سَبْعَ غَزَوَاتٍنَأْكُلُ الْجَرَادَ \"",
      "english": {
        "narrator": "",
        "text": ""
      }
    },
    {
      "id": 9,
      "chapterId": 7,
      "bookId": 9,
      "arabic": "أَخْبَرَنَا مُحَمَّدُ بْنُ الْمُبَارَكِ  ، قِرَاءَةً، عَنْ مَالِكٍ  ، عَنْ صَفْوَانَ بْنِ سُلَيْمٍ  ، عَنْ سَعِيدِ بْنِ سَلَمَةَ  مِنْ آلِ الْأَزْرَقِ، أَنَّ الْمُغِيرَةَ بْنَ أَبِي بُرْدَةَ  وَهُوَ رَجُلٌ مِنْ بَنِي عَبْدِ الدَّارِ أَخْبَرَهُ أَنَّهُ، سَمِعَ أَبَا هُرَيْرَةَ  ، يَقُولُ : سَأَلَ رَجُلٌ النَّبِيَّ صَلَّى اللَّهُ عَلَيْهِ وَسَلَّمَ، فَقَالَ : إِنَّا نَرْكَبُ الْبَحْرَ وَنَحْمِلُ مَعَنَا الْقَلِيلَ مِنْ الْمَاءِ، فَإِنْ تَوَضَّأْنَا بِهِ، عَطِشْنَا، أَفَنَتَوَضَّأُ مِنْ مَاءِ الْبَحْرِ؟ فَقَالَ رَسُولُ اللَّهِ صَلَّى اللَّهُ عَلَيْهِ وَسَلَّمَ :\" هُوَ الطَّهُورُ مَاؤُهُ، الْحِلُّ مَيْتَتُهُ \"",
      "english": {
        "narrator": "",
        "text": ""
      }
    },
    {
      "id": 10,
      "chapterId": 7,
      "bookId": 9,
      "arabic": "أَخْبَرَنَا زَكَرِيَّا بْنُ عَدِيٍّ  ، حَدَّثَنَا ابْنُ عُيَيْنَةَ  ، عَنْ عَمْرٍو يَعْنِي : ابْنَ دِينَارٍ  ،  عَنْ جَابِرٍ  ، قَالَ : \" بَعَثَنَا رَسُولُ اللَّهِ صَلَّى اللَّهُ عَلَيْهِ وَسَلَّمَ فِي ثَلَاثِ مِئَةٍ،فَأَصَابَنَا جُوعٌ حَتَّى أَتَيْنَا الْبَحْرَ وَقَدْ قَذَفَ دَابَّةً، فَأَكَلْنَا مِنْهَا حَتَّى ثَابَتْ أَجْسَامُنَا، فَأَخَذَ أَبُو عُبَيْدَةَ ضِلْعًا مِنْ أَضْلَاعِهَا فَوَضَعَهُ، ثُمَّ حَمَلَ أَطْوَلَ رَجُلٍ فِي الْجَيْشِ عَلَى أَعْظَمِ بَعِيرٍ فِي الْجَيْشِ فَمَرَّ تَحْتَهُ، هَذَا مَعْنَاهُ \"",
      "english": {
        "narrator": "",
        "text": ""
      }
    },
    {
      "id": 11,
      "chapterId": 7,
      "bookId": 9,
      "arabic": "أَخْبَرَنَا أَبُو الْوَلِيدِ  ، حَدَّثَنَا شُعْبَةُ  ، قَالَ : هِشَامُ بْنُ زَيْدِ بْنِ أَنَسٍ  أَخْبَرَنِي، قَالَ : سَمِعْتُ أَنَسَ بْنَ مَالِكٍ  ، يَقُولُ :أَنْفَجْنَا أَرْنَبًا وَنَحْنُ بِمَرِّ الظَّهْرَانِ ، فَسَعَى الْقَوْمُ فَلَغِبُوا، فَأَخَذْتُهَا وَجِئْتُ بِهَا إِلَى أَبِي طَلْحَةَ، فَذَبَحَهَا وَبَعَثَ بِوَرِكَيْهَا أَوْ فَخِذَيْهَا، شَكَّ شُعْبَةُ إِلَى رَسُولِ اللَّهِ صَلَّى اللَّهُ عَلَيْهِ وَسَلَّمَ \" فَقَبِلَهَا \"",
      "english": {
        "narrator": "",
        "text": ""
      }
    },
    {
      "id": 12,
      "chapterId": 7,
      "bookId": 9,
      "arabic": "أَخْبَرَنَا يَزِيدُ بْنُ هَارُونَ  ، أَخْبَرَنَا دَاوُدُ بْنُ أَبِي هِنْدٍ  ، عَنْ عَامِرٍ  ، عَنْ مُحَمَّدِ بْنِ صَفْوَانَ  ، أَنَّهُ مَرَّ عَلَى النَّبِيِّ صَلَّى اللَّهُ عَلَيْهِ وَسَلَّمَ بِأَرْنَبَيْنِ مُعَلِّقُهُمَا، فَقَالَ : \" يَا رَسُولَ اللَّهِ، إِنِّيدَخَلْتُ غَنَمَ أَهْلِي فَاصْطَدْتُ هَذَيْنِ الْأَرْنَبَيْنِ، فَلَمْ أَجِدْ حَدِيدَةً أُذَكِّيهِمَا بِهَا، فَذَكَّيْتُهُمَا بِمَرْوَةٍ، أَفَآكُلُ؟ قَالَ : \" نَعَمْ \"",
      "english": {
        "narrator": "",
        "text": ""
      }
    },
    {
      "id": 13,
      "chapterId": 7,
      "bookId": 9,
      "arabic": "أَخْبَرَنَا مُحَمَّدُ بْنُ يُوسُفَ  ، عَنْ سُفْيَانَ  ، عَنْ عَبْدِ اللَّهِ بْنِ دِينَارٍ  ، عَنْ ابْنِ عُمَرَ  ، قَالَ : سُئِلَ النَّبِيُّ صَلَّى اللَّهُ عَلَيْهِ وَسَلَّمَ عَنْ الضَّبِّ، فَقَالَ :\" لَسْتُ بِآكِلِهِ وَلَا مُحَرِّمِهِ \"",
      "english": {
        "narrator": "",
        "text": ""
      }
    },
    {
      "id": 14,
      "chapterId": 7,
      "bookId": 9,
      "arabic": "أَخْبَرَنَا سَهْلُ بْنُ حَمَّادٍ  ، حَدَّثَنَا شُعْبَةُ  ، حَدَّثَنَا الْحَكَمُ  ، قَالَ : سَمِعْتُ زَيْدَ بْنَ وَهْبٍ  يُحَدِّثُ، عَنْ الْبَرَاءِ بْنِ عَازِبٍ  ، عَنْ ثَابِتِ بْنِ وَدِيعَةَ  ، قَالَ : أُتِيَ النَّبِيُّ صَلَّى اللَّهُ عَلَيْهِ وَسَلَّمَ بِضَبٍّ، فَقَالَ :\" أُمَّةٌ مُسِخَتْ وَاللَّهُ أَعْلَمُ \"",
      "english": {
        "narrator": "",
        "text": ""
      }
    },
    {
      "id": 15,
      "chapterId": 7,
      "bookId": 9,
      "arabic": "أَخْبَرَنَا عَبْدُ اللَّهِ بْنُ صَالِحٍ  ، حَدَّثَنِي اللَّيْثُ  ، حَدَّثَنِي يُونُسُ  ، عَنْ ابْنِ شِهَابٍ  ، أَنَّهُ قَالَ : أَخْبَرَنِي أَبُو أُمَامَةَ بْنُ سَهْلِ بْنِ حُنَيْفٍ الْأَنْصَارِيُّ  ، أَنَّ عَبْدَ اللَّهِ بْنَ عَبَّاسٍ  أَخْبَرَهُ، أَنَّ خَالِدَ بْنَ الْوَلِيدِ   الَّذِي يُقَالُ لَهُ سَيْفُ اللَّهِ أَخْبَرَهُ، أَنَّهُ دَخَلَ مَعَ رَسُولِ اللَّهِ صَلَّى اللَّهُ عَلَيْهِ وَسَلَّمَ عَلَى مَيْمُونَةَ زَوْجِ النَّبِيِّ صَلَّى اللَّهُ عَلَيْهِ وَسَلَّمَ وَهِيَ خَالَتُهُ وَخَالَةُ ابْنِ عَبَّاسٍ، فَوَجَدَ عِنْدَهَا ضَبًّا مَحْنُوذًا قَدِمَتْ بِهِ أُخْتُهَا حُفَيْدَةُ بِنْتُ الْحَارِثِ مِنْ نَجْدٍ ، فَقَدَّمَتْ الضَّبَّ لِرَسُولِ اللَّهِ صَلَّى اللَّهُ عَلَيْهِ وَسَلَّمَ، وَكَانَ قَلَّمَا يُقَدِّمُ يَدَهُ لِطَعَامٍ حَتَّى يُحَدَّثَ بِهِ وَيُسَمَّى لَهُ، فَأَهْوَى رَسُولُ اللَّهِ صَلَّى اللَّهُ عَلَيْهِ وَسَلَّمَ يَدَهُ إِلَى الضَّبِّ، فَقَالَتْ امْرَأَةٌ مِنْ نِسْوَةِ الْحُضُورِ : أَخْبِرْنَ رَسُولَ اللَّهِ صَلَّى اللَّهُ عَلَيْهِ وَسَلَّمَ مَا قَدَّمْتُنَّ لَهُ.\nقُلْنَ : هَذَا الضَّبُّ، فَرَفَعَ رَسُولُ اللَّهِ صَلَّى اللَّهُ عَلَيْهِ وَسَلَّمَ يَدَهُ، فَقَالَ خَالِدُ بْنُ الْوَلِيدِ :أَتُحَرِّمُ الضَّبَّ يَا رَسُولَ اللَّهِ؟ قَالَ : \" لَا، وَلَكِنَّهُ لَمْ يَكُنْ بِأَرْضِ قَوْمِي، فَأَجِدُنِي أَعَافُهُ \".\nقَالَ خَالِدٌ : فَاجْتَرَرْتُهُ فَأَكَلْتُهُ، وَرَسُولُ اللَّهِ صَلَّى اللَّهُ عَلَيْهِ وَسَلَّمَ يَنْظُرُ، فَلَمْ يَنْهَنِي",
      "english": {
        "narrator": "",
        "text": ""
      }
    },
    {
      "id": 16,
      "chapterId": 7,
      "bookId": 9,
      "arabic": "أَخْبَرَنَا عُبَيْدُ اللَّهِ بْنُ عَبْدِ الْمَجِيدِ  ، حَدَّثَنَا عَبْدُ الرَّحْمَنِ بْنُ عَبْدِ اللَّهِ بْنِ دِينَارٍ  ، حَدَّثَنَا زَيْدُ بْنُ أَسْلَمَ  ، قَالَ عَبْدُ الرَّحْمَنِ : أَحْسَبُهُ عَنْ عَطَاءِ بْنِ يَسَارٍ  ، عَنْ أَبِي وَاقِدٍ اللَّيْثِيِّ  ، قَالَ : قَدِمَ رَسُولُ اللَّهِ صَلَّى اللَّهُ عَلَيْهِ وَسَلَّمَ الْمَدِينَةَ ، وَالنَّاسُ يَجُبُّونَ أَسْنِمَةَ الْإِبِلِ وَأَلْيَاتِ الْغَنَمِ، فَقَالَ رَسُولُ اللَّهِ صَلَّى اللَّهُ عَلَيْهِ وَسَلَّمَ :\" مَا قُطِعَ مِنْ بَهِيمَةٍ وَهِيَ حَيَّةٌ، فَهُوَ مَيْتَةٌ \"",
      "english": {
        "narrator": "",
        "text": ""
      }
    },
    {
      "id": 1,
      "chapterId": 8,
      "bookId": 9,
      "arabic": "أَخْبَرَنَا خَالِدُ بْنُ مَخْلَدٍ  ، حَدَّثَنَا مَالِكٌ  ، عَنْ وَهْبِ بْنِ كَيْسَانَ  ، عَنْ عُمَرَ بْنِ أَبِي سَلَمَةَ  ، أَنَّ النَّبِيَّ صَلَّى اللَّهُ عَلَيْهِ وَسَلَّمَ، قَالَ لَهُ :\" سَمِّ اللَّهَ وَكُلْ مِمَّا يَلِيكَ \"",
      "english": {
        "narrator": "",
        "text": ""
      }
    },
    {
      "id": 2,
      "chapterId": 8,
      "bookId": 9,
      "arabic": "أَخْبَرَنَا يَزِيدُ بْنُ هَارُونَ  ، أَخْبَرَنَا هِشَامٌ  ، عَنْ بُدَيْلٍ  ، عَنْ عَبْدِ اللَّهِ بْنِ عُبَيْدِ بْنِ عُمَيْرٍ  ، عَنْ عَائِشَةَ  ، أَنّ النَّبِيَّ صَلَّى اللَّهُ عَلَيْهِ وَسَلَّمَ كَانَ يَأْكُلُ طَعَامًا فِي سِتَّةِ نَفَرٍ مِنْ أَصْحَابِهِ، فَجَاءَ أَعْرَابِيٌّ فَأَكَلَهُ بِلُقْمَتَيْنِ، فَقَالَ النَّبِيُّ صَلَّى اللَّهُ عَلَيْهِ وَسَلَّمَ :\" أَمَا إِنَّهُ لَوْ ذَكَرَ اسْمَ اللَّهِ، لَكَفَاكُمْ، فَإِذَا أَكَلَ أَحَدُكُمْ، فَلْيَذْكُرْ اسْمَ اللَّهِ، فَإِنْ نَسِيَ أَنْ يَذْكُرَ اسْمَ اللَّهِ، فَلْيَقُلْ : بِسْمِ اللَّهِ أَوَّلَهُ وَآخِرَهُ \".\nأَخْبَرَنَا بُنْدَارٌ  ، حَدَّثَنَا مُعَاذُ بْنُ هِشَامٍ  ، عَنْ أَبِيهِ  ، عَنْ بُدَيْلٍ  ، عَنْ عَبْدِ اللَّهِ بْنِ عُبَيْدِ بْنِ عُمَيْرٍ  ، عَنْ أُمِّ كُلْثُومٍ  ، عَنْ عَائِشَةَ  ، بِهَذَا الْحَدِيثِ",
      "english": {
        "narrator": "",
        "text": ""
      }
    },
    {
      "id": 3,
      "chapterId": 8,
      "bookId": 9,
      "arabic": "أَخْبَرَنَا مُوسَى بْنُ خَالِدٍ  ، حَدَّثَنَا عِيسَى بْنُ يُونُسَ  ، عَنْ صَفْوَانَ بْنِ عَمْرٍو  ، حَدَّثَنَا عَبْدُ اللَّهِ بْنُ بُسْرٍ   وَكَانَتْ لَهُ صُحْبَةٌ يَسِيرَةٌ ، قَالَ : قَالَ أَبِي لِأُمِّي : لَوْ صَنَعْتِ لِرَسُولِ اللَّهِ صَلَّى اللَّهُ عَلَيْهِ وَسَلَّمَ طَعَامًا؟ فَصَنَعَتْ ثَرِيدَةً، وَقَالَ بِيَدِهِ يُقْلِلُ، فَانْطَلَقَ أَبِي فَدَعَاهُ، فَوَضَعَ رَسُولُ اللَّهِ صَلَّى اللَّهُ عَلَيْهِ وَسَلَّمَ يَدَهُ عَلَى ذِرْوَتِهَا، ثُمَّ قَالَ : \" خُذُوا بِاسْمِ اللَّهِ \".\nفَأَخَذُوا مِنْ نَوَاحِيهَا، فَلَمَّا طَعِمُوا دَعَا لَهُمْ، فَقَالَ :\" اللَّهُمَّ اغْفِرْ لَهُمْ وَارْحَمْهُمْ وَبَارِكْ لَهُمْ فِي رِزْقِهِمْ \"",
      "english": {
        "narrator": "",
        "text": ""
      }
    },
    {
      "id": 4,
      "chapterId": 8,
      "bookId": 9,
      "arabic": "أَخْبَرَنَا مُحَمَّدُ بْنُ الْقَاسِمِ الْأَسَدِيُّ  ، حَدَّثَنَا ثَوْرٌ  ، عَنْ خَالِدِ بْنِ مَعْدَانَ  ، عَنْ أَبِي أُمَامَةَ  ، قَالَ : كَانَ رَسُولُ اللَّهِ صَلَّى اللَّهُ عَلَيْهِ وَسَلَّمَ إِذَا أَكَلَ أَوْ شَرِبَ، قَالَ :\" الْحَمْدُ لِلَّهِ حَمْدًا كَثِيرًا طَيِّبًا مُبَارَكًا فِيهِ، غَيْرَ مَكْفُورٍ، وَلَا مُوَدَّعٍ، وَلَا مُسْتَغْنًى عَنْ رَبِّنَا \"",
      "english": {
        "narrator": "",
        "text": ""
      }
    },
    {
      "id": 5,
      "chapterId": 8,
      "bookId": 9,
      "arabic": "أَخْبَرَنَا نُعَيْمُ بْنُ حَمَّادٍ  ، عَنْ عَبْدِ الْعَزِيزِ بْنِ مُحَمَّدٍ  ، عَنْ مُحَمَّدِ بْنِ عَبْدِ اللَّهِ بْنِ أَبِي حُرَّةَ  ، عَنْ عَمِّهِ  ، عَنْ سِنَانِ بْنِ سَنَّةَ  ، قَالَ : قَالَ رَسُولُ اللَّهِ صَلَّى اللَّهُ عَلَيْهِ وَسَلَّمَ :\" الطَّاعِمُ الشَّاكِرُ كَالصَّائِمِ الصَّابِرِ \"",
      "english": {
        "narrator": "",
        "text": ""
      }
    },
    {
      "id": 6,
      "chapterId": 8,
      "bookId": 9,
      "arabic": "حَدَّثَنَا إِسْحَاق بْنُ عِيسَى  ، أَخْبَرَنَا حَمَّادُ بْنُ سَلَمَةَ  ، عَنْ ثَابِتٍ  ، عَنْ أَنَسٍ  ، عَنْ النَّبِيِّ صَلَّى اللَّهُ عَلَيْهِ وَسَلَّمَ، قَالَ :\" إِذَا أَكَلَ أَحَدُكُمْ، فَلْيَلْعَقْ أَصَابِعَهُ الثَّلَاثَ \"",
      "english": {
        "narrator": "",
        "text": ""
      }
    },
    {
      "id": 7,
      "chapterId": 8,
      "bookId": 9,
      "arabic": "أَخْبَرَنَا عَمْرُو بْنُ عَوْنٍ  ، حَدَّثَنَا ابْنُ عُيَيْنَةَ  ، عَنْ عَمْرِو بْنِ دِينَارٍ  ، عَنْ عَطَاءٍ  ، عَنْ ابْنِ عَبَّاسٍ  ، أَنّ النَّبِيَّ صَلَّى اللَّهُ عَلَيْهِ وَسَلَّمَ قَالَ :\" إِذَا أَكَلَ أَحَدُكُمْ، فَلَا يَمْسَحْ يَدَهُ حَتَّى يَلْعَقَ أَصَابِعَهُ أَوْ يُلْعِقَهَا \"",
      "english": {
        "narrator": "",
        "text": ""
      }
    },
    {
      "id": 8,
      "chapterId": 8,
      "bookId": 9,
      "arabic": "أَخْبَرَنَا يَزِيدُ بْنُ هَارُونَ  ، أَخْبَرَنَا أَبُو الْيَمَانِ الْبَرَّاءُ وَهُوَ : مُعَلَّى بْنُ رَاشِدٍ  ، قَالَ : حَدَّثَتْنِي جَدَّتِي أُمُّ عَاصِمٍ  ، قَالَتْ : دَخَلَ عَلَيْنَا نُبَيْشَةُ   مَوْلَى رَسُولِ اللَّهِ صَلَّى اللَّهُ عَلَيْهِ وَسَلَّمَ وَنَحْنُ نَأْكُلُ طَعَامًا، فَدَعَوْنَاهُ، فَأَكَلَ مَعَنَا، ثُمَّ قَالَ : حَدَّثَنَا رَسُولُ اللَّهِ صَلَّى اللَّهُ عَلَيْهِ وَسَلَّمَ أَنَّهُ :\" مَنْ أَكَلَ فِي قَصْعَةٍ ثُمَّ لَحِسَهَا، اسْتَغْفَرَتْ لَهُ الْقَصْعَةُ \"",
      "english": {
        "narrator": "",
        "text": ""
      }
    },
    {
      "id": 9,
      "chapterId": 8,
      "bookId": 9,
      "arabic": "أَخْبَرَنَا إِسْحَاق بْنُ عِيسَى  ، حَدَّثَنَا حَمَّادُ بْنُ سَلَمَةَ  ، عَنْ ثَابِتٍ  ، عَنْ أَنَسٍ  ، قَالَ : قَالَ رَسُولُ اللَّهِ صَلَّى اللَّهُ عَلَيْهِ وَسَلَّمَ :\" إِذَا سَقَطَتْ لُقْمَةُ أَحَدِكُمْ، فَلْيَمْسَحْ عَنْهَا التُّرَابَ، وَلْيُسَمِّ اللَّهَ، وَلْيَأْكُلْهَا \"",
      "english": {
        "narrator": "",
        "text": ""
      }
    },
    {
      "id": 10,
      "chapterId": 8,
      "bookId": 9,
      "arabic": "أَخْبَرَنَا زَكَرِيَّا بْنُ عَدِيٍّ  ، حَدَّثَنَا يَزِيدُ بْنُ زُرَيْعٍ  ، عَنْ يُونُسَ  ، عَنْ الْحَسَنِ  ، قَالَ : كَانَ مَعْقِلُ بْنُ يَسَارٍ   يَتَغَدَّى، فَسَقَطَتْ لُقْمَتُهُ، فَأَخَذَهَا فَأَمَاطَ مَا بِهَا مِنْ أَذًى، ثُمَّ أَكَلَهَا، قَالَ : فَجَعَلَ أُولَئِكَ الدَّهَاقِينُ يَتَغَامَزُونَ بِهِ، فَقَالُوا لَهُ : مَا تَرَى مَا يَقُولُ هَؤُلَاءِ الْأَعَاجِمُ، يَقُولُونَ : انْظُرُوا إِلَى مَا بَيْنَ يَدَيْهِ مِنْ الطَّعَامِ، وَإِلَى مَا يَصْنَعُ بِهَذِهِ اللُّقْمَةِ؟ فَقَالَ : إِنِّي لَمْ أَكُنْ أَدَعُ مَا سَمِعْتُ مِنْ رَسُولِ اللَّهِ صَلَّى اللهُ عَلَيْهِ وَسَلَّمَ بِقَوْلِ هَؤُلَاءِ الْأَعَاجِمِ، \" إِنَّا كُنَّانُؤْمَرُ إِذَا سَقَطَتْ لُقْمَةُ أَحَدِنَا أَنْ يُمِيطَ مَا بِهَا مِنْ الْأَذَى، وَأَنْ يَأْكُلَهَا \"",
      "english": {
        "narrator": "",
        "text": ""
      }
    },
    {
      "id": 11,
      "chapterId": 8,
      "bookId": 9,
      "arabic": "أَخْبَرَنَا أَبُو عَلَّي الْحَنَفِيُّ  ، حَدَّثَنَا مَالِكٌ  ، عَنْ ابْنِ شِهَابٍ  ، عَنْ أَبِي بَكْرِ بْنِ عُبَيْدِ اللَّهِ بْنِ عَبْدِ اللَّهِ بْنِ عُمَرَ  ، عَنْ عَبْدِ اللَّهِ بْنِ عُمَرَ  ، أَنّ رَسُولَ اللَّهِ صَلَّى اللَّهُ عَلَيْهِ وَسَلَّمَ، قَالَ :\" إِذَا أَكَلَ أَحَدُكُمْ، فَلْيَأْكُلْ بِيَمِينِهِ، وَلْيَشْرَبْ بِيَمِينِهِ، فَإِنَّ الشَّيْطَانَ يَأْكُلُ بِشِمَالِهِ وَيَشْرَبُ بِشِمَالِهِ \".\n أَخْبَرَنَا عَمْرُو بْنُ عَوْنٍ  ، عَنْ ابْنِ عُيَيْنَةَ  ، عَنْ الزُّهْرِيِّ  ، عَنْ أَبِي بَكْرٍ  ، عَنْ ابْنِ عُمَرَ  ، عَنْ النَّبِيِّ صَلَّى اللَّهُ عَلَيْهِ وَسَلَّمَ، بِنَحْوِهِ",
      "english": {
        "narrator": "",
        "text": ""
      }
    },
    {
      "id": 12,
      "chapterId": 8,
      "bookId": 9,
      "arabic": "أَخْبَرَنَا أَبُو الْوَلِيدِ الطَّيَالِسِيُّ  ، حَدَّثَنَا عِكْرِمَةُ بْنُ عَمَّارٍ  ، قَالَ : حَدَّثَنِي إِيَاسُ بْنُ سَلَمَةَ  ، قَالَ : حَدَّثَنِي أَبِي  ، قَالَ : أَبْصَرَ رَسُولُ اللَّهِ صَلَّى اللَّهُ عَلَيْهِ وَسَلَّمَ بُسْرَ بْنَ رَاعِي الْعِيرِ يَأْكُلُ بِشِمَالِهِ، فَقَالَ :\" كُلْ بِيَمِينِكَ \".\nقَالَ : لَا أَسْتَطِيعُ، قَالَ : \" لَا اسْتَطَعْتَ \".\nقَالَ : فَمَا وَصَلَتْ يَمِينُهُ إِلَى فِيهِ",
      "english": {
        "narrator": "",
        "text": ""
      }
    },
    {
      "id": 13,
      "chapterId": 8,
      "bookId": 9,
      "arabic": "أَخْبَرَنَا مُحَمَّدُ بْنُ عِيسَى  ، حَدَّثَنَا أَبُو مُعَاوِيَةَ  ، عَنْ هِشَامِ بْنِ عُرْوَةَ  ، عَنْ عَبْدِ الرَّحْمَنِ بْنِ سَعْدٍ الْمَدَنِيِّ  ، عَنْ ابْنِ كَعْبِ بْنِ مَالِكٍ  ، عَنْ أَبِيهِ  ، قَالَ : كَانَ النَّبِيُّ صَلَّى اللَّهُ عَلَيْهِ وَسَلَّمَ\" يَأْكُلُ بِثَلَاثِ أَصَابِعَ، وَلَا يَمْسَحُ يَدَهُ حَتَّى يَلْعَقَهَا \"",
      "english": {
        "narrator": "",
        "text": ""
      }
    },
    {
      "id": 14,
      "chapterId": 8,
      "bookId": 9,
      "arabic": "حَدَّثَنَا مُوسَى بْنُ خَالِدٍ  ، حَدَّثَنَا عِيسَى بْنُ يُونُسَ  ، عَنْ هِشَامِ بْنِ عُرْوَةَ  ، عَنْ عَبْدِ الرَّحْمَنِ بْنِ سَعْدٍ الْمَدَنِيِّ  ، أَنَّ عَبْدَ اللَّهِ بْنَ كَعْبٍ  أَوْ عَبْدَ الرَّحْمَنِ بْنَ كَعْبٍ  شَكَّ هِشَامٌ أَخْبَرَهُ، عَنْ أَبِيهِ  ، أَنّ النَّبِيَّ صَلَّى اللَّهُ عَلَيْهِ وَسَلَّمَ كَانَ\" يَأْكُلُ بِأَصَابِعِهِ الثَّلَاثِ، فَإِذَا فَرَغَ، لَعِقَهَا \"، وَأَشَارَ هِشَامٌ بِأَصَابِعِهِ الثَّلَاثِ",
      "english": {
        "narrator": "",
        "text": ""
      }
    },
    {
      "id": 15,
      "chapterId": 8,
      "bookId": 9,
      "arabic": "أَخْبَرَنَا يَزِيدُ بْنُ هَارُونَ  ، حَدَّثَنَا مُحَمَّدُ بْنُ إِسْحَاق  ، عَنْ سَعِيدِ بْنِ أَبِي سَعِيدٍ  ، عَنْ أَبِي شُرَيْحٍ الْخُزَاعِيِّ  ، قَالَ : سَمِعْتُ رَسُولَ اللَّهِ صَلَّى اللَّهُ عَلَيْهِ وَسَلَّمَ يَقُولُ :\" مَنْ كَانَ يُؤْمِنُ بِاللَّهِ وَالْيَوْمِ الْآخِرِ، فَلْيُكْرِمْ جَارَهُ ، وَمَنْ كَانَ يُؤْمِنُ بِاللَّهِ وَالْيَوْمِ الْآخِرِ، فَلْيَقُلْ خَيْرًا، أَوْ لِيَصْمُتْ، وَمَنْ كَانَ يُؤْمِنُ بِاللَّهِ وَالْيَوْمِ الْآخِرِ، فَلْيُكْرِمْ ضَيْفَهُ، جَائِزَتَهُ يَوْمًا وَلَيْلَةً، وَالضِّيَافَةُ ثَلَاثَةُ أَيَّامٍ وَمَا بَعْدَ ذَلِكَ صَدَقَةٌ \"",
      "english": {
        "narrator": "",
        "text": ""
      }
    },
    {
      "id": 16,
      "chapterId": 8,
      "bookId": 9,
      "arabic": "أَخْبَرَنَا عُثْمَانُ بْنُ مُحَمَّدٍ  ، حَدَّثَنَا سُفْيَانُ بْنُ عُيَيْنَةَ  ، عَنْ عَمْرِو بْنِ دِينَارٍ  ، قَالَ : سَمِعْتُ نَافِعَ بْنَ جُبَيْرٍ  ، عَنْ أَبِي شُرَيْحٍ الْخُزَاعِيِّ  ، أَنَّ رَسُولَ اللَّهِ صَلَّى اللَّهُ عَلَيْهِ وَسَلَّمَ قَالَ :\" مَنْ كَانَ يُؤْمِنُ بِاللَّهِ وَالْيَوْمِ الْآخِرِ، فَلْيُكْرِمْ ضَيْفَهُ، وَمَنْ كَانَ يُؤْمِنُ بِاللَّهِ وَالْيَوْمِ الْآخِرِ، فَلْيُحْسِنْ إِلَى جَارِهِ، وَمَنْ كَانَ يُؤْمِنُ بِاللَّهِ وَالْيَوْمِ الْآخِرِ، فَلْيَقُلْ خَيْرًا أَوْ لِيَسْكُتْ \"",
      "english": {
        "narrator": "",
        "text": ""
      }
    },
    {
      "id": 17,
      "chapterId": 8,
      "bookId": 9,
      "arabic": "أَخْبَرَنَا يَزِيدُ بْنُ هَارُونَ  ، حَدَّثَنَا شُعْبَةُ  ، عَنْ أَبِي الْجُودِيِّ  ، عَنْ سَعِيدِ بْنِ الْمُهَاجِرِ  ، عَنْ الْمِقْدَامِ بْنِ مَعْدِي كَرِبَ : أَبِي كَرِيمَةَ  ، قَالَ : قَالَ رَسُولُ اللَّهِ صَلَّى اللَّهُ عَلَيْهِ وَسَلَّمَ :\" أَيُّمَا مُسْلِمٍ ضَافَ قَوْمًا، فَأَصْبَحَ الضَّيْفُ مَحْرُومًا، فَإِنَّ عَلَى كُلِّ مُسْلِمٍ نَصْرَهُ حَتَّى يَأْخُذَ لَهُ بِقِرَى لَيْلَتِهِ مِنْ زَرْعِهِ وَمَالِهِ \"",
      "english": {
        "narrator": "",
        "text": ""
      }
    },
    {
      "id": 18,
      "chapterId": 8,
      "bookId": 9,
      "arabic": "أَخْبَرَنَا عَبْدُ اللَّهِ بْنُ مَسْلَمَةَ  ، حَدَّثَنَا سُلَيْمَانُ بْنُ بِلَالٍ  ، عَنْ عُتْبَةَ بْنِ مُسْلِمٍ  ، أَنَّ عُبَيْدَ بْنَ حُنَيْنٍ  أَخْبَرَهُ، أَنَّهُ سَمِعَ أَبَا هُرَيْرَةَ  ، يَقُولُ : قَالَ رَسُولُ اللَّهِ صَلَّى اللَّهُ عَلَيْهِ وَسَلَّمَ :\" إِذَا سَقَطَ الذُّبَابُ فِي شَرَابِ أَحَدِكُمْ، فَلْيَغْمِسْهُ كُلَّهُ ثُمَّ لِيَنْزِعْهُ، فَإِنَّ فِي أَحَدِ جَنَاحَيْهِ دَاءً، وَفِي الْآخَرِ شِفَاءً \"",
      "english": {
        "narrator": "",
        "text": ""
      }
    },
    {
      "id": 19,
      "chapterId": 8,
      "bookId": 9,
      "arabic": "حَدَّثَنَا سُلَيْمَانُ بْنُ حَرْبٍ  ، حَدَّثَنَا حَمَّادُ بْنُ سَلَمَةَ  ، عَنْ ثُمَامَةَ بْنِ عَبْدِ اللَّهِ بْنِ أَنَسٍ  ، عَنْ أَبِي هُرَيْرَةَ  ، عَنْ النَّبِيِّ صَلَّى اللَّهُ عَلَيْهِ وَسَلَّمَ، قَالَ :\" إِذَا وَقَعَ الذُّبَابُ فِي إِنَاءِ أَحَدِكُمْ، فَلْيَغْمِسْهُ، فَإِنَّ فِي أَحَدِ جَنَاحَيْهِ دَاءً، وَفِي الْآخَرِ شِفَاءً \".\n قَالَ أَبُو مُحَمَّد : قَالَ غَيْرُ  حَمَّادٍ  : ثُمَامَةُ  ، عَنْ أَنَسٍ  ، مَكَانَ أَبِي هُرَيْرَةَ . وَقَوْمٌ  يَقُولُونَ : عَنْ الْقَعْقَاع  ، عَنْ أَبِي هُرَيْرَةَ  ، وَحَدِيثُ عُبَيْدِ بْنِ حُنَيْنٍ أَصَحُّ",
      "english": {
        "narrator": "",
        "text": ""
      }
    },
    {
      "id": 20,
      "chapterId": 8,
      "bookId": 9,
      "arabic": "أَخْبَرَنَا أَبُو عَاصِمٍ  ، عَنْ ابْنِ جُرَيْجٍ  ، عَنْ أَبِي الزُّبَيْرِ  ، عَنْ جَابِرٍ   رَضِيَ اللهِ عَنْهُ، عَنْ النَّبِيِّ صَلَّى اللَّهُ عَلَيْهِ وَسَلَّمَ، قَالَ :\" الْمُؤْمِنُ يَأْكُلُ فِي مِعًى وَاحِدٍ، وَالْكَافِرُ يَأْكُلُ فِي سَبْعَةِ أَمْعَاءٍ \".\n أَخْبَرَنَا عُبَيْدُ اللَّهِ بْنُ عُمَرَ الْقَوَارِيرِيُّ  ، حَدَّثَنَا يَحْيَى بْنُ سَعِيدٍ  ، عَنْ عُبَيْدِ اللَّهِ  ، حَدَّثَنِي نَافِعٌ  ، عَنْ ابْنِ عُمَرَ  ، عَنْ النَّبِيِّ صَلَّى اللَّهُ عَلَيْهِ وَسَلَّمَ.\nوَحَدَّثَنِي يَحْيَى  ، عَنْ مُجَالِدٍ  ، عَنْ أَبِي الْوَدَّاكِ  ، عَنْ أَبِي سَعِيدٍ   ، عَنْ النَّبِيِّ صَلَّى اللَّهُ عَلَيْهِ وَسَلَّمَ",
      "english": {
        "narrator": "",
        "text": ""
      }
    },
    {
      "id": 21,
      "chapterId": 8,
      "bookId": 9,
      "arabic": "وَحَدَّثَنِي يَحْيَى  ، عَنْ مُحَمَّدِ بْنِ عَمْرٍو  ، عَنْ أَبِي سَلَمَةَ  ، عَنْ أَبِي هُرَيْرَةَ  ، عَنْ النَّبِيِّ صَلَّى اللَّهُ عَلَيْهِ وَسَلَّمَ، قَالَ :\" الْمُؤْمِنُ يَأْكُلُ فِي مِعًى وَاحِدٍ، وَالْكَافِرُ يَأْكُلُ فِي سَبْعَةِ أَمْعَاءٍ \"",
      "english": {
        "narrator": "",
        "text": ""
      }
    },
    {
      "id": 22,
      "chapterId": 8,
      "bookId": 9,
      "arabic": "أَخْبَرَنَا أَبُو عَاصِمٍ  ، عَنْ ابْنِ جُرَيْجٍ  ، عَنْ أَبِي الزُّبَيْرِ  ، عَنْ جَابِرٍ  ، عَنْ النَّبِيِّ صَلَّى اللَّهُ عَلَيْهِ وَسَلَّمَ، قَالَ :\" طَعَامُ الْوَاحِدِ يَكْفِي الِاثْنَيْنِ، وَطَعَامُ الِاثْنَيْنِ يَكْفِي الْأَرْبَعَةَ، وَطَعَامُ الْأَرْبَعَةِ يَكْفِي ثَمَانِيَةً \"",
      "english": {
        "narrator": "",
        "text": ""
      }
    },
    {
      "id": 23,
      "chapterId": 8,
      "bookId": 9,
      "arabic": "أَخْبَرَنَا خَالِدُ بْنُ مَخْلَدٍ  ، حَدَّثَنَا مَالِكٌ  ، عَنْ وَهْبِ بْنِ كَيْسَانَ  ، عَنْ عُمَرَ بْنِ أَبِي سَلَمَةَ  ، أَنَّ النَّبِيَّ صَلَّى اللَّهُ عَلَيْهِ وَسَلَّمَ، قَالَ لَهُ :\" سَمِّ اللَّهَ وَكُلْ مِمَّا يَلِيكَ \"",
      "english": {
        "narrator": "",
        "text": ""
      }
    },
    {
      "id": 24,
      "chapterId": 8,
      "bookId": 9,
      "arabic": "أَخْبَرَنَا سَعِيدُ بْنُ عَامِرٍ  ، عَنْ شُعْبَةَ  ، عَنْ عَطَاءِ بْنِ السَّائِبِ  ، عَنْ سَعِيدِ بْنِ جُبَيْرٍ  ، عَنْ ابْنِ عَبَّاسٍ  ، أَنّ رَسُولَ اللَّهِ صَلَّى اللَّهُ عَلَيْهِ وَسَلَّمَ أُتِيَ بِجَفْنَةٍ، أَوْ قَالَ : قَصْعَةٍ مِنْ ثَرِيدٍ فَقَالَ :\" كُلُوا مِنْ حَافَاتِهَا أَوْ قَالَ : جَوَانِبِهَا وَلَا تَأْكُلُوا مِنْ وَسَطِهَا، فَإِنَّ الْبَرَكَةَ تَنْزِلُ فِي وَسَطِهَا \"",
      "english": {
        "narrator": "",
        "text": ""
      }
    },
    {
      "id": 25,
      "chapterId": 8,
      "bookId": 9,
      "arabic": "حَدَّثَنَا عَبْدُ الرَّحْمَنِ بْنُ إِبْرَاهِيمَ الدِّمَشْقِيُّ  ، حَدَّثَنَا ابْنُ وَهْبٍ  ، عَنْ قُرَّةَ بْنِ عَبْدِ الرَّحْمَنِ  ، عَنْ الزُّهْرِيِّ  ، عَنْ عُرْوَةَ  ، عَنْ أَسْمَاءَ بِنْتِ أَبِي بَكْرٍ  ، أَنَّهَا كَانَتْ إِذَا أُتِيَتْ بِثَرِيدٍ، أَمَرَتْ بِهِ فَغُطِّيَ حَتَّى يَذْهَبَ فَوْرَةُ دُخَانِهِ، وَتَقُولُ : إِنِّي سَمِعْتُ رَسُولَ اللَّهِ صَلَّى اللَّهُ عَلَيْهِ وَسَلَّمَ، يَقُولُ :\" هُوَ أَعْظَمُ لِلْبَرَكَةِ \"",
      "english": {
        "narrator": "",
        "text": ""
      }
    },
    {
      "id": 26,
      "chapterId": 8,
      "bookId": 9,
      "arabic": "أَخْبَرَنَا يَزِيدُ بْنُ هَارُونَ  ، أَخْبَرَنَا الْمُثَنَّى بْنُ سَعِيدٍ  ، حَدَّثَنَا طَلْحَةُ بْنُ نَافِعٍ  : أَبُو سُفْيَانَ، حَدَّثَنَا جَابِرُ بْنُ عَبْدِ اللَّهِ  ، قَالَ : أَخَذَ النَّبِيُّ صَلَّى اللَّهُ عَلَيْهِ وَسَلَّمَ بِيَدِي ذَاتَ يَوْمٍ إِلَى مَنْزِلِهِ، فَقَالَ : \" هَلْ مِنْ غَدَاءٍ أَوْ مِنْ عَشَاءٍ؟ \" شَكَّ طَلْحَةُ.\n قَالَ : فَأَخْرَجَ إِلَيْهِ فِلَقٌ مِنْ خُبْزٍ، فَقَالَ : \" مَا مِنْ أُدْمٍ؟ \" قَالُوا : لَا، إِلَّا شَيْءٌ مِنْ خَلٍّ، فَقَالَ : \" هَاتُوهُ،فَنِعْمَ الْإِدَامُ الْخَلُّ \".\nقَالَ جَابِرٌ : فَمَا زِلْتُ أُحِبُّ الْخَلَّ مُنْذُ سَمِعْتُهُ مِنْ رَسُولِ اللَّهِ صَلَّى اللَّهُ عَلَيْهِ وَسَلَّمَ.\nفَقَالَ أَبُو سُفْيَانَ : فَمَا زِلْتُ أُحِبُّهُ مُنْذُ سَمِعْتُهُ مِنْ جَابِرٍ",
      "english": {
        "narrator": "",
        "text": ""
      }
    },
    {
      "id": 27,
      "chapterId": 8,
      "bookId": 9,
      "arabic": "حَدَّثَنِي يَحْيَى بْنُ حَسَّانَ  ، حَدَّثَنَا سُلَيْمَانُ بْنُ بِلَالٍ  ، عَنْ هِشَامِ بْنِ عُرْوَةَ  ، عَنْ أَبِيهِ  ، عَنْ عَائِشَةَ  ، عَنْ النَّبِيِّ صَلَّى اللَّهُ عَلَيْهِ وَسَلَّمَ، ، قَالَ :\" نِعْمَ الْإِدَامُ أَوْ الْأُدْمُ الْخَلُّ \"",
      "english": {
        "narrator": "",
        "text": ""
      }
    },
    {
      "id": 28,
      "chapterId": 8,
      "bookId": 9,
      "arabic": "أَخْبَرَنَا أَبُو نُعَيْمٍ  ، حَدَّثَنَا مَالِكٌ  ، عَنْ إِسْحَاق بْنِ عَبْدِ اللَّهِ بْنِ أَبِي طَلْحَةَ  ،  عَنْ أَنَسٍ  ، قَالَ : \" رَأَيْتُ النَّبِيَّ صَلَّى اللَّهُ عَلَيْهِ وَسَلَّمَ أُتِيَ بِمَرَقَةٍ فِيهَا دُبَّاءٌ وَقَدِيدٌ، فَرَأَيْتُهُيَتَتَبَّعُ الدُّبَّاءَ يَأْكُلُهُ \"",
      "english": {
        "narrator": "",
        "text": ""
      }
    },
    {
      "id": 29,
      "chapterId": 8,
      "bookId": 9,
      "arabic": "أَخْبَرَنَا الْأَسْوَدُ بْنُ عَامِرٍ  ، حَدَّثَنَا شُعْبَةُ  ، عَنْ قَتَادَةَ  ، عَنْ أَنَسٍ  ، قَالَ : \" كَانَ النَّبِيُّ صَلَّى اللَّهُ عَلَيْهِ وَسَلَّمَيُعْجِبُهُ الْقَرْعُ \".\nقَالَ : فَقُدِّمَ إِلَيْهِ، فَجَعَلْتُ أَتَنَاوَلُهُ وَأَجْعَلُهُ بَيْنَ يَدَيْهِ",
      "english": {
        "narrator": "",
        "text": ""
      }
    },
    {
      "id": 30,
      "chapterId": 8,
      "bookId": 9,
      "arabic": "أَخْبَرَنَا أَبُو نُعَيْمٍ  ، حَدَّثَنَا سُفْيَانُ  ، عَنْ عَبْدِ اللَّهِ بْنِ عِيسَى  ، عَنْ عَطَاءٍ  وَلَيْسَ بِابْنِ أَبِي رَبَاحٍ ، عَنْ أَبِي أَسِيدٍ الْأَنْصَارِيِّ  ، قَالَ : قَالَ رَسُولُ اللَّهِ صَلَّى اللَّهُ عَلَيْهِ وَسَلَّمَ :\" كُلُوا الزَّيْتَ فَإِنَّهُ مُبَارَكٌ، وَائْتَدِمُوا بِهِ، وَادَّهِنُوا بِهِ، فَإِنَّهُ يَخْرُجُ مِنْ شَجَرَةٍ مُبَارَكَةٍ \"",
      "english": {
        "narrator": "",
        "text": ""
      }
    },
    {
      "id": 31,
      "chapterId": 8,
      "bookId": 9,
      "arabic": "حَدَّثَنَا مُسَدَّدٌ  ، حَدَّثَنَا يَحْيَى بْنُ سَعِيدٍ  ، عَنْ عُبَيْدِ اللَّهِ  ، أَخْبَرَنِي نَافِعٌ  ، عَنْ ابْنِ عُمَرَ  ، أَنّ النَّبِيَّ صَلَّى اللَّهُ عَلَيْهِ وَسَلَّمَ، قَالَ فِي غَزْوَةِ خَيْبَرَ :\" مَنْ أَكَلَ مِنْ هَذِهِ الشَّجَرَةِ يَعْنِي : الثُّومَ، فَلَا يَأْتِيَنَّ الْمَسَاجِدَ \"",
      "english": {
        "narrator": "",
        "text": ""
      }
    },
    {
      "id": 32,
      "chapterId": 8,
      "bookId": 9,
      "arabic": "أَخْبَرَنَا عَلِيُّ بْنُ عَبْدِ اللَّهِ  ، حَدَّثَنَا سُفْيَانُ بْنُ عُيَيْنَةَ  ، حَدَّثَنِي عُبَيْدُ اللَّهِ بْنُ أَبِي يَزِيدَ  ، عَنْ أَبِيهِ  ، أَنَّ أُمَّ أَيُّوبَ   أَخْبَرَتْهُ، قَالَتْ : نَزَلَ عَلَيْنَا رَسُولُ اللَّهِ صَلَّى اللَّهُ عَلَيْهِ وَسَلَّمَ فَتَكَلَّفْنَا لَهُ طَعَامًا فِيهِ شَيْءٌ مِنْ بَعْضِ هَذِهِ الْبُقُولِ، فَلَمَّا أَتَيْنَاهُ بِهِ كَرِهَهُ، وَقَالَ لِأَصْحَابِهِ :\" كُلُوهُ، فَإِنِّي لَسْتُ كَأَحَدٍ مِنْكُمْ، إِنِّي أَخَافُ أَنْ أُوذِيَ صَاحِبِي \".\nقَالَ أَبُو مُحَمَّد : إِذَا لَمْ يُؤْذِ أَحَدًا، فَلَا بَأْسَ بِأَكْلِهِ",
      "english": {
        "narrator": "",
        "text": ""
      }
    },
    {
      "id": 33,
      "chapterId": 8,
      "bookId": 9,
      "arabic": "أَخْبَرَنَا عَبْدُ اللَّهِ بْنُ سَعِيدٍ  ، حَدَّثَنَا ابْنُ عُلَيَّةَ  ، عَنْ أَيُّوبَ  ، عَنْ الْقَاسِمِ التَّمِيمِيِّ  ، عَنْ زَهْدَمٍ الْجَرْمِيِّ  ، قَالَ : كُنَّا عِنْدَ أَبِي مُوسَى فَقُدِّمَ طَعَامُهُ، فَقُدِّمَ فِي طَعَامِهِ لَحْمُ دَجَاجٍ، وَفِي الْقَوْمِ رَجُلٌ مِنْ بَنِي تَيْمِ اللَّهِ أَحْمَرُ، فَلَمْ يَدْنُ، فَقَالَ لَهُ أَبُو مُوسَى   : \" ادْنُ، فَإِنِّي قَدْ رَأَيْتُ رَسُولَ اللَّهِ صَلَّى اللَّهُ عَلَيْهِ وَسَلَّمَيَأْكُلُ مِنْهُ \"",
      "english": {
        "narrator": "",
        "text": ""
      }
    },
    {
      "id": 34,
      "chapterId": 8,
      "bookId": 9,
      "arabic": "أَخْبَرَنَا مُحَمَّدُ بْنُ يُوسُفَ  ، عَنْ سُفْيَانَ  ، عَنْ أَيُّوبَ  ، عَنْ أَبِي قِلَابَةَ  ، عَنْ زَهْدَمٍ الْجَرْمِيِّ  ، عَنْ أَبِي مُوسَى  ، أَنَّهُذَكَرَ الدَّجَاجَ، فَقَالَ : \" رَأَيْتُ رَسُولَ اللَّهِ صَلَّى اللَّهُ عَلَيْهِ وَسَلَّمَ يَأْكُلُهُ \"",
      "english": {
        "narrator": "",
        "text": ""
      }
    },
    {
      "id": 35,
      "chapterId": 8,
      "bookId": 9,
      "arabic": "أَخْبَرَنَا عَبْدُ اللَّهِ بْنُ يَزِيدَ الْمُقْرِئُ  ، حَدَّثَنَا حَيْوَةُ  ، حَدَّثَنَا سَالِمُ بْنُ غَيْلَانَ  : أَنَّ الْوَلِيدَ بْنَ قَيْسٍ  أَخْبَرَهُ، أَنَّهُ سَمِعَ أَبَا سَعِيدٍ  ، أَوْ عَنْ أَبِي الْهَيْثَمِ  ، عَنْ أَبِي سَعِيدٍ الْخُدْرِيِّ  ، أَنَّهُ سَمِعَ نَبِيَّ اللَّهِ صَلَّى اللَّهُ عَلَيْهِ وَسَلَّمَ يَقُولُ :\" لَا تَصْحَبْ إِلَّا مُؤْمِنًا، وَلَا يَأْكُلْ طَعَامَكَ إِلَّا تَقِيٌّ \"",
      "english": {
        "narrator": "",
        "text": ""
      }
    },
    {
      "id": 36,
      "chapterId": 8,
      "bookId": 9,
      "arabic": "أَخْبَرَنَا مُحَمَّدُ بْنُ عِيسَى  ، حَدَّثَنَا إِبْرَاهِيمُ بْنُ سَعْدٍ  ، عَنْ أَبِيهِ  ، عَنْ عَبْدِ اللَّهِ بْنِ جَعْفَرٍ  ، قَالَ : \" رَأَيْتُ رَسُولَ اللَّهِ صَلَّى اللَّهُ عَلَيْهِ وَسَلَّمَيَأْكُلُ الْقِثَّاءَ بِالرُّطَبِ \"",
      "english": {
        "narrator": "",
        "text": ""
      }
    },
    {
      "id": 37,
      "chapterId": 8,
      "bookId": 9,
      "arabic": "أَخْبَرَنَا أَبُو الْوَلِيدِ الطَّيَالِسِيُّ  ، حَدَّثَنَا شُعْبَةُ  ، حَدَّثَنَا جَبَلَةُ بْنُ سُحَيْمٍ  ، قَالَ : كُنَّا بِالْمَدِينَةِ ، فَأَصَابَتْنَا سَنَةٌ، فَكَانَ ابْنُ الزُّبَيْرِ يَرْزُقُ التَّمْرَ، وَكَانَ ابْنُ عُمَرَ   يَمُرُّ بِنَا وَيَقُولُ : لَا تُقَارِنُوا، فَإِنَّ رَسُولَ اللَّهِ صَلَّى اللَّهُ عَلَيْهِ وَسَلَّمَ\" نَهَى عَنْ الْقِرَانِ، إِلَّا أَنْ يَسْتَأْذِنَ الرَّجُلُ أَخَاهُ \"",
      "english": {
        "narrator": "",
        "text": ""
      }
    },
    {
      "id": 38,
      "chapterId": 8,
      "bookId": 9,
      "arabic": "أَخْبَرَنَا عَبْدُ اللَّهِ بْنُ مَسْلَمَةَ  ، حَدَّثَنَا يَعْقُوبُ بْنُ مُحَمَّدِ بْنِ طَحْلَاءَ  ، عَنْ أَبِي الرِّجَالِ  ، عَنْ أُمِّهِ عَمْرَةَ  ، عَنْ عَائِشَةَ   زَوْجِ النَّبِيِّ صَلَّى اللَّهُ عَلَيْهِ وَسَلَّمَ، أَنَّ رَسُولَ اللَّهِ صَلَّى اللَّهُ عَلَيْهِ وَسَلَّمَ قَالَ : \" يَا عَائِشَةُ ،بَيْتٌ لَا تَمْرَ فِيهِ جِيَاعٌ أَهْلُهُ أَوْ جَاعَ أَهْلُهُ \" مَرَّتَيْنِ أَوْ ثَلَاثًا",
      "english": {
        "narrator": "",
        "text": ""
      }
    },
    {
      "id": 39,
      "chapterId": 8,
      "bookId": 9,
      "arabic": "أَخْبَرَنَا يَحْيَى بْنُ حَسَّانَ  ، حَدَّثَنَا سُلَيْمَانُ بْنُ بِلَالٍ  ، عَنْ هِشَامِ بْنِ عُرْوَةَ  ، عَنْ أَبِيهِ  ، عَنْ عَائِشَةَ  ، أَنّ النَّبِيَّ صَلَّى اللَّهُ عَلَيْهِ وَسَلَّمَ قَالَ :\" لَا يَجُوعُ أَهْلُ بَيْتٍ عِنْدَهُمْ التَّمْرُ \"",
      "english": {
        "narrator": "",
        "text": ""
      }
    },
    {
      "id": 40,
      "chapterId": 8,
      "bookId": 9,
      "arabic": "حَدَّثَنَا أَبُو نُعَيْمٍ  ، حَدَّثَنَا مُصْعَبُ بْنُ سُلَيْمٍ  ، قَالَ : سَمِعْتُ أَنَسَ بْنَ مَالِكٍ   يَقُولُ :\" أُهْدِيَ إِلَى النَّبِيِّ صَلَّى اللَّهُ عَلَيْهِ وَسَلَّمَ تَمْرٌ فَأَخَذَ يُهَدِّيهِ \"",
      "english": {
        "narrator": "",
        "text": ""
      }
    }
  ]
}