{
  "page": 28,
  "perPage": 50,
  "totalPages": 69,
  "totalCount": 3406,
  "nextPage": 29,
  "prevPage": 27,
  "items": [
    {
      "id": 41,
      "chapterId": 8,
      "bookId": 9,
      "arabic": "وَقَالَ : \" رَأَيْتُ رَسُولَ اللَّهِ صَلَّى اللَّهُ عَلَيْهِ وَسَلَّمَيَأْكُلُ تَمْرًا مُقْعِيًا مِنْ الْجُوعِ \".\nقَالَ أَبُو مُحَمَّد : يُهَدِّيهِ : يَعْنِي : يُرْسِلُهُ هَهُنَا وَهَهُنَا",
      "english": {
        "narrator": "",
        "text": ""
      }
    },
    {
      "id": 42,
      "chapterId": 8,
      "bookId": 9,
      "arabic": "أَخْبَرَنَا عَمْرُو بْنُ عَوْنٍ  ، عَنْ خَالِدٍ  ، عَنْ سُهَيْلٍ  ، عَنْ أَبِيهِ  ، عَنْ أَبِي هُرَيْرَةَ  ، قَالَ : قَالَ رَسُولُ اللَّهِ صَلَّى اللَّهُ عَلَيْهِ وَسَلَّمَ :\" مَنْ نَامَ وَفِي يَدِهِ رِيحُ غَمَرٍ فَعَرَضَ لَهُ عَارِضٌ، فَلَا يَلُومَنَّ إِلَّا نَفْسَهُ \"",
      "english": {
        "narrator": "",
        "text": ""
      }
    },
    {
      "id": 43,
      "chapterId": 8,
      "bookId": 9,
      "arabic": "أَخْبَرَنَا يَزِيدُ بْنُ هَارُونَ  ، أَخْبَرَنَا حُمَيْدٌ  ، عَنْ أَنَسٍ  ، أَنّ النَّبِيَّ صَلَّى اللَّهُ عَلَيْهِ وَسَلَّمَ، قَالَ لِعَبْدِ الرَّحْمَنِ بْنِ عَوْفٍ، وَرَأَى عَلَيْهِ وَضَرًا مِنْ صُفْرَةٍ : \" مَهْيَمْ؟ \" قَالَ : تَزَوَّجْتُ، قَالَ :\" أَوْلِمْ وَلَوْ بِشَاةٍ \"",
      "english": {
        "narrator": "",
        "text": ""
      }
    },
    {
      "id": 44,
      "chapterId": 8,
      "bookId": 9,
      "arabic": "أَخْبَرَنَا عَفَّانُ  ، حَدَّثَنَا هَمَّامٌ  ، حَدَّثَنَا قَتَادَةُ  ، عَنْ الْحَسَنِ  ، عَنْ عَبْدِ اللَّهِ بْنِ عُثْمَانَ الثَّقَفِيِّ  ، عَنْ رَجُلٍ  مِنْ ثَقِيفَ أَعْوَرَ، قَالَ : كَانَ يُقَالُ لَهُ مَعْرُوفٌ : أَيْ يُثْنَى عَلَيْهِ خَيْرٌ إِنْ لَمْ يَكُنْ اسْمُهُ زُهَيْرَ بْنَ عُثْمَانَ  ، فَلَا أَدْرِي مَا اسْمُهُ ، أَنَّ النَّبِيَّ صَلَّى اللَّهُ عَلَيْهِ وَسَلَّمَ قَالَ :\" الْوَلِيمَةُ أَوَّلَ يَوْمٍ حَقٌّ، وَالثَّانِيَ مَعْرُوفٌ، وَالثَّالِثَ سُمْعَةٌ وَرِيَاءٌ \".\nقَالَ قَتَادَةُ  : وَحَدَّثَنِي رَجُلٌ  ، عَنْ سَعِيدِ بْنِ الْمُسَيِّبِ  ، أَنَّهُ دُعِيَ أَوَّلَ يَوْمٍ فَأَجَابَ، وَدُعِيَ الْيَوْمَ الثَّانِيَ فَأَجَابَ، وَدُعِيَ الْيَوْمَ الثَّالِثَ فَحَصَبَ الرَّسُولَ وَلَمْ يُجِبْهُ، وَقَالَ : \" أَهْلُ سُمْعَةٍ وَرِيَاءٍ \"",
      "english": {
        "narrator": "",
        "text": ""
      }
    },
    {
      "id": 45,
      "chapterId": 8,
      "bookId": 9,
      "arabic": "أَخْبَرَنَا أَبُو الْمُغِيرَةِ  ، حَدَّثَنَا الْأَوْزَاعِيُّ  ، عَنْ الزُّهْرِيِّ  ، عَنْ الْأَعْرَجِ  ، عَنْ أَبِي هُرَيْرَةَ  ، أَنَّهُ قَالَ :\" شَرُّ الطَّعَامِ طَعَامُ الْوَلِيمَةِ، يُدْعَى إِلَيْهِ الْأَغْنِيَاءُ، وَيُتْرَكُ الْمَسَاكِينُ، وَمَنْ تَرَكَ الدَّعْوَةَ، فَقَدْ عَصَى اللَّهَ وَرَسُولَهُ \"",
      "english": {
        "narrator": "",
        "text": ""
      }
    },
    {
      "id": 46,
      "chapterId": 8,
      "bookId": 9,
      "arabic": "أَخْبَرَنَا سَعِيدُ بْنُ سُلَيْمَانَ  ، عَنْ سُلَيْمَانَ بْنِ الْمُغِيرَةِ  ، عَنْ ثَابِتٍ  ، عَنْ أَنَسٍ  ، قَالَ : جَاءَ رَجُلٌ قَدْ صَنَعَ طَعَامًا إِلَى رَسُولِ اللَّهِ صَلَّى اللَّهُ عَلَيْهِ وَسَلَّمَ، فَقَالَ : يَا رَسُولَ اللَّهِ، هَكَذَا وَأَوْمَأَ إِلَيْهِ بِيَدِهِ، قَالَ : يَقُولُ لَهُ رَسُولُ اللَّهِ صَلَّى اللَّهُ عَلَيْهِ وَسَلَّمَ : هَكَذَا، وَأَشَارَ إِلَى عَائِشَةَ ، قَالَ : لَا، فَأَعْرَضَ عَنْهُ رَسُولُ اللَّهِ صَلَّى اللَّهُ عَلَيْهِ وَسَلَّمَ، فَأَوْمَأَ إِلَيْهِ الثَّانِيَةَ : وَأَوْمَأَ إِلَيْهِ رَسُولُ اللَّهِ صَلَّى اللَّهُ عَلَيْهِ وَسَلَّمَ، فَأَعْرَضَ عَنْهُ رَسُولُ اللَّهِ صَلَّى اللَّهُ عَلَيْهِ وَسَلَّمَ، فَأَوْمَأَ إِلَيْهِ الثَّالِثَةَ، فَقَالَ لَهُ رَسُولُ اللَّهِ صَلَّى اللَّهُ عَلَيْهِ وَسَلَّمَ : \" وَهَذِهِ؟ \" قَالَ : نَعَمْ، فَانْطَلَقَ مَعَهُ رَسُولُ اللَّهِ صَلَّى اللَّهُ عَلَيْهِ وَسَلَّمَ، وَعَائِشَةُفَأَكَلَا مِنْ طَعَامِهِ \"",
      "english": {
        "narrator": "",
        "text": ""
      }
    },
    {
      "id": 47,
      "chapterId": 8,
      "bookId": 9,
      "arabic": "أَخْبَرَنَا مُحَمَّدُ بْنُ يُوسُفَ  ، عَنْ سُفْيَانَ  ، عَنْ الْأَعْمَشِ  ، عَنْ أَبِي وَائِلٍ  ، عَنْ أَبِي مَسْعُودٍ  ، قَالَ : كَانَ رَجُلٌ يُقَالُ لَهُ أَبُو شُعَيْبٍ، وَكَانَ لَهُ غُلَامٌ لَحَّامٌ، فَقَالَ : اصْنَعْ لِي طَعَامًا أَدْعُو رَسُولَ اللَّهِ صَلَّى اللَّهُ عَلَيْهِ وَسَلَّمَ خَامِسَ خَمْسَةٍ.\nقَالَ : فَدَعَا رَسُولَ اللَّهِ صَلَّى اللَّهُ عَلَيْهِ وَسَلَّمَ خَامِسَ خَمْسَةٍ، فَتَبِعَهُمْ رَجُلٌ، فَقَالَ رَسُولُ اللَّهِ صَلَّى اللَّهُ عَلَيْهِ وَسَلَّمَ : \" إِنَّكَدَعَوْتَنَا خَامِسَ خَمْسَةٍ، وَهَذَا رَجُلٌ قَدْ تَبِعَنِي، فَإِنْ شِئْتَ أَذِنْتَ لَهُ، وَإِنْ شِئْتَ تَرَكْتَهُ \".\nقَالَ : فَأَذِنَ لَهُ",
      "english": {
        "narrator": "",
        "text": ""
      }
    },
    {
      "id": 48,
      "chapterId": 8,
      "bookId": 9,
      "arabic": "حَدَّثَنَا عَمْرُو بْنُ عَوْنٍ  ، حَدَّثَنَا خَالِدٌ  ، عَنْ أَبِي طُوَالَةَ : عَبْدِ اللَّهِ بْنِ عَبْدِ الرَّحْمَنِ بْنِ مَعْمَرٍ  ، عَنْ أَنَسٍ  ، قَالَ : قَالَ رَسُولُ اللَّهِ صَلَّى اللَّهُ عَلَيْهِ وَسَلَّمَ :\" فَضْلُ عَائِشَةَ عَلَى النِّسَاءِ، كَفَضْلِ الثَّرِيدِ عَلَى سَائِرِ الطَّعَامِ \"",
      "english": {
        "narrator": "",
        "text": ""
      }
    },
    {
      "id": 49,
      "chapterId": 8,
      "bookId": 9,
      "arabic": "حَدَّثَنَا عَلِيُّ بْنُ الْمَدِينِيِّ  ، حَدَّثَنَا سُفْيَانُ  ، حَدَّثَنَا عَبْدُ الْكَرِيمِ : أَبُو أُمَيَّةَ  ، قَالَ : قَالَ عَبْدُ اللَّهِ بْنُ الْحَارِثِ بْنِ نَوْفَلٍ  : زَوَّجَنِي أَبِي فِي إِمَارَةِ عُثْمَانَ، فَدَعَا رَهْطًا مِنْ أَصْحَابِ رَسُولِ اللَّهِ صَلَّى اللَّهُ عَلَيْهِ وَسَلَّمَ، فَكَانَ فِيمَنْ دَعَا صَفْوَانُ بْنُ أُمَيَّةَ   وَهُوَ شَيْخٌ كَبِيرٌ، فَقَالَ : إِنَّ رَسُولَ اللَّهِ صَلَّى اللَّهُ عَلَيْهِ وَسَلَّمَ، قَالَ :\" انْهَسُوا اللَّحْمَ نَهْسًا، فَإِنَّهُ أَشْهَى وَأَمْرَأُ \"",
      "english": {
        "narrator": "",
        "text": ""
      }
    },
    {
      "id": 50,
      "chapterId": 8,
      "bookId": 9,
      "arabic": "أَخْبَرَنَا أَبُو نُعَيْمٍ  ، حَدَّثَنَا سُفْيَانُ  ، عَنْ عَلِيِّ بْنِ الْأَقْمَرِ  ، حَدَّثَنِي أَبُو جُحَيْفَةَ  ، قَالَ : قَالَ رَسُولُ اللَّهِ صَلَّى اللَّهُ عَلَيْهِ وَسَلَّمَ :\" لَا آكُلُ مُتَّكِئًا \"",
      "english": {
        "narrator": "",
        "text": ""
      }
    },
    {
      "id": 51,
      "chapterId": 8,
      "bookId": 9,
      "arabic": "أَخْبَرَنَا نُعَيْمُ بْنُ حَمَّادٍ  ، عَنْ عَبْدِ الْعَزِيزِ بْنِ مُحَمَّدٍ  ، عَنْ سُهَيْلٍ  ، عَنْ أَبِيهِ  ، عَنْ أَبِي هُرَيْرَةَ  ، قَالَ : كَانَ رَسُولُ اللَّهِ صَلَّى اللَّهُ عَلَيْهِ وَسَلَّمَ إِذَا أُتِيَ بِالْبَاكُورَةِ بِأَوَّلِ الثَّمَرَةِ، قَالَ :\" اللَّهُمَّ بَارِكْ لَنَا فِي مَدِينَتِنَا ، وَفِي ثَمَرَتِنَا، وَفِي مُدِّنَا، وَفِي صَاعِنَا بَرَكَةً مَعَ بَرَكَةٍ \"، ثُمَّ يُعْطِيهِ أَصْغَرَ مَنْ يَحْضُرُهُ مِنْ الْوِلْدَانِ",
      "english": {
        "narrator": "",
        "text": ""
      }
    },
    {
      "id": 52,
      "chapterId": 8,
      "bookId": 9,
      "arabic": "حَدَّثَنَا يَعْلَى  ، حَدَّثَنَا إِسْمَاعِيل بْنُ أَبِي خَالِدٍ  ، عَنْ أَبِيهِ  ، عَنْ أَبِي هُرَيْرَةَ  ، قَالَ : قَالَ رَسُولُ اللَّهِ صَلَّى اللَّهُ عَلَيْهِ وَسَلَّمَ :\" إِذَا جَاءَ خَادِمُ أَحَدِكُمْ بِالطَّعَامِ، فَلْيُجْلِسْهُ، فَإِنْ أَبَى، فَلْيُنَاوِلْهُ \"",
      "english": {
        "narrator": "",
        "text": ""
      }
    },
    {
      "id": 53,
      "chapterId": 8,
      "bookId": 9,
      "arabic": "حَدَّثَنَا أَبُو الْوَلِيدِ  ، حَدَّثَنَا شُعْبَةُ  ، عَنْ مُحَمَّدِ بْنِ زِيَادٍ  ، قَالَ : سَمِعْتُ أَبَا هُرَيْرَةَ   يُحَدِّثُ، عَنْ النَّبِيِّ صَلَّى اللَّهُ عَلَيْهِ وَسَلَّمَ، قَالَ :\" إِذَا أَتَى أَحَدَكُمْ خَادِمُهُ بِطَعَامٍ، فَلْيُجْلِسْهُ مَعَهُ، أَوْ لَيُنَاوِلْهُ لُقْمَةً أَوْ لُقْمَتَيْنِ، أَوْ أُكْلَةً أَوْ أُكْلَتَيْنِ، فَإِنَّهُ وَلِيَ حَرَّهُ وَدُخَانَهُ \"",
      "english": {
        "narrator": "",
        "text": ""
      }
    },
    {
      "id": 54,
      "chapterId": 8,
      "bookId": 9,
      "arabic": "حَدَّثَنَا فَرْوَةُ بْنُ أَبِي الْمَغْرَاءِ  ، حَدَّثَنَا عَلِيُّ بْنُ مُسْهِرٍ  ، عَنْ هِشَامِ بْنِ عُرْوَةَ  ، عَنْ أَبِيهِ  ،  عَنْ عَائِشَةَ   رَضِيَ اللَّهُ عَنْهَا، قَالَتْ : \" كَانَ رَسُولُ اللَّهِ صَلَّى اللَّهُ عَلَيْهِ وَسَلَّمَيُحِبُّ الْحَلْوَاءَ وَالْعَسَلَ \"",
      "english": {
        "narrator": "",
        "text": ""
      }
    },
    {
      "id": 55,
      "chapterId": 8,
      "bookId": 9,
      "arabic": "حَدَّثَنَا قَبِيصَةُ  ، حَدَّثَنَا سُفْيَانُ  ، عَنْ عَمْرِو بْنِ دِينَارٍ  ، عَنْ سَعِيدِ بْنِ أَبِي الْحُوَيْرِثِ  ،  عَنْ ابْنِ عَبَّاسٍ  ، قَالَ : خَرَجَ النَّبِيُّ صَلَّى اللَّهُ عَلَيْهِ وَسَلَّمَ مِنْ الْبِرَازِ فَقُدِّمَ إِلَيْهِ طَعَامٌ، فَقِيلَ لَهُ : أَلَا تَوَضَّأُ؟ قَالَ : فَقَالَ :\" أُصَلِّي فَأَتَوَضَّأُ؟ \".\nقَالَ أَبُو مُحَمَّد : إِنَّمَا هُوَ سَعِيدُ بْنُ الْحُوَيْرِثِ .\nحَدَّثَنَا أَبُو نُعَيْمٍ  ، عَنْ سُفْيَانَ بْنِ عُيَيْنَةَ  ، عَنْ عَمْرِو بْنِ دِينَارٍ  ، عَنْ سَعِيدِ بْنِ الْحُوَيْرِثِ  ، عَنْ ابْنِ عَبَّاسٍ  .\nقَالَ : وَسَمِعْتُ أَبَا عَاصِمٍ  يُحَدِّثُ، عَنْ ابْنِ جُرَيْجٍ  ، عَنْ عَمْرِو بْنِ دِينَارٍ  ، عَنْ سَعِيدِ بْنِ الْحُوَيْرِثِ  ، عَنْ ابْنِ عَبَّاسٍ  ، بِإِسْنَادِهِ",
      "english": {
        "narrator": "",
        "text": ""
      }
    },
    {
      "id": 56,
      "chapterId": 8,
      "bookId": 9,
      "arabic": "حَدَّثَنَا سَهْلُ بْنُ حَمَّادٍ  ، حَدَّثَنَا شُعْبَةُ  ، عَنْ الْحَكَمِ  ، قَالَ : سَمِعْتُ إِبْرَاهِيمَ  يُحَدِّثُ، عَنْ الْأَسْوَدِ  ، عَنْ عَائِشَةَ  ، قَالَتْ : \" كَانَ رَسُولُ اللَّهِ صَلَّى اللَّهُ عَلَيْهِ وَسَلَّمَإِذَا أَجْنَبَ فَأَرَادَ أَنْ يَأْكُلَ أَوْ يَنَامَ، تَوَضَّأَ \"",
      "english": {
        "narrator": "",
        "text": ""
      }
    },
    {
      "id": 57,
      "chapterId": 8,
      "bookId": 9,
      "arabic": "أَخْبَرَنَا أَبُو نُعَيْمٍ  ، حَدَّثَنَا شُعْبَةُ  ، عَنْ أَبِي عِمْرَانَ الْجَوْنِيِّ  ، عَنْ عَبْدِ اللَّهِ بْنِ الصَّامِتِ  ، عَنْ أَبِي ذَرٍّ  ، قَالَ : أَوْصَانِي خَلِيلِي صَلَّى اللَّهُ عَلَيْهِ وَسَلَّمَ، فَقَالَ :\" إِذَا طَبَخْتَ مَرَقَةً ، فَأَكْثِرْ مَاءَهَا، ثُمَّ انْظُرْ أَهْلَ بَيْتٍ مِنْ جِيرَانِكَ، فَاغْرِفْ لَهُمْ مِنْهَا \"",
      "english": {
        "narrator": "",
        "text": ""
      }
    },
    {
      "id": 58,
      "chapterId": 8,
      "bookId": 9,
      "arabic": "أَخْبَرَنَا مُحَمَّدُ بْنُ سَعِيدٍ  ، حَدَّثَنَا عُقْبَةُ بْنُ خَالِدٍ  ، عَنْ مُوسَى بْنِ مُحَمَّدِ بْنِ إِبْرَاهِيمَ  ، حَدَّثَنِي أَبِي  ، عَنْ أَنَسِ بْنِ مَالِكٍ  ، قَالَ : قَالَ رَسُولُ اللَّهِ صَلَّى اللَّهُ عَلَيْهِ وَسَلَّمَ :\" إِذَا وُضِعَ الطَّعَامُ، فَاخْلَعُوا نِعَالَكُمْ، فَإِنَّهُ أَرْوَحُ لِأَقْدَامِكُمْ \"",
      "english": {
        "narrator": "",
        "text": ""
      }
    },
    {
      "id": 59,
      "chapterId": 8,
      "bookId": 9,
      "arabic": "أَخْبَرَنَا إِبْرَاهِيمُ بْنُ مُوسَى  ، حَدَّثَنَا جَرِيرٌ  ، عَنْ عَطَاءِ بْنِ السَّائِبِ  ، عَنْ أَبِيهِ  ، عَنْ عَبْدِ اللَّهِ بْنِ عَمْرٍو  ، قَالَ : قَالَ رَسُولُ اللَّهِ صَلَّى اللَّهُ عَلَيْهِ وَسَلَّمَ :\" اعْبُدُوا الرَّحْمَنَ، وَأَفْشُوا السَّلَامَ، وَأَطْعِمُوا الطَّعَامَ، تَدْخُلُوا الْجِنَانَ \"",
      "english": {
        "narrator": "",
        "text": ""
      }
    },
    {
      "id": 60,
      "chapterId": 8,
      "bookId": 9,
      "arabic": "أَخْبَرَنَا الْحَكَمُ بْنُ الْمُبَارَكِ  ، حَدَّثَنَا عَبْدُ الْعَزِيزِ بْنُ مُحَمَّدٍ  ، عَنْ مُوسَى بْنِ عُقْبَةَ  ، عَنْ نَافِعٍ  ، عَنْ ابْنِ عُمَرَ  ، أَنّ رَسُولَ اللَّهِ صَلَّى اللَّهُ عَلَيْهِ وَسَلَّمَ قَالَ :\" أَجِيبُوا الدَّاعِيَ إِذَا دُعِيتُمْ \".\nقَالَ : وَكَانَ عَبْدُ اللَّهِ يَأْتِي الدَّعْوَةَ فِي الْعُرْسِ، وَفِي غَيْرِ الْعُرْسِ، وَيَأْتِيهَا وَهُوَ صَائِمٌ",
      "english": {
        "narrator": "",
        "text": ""
      }
    },
    {
      "id": 61,
      "chapterId": 8,
      "bookId": 9,
      "arabic": "أَخْبَرَنَا عَلِيُّ بْنُ عَبْدِ اللَّهِ  ، حَدَّثَنَا سُفْيَانُ  ، حَدَّثَنَا الزُّهْرِيُّ  ، عَنْ عُبَيْدِ اللَّهِ بْنِ عَبْدِ اللَّهِ  ، عَنْ ابْنِ عَبَّاسٍ  ، عَنْ مَيْمُونَةَ  ، أَنّ رَسُولَ اللَّهِ صَلَّى اللَّهُ عَلَيْهِ وَسَلَّمَ سُئِلَ عَنْ فَأْرَةٍ وَقَعَتْ فِي السَمْنٍ فَقَالَ :\" أَلْقُوهَا وَمَا حَوْلَهَا، وَكُلُوا \".\nأَخْبَرَنَا مُحَمَّدُ بْنُ يُوسُفَ  ، عَنْ ابْنِ عُيَيْنَةَ  ، بِإِسْنَادِهِ",
      "english": {
        "narrator": "",
        "text": ""
      }
    },
    {
      "id": 62,
      "chapterId": 8,
      "bookId": 9,
      "arabic": "حَدَّثَنَا خَالِدُ بْنُ مَخْلَدٍ  ، حَدَّثَنَا مَالِكٌ  ، عَنْ ابْنِ شِهَابٍ  ، عَنْ عُبَيْدِ اللَّهِ بْنِ عَبْدِ اللَّهِ  ، عَنْ ابْنِ عَبَّاسٍ  ، قَالَ : سُئِلَ النَّبِيُّ صَلَّى اللَّهُ عَلَيْهِ وَسَلَّمَ عَنْ فَأْرَةٍ وَقَعَتْ فِي سَمْنٍ فَمَاتَتْ، فَقَالَ :\" خُذُوهَا وَمَا حَوْلَهَا فَاطْرَحُوهُ \".\nحَدَّثَنَا زَيْدُ بْنُ يَحْيَى  ، حَدَّثَنَا مَالِكٌ  ، عَنْ ابْنِ شِهَابٍ  ، عَنْ عُبَيْدِ اللَّهِ بْنِ عَبْدِ اللَّهِ  ، عَنْ ابْنِ عَبَّاسٍ  ، عَنْ مَيْمُونَةَ  ، عَنْ النَّبِيِّ صَلَّى اللَّهُ عَلَيْهِ وَسَلَّمَ، نَحْوَهُ.\nقَالَ أَبُو مُحَمَّد : إِذَا كَانَ ذَائِبًا أُهَرِيقَ",
      "english": {
        "narrator": "",
        "text": ""
      }
    },
    {
      "id": 63,
      "chapterId": 8,
      "bookId": 9,
      "arabic": "أَخْبَرَنَا أَبُو عَاصِمٍ  ، حَدَّثَنَا ثَوْرُ بْنُ يَزِيدَ  ، حَدَّثَنَا حُصَيْنٌ الْحِمْيَرِيُّ  ، أَخْبَرَنِي أَبُو سَعْدٍ الْخَيْرُ  ، عَنْ أَبِي هُرَيْرَةَ   رَضِيَ اللَّهُ تَعَالَى عَنْهُ، قَالَ : قَالَ رَسُولُ اللَّهِ صَلَّى اللَّهُ عَلَيْهِ وَسَلَّمَ :\" مَنْ أَكَلَ، فَلْيَتَخَلَّلْ، فَمَا تَخَلَّلَ، فَلْيَلْفِظْهُ، وَمَا لَاكَ بِلِسَانِهِ، فَلْيَبْتَلِعْ \"",
      "english": {
        "narrator": "",
        "text": ""
      }
    },
    {
      "id": 1,
      "chapterId": 9,
      "bookId": 9,
      "arabic": "أَخْبَرَنَا الْحَكَمُ بْنُ نَافِعٍ  ، حَدَّثَنَا شُعَيْبٌ  ، عَنْ الزُّهْرِيِّ  ، قَالَ : أَخْبَرَنِي سَعِيدُ بْنُ الْمُسَيِّبِ  ، أَنَّهُ سَمِعَ أَبَا هُرَيْرَةَ  ، يَقُولُ :\" أُتِيَ النَّبِيُّ صَلَّى اللَّهُ عَلَيْهِ وَسَلَّمَ لَيْلَةَ أُسْرِيَ بِهِ بِإِيلْيَاءَ بِقَدَحَيْنِ مِنْ خَمْرٍ وَلَبَنٍ، فَنَظَرَ إِلَيْهِمَا ثُمَّ أَخَذَ اللَّبَنَ، فَقَالَ جِبْرِيلُ : الْحَمْدُ لِلَّهِ الَّذِي هَدَاكَ لِلْفِطْرَةِ، لَوْ أَخَذْتَ الْخَمْرَ، غَوَتْ أُمَّتُكَ \"",
      "english": {
        "narrator": "",
        "text": ""
      }
    },
    {
      "id": 2,
      "chapterId": 9,
      "bookId": 9,
      "arabic": "أَخْبَرَنَا أَبُو النُّعْمَانِ  ، حَدَّثَنَا حَمَّادُ بْنُ زَيْدٍ  ، حَدَّثَنَا ثَابِتٌ  ، عَنْ أَنَسٍ  ، قَالَ : كُنْتُ سَاقِيَ الْقَوْمِ فِي مَنْزِلِ أَبِي طَلْحَةَ، قَالَ : فَنَزَلَ تَحْرِيمُ الْخَمْرِ، قَالَ : فَأَمَرَ مُنَادِيًا فَنَادَى، فَقَالَ أَبُو طَلْحَةَ : اخْرُجْ فَانْظُرْ مَا هَذَا.\nقَالَ : فَخَرَجْتُ فَقُلْتُ : هَذَا مُنَادٍ يُنَادِي : \" أَلَا إِنَّالْخَمْرَ قَدْ حُرِّمَتْ \".\nفَقَالَ لِيَ : اذْهَبْ فَأَهْرِقْهَا، قَالَ : فَجَرَتْ فِي سِكَكِ الْمَدِينَةِ .\nقَالَ : وَكَانَتْ خَمْرُهُمْ يَوْمَئِذٍ الْفَضِيخَ.\nفَقَالَ بَعْضُ الْقَوْمِ : قُتِلَ قَوْمٌ وَهِيَ فِي بُطُونِهِمْ، فَأَنْزَلَ اللَّهُ G : # لَيْسَ عَلَى الَّذِينَ آمَنُوا وَعَمِلُوا الصَّالِحَاتِ جُنَاحٌ فِيمَا طَعِمُوا إِذَا مَا اتَّقَوْا وَآمَنُوا سورة المائدة آية 93 #",
      "english": {
        "narrator": "",
        "text": ""
      }
    },
    {
      "id": 3,
      "chapterId": 9,
      "bookId": 9,
      "arabic": "أَخْبَرَنَا خَالِدُ بْنُ مَخْلَدٍ  ، حَدَّثَنَا مَالِكٌ  ، عَنْ نَافِعٍ  ، عَنْ ابْنِ عُمَرَ  ، قَالَ : قَالَ رَسُولُ اللَّهِ صَلَّى اللَّهُ عَلَيْهِ وَسَلَّمَ :\" مَنْ شَرِبَ الْخَمْرَ فِي الدُّنْيَا ثُمَّ لَمْ يَتُبْ مِنْهَا، حُرِمَهَا فِي الْآخِرَةِ فَلَمْ يُسْقَهَا \"",
      "english": {
        "narrator": "",
        "text": ""
      }
    },
    {
      "id": 4,
      "chapterId": 9,
      "bookId": 9,
      "arabic": "حَدَّثَنَا مُحَمَّدُ بْنُ يُوسُفَ  ، عَنْ الْأَوْزَاعِيِّ  ، قَالَ : حَدَّثَنِي رَبِيعَةُ بْنُ يَزِيدَ  عَنْ عَبْدِ اللَّهِ بْنِ الدَّيْلَمِيِّ  ، قَالَ : دَخَلْتُ عَلَى عَبْدِ اللَّهِ بْنِ عَمْرِو بْنِ الْعَاصِ فِي حَائِطٍ لَهُ بِالطَّائِفِ ، يُقَالُ لَهُ : الْوَهْطُ ، فَإِذَا هُوَ مُخَاصِرٌ فَتًى مِنْ قُرَيْشٍ يُزَنُّ ذَلِكَ الْفَتَى بِشُرْبِ الْخَمْرِ، فَقُلْتُ : خِصَالٌ بَلَغَتْنِي عَنْكَ أَنَّكَ تُحَدِّثُ بِهَا، عَنْ رَسُولِ اللَّهِ صَلَّى اللَّهُ عَلَيْهِ وَسَلَّمَ، أَنَّهُ : مَنْ شَرِبَ الْخَمْرَ شَرْبَةً، لَمْ تُقْبَلْ لَهُ صَلَاةٌ أَرْبَعِينَ صَبَاحًا، فَلَمَّا أَنْ سَمِعَهُ الْفَتَى بِذِكُرُ الْخَمْرَ، اخْتَلَجَ يَدَهُ مِنْ يَدِ عَبْدِ اللَّهِ، ثُمَّ وَلَّى.\nفَقَالَ عَبْدُ اللَّهِ   : اللَّهُمَّ إِنِّي لَا أُحِلُّ لِأَحَدٍ أَنْ يَقُولَ عَلَيَّ مَا لَمْ أَقُلْ، وَإِنِّي سَمِعْتُ رَسُولَ اللَّهِ صَلَّى اللَّهُ عَلَيْهِ وَسَلَّمَ، يَقُولُ :\" مَنْ شَرِبَ الْخَمْرَ شَرْبَةً، لَمْ تُقْبَلْ لَهُ صَلَاةٌ أَرْبَعِينَ صَبَاحًا، فَإِنْ تَابَ، تَابَ اللَّهُ عَلَيْهِ، فَلَا أَدْرِي فِي الثَّالِثَةِ أَمْ فِي الرَّابِعَةِ : كَانَ حَقًّا عَلَى اللَّهِ أَنْ يَسْقِيَهُ مِنْ رَدْغَةِ الْخَبَالِ يَوْمَ الْقِيَامَةِ \"",
      "english": {
        "narrator": "",
        "text": ""
      }
    },
    {
      "id": 5,
      "chapterId": 9,
      "bookId": 9,
      "arabic": "أَخْبَرَنَا مُسْلِمُ بْنُ إِبْرَاهِيمَ  ، حَدَّثَنَا الْحَسَنُ بْنُ أَبِي جَعْفَرٍ  ، حَدَّثَنَا أَبُو الزُّبَيْرِ  ، عَنْ جَابِرٍ  ، قَالَ : قَالَ رَسُولُ اللَّهِ صَلَّى اللَّهُ عَلَيْهِ وَسَلَّمَ :\" مَنْ كَانَ يُؤْمِنُ بِاللَّهِ وَالْيَوْمِ الْآخِرِ، فَلَا يَقْعُدْ عَلَى مَائِدَةٍ يُشْرَبُ عَلَيْهَا الْخَمْرُ \"",
      "english": {
        "narrator": "",
        "text": ""
      }
    },
    {
      "id": 6,
      "chapterId": 9,
      "bookId": 9,
      "arabic": "أَخْبَرَنَا مُحَمَّدُ بْنُ كَثِيرٍ الْبَصْرِيُّ  ، حَدَّثَنَا سُفْيَانُ  ، عَنْ مَنْصُورٍ  ، عَنْ سَالِمِ بْنِ أَبِي الْجَعْدِ  ، عَنْ جَابَانَ  ، عَنْ عَبْدِ اللَّهِ بْنِ عَمْرٍو  ، عَنْ النَّبِيِّ صَلَّى اللَّهُ عَلَيْهِ وَسَلَّمَ، ، قَالَ :\" لَا يَدْخُلُ الْجَنَّةَ وَلَدُ زِنْيَةٍ، وَلَا مَنَّانٌ، وَلَا عَاقٌّ، وَلَا مُدْمِنُ خَمْرٍ \"",
      "english": {
        "narrator": "",
        "text": ""
      }
    },
    {
      "id": 7,
      "chapterId": 9,
      "bookId": 9,
      "arabic": "حَدَّثَنَا أَحْمَدُ بْنُ الْحَجَّاجِ  ، حَدَّثَنَا عَبْدُ الرَّحْمَنِ بْنُ مَهْدِيٍّ  ، حَدَّثَنَا شُعْبَةُ  ، عَنْ مَنْصُورٍ  ، عَنْ سَالِمِ بْنِ أَبِي الْجَعْدِ  ، عَنْ نُبَيْطِ بْنِ شَرِيطٍ  ، عَنْ جَابَانَ  ،  عَنْ عَبْدِ اللَّهِ بْنِ عَمْرٍو  ، عَنْ النَّبِيِّ صَلَّى اللَّهُ عَلَيْهِ وَسَلَّمَ، قَالَ :\" لَا يَدْخُلُ الْجَنَّةَ عَاقٌّ، وَلَا مَنَّانٌ، وَلَا مُدْمِنُ خَمْرٍ \"",
      "english": {
        "narrator": "",
        "text": ""
      }
    },
    {
      "id": 8,
      "chapterId": 9,
      "bookId": 9,
      "arabic": "أَخْبَرَنَا سُهَلُ بْنُ حَمَّادٍ  ، حَدَّثَنَا شُعْبَةُ  ، حَدَّثَنَا سِمَاكٌ  ، قَالَ : سَمِعْتُ عَلْقَمَةَ بْنَ وَائِلٍ  يُحَدِّثُ، عَنْ أَبِيهِ وَائِلٍ  ، أَنَّ سُوَيْدَ بْنَ طَارِقٍ سَأَلَ رَسُولَ اللَّهِ صَلَّى اللَّهُ عَلَيْهِ وَسَلَّمَ عَنْ الْخَمْرِ، فَنَهَاهُ عَنْهَا أَنْ يَصْنَعَهَا، فَقَالَ : إِنَّهَا دَوَاءٌ، فَقَالَ رَسُولُ اللَّهِ صَلَّى اللَّهُ عَلَيْهِ وَسَلَّمَ : \" إِنَّهَالَيْسَتْ دَوَاءً وَلَكِنَّهَا دَاءٌ \"",
      "english": {
        "narrator": "",
        "text": ""
      }
    },
    {
      "id": 9,
      "chapterId": 9,
      "bookId": 9,
      "arabic": "أَخْبَرَنَا أَبُو الْمُغِيرَةِ  ، عَنْ الْأَوْزَاعِيِّ  ، قَالَ : سَمِعْتُ أَبَا كَثِيرٍ  يَقُولُ : سَمِعْتُ أَبَا هُرَيْرَةَ   يَقُولُ : سَمِعْتُ رَسُولَ اللَّهِ صَلَّى اللَّهُ عَلَيْهِ وَسَلَّمَ يَقُولُ :\" الْخَمْرُ مِنْ هَاتَيْنِ الشَّجَرَتَيْنِ : النَّخْلَةِ وَالْعِنَبِ \"",
      "english": {
        "narrator": "",
        "text": ""
      }
    },
    {
      "id": 10,
      "chapterId": 9,
      "bookId": 9,
      "arabic": "حَدَّثَنَا عُبَيْدُ اللَّهِ بْنُ عَبْدِ الْمَجِيدِ  ، حَدَّثَنَا مَالِكٌ  ، عَنْ ابْنِ شِهَابٍ  ، عَنْ أَبِي سَلَمَةَ  ، عَنْ عَائِشَةَ  ، أَنّ رَسُولَ اللَّهِ صَلَّى اللَّهُ عَلَيْهِ وَسَلَّمَ سُئِلَ عَنْ الْبِتْعِ، قَالَ :\" كُلُّ شَرَابٍ أَسْكَرَ حَرَامٌ \"",
      "english": {
        "narrator": "",
        "text": ""
      }
    },
    {
      "id": 11,
      "chapterId": 9,
      "bookId": 9,
      "arabic": "أَخْبَرَنَا مُحَمَّدُ بْنُ يُوسُفَ  ، عَنْ إِسْرَائِيلَ  ، عَنْ أَبِي إِسْحَاق  ، عَنْ أَبِي بُرْدَةَ بْنِ أَبِي مُوسَى  ، عَنْ أَبِيهِ  ، قَالَ : بَعَثَنِي رَسُولُ اللَّهِ صَلَّى اللَّهُ عَلَيْهِ وَسَلَّمَ أَنَا وَمُعَاذَ بْنَ جَبَلٍ إِلَى الْيَمَنِ ، فَقَالَ :\" اشْرَبُوا، وَلَا تَشْرَبُوا مُسْكِرًا، فَإِنَّ كُلَّ مُسْكِرٍ حَرَامٌ \"",
      "english": {
        "narrator": "",
        "text": ""
      }
    },
    {
      "id": 12,
      "chapterId": 9,
      "bookId": 9,
      "arabic": "حَدَّثَنَا عَبْدُ اللَّهِ بْنُ سَعِيدٍ  ، أَخْبَرَنَا أَبُو أُسَامَةَ  ، حَدَّثَنَا الْوَلِيدُ بْنُ كَثِيرِ بْنِ سِنَانٍ  ، حَدَّثَنِي الضَّحَّاكُ بْنُ عُثْمَانَ  ، عَنْ بُكَيْرِ بْنِ عَبْدِ اللَّهِ بْنِ الْأَشَجِّ  ، عَنْ عَامِرِ بْنِ سَعْدٍ  ، عَنْ سَعْدٍ  ، عَنْ رَسُولِ اللَّهِ صَلَّى اللَّهُ عَلَيْهِ وَسَلَّمَ، قَالَ :\" أَنْهَاكُمْ عَنْ قَلِيلِ مَا أَسْكَرَ كَثِيرُهُ \"",
      "english": {
        "narrator": "",
        "text": ""
      }
    },
    {
      "id": 13,
      "chapterId": 9,
      "bookId": 9,
      "arabic": "حَدَّثَنَا زَيْدُ بْنُ يَحْيَى  ، حَدَّثَنَا مُحَمَّدُ بْنُ رَاشِدٍ  ، عَنْ أَبِي وَهْبٍ الْكَلَاعِيِّ  ، عَنْ الْقَاسِمِ بْنِ مُحَمَّدٍ  ، عَنْ عَائِشَةَ  ، قَالَتْ : سَمِعْتُ رَسُولَ اللَّهِ صَلَّى اللَّهُ عَلَيْهِ وَسَلَّمَ، يَقُولُ : \" إِنَّأَوَّلَ مَا يُكْفَأُ قَالَ زَيْدٌ : يَعْنِي : فِي الْإِسْلَامَ كَمَا يُكْفَأُ الْإِنَاءُ يَعْنِي : الْخَمْرِ \"، فَقِيلَ : كَيْفَ يَا رَسُولَ اللَّهِ وَقَدْ بَيَّنَ اللَّهُ فِيهَا مَا بَيَّنَ؟ قَالَ رَسُولُ اللَّهِ صَلَّى اللَّهُ عَلَيْهِ وَسَلَّمَ : \" يُسَمُّونَهَا بِغَيْرِ اسْمِهَا فَيَسْتَحِلُّونَهَا \"",
      "english": {
        "narrator": "",
        "text": ""
      }
    },
    {
      "id": 14,
      "chapterId": 9,
      "bookId": 9,
      "arabic": "أَخْبَرَنَا مَرْوَانُ بْنُ مُحَمَّدٍ  ، حَدَّثَنَا يَحْيَى بْنُ حَمْزَةَ  ، حَدَّثَنِي أَبُو وَهْبٍ  ، عَنْ مَكْحُولٍ  ، عَنْ أَبِي ثَعْلَبَةَ الْخُشَنِيِّ  ، عَنْ أَبِي عُبَيْدَةَ بْنِ الْجَرَّاحِ  ، قَالَ : قَالَ رَسُولُ اللَّهِ صَلَّى اللَّهُ عَلَيْهِ وَسَلَّمَ :\" أَوَّلُ دِينِكُمْ نُبُوَّةٌ وَرَحْمَةٌ، ثُمَّ مُلْكٌ وَرَحْمَةٌ، ثُمَّ مُلْكٌ أَعْفَرُ، ثُمَّ مُلْكٌ وَجَبَرُوتٌ يُسْتَحَلُّ فِيهَا الْخَمْرُ وَالْحَرِيرُ \".\nقَالَ أَبُو مُحَمَّد : سُئِلَ عَنْ أَعْفَرَ، فَقَالَ : يُشَبِّهِهُ بِالتُّرَابِ وَلَيْسَ فِيهِ خَيْرٌ",
      "english": {
        "narrator": "",
        "text": ""
      }
    },
    {
      "id": 15,
      "chapterId": 9,
      "bookId": 9,
      "arabic": "أَخْبَرَنَا سَهْلُ بْنُ حَمَّادٍ  ، حَدَّثَنَا طُعْمَةُ  ، حَدَّثَنَا عَمْرُو بْنُ بَيَانٍ التَّغْلِبِيُّ  ، عَنْ عُرْوَةَ بْنِ الْمُغِيرَةِ بْنِ شُعْبَةَ  ، عَنْ أَبِيهِ  ، عَنْ رَسُولِ اللَّهِ صَلَّى اللَّهُ عَلَيْهِ وَسَلَّمَ، أَنَّهُ قَالَ :\" مَنْ بَاعَ الْخَمْرَ، فَلْيُشَقِّصْ الْخَنَازِيرَ \".\nقَالَ أَبُو مُحَمَّد : إِنَّمَا هُوَ عُمَرُ بْنُ بَيَانٍ",
      "english": {
        "narrator": "",
        "text": ""
      }
    },
    {
      "id": 16,
      "chapterId": 9,
      "bookId": 9,
      "arabic": "حَدَّثَنَا يَعْلَى  ، عَنْ مُحَمَّدِ بْنِ إِسْحَاق  ، عَنْ الْقَعْقَاعِ بْنِ حَكِيمٍ  ، عَنْ عَبْدِ الرَّحْمَنِ بْنِ وَعْلَةَ  ، قَالَ : سَأَلْتُ ابْنَ عَبَّاسٍ   عَنْ بَيْعِ الْخَمْرِ، فَقَالَ : كَانَ لِرَسُولِ اللَّهِ صَلَّى اللَّهُ عَلَيْهِ وَسَلَّمَ صَدِيقٌ مِنْ ثَقِيفٍ أَوْ مِنْ دَوْسٍ ، فَلَقِيَهُ بِمَكَّةَ عَامَ الْفَتْحِ بِرَاوِيَةٍ مِنْ خَمْرٍ يُهْدِيهَا لَهُ، فَقَالَ رَسُولُ اللَّهِ صَلَّى اللَّهُ عَلَيْهِ وَسَلَّمَ : \" يَا فُلَانُ، أَمَا عَلِمْتَ أَنَّ اللَّهَ تَعَالَى قَدْ حَرَّمَهَا؟ \" قَالَ : فَأَقْبَلَ الرَّجُلُ عَلَى غُلَامِهِ، فَقَالَ : اذْهَبْ فَبِعْهَا، فَقَالَ رَسُولُ اللَّهِ صَلَّى اللَّهُ عَلَيْهِ وَسَلَّمَ : \" بِمَاذَا أَمَرْتَهُ يَا فُلَانُ؟ \" قَالَ : أَمَرْتُهُ بِبَيْعِهَا.\nفَقَالَ رَسُولُ اللَّهِ صَلَّى اللَّهُ عَلَيْهِ وَسَلَّمَ : \" إِنَّالَّذِي حَرَّمَ شُرْبَهَا، حَرَّمَ بَيْعَهَا \".\nفَأَمَرَ بِهَا فَأُكْفِئَتْ فِي الْبَطْحَاءِ",
      "english": {
        "narrator": "",
        "text": ""
      }
    },
    {
      "id": 17,
      "chapterId": 9,
      "bookId": 9,
      "arabic": "حَدَّثَنَا مُحَمَّدُ بْنُ أَحْمَدَ  ، حَدَّثَنَا سُفْيَانُ  ، عَنْ عَمْرٍو يَعْنِي : ابْنَ دِينَارٍ  ، عَنْ طَاوُسٍ  ، عَنْ ابْنِ عَبَّاسٍ  ، قَالَ : بَلَغَ عُمَرَ   أَنَّ سَمُرَةَ بَاعَ خَمْرًا، فَقَالَ : قَاتَلَ اللَّهُ سَمُرَةَ، أَمَا عَلِمَ أَنَّ النَّبِيَّ صَلَّى اللَّهُ عَلَيْهِ وَسَلَّمَ قَالَ :\" لَعَنَ اللَّهُ الْيَهُودَ، حُرِّمَتْ عَلَيْهِمْ الشُّحُومُ فَجَمَلُوهَا، فَبَاعُوهَا \".\nقَالَ سُفْيَانُ : جَمَلُوهَا : أَذَابُوهَا",
      "english": {
        "narrator": "",
        "text": ""
      }
    },
    {
      "id": 18,
      "chapterId": 9,
      "bookId": 9,
      "arabic": "حَدَّثَنَا عَاصِمُ بْنُ عَلِيٍّ  ، حَدَّثَنَا ابْنُ أَبِي ذِئْبٍ  ، عَنْ الْحَارِثِ بْنِ عَبْدِ الرَّحْمَنِ  ، عَنْ أَبِي سَلَمَةَ  ، عَنْ أَبِي هُرَيْرَةَ  ، قَالَ : قَالَ رَسُولُ اللَّهِ صَلَّى اللَّهُ عَلَيْهِ وَسَلَّمَ :\" إِذَا سَكِرَ، فَاجْلِدُوهُ، ثُمَّ إِذَا سَكِرَ، فَاجْلِدُوهُ، ثُمَّ إِذَا سَكِرَ، فَاجْلِدُوهُ، ثُمَّ إِذَا سَكِرَ، فَاضْرِبُوا عُنُقَهُ \".\nيَعْنِي فِي الرَّابِعَةِ",
      "english": {
        "narrator": "",
        "text": ""
      }
    },
    {
      "id": 19,
      "chapterId": 9,
      "bookId": 9,
      "arabic": "أَخْبَرَنَا مُحَمَّدُ بْنُ يُوسُفَ  ، عَنْ الْأَوْزَاعِيِّ  ، عَنْ الزُّهْرِيِّ  ، عَنْ أَبِي سَلَمَةَ  ، عَنْ أَبِي هُرَيْرَةَ  ، قَالَ : قَالَ رَسُولُ اللَّهِ صَلَّى اللَّهُ عَلَيْهِ وَسَلَّمَ :\" لَا يَزْنِي الزَّانِي حِينَ يَزْنِي وَهُوَ مُؤْمِنٌ، وَلَا يَسْرِقُ السَّارِقُ حِينَ يَسْرِقُ وَهُوَ مُؤْمِنٌ، وَلَا يَشْرَبُ الْخَمْرَ حِينَ يَشْرَبُهَا وَهُوَ مُؤْمِنٌ \"",
      "english": {
        "narrator": "",
        "text": ""
      }
    },
    {
      "id": 20,
      "chapterId": 9,
      "bookId": 9,
      "arabic": "أَخْبَرَنَا يَزِيدُ بْنُ هَارُونَ  ، عَنْ عَبْدِ الْمَلِكِ بْنِ أَبِي سُلَيْمَانَ  ، عَنْ أَبِي الزُّبَيْرِ  ،  عَنْ جَابِرٍ  ، قَالَ : \" كَانَيُنْتَبَذُ لِلنَّبِيِّ صَلَّى اللَّهُ عَلَيْهِ وَسَلَّمَ فِي السِّقَاءِ، فَإِنْ لَمْ يَكُنْ سِقَاءٌ، نُبِذَ لَهُ فِي تَوْرٍ مِنْ بِرَامٍ \"",
      "english": {
        "narrator": "",
        "text": ""
      }
    },
    {
      "id": 21,
      "chapterId": 9,
      "bookId": 9,
      "arabic": "أَخْبَرَنَا مُحَمَّدُ بْنُ كَثِيرٍ  ، عَنْ الْأَوْزَاعِيِّ  ، عَنْ يَحْيَى بْنِ أَبِي عَمْرٍو السَّيْبَانِيِّ  ، عَنْ عَبْدِ اللَّهِ بْنِ الدَّيْلَمِيِّ  ، عَنْ أَبِيهِ  ، أَنَّ أَبَاهُ أَوْ أَنَّ رَجُلًا مِنْهُمْ سَأَلَ النَّبِيَّ صَلَّى اللَّهُ عَلَيْهِ وَسَلَّمَ، فَقَالَ : يَا رَسُولَ اللَّهِ، إِنَّا قَدْ خَرَجْنَا مِنْ حَيْثُ عَلِمْتَ، وَنَزَلْنَا بَيْنَ ظَهْرَانَيْ مَنْ قَدْ عَلِمْتَ، فَمَنْ وَلِيُّنَا؟ قَالَ : \" اللَّهُ وَرَسُولُهُ \".\nقَالُوا : يَا رَسُولَ اللَّهِ، إِنَّا كُنَّا أَصْحَابَ كَرْمٍ وَخَمْرٍ، وَإِنَّ اللَّهَ قَدْ حَرَّمَ الْخَمْرَ، فَمَا نَصْنَعُ بِالْكَرْمِ؟ قَالَ : \" اصْنَعُوهُ زَبِيبًا \".\nقَالُوا : فَمَا نَصْنَعُ بِالزَّبِيبِ؟ قَالَ :\" انْقَعُوهُ فِي الشِّنَانِ، انْقَعُوهُ عَلَى غَدَائِكُمْ، وَاشْرَبُوهُ عَلَى عَشَائِكُمْ، وَانْقَعُوهُ عَلَى عَشَائِكُمْ، وَاشْرَبُوهُ عَلَى غَدَائِكُمْ، فَإِنَّهُ إِذَا أَتَى عَلَيْهِ الْعَصْرَانِ، كَانَ حِلًّا قَبْلَ أَنْ يَكُونَ خَمْرًا \"",
      "english": {
        "narrator": "",
        "text": ""
      }
    },
    {
      "id": 22,
      "chapterId": 9,
      "bookId": 9,
      "arabic": "أَخْبَرَنَا سَعِيدُ بْنُ عَامِرٍ  ، عَنْ سَعِيدِ بْنِ أَبِي عَرُوبَةَ  ، عَنْ قَتَادَةَ  ، عَنْ عَزْرَةَ  ، عَنْ سَعِيدِ بْنِ جُبَيْرٍ  ، قَالَ : سَأَلْتُ ابْنَ عُمَرَ  عَنْ نَبِيذِ الْجَرِّ، فَقَالَ : \" حَرَّمَهُ رَسُولُ اللَّهِ صَلَّى اللَّهُ عَلَيْهِ وَسَلَّمَ \".\nفَلَقِيتُ ابْنَ عَبَّاسٍ   فَأَخْبَرْتُهُ بِقَوْلِ ابْنِ عُمَرَ، فَقَالَ : صَدَقَ أَبُو عَبْدِ الرَّحْمَنِ",
      "english": {
        "narrator": "",
        "text": ""
      }
    },
    {
      "id": 23,
      "chapterId": 9,
      "bookId": 9,
      "arabic": "أَخْبَرَنَا الْحَكَمُ بْنُ نَافِعٍ  ، عَنْ شُعَيْبِ بْنِ أَبِي حَمْزَةَ  ، عَنْ الزُّهْرِيِّ  ، قَالَ : حَدَّثَنِي أَنَسُ بْنُ مَالِكٍ  ، أَنّ النَّبِيَّ صَلَّى اللَّهُ عَلَيْهِ وَسَلَّمَ قَالَ :\" لَا تَنْتَبِذُوا فِي الدُّبَّاءِ وَالْمُزَفَّتِ \"",
      "english": {
        "narrator": "",
        "text": ""
      }
    },
    {
      "id": 24,
      "chapterId": 9,
      "bookId": 9,
      "arabic": "أَخْبَرَنَا أَبُو زَيْدٍ  ، حَدَّثَنَا شُعْبَةُ  ، عَنْ سَلَمَةَ بْنِ كُهَيْلٍ  ، قَالَ : سَمِعْتُ أَبَا الْحَكَمِ  ، قَالَ : سَأَلْتُ ابْنَ عَبَّاسٍ   أَوْ سَمِعْتُهُ سُئِلَ عَنْ نَبِيذِ الْجَرِّ، فَقَالَ : \" نَهَى رَسُولُ اللَّهِ صَلَّى اللَّهُ عَلَيْهِ وَسَلَّمَ عَنْنَبِيذِ الْجَرِّ وَالدُّبَّاءِ \".\nوَسَأَلْتُ ابْنَ الزُّبَيْرِ   ، فَقَالَ مِثْلَ قَوْلِ ابْنِ عَبَّاسٍ",
      "english": {
        "narrator": "",
        "text": ""
      }
    },
    {
      "id": 25,
      "chapterId": 9,
      "bookId": 9,
      "arabic": "قَالَ : وَقَالَ ابْنُ عَبَّاسٍ   : \" مَنْ سَرَّهُ أَنْ يُحَرِّمَ مَا حَرَّمَ اللَّهُ وَرَسُولُهُ، أَوْ مَنْ كَانَ مُحَرِّمًا مَا حَرَّمَ اللَّهُ وَرَسُولُهُ،فَلْيُحَرِّمْ النَّبِيذَ \"",
      "english": {
        "narrator": "",
        "text": ""
      }
    },
    {
      "id": 26,
      "chapterId": 9,
      "bookId": 9,
      "arabic": "قَالَ : وَحَدَّثَنِي أَخِي  ، عَنْ أَبِي سَعِيدٍ الْخُدْرِيِّ   ، أَنَّ رَسُولَ اللَّهِ صَلَّى اللَّهُ عَلَيْهِ وَسَلَّمَ\" نَهَى عَنْ الْجَرِّ وَالدُّبَّاءِ وَالْمُزَفَّتِ، وَعَنْ الْبُسْرِ وَالتَّمْرِ \"",
      "english": {
        "narrator": "",
        "text": ""
      }
    },
    {
      "id": 27,
      "chapterId": 9,
      "bookId": 9,
      "arabic": "أَخْبَرَنَا أَبُو النُّعْمَانِ  ، حَدَّثَنَا ثَابِتُ بْنُ يَزِيدَ  ، حَدَّثَنَا عَاصِمٌ  ، عَنْ فُضَيْلِ بْنِ زَيْدٍ الرَّقَاشِيِّ  ، أَنَّهُ أَتَى عَبْدَ اللَّهِ بْنَ مُغَفَّلٍ  ، فَقَالَ : أَخْبِرْنِي بِمَا يَحْرُمُ عَلَيْنَا مِنْ الشَّرَابِ، فَقَالَ : الْخَمْرُ.\nقُلْتُ : هُوَ فِي الْقُرْآنِ؟ قَالَ : مَا أُحَدِّثُكَ إِلَّا مَا سَمِعْتُ مُحَمَّدًا صَلَّى اللَّهُ عَلَيْهِ وَسَلَّمَ بَدَأَ بِالِاسْمِ أَوْ بِالرِّسَالَةِ ، قَالَ : فَقَالَ :\" نَهَى عَنْ الدُّبَّاءِ وَالْحَنْتَمِ وَالنَّقِيرِ \"",
      "english": {
        "narrator": "",
        "text": ""
      }
    }
  ]
}