{
  "page": 37,
  "perPage": 50,
  "totalPages": 69,
  "totalCount": 3406,
  "nextPage": 38,
  "prevPage": 36,
  "items": [
    {
      "id": 91,
      "chapterId": 17,
      "bookId": 9,
      "arabic": "أَخْبَرَنَا سَعِيدُ بْنُ عَامِرٍ  ، عَنْ شُعْبَةَ  ، عَنْ عَاصِمٍ  ، عَنْ أَبِي عُثْمَانَ  ،  عَنْ سَعْدٍ   وَأَبِي بَكْرَةَ   أَنَّهُمَا حَدَّثَا : أَنَّ رَسُولَ اللَّهِ صَلَّى اللَّهُ عَلَيْهِ وَسَلَّمَ، قَالَ :\" مَنِ ادَّعَى إِلَى غَيْرِ أَبِيهِ وَهُوَ يَعْلَمُ أَنَّهُ غَيْرُ أَبِيهِ، فَالْجَنَّةُ عَلَيْهِ حَرَامٌ \"",
      "english": {
        "narrator": "",
        "text": ""
      }
    },
    {
      "id": 1,
      "chapterId": 18,
      "bookId": 9,
      "arabic": "أَخْبَرَنَا أَبُو نُعَيْمٍ  ، حَدَّثَنَا زَكَرِيَّا  ، عَنْ الشَّعْبِيِّ  ، قَالَ : سَمِعْتُ النُّعْمَانَ بْنَ بَشِيرٍ  ، يَقُولُ : سَمِعْتُ رَسُولَ اللَّهِ صَلَّى اللَّهُ عَلَيْهِ وَسَلَّمَ، يَقُولُ :\" الْحَلَالُ بَيِّنٌ وَالْحَرَامُ بَيِّنٌ، وَبَيْنَهُمَا مُتَشَابِهَاتٌ، لَا يَعْلَمُهَا كَثِيرٌ مِنَ النَّاسِ فَمَنْ اتَّقَى الشُّبُهَاتِ، اسْتَبْرَأَ لِعِرْضِهِ وَدِينِهِ، وَمَنْ وَقَعَ فِي الشُّبُهَاتِ، وَقَعَ فِي الْحَرَامِ، كَالرَّاعِي يَرْعَى حَوْلَ الْحِمَى فَيُوشِكُ أَنْ يُوَاقِعَهُ، وَإِنَّ لِكُلِّ مَلِكٍ حِمًى، أَلَا وَإِنَّ حِمَى اللَّهِ مَحَارِمُهُ، أَلَا وَإِنَّ فِي الْجَسَدِ مُضْغَةً، إِذَا صَلَحَتْ ، صَلَحَ الْجَسَدُ كُلُّهُ، وَإِذَا فَسَدَتْ، فَسَدَ الْجَسَدُ كُلُّهُ، أَلَا وَهِيَ الْقَلْبُ \"",
      "english": {
        "narrator": "",
        "text": ""
      }
    },
    {
      "id": 2,
      "chapterId": 18,
      "bookId": 9,
      "arabic": "أَخْبَرَنَا سَعِيدُ بْنُ عَامِرٍ  ، حَدَّثَنَا شُعْبَةُ  ، عَنْ بُرَيْدِ بْنِ أَبِي مَرْيَمَ  ، عَنْ أَبِي الْحَوْرَاءِ السَّعْدِيِّ  ، قَالَ : قُلْتُ لِلْحَسَنِ بْنِ عَلِيٍّ   : مَا تَحْفَظُ مِنْ رَسُولِ اللَّهِ صَلَّى اللَّهُ عَلَيْهِ وَسَلَّمَ؟.\nقَالَ : سَأَلَهُ رَجُلٌ عَنْ مَسْأَلَةٍ لَا أَدْرِي مَا هِيَ، فَقَالَ :\" دَعْ مَا يَرِيبُكَ إِلَى مَا لَا يَرِيبُكَ \"",
      "english": {
        "narrator": "",
        "text": ""
      }
    },
    {
      "id": 3,
      "chapterId": 18,
      "bookId": 9,
      "arabic": "حَدَّثَنَا سُلَيْمَانُ بْنُ حَرْبٍ  ، حَدَّثَنَا حَمَّادُ بْنُ سَلَمَةَ  ، عَنْ الزُّبَيْرِ أَبِي عَبْدِ السَّلَامِ  ، عَنْ أَيُّوبَ بْنِ عَبْدِ اللَّهِ بْنِ مِكْرَزٍ الْفِهْرِيِّ  ، عَنْ وَابِصَةَ بْنِ مَعْبَدٍ الْأَسَدِيِّ   : أَنّ رَسُولَ اللَّهِ صَلَّى اللَّهُ عَلَيْهِ وَسَلَّمَ، قَالَ لِوَابِصَةَ : \" جِئْتَ تَسْأَلُ عَنِ الْبِرِّ وَالْإِثْمِ؟ \".\nقَالَ : قُلْتُ : نَعَمْ.\nقَالَ : فَجَمَعَ أَصَابِعَهُ فَضَرَبَ بِهَا صَدْرَهُ، وَقَالَ :\" اسْتَفْتِ نَفْسَكَ.\nاسْتَفْتِ قَلْبَكَ يَا وَابِصَةُ ثَلَاثًا الْبِرُّ مَا اطْمَأَنَّتْ إِلَيْهِ النَّفْسُ وَاطْمَأَنَّ إِلَيْهِ الْقَلْبُ، وَالْإِثْمُ مَا حَاكَ فِي النَّفْسِ وَتَرَدَّدَ فِي الصَّدْرِ، وَإِنْ أَفْتَاكَ النَّاسُ وَأَفْتَوْكَ \"",
      "english": {
        "narrator": "",
        "text": ""
      }
    },
    {
      "id": 4,
      "chapterId": 18,
      "bookId": 9,
      "arabic": "حَدَّثَنَا حَجَّاجُ بْنُ مِنْهَالٍ  ، حَدَّثَنَا حَمَّادُ بْنُ سَلَمَةَ  ، أَخْبَرَنَا عَلِيُّ بْنُ زَيْدٍ  ، عَنْ أَبِي حُرَّةَ الرَّقَاشِيِّ  ، عَنْ عَمِّهِ  ، قَالَ : كُنْتُ آخِذًا بِزِمَامِ نَاقَةِ رَسُولِ اللَّهِ صَلَّى اللَّهُ عَلَيْهِ وَسَلَّمَ فِي أَوْسَطِ أَيَّامِ التَّشْرِيقِ أَذُودُ النَّاسَ عَنْهُ، فَقَالَ :\" أَلَا إِنَّ كُلَّ رِبًا فِي الْجَاهِلِيَّةِ مَوْضُوعٌ، أَلَا وَإِنَّ اللَّهَ قَدْ قَضَى أَنَّ أَوَّلَ رِبًا يُوضَعُ رِبَا عَبَّاسِ بْنِ عَبْدِ الْمُطَّلِبِ، لَكُمْ رُءُوسُ أَمْوَالِكُمْ لَا تَظْلِمُونَ وَلَا تُظْلَمُونَ \"",
      "english": {
        "narrator": "",
        "text": ""
      }
    },
    {
      "id": 5,
      "chapterId": 18,
      "bookId": 9,
      "arabic": "أَخْبَرَنَا أَبُو نُعَيْمٍ  ، حَدَّثَنَا سُفْيَانُ  ، عَنْ أَبِي قَيْسٍ  ، عَنْ هُزَيْلٍ  ، عَنْ عَبْدِ اللَّهِ  ، قَالَ : \" لَعَنَ رَسُولُ اللَّهِ صَلَّى اللَّهُ عَلَيْهِ وَسَلَّمَآكِلَ الرِّبَا وَمُؤْكِلَهُ \"",
      "english": {
        "narrator": "",
        "text": ""
      }
    },
    {
      "id": 6,
      "chapterId": 18,
      "bookId": 9,
      "arabic": "حَدَّثَنَا أَحْمَدُ بْنُ عَبْدِ اللَّهِ بْنِ يُونُسَ  ، حَدَّثَنَا ابْنُ أَبِي ذِئْبٍ  ، عَنْ سَعِيدٍ الْمَقْبُرِيِّ  ، عَنْ أَبِي هُرَيْرَةَ   : أَنَّ رَسُولَ اللَّهِ صَلَّى اللَّهُ عَلَيْهِ وَسَلَّمَ، قَالَ :\" لَيَأْتِيَنَّ زَمَانٌ لَا يُبَالِي الْمَرْءُ بِمَا أَخَذَ الْمَالَ، بِحَلَالٍ أَمْ بِحَرَامٍ \"",
      "english": {
        "narrator": "",
        "text": ""
      }
    },
    {
      "id": 7,
      "chapterId": 18,
      "bookId": 9,
      "arabic": "أَخْبَرَنَا قَبِيصَةُ  ، حَدَّثَنَا سُفْيَانُ  ، عَنْ مَنْصُورٍ  ، عَنْ إِبْرَاهِيمَ  ، عَنْ عُمَارَةَ بْنِ عُمَيْرٍ  ، عَنْ عَمَّتِهِ  ، عَنْ عَائِشَةَ  ، قَالَتْ : قَالَ رَسُولُ اللَّهِ صَلَّى اللَّهُ عَلَيْهِ وَسَلَّمَ :\" إِنَّ أَحَقَّ مَا يَأْكُلُ الرَّجُلُ مِنْ أَطْيَبِ كَسْبِهِ، وَإِنَّ وَلَدَهُ مِنْ أَطْيَبِ كَسْبِهِ \"",
      "english": {
        "narrator": "",
        "text": ""
      }
    },
    {
      "id": 8,
      "chapterId": 18,
      "bookId": 9,
      "arabic": "أَخْبَرَنَا أَبُو نُعَيْمٍ  ، حَدَّثَنَا سُفْيَانُ  ، عَنْ عَبْدِ اللَّهِ هُوَ : ابْنُ عُثْمَانَ بْنِ خُثَيْمٍ  عَنْ إِسْمَاعِيل بْنِ رِفَاعَةَ  ، عَنْ أَبِيهِ  ، عَنْ جَدِّهِ  ، قَالَ : خَرَجَ رَسُولُ اللَّهِ صَلَّى اللَّهُ عَلَيْهِ وَسَلَّمَ إِلَى الْبَقِيعِ ، فَقَالَ : \" يَا مَعْشَرَ التُّجَّارِ ! \" حَتَّى إِذَا اشْرَأَبُّوا.\nقَالَ :\" التُّجَّارُ يُحْشَرُونَ يَوْمَ الْقِيَامَةِ فُجَّارًا، إِلَّا مَنِ اتَّقَى اللَّهَ، وَبَرَّ، وَصَدَقَ \".\n قَالَ أَبُو مُحَمَّدٍ : كَانَ أَبُو نُعَيْمٍ، يَقُولُ : عُبَيْدُ اللَّهِ بْنُ رِفَاعَةَ، وَإِنَّمَا هُوَ : إِسْمَاعِيل بْنُ عُبَيْدِ بْنِ رِفَاعَةَ",
      "english": {
        "narrator": "",
        "text": ""
      }
    },
    {
      "id": 9,
      "chapterId": 18,
      "bookId": 9,
      "arabic": "أَخْبَرَنَا قَبِيصَةُ  ، أَخْبَرَنَا سُفْيَانُ  ، عَنْ أَبِي حَمْزَةَ  ، عَنْ الْحَسَنِ  ، عَنْ أَبِي سَعِيدٍ  ، عَنِ النَّبِيِّ صَلَّى اللَّهُ عَلَيْهِ وَسَلَّمَ، قَالَ :\" التَّاجِرُ الصَّدُوقُ الْأَمِينُ مَعَ النَّبِيِّينَ وَالصِّدِّيقِينَ وَالشُّهَدَاءِ \".\n قَالَ عَبْدُ اللَّهِ : لَا عِلْمَ لِي بِهِ إِنَّ الْحَسَنَ سَمِعَ مِنْ أَبِي سَعِيدٍ، وَقَالَ : أَبُو حَمْزَةَ هَذَا، هُوَ صَاحِبُ إِبْرَاهِيمَ، وَهُوَ : مَيْمُونٌ الْأَعْوَرُ",
      "english": {
        "narrator": "",
        "text": ""
      }
    },
    {
      "id": 10,
      "chapterId": 18,
      "bookId": 9,
      "arabic": "حَدَّثَنَا يَعْلَى بْنُ عُبَيْدٍ  ، حَدَّثَنَا إِسْمَاعِيل  ، عَنْ قَيْسٍ  ، عَنْ جَرِيرِ بْنِ عَبْدِ اللَّهِ  ، قَالَ : \" بَايَعْتُ رَسُولَ اللَّهِ صَلَّى اللَّهُ عَلَيْهِ وَسَلَّمَ عَلَىإِقَامِ الصَّلَاةِ، وَإِيتَاءِ الزَّكَاةِ، وَالنُّصْحِ لِكُلِّ مُسْلِمٍ \"",
      "english": {
        "narrator": "",
        "text": ""
      }
    },
    {
      "id": 11,
      "chapterId": 18,
      "bookId": 9,
      "arabic": "حَدَّثَنَا مُحَمَّدُ بْنُ الصَّلْتِ  ، حَدَّثَنَا أَبُو عَقِيلٍ : يَحْيَى بْنُ الْمُتَوَكِّلِ  ، قَالَ : أَخْبَرَنِي الْقَاسِمُ بْنُ عُبَيْدِ اللَّهِ  ، عَنْ سَالِمٍ  ، عَنِ ابْنِ عُمَرَ   : أَنّ رَسُولَ اللَّهِ صَلَّى اللَّهُ عَلَيْهِ وَسَلَّمَ مَرَّ بِطَعَامٍ بِسُوقِ الْمَدِينَةِ فَأَعْجَبَهُ حُسْنُهُ، فَأَدْخَلَ رَسُولُ اللَّهِ صَلَّى اللَّهُ عَلَيْهِ وَسَلَّمَ يَدَهُ فِي جَوْفِهِ، فَأَخْرَجَ شَيْئًا لَيْسَ كَالظَّاهِرِ فَأَفَّفَ بِصَاحِبِ الطَّعَامِ، ثُمَّ قَالَ :\" لَا غِشَّ بَيْنَ الْمُسْلِمِينَ، مَنْ غَشَّنَا فَلَيْسَ مِنَّا \"",
      "english": {
        "narrator": "",
        "text": ""
      }
    },
    {
      "id": 12,
      "chapterId": 18,
      "bookId": 9,
      "arabic": "حَدَّثَنَا سَعِيدُ بْنُ الرَّبِيعِ  ، حَدَّثَنَا شُعْبَةُ  ، عَنْ سُلَيْمَانَ  ، قَالَ : سَمِعْتُ أَبَا وَائِلٍ  ، عَنْ عَبْدِ اللَّهِ  ، عَنِ النَّبِيِّ صَلَّى اللَّهُ عَلَيْهِ وَسَلَّمَ، قَالَ :\" لِكُلِّ غَادِرٍ لِوَاءٌ يَوْمَ الْقِيَامَةِ يُقَالُ : هَذِهِ غَدْرَةُ فُلَانٍ \"",
      "english": {
        "narrator": "",
        "text": ""
      }
    },
    {
      "id": 13,
      "chapterId": 18,
      "bookId": 9,
      "arabic": "حَدَّثَنَا أَحْمَدُ بْنُ خَالِدٍ  ، حَدَّثَنَا مُحَمَّدُ بْنُ إِسْحَاق  ، عَنْ مُحَمَّدِ بْنِ إِبْرَاهِيمَ  ، عَنْ سَعِيدِ بْنِ الْمُسَيِّبِ  ،  عَنْ مَعْمَرِ بْنِ عَبْدِ اللَّهِ بْنِ نَافِعِ بْنِ نَضْلَةَ الْعَدَوِيِّ  ، قَالَ : سَمِعْتُ رَسُولَ اللَّهِ صَلَّى اللَّهُ عَلَيْهِ وَسَلَّمَ، يَقُولُ :\" لَا يَحْتَكِرُ إِلَّا خَاطِئٌ مَرَّتَيْنِ \"",
      "english": {
        "narrator": "",
        "text": ""
      }
    },
    {
      "id": 14,
      "chapterId": 18,
      "bookId": 9,
      "arabic": "أَخْبَرَنَا مُحَمَّدُ بْنُ يُوسُفَ  ، عَنْ إِسْرَائِيلَ  ، عَنْ عَلِيِّ بْنِ سَالِمٍ  ، عَنْ عَلِيِّ بْنِ زَيْدِ بْنِ جُدْعَانَ  ، عَنْ سَعِيدِ بْنِ الْمُسَيِّبِ  ، عَنْ عُمَرَ  ، عَنِ النَّبِيِّ صَلَّى اللَّهُ عَلَيْهِ وَسَلَّمَ، قَالَ :\" الْجَالِبُ مَرْزُوقٌ، وَالْمُحْتَكِرُ مَلْعُونٌ \"",
      "english": {
        "narrator": "",
        "text": ""
      }
    },
    {
      "id": 15,
      "chapterId": 18,
      "bookId": 9,
      "arabic": "أَخْبَرَنَا عَمْرُو بْنُ عَوْنٍ  ، أَخْبَرَنَا حَمَّادُ بْنُ سَلَمَةَ  ، عَنْ حُمَيْدٍ  ، وَثَابِتٍ  ، وَقَتَادَةَ  ، عَنْ أَنَسٍ  ، قَالَ : غَلَا السِّعْرُ عَلَى عَهْدِ النَّبِيِّ صَلَّى اللَّهُ عَلَيْهِ وَسَلَّمَ، فَقَالَ النَّاسُ : يَا رَسُولَ اللَّهِ غَلَا السِّعْرُ فَسَعِّرْ لَنَا، فَقَالَ رَسُولُ اللَّهِ صَلَّى اللَّهُ عَلَيْهِ وَسَلَّمَ :\" إِنَّ اللَّهَ هُوَ الْخَالِقُ الْقَابِضُ الْبَاسِطُ الرَّازِقُ، الْمُسَعِّرُ، وَإِنِّي أَرْجُو أَنْ أَلْقَى رَبِّي وَلَيْسَ أَحَدٌ مِنْكُمْ يَطْلُبُنِي بِمَظْلَمَةٍ ظَلَمْتُهَا إِيَّاهُ بِدَمٍ وَلَا مَالٍ \"",
      "english": {
        "narrator": "",
        "text": ""
      }
    },
    {
      "id": 16,
      "chapterId": 18,
      "bookId": 9,
      "arabic": "حَدَّثَنَا أَحْمَدُ بْنُ يُونُسَ  ، حَدَّثَنَا زُهَيْرٌ  ، حَدَّثَنَا مَنْصُورُ بْنُ الْمُعْتَمِرِ  ،  عَنْ رِبْعِيِّ بْنِ حِرَاشٍ  : أَنَّ حُذَيْفَةَ   حَدَّثَهُمْ، قَالَ : قَالَ رَسُولُ اللَّهِ صَلَّى اللَّهُ عَلَيْهِ وَسَلَّمَ :\" تَلَقَّتِ الْمَلَائِكَةُ رُوحَ رَجُلٍ مِمَّنْ قَبْلَكُمْ، فَقَالُوا : أَعَمِلْتَ مِنَ الْخَيْرِ شَيْئًا؟، فَقَالَ : لَا، قَالُوا : تَذَكَّرْ.\nقَالَ : كُنْتُ أُدَايِنُ النَّاسَ فَآمُرُ فِتْيَانِي أَنْ يُنْظِرُوا الْمُعْسِرَ، وَيَتَجَاوَزُوا عَنِ الْمُوسِرِ \".\nقَالَ : \" قَالَ اللَّهُ : تَجَاوَزُوا عَنْهُ \"",
      "english": {
        "narrator": "",
        "text": ""
      }
    },
    {
      "id": 17,
      "chapterId": 18,
      "bookId": 9,
      "arabic": "أَخْبَرَنَا سَعِيدُ بْنُ عَامِرٍ  ، عَنْ سَعِيدٍ  ، عَنْ قَتَادَةَ  ، عَنْ صَالِحٍ أَبِي الْخَلِيلِ  ، عَنْ عَبْدِ اللَّهِ بْنِ الْحَارِثِ  ، عَنْ حَكِيمِ بْنِ حِزَامٍ   : أَنّ رَسُولَ اللَّهِ صَلَّى اللَّهُ عَلَيْهِ وَسَلَّمَ، قَالَ :\" الْبَيِّعَانِ بِالْخِيَارِ مَا لَمْ يَتَفَرَّقَا فَإِنْ صَدَقَا وَبَيَّنَا، بُورِكَ لَهُمَا فِي بَيْعِهِمَا، وَإِنْ كَذَبَا وَكَتَمَا، مُحِقَ بَرَكَةُ بَيْعِهِمَا \".\nأَخْبَرَنَا أَبُو الْوَلِيدِ  ، حَدَّثَنَا شُعْبَةُ  ، عَنْ قَتَادَةَ  ، بِإِسْنَادِهِ مِثْلَهُ",
      "english": {
        "narrator": "",
        "text": ""
      }
    },
    {
      "id": 18,
      "chapterId": 18,
      "bookId": 9,
      "arabic": "أَخْبَرَنَا عُثْمَانُ بْنُ مُحَمَّدٍ  ، حَدَّثَنَا هُشَيْمٌ  ، حَدَّثَنَا ابْنُ أَبِي لَيْلَى  ، عَنْ الْقَاسِمِ بْنِ عَبْدِ الرَّحْمَنِ  ، عَنْ أَبِيهِ  ، عَنْ عَبْدِ اللَّهِ  ، قَالَ : سَمِعْتُ رَسُولَ اللَّهِ صَلَّى اللَّهُ عَلَيْهِ وَسَلَّمَ، يَقُولُ :\" الْبَيِّعَانِ إِذَا اخْتَلَفَا وَالْمَبيعُ قَائِمٌ بِعَيْنِهِ، وَلَيْسَ بَيْنَهُمَا بَيِّنَةٌ، فَالْقَوْلُ مَا قَالَ الْبَائِعُ، أَوْ يَتَرَادَّانِ الْبَيْعَ \"",
      "english": {
        "narrator": "",
        "text": ""
      }
    },
    {
      "id": 19,
      "chapterId": 18,
      "bookId": 9,
      "arabic": "أَخْبَرَنَا مُحَمَّدُ بْنُ عَبْدِ اللَّهِ الرَّقَاشِيُّ  ، حَدَّثَنَا يَزِيدُ بْنُ زُرَيْعٍ  ، حَدَّثَنَا مُحَمَّدٌ هُوَ : ابْنُ إِسْحَاق  ، عَنْ يَزِيدَ بْنِ أَبِي حَبِيبٍ  ، عَنْ عَبْدِ الرَّحْمَنِ بْنِ شِمَاسَةَ  ، عَنْ عُقْبَةَ بْنِ عَامِرٍ  ، قَالَ : سَمِعْتُ رَسُولَ اللَّهِ صَلَّى اللَّهُ عَلَيْهِ وَسَلَّمَ، يَقُولُ :\" لَا يَحِلُّ لِامْرِئٍ يُؤْمِنُ بِاللَّهِ وَالْيَوْمِ الْآخِرِ أَنْ يَبِيعَ عَلَى بَيْعِ أَخِيهِ حَتَّى يَتْرُكَهُ \"",
      "english": {
        "narrator": "",
        "text": ""
      }
    },
    {
      "id": 20,
      "chapterId": 18,
      "bookId": 9,
      "arabic": "حَدَّثَنَا مُسْلِمُ بْنُ إِبْرَاهِيمَ  ، حَدَّثَنَا أَبَانُ بْنُ يَزِيدَ  ، حَدَّثَنَا قَتَادَةُ  ، عَنْ الْحَسَنِ  ،  عَنْ عُقْبَةَ بْنِ عَامِرٍ   : أَنّ النَّبِيَّ صَلَّى اللَّهُ عَلَيْهِ وَسَلَّمَ، قَالَ :\" عُهْدَةُ الرَّقِيقِ ثَلَاثَةُ أَيَّامٍ \"",
      "english": {
        "narrator": "",
        "text": ""
      }
    },
    {
      "id": 21,
      "chapterId": 18,
      "bookId": 9,
      "arabic": "أَخْبَرَنَا يَزِيدُ بْنُ هَارُونَ  ، عَنْ هَمَّامٍ  ، عَنْ قَتَادَةَ  ، عَنْ الْحَسَنِ  ، عَنْ عُقْبَةَ بْنِ الْعَامِرِ  ، قَالَ : قَالَ النَّبِيُّ صَلَّى اللَّهُ عَلَيْهِ وَسَلَّمَ :\" عُهْدَةُ الرَّقِيقِ ثَلَاثَةُ أَيَّامٍ \".\nفَفَسَّرَهُ قَتَادَةُ : إِنْ وَجَدَ فِي الثَّلَاثِ عَيْبًا رَدَّهُ بِغَيْرِ بَيِّنَةٍ، وَإِنْ وَجَدَهُ بَعْدَ ثَلاثَةٍ، لَمْ يَرُدَّهُ إِلَّا بِبَيِّنَةٍ",
      "english": {
        "narrator": "",
        "text": ""
      }
    },
    {
      "id": 22,
      "chapterId": 18,
      "bookId": 9,
      "arabic": "حَدَّثَنَا مُحَمَّدُ بْنُ الْمِنْهَالِ  ، حَدَّثَنَا يَزِيدُ بْنُ زُرَيْعٍ  ، حَدَّثَنَا هِشَامٌ هُوَ : ابْنُ حَسَّانَ  عَنْ مُحَمَّدِ بْنِ سِيرِينَ  ، عَنْ أَبِي هُرَيْرَةَ  ، قَالَ : قَالَ رَسُولُ اللَّهِ صَلَّى اللَّهُ عَلَيْهِ وَسَلَّمَ :\" مَنِ اشْتَرَى شَاةً مُصَرَّاةً أَوْ لَقْحَةً مُصَرَّاةً، فَهُوَ بِالْخِيَارِ ثَلَاثَةَ أَيَّامٍ، فَإِنْ رَدَّهَا، رَدَّ مَعَهَا صَاعًا مِنْ طَعَامٍ لَا سَمْرَاءَ \"",
      "english": {
        "narrator": "",
        "text": ""
      }
    },
    {
      "id": 23,
      "chapterId": 18,
      "bookId": 9,
      "arabic": "أَخْبَرَنَا مُحَمَّدُ بْنُ عِيسَى  ، حَدَّثَنَا يَحْيَى الْقَطَّانُ  ، عَنْ عُبَيْدِ اللَّهِ  ، عَنْ أَبِي الزِّنَادِ  ، عَنْ الْأَعْرَجِ  ، عَنْ أَبِي هُرَيْرَةَ  ، قَالَ : \" نَهَى رَسُولُ اللَّهِ صَلَّى اللَّهُ عَلَيْهِ وَسَلَّمَ عَنْبَيْعِ الْغَرَرِ \"",
      "english": {
        "narrator": "",
        "text": ""
      }
    },
    {
      "id": 24,
      "chapterId": 18,
      "bookId": 9,
      "arabic": "أَخْبَرَنَا خَالِدُ بْنُ مَخْلَدٍ  ، حَدَّثَنَا مَالِكٌ  ، عَنْ نَافِعٍ  ، عَنِ ابْنِ عُمَرَ  ، قَالَ : \" نَهَى رَسُولُ اللَّهِ صَلَّى اللَّهُ عَلَيْهِ وَسَلَّمَ عَنْبَيْعِ الثِّمَارِ حَتَّى يَبْدُوَ صَلَاحُهَا، نَهَى الْبَائِعَ وَالْمُشْتَرِيَ \"",
      "english": {
        "narrator": "",
        "text": ""
      }
    },
    {
      "id": 25,
      "chapterId": 18,
      "bookId": 9,
      "arabic": "أَخْبَرَنَا عُثْمَانُ بْنُ عُمَرَ  ، حَدَّثَنَا ابْنُ جُرَيْجٍ  ، عَنْ أَبِي الزُّبَيْرِ  ، عَنْ جَابِرٍ   : أَنّ رَسُولَ اللَّهِ صَلَّى اللَّهُ عَلَيْهِ وَسَلَّمَ، قَالَ :\" مَنِ ابْتَاعَ ثَمَرَةً فَأَصَابَتْهُ جَائِحَةٌ، فَلَا يَأْخُذَنَّ مِنْهُ شَيْئًا.\nبِمَ تَأْخُذُ مَالَ أَخِيكَ بِغَيْرِ حَقٍّ؟ \"",
      "english": {
        "narrator": "",
        "text": ""
      }
    },
    {
      "id": 26,
      "chapterId": 18,
      "bookId": 9,
      "arabic": "أَخْبَرَنَا عَمْرُو بْنُ عَوْنٍ  ، أَخْبَرَنَا خَالِدُ بْنُ عَبْدِ اللَّهِ  ، عَنْ مُحَمَّدِ بْنِ عَمْرٍو  ح وحَدَّثَنَا مُسَدَّدٌ  ، حَدَّثَنَا يَحْيَى  ، عَنْ مُحَمَّدِ بْنِ عَمْرٍو  ، عَنْ أَبِي سَلَمَةَ  ، عَنْ أَبِي سَعِيدٍ  ، قَالَ : \" نَهَى رَسُولُ اللَّهِ صَلَّى اللَّهُ عَلَيْهِ وَسَلَّمَ عَنِالْمُحَاقَلَةِ وَالْمُزَابَنَةِ \".\nقَالَ عَبْد اللَّهِ : الْمُحَاقَلَةُ : بَيْعُ الزَّرْعِ بِالْبُرِّ.\nوَقَالُوا : كَذَلِكَ يَقُولُ ابْنُ الْمُسَيَّبِ",
      "english": {
        "narrator": "",
        "text": ""
      }
    },
    {
      "id": 27,
      "chapterId": 18,
      "bookId": 9,
      "arabic": "أَخْبَرَنَا مُحَمَّدُ بْنُ يُوسُفَ  ، عَنْ الْأَوْزَاعِيِّ  ، عَنْ ابْنِ شِهَابٍ  ، عَنْ سَالِمٍ  ، عَنْ ابْنِ عُمَرَ  ،  عَنْ زَيْدِ بْنِ ثَابِتٍ  ، قَالَ :\" رَخَّصَ رَسُولُ اللَّهِ صَلَّى اللَّهُ عَلَيْهِ وَسَلَّمَ فِي بَيْعِ الْعَرَايَا بِالتَّمْرِ وَالرُّطَبِ، وَلَمْ يُرَخِّصْ فِي غَيْرِ ذَلِكَ \"",
      "english": {
        "narrator": "",
        "text": ""
      }
    },
    {
      "id": 28,
      "chapterId": 18,
      "bookId": 9,
      "arabic": "أَخْبَرَنَا خَالِدُ بْنُ مَخْلَدٍ  ، حَدَّثَنَا مَالِكٌ  ، عَنْ نَافِعٍ  ، عَنِ ابْنِ عُمَرَ  ، عَنِ النَّبِيِّ صَلَّى اللَّهُ عَلَيْهِ وَسَلَّمَ، قَالَ :\" مَنِ ابْتَاعَ طَعَامًا، فَلَا يَبِعْهُ حَتَّى يَقْبِضَهُ \"",
      "english": {
        "narrator": "",
        "text": ""
      }
    },
    {
      "id": 29,
      "chapterId": 18,
      "bookId": 9,
      "arabic": "أَخْبَرَنَا يَزِيدُ بْنُ هَارُونَ  ، عَنْ حُسَيْنٍ الْمُعَلِّمِ  ، عَنْ عَمْرِو بْنِ شُعَيْبٍ  ، عَنْ أَبِيهِ  ، عَنْ جَدِّهِ  ، قَالَ : \" نَهَى رَسُولُ اللَّهِ صَلَّى اللَّهُ عَلَيْهِ وَسَلَّمَ عَنْسَلَفٍ وَبَيْعٍ، وَعَنْ شَرْطَيْنِ فِي بَيْعٍ، وَعَنْ رِبْحِ مَا لَمْ يُضْمَنْ \"",
      "english": {
        "narrator": "",
        "text": ""
      }
    },
    {
      "id": 30,
      "chapterId": 18,
      "bookId": 9,
      "arabic": "أَخْبَرَنَا عَبْدُ اللَّهِ بْنُ مَسْلَمَةَ  ، عَنْ ابْنِ أَبِي ذِئْبٍ  ، عَنْ ابْنِ شِهَابٍ  ، عَنْ سَالِمٍ  ، عَنْ أَبِيهِ  ، قَالَ : قَالَ رَسُولُ اللَّهِ صَلَّى اللَّهُ عَلَيْهِ وَسَلَّمَ :\" مَنِ اشْتَرَى عَبْدًا وَلَمْ يَشْتَرِطْ مَالَهُ، فَلَا شَيْءَ لَهُ \"",
      "english": {
        "narrator": "",
        "text": ""
      }
    },
    {
      "id": 31,
      "chapterId": 18,
      "bookId": 9,
      "arabic": "أَخْبَرَنَا عَمْرُو بْنُ عَوْنٍ  ، حَدَّثَنَا سُفْيَانُ  ، عَنْ الزُّهْرِيِّ  ، عَنْ عَطَاءِ بْنِ يَزِيدَ  ، عَنْ أَبِي سَعِيدٍ الْخُدْرِيِّ  ، قَالَ : \" نَهَى رَسُولُ اللَّهِ صَلَّى اللَّهُ عَلَيْهِ وَسَلَّمَ عَنْبَيْعَتَيْنِ، وَعَنْ لِبْسَتَيْنِ : عَنْ بَيْعِ الْمُنَابَذَةِ وَالْمُلَامَسَةِ \".\nقَالَ عَبْد اللَّهِ : الْمُنَابَذَةُ : يَرْمِي هَذَا إِلَى ذَاكَ.\nوَيَرْمِي ذَاكَ إِلَى هذَا.\nقَالَ : كَانَ هَذَا فِي الْجَاهِلِيَّةِ",
      "english": {
        "narrator": "",
        "text": ""
      }
    },
    {
      "id": 32,
      "chapterId": 18,
      "bookId": 9,
      "arabic": "أَخْبَرَنَا عَبْدُ اللَّهِ بْنُ سَعِيدٍ  ، حَدَّثَنَا عُقْبَةُ بْنُ خَالِدٍ  ، حَدَّثَنَا عُبَيْدُ اللَّهِ  ، عَنْ أَبِي الزِّنَادِ  ، عَنْ الْأَعْرَجِ  ، عَنْ أَبِي هُرَيْرَةَ  ، قَالَ : \" نَهَى رَسُولُ اللَّهِ صَلَّى اللَّهُ عَلَيْهِ وَسَلَّمَ عَنْبَيْعِ الْغَرَرِ، وَعَنْ بَيْعِ الْحَصَاةِ \".\nقَالَ عَبْد اللَّهِ : إِذَا رَمَى بِحَصًا، وَجَبَ الْبَيْعُ",
      "english": {
        "narrator": "",
        "text": ""
      }
    },
    {
      "id": 33,
      "chapterId": 18,
      "bookId": 9,
      "arabic": "أَخْبَرَنَا سَعِيدُ بْنُ عَامِرٍ  ، وَجَعْفَرُ بْنُ عَوْنٍ  ، عَنْ سَعِيدٍ  ، عَنْ قَتَادَةَ  ، عَنْ الْحَسَنِ  ، عَنْ سَمُرَةَ بْنِ جُنْدُبٍ  ، قَالَ : \" نَهَى رَسُولُ اللَّهِ صَلَّى اللَّهُ عَلَيْهِ وَسَلَّمَ عَنْبَيْعِ الْحَيَوَانِ بِالْحَيَوَانِ نَسِيئَةً \".\nثُمَّ إِنَّ الْحَسَنَ نَسِيَ هَذَا الْحَدِيثَ، وَلَمْ يَقُلْ جَعْفَرٌ : ثُمَّ إِنَّ الْحَسَنَ نَسِيَ هَذَا الْحَدِيثَ",
      "english": {
        "narrator": "",
        "text": ""
      }
    },
    {
      "id": 34,
      "chapterId": 18,
      "bookId": 9,
      "arabic": "أَخْبَرَنَا الْحَكَمُ بْنُ الْمُبَارَكِ  ، عَنْ مَالِكٍ  ، قِرَاءَةً عَلَيْهِ، عَنْ زَيْدِ بْنِ أَسْلَمَ  ، عَنْ عَطَاءِ بْنِ يَسَارٍ  ،  عَنْ أَبِي رَافِعٍ   : مَوْلَى رَسُولِ اللَّهِ صَلَّى اللَّهُ عَلَيْهِ وَسَلَّمَ، قَالَ : اسْتَسْلَفَ رَسُولُ اللَّهِ صَلَّى اللَّهُ عَلَيْهِ وَسَلَّمَ بَكْرًا، فَجَاءَتْ إِبِلٌ مِنْ إِبِلِ الصَّدَقَةِ.\nقَالَ أَبُو رَافِعٍ : فَأَمَرَنِي أَنْ أَقْضِيَ الرَّجُلَ بَكْرَهُ، فَقُلْتُ : لَمْ أَجِدْ فِي الْإِبِلِ إِلَّا جَمَلًا خِيَارًا رَبَاعِيًا، فَقَالَ رَسُولُ اللَّهِ صَلَّى اللَّهُ عَلَيْهِ وَسَلَّمَ :\" أَعْطِهِ إِيَّاهُ، فَإِنَّ خَيْرَ النَّاسِ أَحْسَنُهُمْ قَضَاءً \".\nقَالَ عَبْد اللَّهِ : هَذَا يُقَوِّي قَوْلَ مَنْ يَقُولُ : الْحَيَوَانُ بِالْحَيَوَانِ",
      "english": {
        "narrator": "",
        "text": ""
      }
    },
    {
      "id": 35,
      "chapterId": 18,
      "bookId": 9,
      "arabic": "أَخْبَرَنَا مُحَمَّدُ بْنُ الْمِنْهَالِ  ، حَدَّثَنَا يَزِيدُ بْنُ زُرَيْعٍ  ، حَدَّثَنَا هِشَامُ بْنُ حَسَّانَ  ، عَنْ مُحَمَّدٍ  ، عَنْ أَبِي هُرَيْرَةَ  ، قَالَ : قَالَ رَسُولُ اللَّهِ صَلَّى اللَّهُ عَلَيْهِ وَسَلَّمَ :\" لَا تَلَقَّوُا الْجَلَبَ، مَنَ تَلَقَّاهُ فَاشْتَرَى مِنْهُ شَيْئًا، فَهُوَ بِالْخِيَارِ إِذَا دَخَلَ السُّوقَ \"",
      "english": {
        "narrator": "",
        "text": ""
      }
    },
    {
      "id": 36,
      "chapterId": 18,
      "bookId": 9,
      "arabic": "أَخْبَرَنَا خَالِدُ بْنُ مَخْلَدٍ  ، حَدَّثَنَا مَالِكٌ  ، عَنْ نَافِعٍ  ، عَنِ ابْنِ عُمَرَ  ، قَالَ : قَالَ رَسُولُ اللَّهِ صَلَّى اللَّهُ عَلَيْهِ وَسَلَّمَ :\" لَا يَبِيعُ بَعْضُكُمْ عَلَى بَيْعِ بَعْضٍ، وَلَا تَلَقَّوُا السِّلَعَ حَتَّى يُهْبَطَ بِهَا الْأَسْوَاقَ، وَلَا تَنَاجَشُوا \"",
      "english": {
        "narrator": "",
        "text": ""
      }
    },
    {
      "id": 37,
      "chapterId": 18,
      "bookId": 9,
      "arabic": "أَخْبَرَنَا مُحَمَّدُ بْنُ يُوسُفَ  ، حَدَّثَنَا ابْنُ عُيَيْنَةَ  ، حَدَّثَنِي الزُّهْرِيُّ  ، عَنْ أَبِي بَكْرِ بْنِ عَبْدِ الرَّحْمَنِ  ، عَنِ أَبِي مَسْعُودٍ  ، قَالَ : \" نَهَى رَسُولُ اللَّهِ صَلَّى اللَّهُ عَلَيْهِ وَسَلَّمَ عَنْثَمَنِ الْكَلْبِ، وَمَهْرِ الْبَغِيِّ، وَحُلْوَانِ الْكَاهِنِ \"، قَالَ عَبْد اللَّهِ : حُلْوَانُ الْكَاهِنِ، مَا يُعْطَى عَلَى كَهَانَتِهِ",
      "english": {
        "narrator": "",
        "text": ""
      }
    },
    {
      "id": 38,
      "chapterId": 18,
      "bookId": 9,
      "arabic": "أَخْبَرَنَا يَعْلَى  ، حَدَّثَنَا الْأَعْمَشُ  ، عَنْ مُسْلِمٍ  ، عَنْ مَسْرُوقٍ  ، عَنْ عَائِشَةَ  ، قَالَتْ : لَمَّا نَزَلَتِ الْآيَةُ فِي آخِرِ سُورَةِ الْبَقَرَةِ فِي الرِّبَا، \" خَرَجَ رَسُولُ اللَّهِ صَلَّى اللَّهُ عَلَيْهِ وَسَلَّمَ فَتَلَاهُنَّ عَلَى النَّاسِ، ثُمَّحَرَّمَ التِّجَارَةَ فِي الْخَمْرِ \"",
      "english": {
        "narrator": "",
        "text": ""
      }
    },
    {
      "id": 39,
      "chapterId": 18,
      "bookId": 9,
      "arabic": "أَخْبَرَنَا إِسْحَاق بْنُ إِبْرَاهِيمَ  ، حَدَّثَنَا جَرِيرٌ  ، عَنْ مَنْصُورٍ  ، عَنْ أَبِي الضُّحَى  ، عَنْ مَسْرُوقٍ  ، عَنْ عَائِشَةَ  ، قَالَتْ : لَمَّا نَزَلَتِ الْآيَاتُ مِنْ أَوَاخِرِ سُورَةِ الْبَقَرَةِ ، \" خَرَجَ رَسُولُ اللَّهِ صَلَّى اللَّهُ عَلَيْهِ وَسَلَّمَ فَاقْتَرَأَهُنَّ عَلَى النَّاسِ، ثُمَّ نَهَى عَنِالتِّجَارَةِ فِي الْخَمْرِ \"",
      "english": {
        "narrator": "",
        "text": ""
      }
    },
    {
      "id": 40,
      "chapterId": 18,
      "bookId": 9,
      "arabic": "أَخْبَرَنَا أَحْمَدُ بْنُ خَالِدٍ  ، حَدَّثَنَا مُحَمَّدٌ هُوَ : ابْنُ إِسْحَاق  ، عَنْ عَبْدِ الرَّحْمَنِ بْنِ أَبِي يَزِيدَ  ، عَنْ الْقَعْقَاعِ بْنِ حَكِيمٍ  ، عَنْ عَبْدِ الرَّحْمَنِ بْنِ وَعْلَةَ  ، قَالَ : سَأَلْتُ ابْنَ عَبَّاسٍ   عَنْ جُلُودِ الْمَيْتَةِ، فَقَالَ : قَالَ رَسُولُ اللَّهِ صَلَّى اللَّهُ عَلَيْهِ وَسَلَّمَ :\" دِبَاغُهَا طَهُورُهَا \"",
      "english": {
        "narrator": "",
        "text": ""
      }
    },
    {
      "id": 41,
      "chapterId": 18,
      "bookId": 9,
      "arabic": "وَسَأَلْتُهُ عَنْ بَيْعِ الْخَمْرِ مِنْ أَهْلِ الذِّمَّةِ ، فَقُلْتُ لَهُ : إِنَّ لَنَا أَعْنَابًا، وَإِنَّا نَتَّخِذُ مِنْهَا هَذِهِ الْخُمُورَ فَنَبِيعُهَا مِنْ أَهْلِ الذِّمَّةِ ؟.\nقَالَ ابْنُ عَبَّاسٍ   : أَهْدَى رَجُلٌ مِنْ ثَقِيفٍ أَوْ دَوْسٍ لِرَسُولِ اللَّهِ صَلَّى اللَّهُ عَلَيْهِ وَسَلَّمَ رَاوِيَةً مِنْ خَمْرٍ فِي حَجَّةِ الْوَدَاعِ، فَقَالَ لَهُ النَّبِيُّ صَلَّى اللَّهُ عَلَيْهِ وَسَلَّمَ : \" أَمَا عَلِمْتَ يَا أَبَا فُلَانٍ أَنَّ اللَّهَ قَدْ حَرَّمَهَا؟ \".\nقَالَ : لَا وَاللَّهِ.\nقَالَ :\" فَإِنَّ اللَّهَ قَدْ حَرَّمَهَا \".\nفَالْتَفَتَ إِلَى غُلَامِهِ، فَقَالَ : اخْرُجْ بِهَا إِلَى الْحَزْوَرَةِ فَبِعْهَا، فَقَالَ لَهُ رَسُولُ اللَّهِ صَلَّى اللَّهُ عَلَيْهِ وَسَلَّمَ : \" أَوَ مَا عَلِمْتَ يَا أَبَا فُلَانٍ، أَنَّ الَّذِي حَرَّمَ شُرْبَهَا، حَرَّمَ بَيْعَهَا؟ \".\n قَالَ : فَأَمَرَ بِهَا فَأُفْرِغَتْ فِي الْبَطْحَاءِ",
      "english": {
        "narrator": "",
        "text": ""
      }
    },
    {
      "id": 42,
      "chapterId": 18,
      "bookId": 9,
      "arabic": "أَخْبَرَنَا خَالِدُ بْنُ مَخْلَدٍ  ، حَدَّثَنَا مَالِكٌ  ، عَنْ عَبْدِ اللَّهِ بْنِ دِينَارٍ  ، عَنِ ابْنِ عُمَرَ  ، قَالَ : \" نَهَى رَسُولُ اللَّهِ صَلَّى اللَّهُ عَلَيْهِ وَسَلَّمَ عَنْبَيْعِ الْوَلَاءِ، وَعَنْ هِبَتِهِ \".\nقَالَ عَبْد اللَّهِ : الْأَمْرُ عَلَى هَذَا، لَا يُبَاعُ وَلَا يُوهَبُ",
      "english": {
        "narrator": "",
        "text": ""
      }
    },
    {
      "id": 43,
      "chapterId": 18,
      "bookId": 9,
      "arabic": "أَخْبَرَنَا هَاشِمُ بْنُ الْقَاسِمِ  ، حَدَّثَنَا شُعْبَةُ  ، عَنْ عَمْرِو بْنِ دِينَارٍ  ، قَالَ : سَمِعْتُ جَابِرَ بْنَ عَبْدِ اللَّهِ الْأَنْصَارِيَّ  ، قَالَ : أَعْتَقَ رَجُلٌ مِنَّا عَبْدًا لَهُ عَنْ دُبُرٍ.\nقَالَ :\" فَدَعَا بِهِ رَسُولُ اللَّهِ صَلَّى اللَّهُ عَلَيْهِ وَسَلَّمَ فَبَاعَهُ \".\nقَالَ جَابِرٌ : وَإِنَّمَا مَاتَ عَامَ أَوَّلَ.\nقِيلَ لعَبْدِ اللَّهِ : تَقُولُ بِهِ؟.\nقَالَ : قَوْمُ يَقُولُونَ",
      "english": {
        "narrator": "",
        "text": ""
      }
    },
    {
      "id": 44,
      "chapterId": 18,
      "bookId": 9,
      "arabic": "أَخْبَرَنَا أَبُو نُعَيْمٍ  ، حَدَّثَنَا شَرِيكٌ  ، عَنْ حُسَيْنِ بْنِ عَبْدِ اللَّهِ بْنِ عُبَيْدِ اللَّهِ بْنِ عَبَّاسٍ  ، عَنْ عِكْرِمَةَ  ، عَنِ ابْنِ عَبَّاسٍ  ، عَنِ النَّبِيِّ صَلَّى اللَّهُ عَلَيْهِ وَسَلَّمَ، قَالَ :\" إِذَا وَلَدَتْ أَمَةُ الرَّجُلِ مِنْهُ، فَهِيَ مُعْتَقَةٌ عَنْ دُبُرٍ مِنْهُ أَوْ بَعْدَهُ \"",
      "english": {
        "narrator": "",
        "text": ""
      }
    },
    {
      "id": 45,
      "chapterId": 18,
      "bookId": 9,
      "arabic": "أَخْبَرَنَا أَبُو مُحَمَّدٍ الْحَنَفِيُّ الْمَدَنِيُّ  ، حَدَّثَنَا مَالِكٌ  ، عَنْ إِسْحَاق بْنِ عَبْدِ اللَّهِ بْنِ أَبِي طَلْحَةَ  ، عَنْ أَنَسِ بْنِ مَالِكٍ   : أَنّ رَسُولَ اللَّهِ صَلَّى اللَّهُ عَلَيْهِ وَسَلَّمَ، قَالَ :\" اللَّهُمَّ بَارِكْ لَهُمْ فِي مِكْيَالِهِمْ، وَبَارِكْ لَهُمْ فِي صَاعِهِمْ وَمُدِّهِمْ \"يَعْنِي : الْمَدِينَةَ",
      "english": {
        "narrator": "",
        "text": ""
      }
    },
    {
      "id": 46,
      "chapterId": 18,
      "bookId": 9,
      "arabic": "أَخْبَرَنَا عُثْمَانُ بْنُ عُمَرَ  ، أَخْبَرَنَا إِسْرَائِيلُ  ، عَنْ أَبِي إِسْحَاق  ، عَنْ مَسْرُوقٍ  ، عَنْ بِلَالٍ  ، قَالَ : كَانَ عِنْدِي مُدُّ تَمْرٍ لِلنَّبِيِّ صَلَّى اللَّهُ عَلَيْهِ وَسَلَّمَ فَوَجَدْتُ أَطْيَبَ مِنْهُ صَاعًا بِصَاعَيْنِ، فَاشْتَرَيْتُ مِنْهُ، فَأَتَيْتُ بِهِ النَّبِيَّ صَلَّى اللَّهُ عَلَيْهِ وَسَلَّمَ، فَقَالَ :\" مِنْ أَيْنَ لَكَ هَذَا يَا بِلَالُ؟ \".\nقُلْتُ : اشْتَرَيْتُ صَاعًا بِصَاعَيْنِ.\nقَالَ : \" رُدَّهُ وَرُدَّ عَلَيْنَا تَمْرَنَا \"",
      "english": {
        "narrator": "",
        "text": ""
      }
    },
    {
      "id": 47,
      "chapterId": 18,
      "bookId": 9,
      "arabic": "أَخْبَرَنَا عَبْدُ اللَّهِ بْنُ مَسْلَمَةَ  ، حَدَّثَنَا سُلَيْمَانُ هُوَ : ابْنُ بِلَالٍ  ، عَنْ عَبْدِ الْمَجِيدِ بْنِ سُهَيْلِ بْنِ عَبْدِ الرَّحْمَنِ  ، أَنَّهُ سَمِعَ سَعِيدَ بْنَ الْمُسَيِّبِ  يُحَدِّثُ أَنَّ أَبَا سَعِيدٍ الْخُدْرِيَّ   وَأَبَا هُرَيْرَةَ   حَدَّثَاهُ : أَنَّ رَسُولَ اللَّهِ صَلَّى اللَّهُ عَلَيْهِ وَسَلَّمَ بَعَثَ أَخَا بَنِي عَدِيٍّ الْأَنْصَارِيَّ فَاسْتَعْمَلَهُ عَلَى خَيْبَرَ ، فَقَدِمَ بِتَمْرٍ جَنِيبٍ.\n قَالَ ابْنُ مَسْلَمَةَ : يَعْنِي : جَيِّدًا ، فَقَالَ لَهُ رَسُولُ اللَّهِ صَلَّى اللَّهُ عَلَيْهِ وَسَلَّمَ : \" أَكُلُّ تَمْرِ خَيْبَرَ هَكَذَا؟ \".\nقَالَ : لَا وَاللَّهِ يَا رَسُولَ اللَّهِ، إِنَّا لَنَشْتَرِي الصَّاعَ بِالصَّاعَيْنِ مِنَ الْجَمْعِ، فَقَالَ رَسُولُ اللَّهِ صَلَّى اللَّهُ عَلَيْهِ وَسَلَّمَ :\" لَا تَفْعَلُوا، وَلَكِنْ مِثْلًا بِمِثْلٍ، أَوْ بِيعُوا هَذَا، وَاشْتَرُوا بِثَمَنِهِ مِنْ هَذَا، وَكَذَلِكَ الْمِيزَانُ \"",
      "english": {
        "narrator": "",
        "text": ""
      }
    },
    {
      "id": 48,
      "chapterId": 18,
      "bookId": 9,
      "arabic": "أَخْبَرَنَا يَزِيدُ بْنُ هَارُونَ  ، حَدَّثَنَا مُحَمَّدُ بْنُ إِسْحَاق  ، عَنْ الزُّهْرِيِّ  ، عَنْ مَالِكِ بْنِ أَوْسِ بْنِ الْحَدَثَانِ النَّصْرِيِّ  ، عَنْ عُمَرَ بْنِ الْخَطَّابِ   رَضِي اللَّهُ عَنْهُ، قالَ : سمِعْتُ رَسُولَ اللَّهِ صَلَّى اللَّهُ عَلَيْهِ وَسَلَّمَ، يَقُولُ :\" الذَّهَبُ بِالذَّهَبِ هَاءَ وَهَاءَ، وَالْفِضَّةُ بِالْفِضَّةِ هَاءَ وَهَاءَ، وَالتَّمْرُ بِالتَّمْرِ هَاءَ وَهَاءَ، وَالْبُرُّ بِالْبُرِّ هَاءَ وَهَاءَ، وَالشَّعِيرُ بِالشَّعِيرِ هَاءَ وَهَاءَ، وَلَا فَضْلَ بَيْنَهُمَا \"",
      "english": {
        "narrator": "",
        "text": ""
      }
    },
    {
      "id": 49,
      "chapterId": 18,
      "bookId": 9,
      "arabic": "أَخْبَرَنَا عَمْرُو بْنُ عَوْنٍ  ، أَخْبَرَنَا خَالِدٌ  ، عَنْ خَالِدٍ الْحَذَّاءِ  ، عَنْ أَبِي قِلَابَةَ  ، عَنْ أَبِي الْأَشْعَثِ الصَّنْعَانِيِّ  ، قَالَ : قَامَ أنَاسٌ فِي إِمَارَةِ مُعَاوِيَةَ يَبِيعُونَ آنِيَةَ الذَّهَبِ وَالْفِضَّةِ إِلَى الْعَطَاءِ.\nفَقَامَ عُبَادَةُ بْنُ الصَّامِتِ  ، فَقَالَ : إِنَّ رَسُولَ اللَّهِ صَلَّى اللَّهُ عَلَيْهِ وَسَلَّمَ \" نَهَى عَنْبَيْعِ الذَّهَبِ بِالذَّهَبِ، وَالْفِضَّةِ بِالْفِضَّةِ، وَالْبُرِّ بِالْبُرِّ، وَالتَّمْرِ بِالتَّمْرِ، وَالشَّعِيرِ بِالشَّعِيرِ، وَالْمِلْحِ بِالْمِلْحِ إِلَّا مِثْلًا بِمِثْلٍ سَوَاءً بِسَوَاءٍ، فَمَنْ زَادَ أَوْ ازْدَادَ، فَقَدْ أَرْبَى \"",
      "english": {
        "narrator": "",
        "text": ""
      }
    }
  ]
}