{
  "page": 4,
  "perPage": 50,
  "totalPages": 69,
  "totalCount": 3406,
  "nextPage": 5,
  "prevPage": 3,
  "items": [
    {
      "id": 151,
      "chapterId": 1,
      "bookId": 9,
      "arabic": "أَخْبَرَنَا أَبُو الْمُغِيرَةِ ، حَدَّثَنَا الْأَوْزَاعِيُّ ، حَدَّثَنَا يَحْيَى بْنُ سَعِيدٍ ، عَنْ سَعِيدِ بْنِ الْمُسَيِّبِ ، قَالَ :\" تَغْتَسِلُ مِنْ ظُهْرٍ إِلَى ظُهْرٍ، وَتَتَوَضَّأُ لِكُلِّ صَلَاةٍ، فَإِنْ غَلَبَهَا الدَّمُ اسْتَثْفَرَتْ \"، وَكَانَ الْحَسَنُ يَقُولُ ذَلِكَ",
      "english": {
        "narrator": "",
        "text": ""
      }
    },
    {
      "id": 152,
      "chapterId": 1,
      "bookId": 9,
      "arabic": "أَخْبَرَنَا يَزِيدُ بْنُ هَارُونَ ، حَدَّثَنَا يَحْيَى ، أَنَّ سُمَيًّا مَوْلَى أَبِي بَكْرِ بْنِ عَبْدِ الرَّحْمَنِ بْنِ الْحَارِثِ بْنِ هِشَامٍ أَخْبَرَهُ، أَنَّ الْقَعْقَاعَ بْنَ حَكِيمٍ، وَزَيْدَ بْنَ أَسْلَمَ أَرْسَلَاهُ إِلَى سَعِيدِ بْنِ الْمُسَيِّبِ  يَسْأَلُهُ كَيْفَ تَغْتَسِلُ الْمُسْتَحَاضَةُ؟، فَقَالَ سَعِيدٌ :\" تَغْتَسِلُ مِنْ الظُّهْرِ إِلَى مِثْلِهَا مِنْ الْغَدِ لِصَلَاةِ الظُّهْرِ، فَإِنْ غَلَبَهَا الدَّمُ اسْتَثْفَرَتْ، وَتَوَضَّأَتْ لِكُلِّ صَلَاةٍ، وَصَلَّتْ \"",
      "english": {
        "narrator": "",
        "text": ""
      }
    },
    {
      "id": 153,
      "chapterId": 1,
      "bookId": 9,
      "arabic": "حَدَّثَنَا مُوسَى بْنُ خَالِدٍ ، عَنْ مُعْتَمِرٍ ، عَنْ أَبِيهِ ، عَنْ الْحَسَنِ  فِي الْمُسْتَحَاضَةِ :\" تَغْتَسِلُ مِنْ صَلَاةِ الظُّهْرِ إِلَى صَلَاةِ الظُّهْرِ مِنْ الْغَدِ \"",
      "english": {
        "narrator": "",
        "text": ""
      }
    },
    {
      "id": 154,
      "chapterId": 1,
      "bookId": 9,
      "arabic": "حَدَّثَنَا حَجَّاجُ بْنُ مِنْهَالٍ ، حَدَّثَنَا حَمَّادٌ ، عَنْ حُمَيْدٍ ، عَنْ الْحَسَنِ ، قَالَ :\" الْمُسْتَحَاضَةُ تَدَعُ الصَّلَاةَ أَيَّامَ حَيْضِهَا مِنْ الشَّهْرِ، ثُمَّ تَغْتَسِلُ مِنْ الظُّهْرِ إِلَى الظُّهْرِ، وَتَوَضَّأُ عِنْدَ كُلِّ صَلَاةٍ، وَتَصُومُ وَتُصَلِّي، وَيَأْتِيهَا زَوْجُهَا \"، حَدَّثَنَا حَجَّاجُ بْنُ مِنْهَالٍ ، حَدَّثَنَا حَمَّادٌ ، عَنْ عَبَّادِ بْنِ مَنْصُورٍ ، عَنْ الْحَسَنِ ، وَعَطَاءٍ  مثل ذلك",
      "english": {
        "narrator": "",
        "text": ""
      }
    },
    {
      "id": 155,
      "chapterId": 1,
      "bookId": 9,
      "arabic": "أَخْبَرَنَا حَجَّاجٌ  ، حَدَّثَنَا حَمَّادٌ  ، عَنْ دَاوُدَ  ، عَنْ الشَّعْبِيِّ  ، عَنْ قَمِيرَ  امْرَأَةِ مَسْرُوقٍ : أَنَّ عَائِشَةَ   رَضِيَ اللهُ عَنْهَا، قَالَتْ فِي الْمُسْتَحَاضَةِ :\" تَغْتَسِلُ كُلَّ يَوْمٍ مَرَّةً \"",
      "english": {
        "narrator": "",
        "text": ""
      }
    },
    {
      "id": 156,
      "chapterId": 1,
      "bookId": 9,
      "arabic": "أَخْبَرَنَا مَرْوَانُ  ، عَنْ بُكَيْرِ بْنِ مَعْرُوفٍ  ، عَنْ مُقَاتِلِ بْنِ حَيَّانَ  ، عَنْ نَافِعٍ  ، عَنْ ابْنِ عُمَرَ   رَضِيَ اللهُ عَنْهُ، أَنَّهُ كَانَ يَقُولُ فِي الْمُسْتَحَاضَةِ :\" تَغْتَسِلُ مِنْ ظُهْرٍ إِلَى ظُهْرٍ \"، قَالَ مَرْوَانُ : وَهُوَ قَوْلُ الْأَوْزَاعِيِّ",
      "english": {
        "narrator": "",
        "text": ""
      }
    },
    {
      "id": 157,
      "chapterId": 1,
      "bookId": 9,
      "arabic": "حَدَّثَنَا زَكَرِيَّا بْنُ عَدِيٍّ ، عَنْ عُبَيْدِ اللَّهِ بْنِ عَمْرٍو ، عَنْ عَبْدِ الْكَرِيمِ ، عَنْ سَعِيدِ بْنِ الْمُسَيِّبِ ، قَالَ :\" الْمُسْتَحَاضَةُ تَغْتَسِلُ كُلَّ يَوْمٍ عِنْدَ صَلَاةِ الْأُولَى \"",
      "english": {
        "narrator": "",
        "text": ""
      }
    },
    {
      "id": 158,
      "chapterId": 1,
      "bookId": 9,
      "arabic": "أَخْبَرَنَا مُحَمَّدُ بْنُ عِيسَى  ، حَدَّثَنَا عَتَّابٌ هُوَ ابْنُ بَشِيرٍ الْجَزَرِيُّ  ، عَنْ خُصَيْفٍ  ، عَنْ عِكْرِمَةَ  ، عَنْ ابْنِ عَبَّاسٍ   رَضِيَ اللهُ عَنْهُ فِي الْمُسْتَحَاضَةِ :\" لَمْ يَرَ بَأْسًا أَنْ يَأْتِيَهَا زَوْجُهَا \"",
      "english": {
        "narrator": "",
        "text": ""
      }
    },
    {
      "id": 159,
      "chapterId": 1,
      "bookId": 9,
      "arabic": "أَخْبَرَنَا مُحَمَّدُ بْنُ يُوسُفَ ، حَدَّثَنَا سُفْيَانُ ، عَنْ سَالِمٍ الْأَفْطَسِ ، قَالَ : سُئِلَ سَعِيدُ بْنُ جُبَيْرٍ  : أَتُجَامَعُ الْمُسْتَحَاضَةُ؟ ، فَقَالَ :\" الصَّلَاةُ أَعْظَمُ مِنْ الْجِمَاعِ \"",
      "english": {
        "narrator": "",
        "text": ""
      }
    },
    {
      "id": 160,
      "chapterId": 1,
      "bookId": 9,
      "arabic": "أَخْبَرَنَا مُحَمَّدُ بْنُ يُوسُفَ ، حَدَّثَنَا سُفْيَانُ ، عَنْ سُمَيٍّ ، عَنْ سَعِيدِ بْنِ الْمُسَيِّبِ ، قَالَ :\" يَأْتِيهَا زَوْجُهَا \"",
      "english": {
        "narrator": "",
        "text": ""
      }
    },
    {
      "id": 161,
      "chapterId": 1,
      "bookId": 9,
      "arabic": "أَخْبَرَنَا أَبُو النُّعْمَانِ ، حَدَّثَنَا وُهَيْبٌ ، حَدَّثَنَا يُونُسُ ، عَنْ الْحَسَنِ  فِي الْمُسْتَحَاضَةِ، قَالَ :\" يَغْشَاهَا زَوْجُهَا \"",
      "english": {
        "narrator": "",
        "text": ""
      }
    },
    {
      "id": 162,
      "chapterId": 1,
      "bookId": 9,
      "arabic": "أَخْبَرَنَا أَبُو عَاصِمٍ ، عَنْ عَبْدِ اللَّهِ بْنِ مُسْلِمٍ ، عَنْ سَعِيدِ بْنِ جُبَيْرٍ ، قَالَ فِي الْمُسْتَحَاضَةِ :\" يَغْشَاهَا زَوْجُهَا وَإِنْ قَطَرَ الدَّمُ عَلَى الْحَصِيرِ \"",
      "english": {
        "narrator": "",
        "text": ""
      }
    },
    {
      "id": 163,
      "chapterId": 1,
      "bookId": 9,
      "arabic": "أَخْبَرَنَا حَجَّاجُ بْنُ مِنْهَالٍ ، حَدَّثَنَا حَمَّادٌ ، عَنْ حُمَيْدٍ ، قَالَ : قِيلَ لِبَكْرِ بْنِ عَبْدِ اللَّهِ، إِنَّ الْحَجَّاجَ بْنَ يُوسُفَ، يَقُولُ :\" إِنَّ الْمُسْتَحَاضَةَ لَا يَغْشَاهَا زَوْجُهَا \"، قَالَ بَكْرُ بْنُ عَبْدِ اللَّهِ الْمُزَنِيُّ  : \" الصَّلَاةُ أَعْظَمُ حُرْمَةً يَغْشَاهَا زَوْجُهَا \"",
      "english": {
        "narrator": "",
        "text": ""
      }
    },
    {
      "id": 164,
      "chapterId": 1,
      "bookId": 9,
      "arabic": "حَدَّثَنَا حَجَّاجُ بْنُ مِنْهَالٍ ، حَدَّثَنَا حَمَّادُ بْنُ زَيْدٍ ، عَنْ حُمَيْدٍ ، عَنْ الْحَسَنِ ، قَالَ :\" يَأْتِيهَا زَوْجُهَا \"",
      "english": {
        "narrator": "",
        "text": ""
      }
    },
    {
      "id": 165,
      "chapterId": 1,
      "bookId": 9,
      "arabic": "أَخْبَرَنَا عَمْرُو بْنُ عَوْنٍ ، عَنْ خَالِدِ بْنِ عَبْدِ اللَّهِ ، عَنْ عَطَاءِ بْنِ السَّائِبِ ، عَنْ عَطَاءٍ ، قَالَ فِي الْمُسْتَحَاضَةِ :\" يُجَامِعُهَا زَوْجُهَا، تَدَعُ الصَّلَاةَ أَيَّامَ حَيْضِهَا، فَإِذَا حَلَّتْ لَهَا الصَّلَاةُ، فَلْيَطَأْهَا \"",
      "english": {
        "narrator": "",
        "text": ""
      }
    },
    {
      "id": 166,
      "chapterId": 1,
      "bookId": 9,
      "arabic": "أَخْبَرَنَا أَبُو نُعَيْمٍ  ، حَدَّثَنَا عُمَرُ بْنُ زُرْعَةَ الْخَارِفِيُّ  ، عَنْ مُحَمَّدِ بْنِ سَالِمٍ  ، عَنْ الشَّعْبِيِّ  ، عَنْ عَلِيٍّ   رَضِيَ اللهُ عَنْهُ، قَالَ :\" الْمُسْتَحَاضَةُ يُجَامِعُهَا زَوْجُهَا \"",
      "english": {
        "narrator": "",
        "text": ""
      }
    },
    {
      "id": 167,
      "chapterId": 1,
      "bookId": 9,
      "arabic": "أَخْبَرَنَا أَبُو النُّعْمَانِ ، حَدَّثَنَا أَبُو عَوَانَةَ ، عَنْ قَتَادَةَ ، عَنْ سَعِيدِ بْنِ الْمُسَيِّبِ ، وَالْحَسَنِ ، وَعَطَاءٍ ، قَالُوا فِي الْمُسْتَحَاضَةِ :\" تَغْتَسِلُ وَتُصَلِّي، وَتَصُومُ رَمَضَانَ، وَيَغْشَاهَا زَوْجُهَا \"",
      "english": {
        "narrator": "",
        "text": ""
      }
    },
    {
      "id": 168,
      "chapterId": 1,
      "bookId": 9,
      "arabic": "أَخْبَرَنَا أَبُو النُّعْمَانِ ، حَدَّثَنَا حَمَّادُ بْنُ زَيْدٍ ، عَنْ حَفْصٍ ، عَنْ الْحَسَنِ ، قَالَ : كَانَ يَقُولُ : الْمُسْتَحَاضَةُ لَا يَغْشَاهَا زَوْجُهَا، قَالَ أَبُو النُّعْمَانِ : قَالَ لِي يَحْيَى بْنُ سَعِيدٍ الْقَطَّانُ :\" لَا أَعْلَمُ أَحَدًا قَالَ هَذَا عَنْ الْحَسَنِ \"",
      "english": {
        "narrator": "",
        "text": ""
      }
    },
    {
      "id": 169,
      "chapterId": 1,
      "bookId": 9,
      "arabic": "أَخْبَرَنَا عَفَّانُ ، حَدَّثَنَا وُهَيْبٌ ،  عَنْ خَالِدٍ ، قَالَ :\" كَانَ مُحَمَّدٌ  يَكْرَهُ أَنْ يَغْشَى الرَّجُلُ امْرَأَتَهُ وَهِيَ مُسْتَحَاضَةٌ \"",
      "english": {
        "narrator": "",
        "text": ""
      }
    },
    {
      "id": 170,
      "chapterId": 1,
      "bookId": 9,
      "arabic": "أَخْبَرَنَا مُحَمَّدُ بْنُ يُوسُفَ ، حَدَّثَنَا سُفْيَانُ ، عَنْ مَنْصُورٍ ، عَنْ إِبْرَاهِيمَ ، قَالَ :\" الْمُسْتَحَاضَةُ لَا يَأْتِيهَا زَوْجُهَا، وَلَا تَصُومُ ، وَلَا تَمَسُّ الْمُصْحَفَ \"",
      "english": {
        "narrator": "",
        "text": ""
      }
    },
    {
      "id": 171,
      "chapterId": 1,
      "bookId": 9,
      "arabic": "أَخْبَرَنَا الْحَكَمُ بْنُ الْمُبَارَكِ  ، حَدَّثَنَا حَجَّاجٌ الْأَعْوَرُ  ، عَنْ شُعْبَةَ  ، عَنْ عَبْدِ الْمَلِكِ بْنِ مَيْسَرَةَ  ، عَنْ الشَّعْبِيِّ  ، عَنْ قَمِيرَ  ، عَنْ عَائِشَةَ   رَضِيَ اللهُ عَنْهَا، قَالَتْ :\" الْمُسْتَحَاضَةُ لَا يَأْتِيهَا زَوْجُهَا \"",
      "english": {
        "narrator": "",
        "text": ""
      }
    },
    {
      "id": 172,
      "chapterId": 1,
      "bookId": 9,
      "arabic": "أَخْبَرَنَا يَزِيدُ بْنُ هَارُونَ ، عَنْ جَعْفَرِ بْنِ الْحَارِثِ ، عَنْ مَنْصُورٍ ، عَنْ إِبْرَاهِيمَ ، قَالَ : كَانَ يُقَالُ :\" الْمُسْتَحَاضَةُ لَا تُجَامَعُ، وَلَا تَصُومُ، وَلَا تَمَسُّ الْمُصْحَفَ، إِنَّمَا رُخِّصَ لَهَا فِي الصَّلَاةِ \"، قَالَ يَزِيدُ : \" يُجَامِعُهَا زَوْجُهَا، وَيَحِلُّ لَهَا مَا يَحِلُّ لِلطَّاهِرِ \"",
      "english": {
        "narrator": "",
        "text": ""
      }
    },
    {
      "id": 173,
      "chapterId": 1,
      "bookId": 9,
      "arabic": "أَخْبَرَنَا مُحَمَّدُ بْنُ عِيسَى ، حَدَّثَنَا هُشَيْمٌ ، حَدَّثَنَا يُونُسُ ، عَنْ الْحَسَنِ ، قَالَ :\" تُمْسِكُ الْمَرْأَةُ عَنْ الصَّلَاةِ فِي حَيْضِهَا سَبْعًا، فَإِنْ طَهُرَتْ، فَذَاكَ، وَإِلَّا أَمْسَكَتْ مَا بَيْنَهَا وَبَيْنَ الْعَشْرَةَ، فَإِنْ طَهُرَتْ، فَذَاكَ، وَإِلَّا اغْتَسَلَتْ وَصَلَّتْ، وَهِيَ مُسْتَحَاضَةٌ \"",
      "english": {
        "narrator": "",
        "text": ""
      }
    },
    {
      "id": 174,
      "chapterId": 1,
      "bookId": 9,
      "arabic": "أَخْبَرَنَا مُحَمَّدُ بْنُ يُوسُفَ ، حَدَّثَنَا سُفْيَانُ ، عَنْ الرَّبِيعِ ، عَنْ الْحَسَنِ ، قَالَ :\" الْحَيْضُ عَشْرَةٌ، فَمَا زَادَ فَهِيَ مُسْتَحَاضَةٌ \"، وقَالَ عَطَاءٌ : \" الْحَيْضُ خَمْسَ عَشْرَةَ \"",
      "english": {
        "narrator": "",
        "text": ""
      }
    },
    {
      "id": 175,
      "chapterId": 1,
      "bookId": 9,
      "arabic": "أَخْبَرَنَا مُحَمَّدُ بْنُ يُوسُفَ  ، عَنْ سُفْيَانَ  ، عَنْ الْجَلْدِ بْنِ أَيُّوبَ  ، عَنْ أَبِي إِيَاسٍ مُعَاوِيَةَ بْنِ قُرَّةَ  ، عَنْ أَنَسِ بْنِ مَالِكٍ  ، قَالَ :\" الْحَيْضُ عَشْرَةٌ فَمَا زَادَ فَهِيَ مُسْتَحَاضَةٌ \"",
      "english": {
        "narrator": "",
        "text": ""
      }
    },
    {
      "id": 176,
      "chapterId": 1,
      "bookId": 9,
      "arabic": "أَخْبَرَنَا أَبُو نُعَيْمٍ ، حَدَّثَنَا حَمَّادُ بْنُ سَلَمَةَ ، عَنْ عَلِيِّ بْنِ ثَابِتٍ ، عَنْ مُحَمَّدِ بْنِ زَيْدٍ ، عَنْ سَعِيدِ بْنِ جُبَيْرٍ ، قَالَ :\" الْحَيْضُ إِلَى ثَلَاثَ عَشْرَةَ، فَمَا زَادَ فَهِيَ مُسْتَحَاضَةٌ \"",
      "english": {
        "narrator": "",
        "text": ""
      }
    },
    {
      "id": 177,
      "chapterId": 1,
      "bookId": 9,
      "arabic": "أَخْبَرَنَا حَجَّاجُ بْنُ مِنْهَالٍ  ، حَدَّثَنَا حَمَّادُ بْنُ سَلَمَةَ  ، عَنْ الْجَلْدِ بْنِ أَيُّوبَ  ، عَنْ مُعَاوِيَةَ بْنِ قُرَّةَ  ، عَنْ أَنَسِ بْنِ مَالِكٍ  ، قَالَ :\" الْحَيْضُ عَشْرَةُ أَيَّامٍ، ثُمَّ هِيَ مُسْتَحَاضَةٌ \"",
      "english": {
        "narrator": "",
        "text": ""
      }
    },
    {
      "id": 178,
      "chapterId": 1,
      "bookId": 9,
      "arabic": "أَخْبَرَنَا حَجَّاجٌ ، حَدَّثَنَا حَمَّادُ بْنُ سَلَمَةَ ، عَنْ عَلِيِّ بْنِ ثَابِتٍ ، عَنْ مُحَمَّدِ بْنِ زَيْدٍ ، عَنْ سَعِيدِ بْنِ جُبَيْرٍ ، قَالَ :\" الْحَيْضُ إِلَى ثَلَاثَةَ عَشَرَ يَوْمًا، فَمَا سِوَى ذَلِكَ فَهِيَ مُسْتَحَاضَةٌ \"",
      "english": {
        "narrator": "",
        "text": ""
      }
    },
    {
      "id": 179,
      "chapterId": 1,
      "bookId": 9,
      "arabic": "أَخْبَرَنَا حَجَّاجٌ ، حَدَّثَنَا حَمَّادٌ ، عَنْ يُونُسَ ، عَنْ الْحَسَنِ ، قَالَ :\" إِذَا رَأَتْ الدَّمَ فَإِنَّهَا تُمْسِكُ عَنْ الصَّلَاةِ، تَعُدُّ أَيَّامِ حَيْضِهَا يَوْمًا أَوْ يَوْمَيْنِ، ثُمَّ هِيَ بَعْدَ ذَلِكَ مُسْتَحَاضَةٌ \"",
      "english": {
        "narrator": "",
        "text": ""
      }
    },
    {
      "id": 180,
      "chapterId": 1,
      "bookId": 9,
      "arabic": "أَخْبَرَنَا أَبُو النُّعْمَانِ  ، حَدَّثَنَا حَمَّادُ بْنُ زَيْدٍ  ، عَنْ جَلْدِ بْنِ أَيُّوبَ  ، عَنْ مُعَاوِيَةَ بْنِ قُرَّةَ  ، عَنْ أَنَسٍ  ، قَالَ :\" الْمُسْتَحَاضَةُ تَنْتَظِرُ ثَلَاثًا، أَرْبَعًا، خَمْسًا، سِتًّا، سَبْعًا، ثَمَانِيًا، تِسْعًا، عَشْرًا \"",
      "english": {
        "narrator": "",
        "text": ""
      }
    },
    {
      "id": 181,
      "chapterId": 1,
      "bookId": 9,
      "arabic": "أَخْبَرَنَا جَعْفَرُ بْنُ عَوْنٍ ، عَنْ ابْنِ جُرَيْجٍ ، عَنْ عَطَاءٍ ، قَالَ :\" بَلَغَنَا أَنَّ الْمُسْتَحَاضَةَ تَنْتَظِرُ عَلَى أَقْرَائِهَا بِيَوْمٍ \"",
      "english": {
        "narrator": "",
        "text": ""
      }
    },
    {
      "id": 182,
      "chapterId": 1,
      "bookId": 9,
      "arabic": "أَخْبَرَنَا جَعْفَرُ بْنُ عَوْنٍ  ، حَدَّثَنَا الرَّبِيعُ بْنُ صَبِيحٍ  ، عَنْ مَنْ  ، سَمِعَ أَنَسَ بْنَ مَالِكٍ   رَضِيَ اللهُ عَنْهُ، يَقُولُ :\" مَا زَادَ عَلَى الْعَشْرَة، فَهِيَ مُسْتَحَاضَةٌ \"",
      "english": {
        "narrator": "",
        "text": ""
      }
    },
    {
      "id": 183,
      "chapterId": 1,
      "bookId": 9,
      "arabic": "أَخْبَرَنَا الْحَكَمُ بْنُ الْمُبَارَكِ ، حَدَّثَنَا عَبْدُ اللَّهِ بْنُ إِدْرِيسَ ، عَنْ مُفَضَّلِ بْنِ مُهَلْهَلٍ ، عَنْ سُفْيَانَ ، عَنْ ابْنِ جُرَيْجٍ ، عَنْ عَطَاءٍ ، قَالَ :\" أَقْصَى الْحَيْضِ خَمْسَ عَشْرَةَ \"",
      "english": {
        "narrator": "",
        "text": ""
      }
    },
    {
      "id": 184,
      "chapterId": 1,
      "bookId": 9,
      "arabic": "أَخْبَرَنَا مُحَمَّدُ بْنُ يُوسُفَ  ، قَالَ : قَالَ سُفْيَانُ  : بَلَغَنِي عَنْ أَنَسٍ   رَضِيَ اللهُ عَنْهُ، أَنَّهُ قَالَ :\" أَدْنَى الْحَيْضِ ثَلَاثَةُ أَيَّامٍ \"، سُئِلَ عَبْدُ اللَّهِ الدَّارِمِيُّ : تَأْخُذُ بِهَذَا؟، قَالَ : \" نَعَمْ، إِذَا كَانَ عَادَتَهَا \"، وَسَأَلْتُهُ أَيْضًا عَنْ هَذَا؟، قَالَ : \" أَقَلُّ الْحَيْضِ يَوْمٌ وَلَيْلَةٌ، وَأَكْثَرُهُ خَمْسَ عَشْرَةَ \"",
      "english": {
        "narrator": "",
        "text": ""
      }
    },
    {
      "id": 185,
      "chapterId": 1,
      "bookId": 9,
      "arabic": "أَخْبَرَنَا الْحَكَمُ بْنُ الْمُبَارَكِ ، أَخْبَرَنَا مُحَمَّدُ بْنُ أَبِي زَكَرِيَّا ، قَالَ أَبُو مُحَمَّد : هُوَ أَبُو سَعْدٍ الصَّغَّانِيُّ ، عَنْ سُفْيَانَ ، عَنْ الرَّبِيعِ ،  عَنْ الْحَسَنِ ، قَالَ :\" أَدْنَى الْحَيْضِ ثَلَاثٌ \"",
      "english": {
        "narrator": "",
        "text": ""
      }
    },
    {
      "id": 186,
      "chapterId": 1,
      "bookId": 9,
      "arabic": "أَخْبَرَنَا الْحَكَمُ بْنُ الْمُبَارَكِ ، أَخْبَرَنَا مَخْلَدُ بْنُ يَزِيدَ ، عَنْ مَعْقِلِ بْنِ عُبَيْدِ اللَّهِ ، عَنْ عَطَاءٍ ، قَالَ :\" أَدْنَى الْحَيْضِ يَوْمٌ \"",
      "english": {
        "narrator": "",
        "text": ""
      }
    },
    {
      "id": 187,
      "chapterId": 1,
      "bookId": 9,
      "arabic": "أَخْبَرَنَا مُحَمَّدُ بْنُ عَبْدِ اللَّهِ الرَّقَاشِيُّ ، حَدَّثَنَا وُهَيْبٌ  ، حَدَّثَنَا يُونُسُ ، عَنْ الْحَسَنِ ، قَالَ :\" إِذَا رَأَتْ الدَّمَ قَبْلَ حَيْضِهَا يَوْمًا أَوْ يَوْمَيْنِ فَهُوَ مِنْ الْحَيْضِ \"",
      "english": {
        "narrator": "",
        "text": ""
      }
    },
    {
      "id": 188,
      "chapterId": 1,
      "bookId": 9,
      "arabic": "أَخْبَرَنَا حَجَّاجُ بْنُ مِنْهَالٍ ، حَدَّثَنَا حَمَّادٌ ، عَنْ قَتَادَةَ ، وَقَيْسِ بْنِ سَعْدٍ ، عَنْ عَطَاءٍ ، أَنَّهُمَا قَالَا فِي الْبِكْرِ إِذَا نَفِسَتْ فَاسْتُحِيضَتْ، قَالَا :\" تُمْسِكُ عَنْ الصَّلَاةِ مِثْلَ مَا تُمْسِكُ الْمَرْأَةُ مِنْ نِسَائِهَا \"",
      "english": {
        "narrator": "",
        "text": ""
      }
    },
    {
      "id": 189,
      "chapterId": 1,
      "bookId": 9,
      "arabic": "أَخْبَرَنَا مُحَمَّدُ بْنُ يُوسُفَ ، قَالَ : قَالَ سُفْيَانُ  :\" إِذَا كَانَتْ الْمَرْأَةُ أَوَّلَ مَا تَحِيضُ تَجْلِسُ فِي الْحَيْضِ مِنْ نَحْوِ نِسَائِهَا \"، سُئِلَ عَبْد اللَّهِ عَنْ هَذَا، فَقَالَ : \" هُوَ أَشْبَهُ الْأَشْيَاءِ \"",
      "english": {
        "narrator": "",
        "text": ""
      }
    },
    {
      "id": 190,
      "chapterId": 1,
      "bookId": 9,
      "arabic": "أَخْبَرَنَا مُحَمَّدُ بْنُ يُوسُفَ ، حَدَّثَنَا سُفْيَانُ ، عَنْ لَيْثٍ ، عَنْ عَطَاءٍ   فِي الْكَبِيرَةِ تَرَى الدَّمَ، قَالَ :\" لَا نَرَاهُ حَيْضًا \"",
      "english": {
        "narrator": "",
        "text": ""
      }
    },
    {
      "id": 191,
      "chapterId": 1,
      "bookId": 9,
      "arabic": "أَخْبَرَنَا مُحَمَّدُ بْنُ عِيسَى ، حَدَّثَنَا عَبْدُ اللَّهِ بْنُ الْمُبَارَكِ ، أَخْبَرَنِيهِ ابْنُ جُرَيْجٍ ، عَنْ عَطَاءٍ   فِي امْرَأَةٍ تَرَكَهَا الْحَيْضُ ثَلَاثِينَ سَنَةً، ثُمَّ رَأَتْ الدَّمَ\" فَأَمَرَ فِيهَا بِشَأْنِ الْمُسْتَحَاضَةِ \"",
      "english": {
        "narrator": "",
        "text": ""
      }
    },
    {
      "id": 192,
      "chapterId": 1,
      "bookId": 9,
      "arabic": "أَخْبَرَنَا مُحَمَّدُ بْنُ يُوسُفَ ، حَدَّثَنَا سُفْيَانُ ، عَنْ ابْنِ جُرَيْجٍ ، عَنْ عَطَاءٍ  فِي الْكَبِيرَةِ تَرَى الدَّمَ، قَالَ :\" هِيَ بِمَنْزِلَةِ الْمُسْتَحَاضَةِ، تَفْعَلُ كَمَا تَفْعَلُ الْمُسْتَحَاضَةُ \"",
      "english": {
        "narrator": "",
        "text": ""
      }
    },
    {
      "id": 193,
      "chapterId": 1,
      "bookId": 9,
      "arabic": "حَدَّثَنَا حَجَّاجٌ ، حَدَّثَنَا حَمَّادٌ ، عَنْ حَجَّاجٍ ، عَنْ عَطَاءٍ ، وَالْحَكَمِ بْنِ عُتَيْبَةَ ، في التي قعدت من المحيض،\" إذا رأت الدم توضأت وصلت ولا تغتسل \"، سئل عبد الله عَنْ الْكَبِيرَةِ، قَالَ : \" تَوَضَّأُ وَتُصَلِّي، وَإِذَا طُلِّقَتْ تَعْتَدُّ بِالْأَشْهُرِ \"",
      "english": {
        "narrator": "",
        "text": ""
      }
    },
    {
      "id": 194,
      "chapterId": 1,
      "bookId": 9,
      "arabic": "أَخْبَرَنَا مُحَمَّدُ بْنُ يُوسُفَ ، قَالَ : قَالَ سُفْيَانُ  :\" الطُّهْرُ خَمْسُ عَشْرَةَ \"",
      "english": {
        "narrator": "",
        "text": ""
      }
    },
    {
      "id": 195,
      "chapterId": 1,
      "bookId": 9,
      "arabic": "أَخْبَرَنَا الْمُعَلَّى بْنُ أَسَدٍ ، حَدَّثَنَا أَبُو عَوَانَةَ ، عَنْ الْمُغِيرَةِ ، عَنْ إِبْرَاهِيمَ ، قَالَ :\" إِذَا حَاضَتْ الْمَرْأَةُ فِي شَهْرٍ، أَوْ فِي أَرْبَعِينَ لَيْلَةً ثَلَاثَ حِيَضٍ، قَالَ : فَإِذَا شَهِدَ لَهَا الشُّهُودُ الْعُدُولُ مِنْ النِّسَاءِ أَنَّهَا رَأَتْ مَا يُحَرِّمُ عَلَيْهَا الصَّلَاةَ مِنْ طُمُوثِ النِّسَاءِ الَّذِي هُوَ الطَّمْثُ الْمَعْرُوفُ، فَقَدْ خَلَا أَجَلُهَا \"، قَالَ أَبُو مُحَمَّد : سَمِعْت يَزِيدَ بْنَ هَارُونَ، يَقُولُ : \" أَسْتَحِبُّ الطُّهْرَ خَمْسَ عَشْرَةَ \"",
      "english": {
        "narrator": "",
        "text": ""
      }
    },
    {
      "id": 196,
      "chapterId": 1,
      "bookId": 9,
      "arabic": "أَخْبَرَنَا يَعْلَى ، حَدَّثَنَا إِسْمَاعِيل ، عَنْ عَامِرٍ ، قَالَ : جَاءَتْ امْرَأَةٌ إِلَى عَلِيٍّ تُخَاصِمُ زَوْجَهَا طَلَّقَهَا، فَقَالَتْ : قَدْ حِضْتُ فِي شَهْرٍ ثَلَاثَ حِيَضٍ، فَقَالَ عَلِيٌّ لِشُرَيْحٍ  : اقْضِ بَيْنَهُمَا، قَالَ : يَا أَمِيرَ الْمُؤْمِنِينَ، وَأَنْتَ هَا هُنَا؟، قَالَ : اقْضِ بَيْنَهُمَا، فَقَالَ : يَا أَمِيرَ الْمُؤْمِنِينَ، وَأَنْتَ هَا هُنَا؟، قَالَ : اقْضِ بَيْنَهُمَا، فَقَالَ :\" إِنْ جَاءَتْ مِنْ بِطَانَةِ أَهْلِهَا مِمَّنْ يُرْضَى دِينُهُ وَأَمَانَتُهُ تَزْعُمُ أَنَّهَا حَاضَتْ ثَلَاثَ حِيَضٍ، تَطْهُرُ عِنْدَ كُلِّ قُرْءٍ وَتُصَلِّي، جَازَ لَهَا وَإِلَّا فَلَا \"، فَقَالَ عَلِيٌّ  : قَالُونُ، وَقَالُونُ بِلِسَانِ الرُّومِ : أَحْسَنْتَ",
      "english": {
        "narrator": "",
        "text": ""
      }
    },
    {
      "id": 197,
      "chapterId": 1,
      "bookId": 9,
      "arabic": "أَخْبَرَنَا عَمْرُو بْنُ عَوْنٍ ، عَنْ خَالِدِ بْنِ عَبْدِ اللَّهِ ، عَنْ خَالِدٍ الْحَذَّاءِ ، عَنْ عِكْرِمَةَ  : # وَلا يَحِلُّ لَهُنَّ أَنْ يَكْتُمْنَ مَا خَلَقَ اللَّهُ فِي أَرْحَامِهِنَّ سورة البقرة آية 228 #، قَالَ : الْحَيْضُ، قِيلَ لِأَبِي مُحَمَّدٍ : أَتَقُولُ بِهَذَا؟، قَالَ : لَا، وَسُئِلَ عَبْد اللَّهِ عَنْ حَدِيثِ شُرَيْحٍ : تَقُولُ بِهِ، قَالَ :\" لَا، وَقَالَ : ثَلَاثُ حِيَضٍ فِي الشَّهْرِ كَيْفَ يَكُونُ؟ \"",
      "english": {
        "narrator": "",
        "text": ""
      }
    },
    {
      "id": 198,
      "chapterId": 1,
      "bookId": 9,
      "arabic": "أَخْبَرَنَا مُحَمَّدُ بْنُ عِيسَى  ، حَدَّثَنَا ابْنُ عُلَيَّةَ  ، عَنْ عَبْدِ الرَّحْمَنِ بْنِ إِسْحَاق  ، عَنْ عَبْدِ اللَّهِ بْنِ أَبِي بَكْرٍ  ، عَنْ عَمْرَةَ  ، قَالَتْ : \" كَانَتْ عَائِشَةُ   رَضِيَ اللهُ عَنْهَاتَنْهَى النِّسَاءَ أَنْ يَنْظُرْنَ لَيْلًا فِي الْمَحِيضِ، وَتَقُولُ : إِنَّهُ قَدْ يَكُونُ الصُّفْرَةَ وَالْكُدْرَةَ \"",
      "english": {
        "narrator": "",
        "text": ""
      }
    },
    {
      "id": 199,
      "chapterId": 1,
      "bookId": 9,
      "arabic": "أَخْبَرَنَا مُحَمَّدُ بْنُ عِيسَى ، حَدَّثَنَا حَمَّادُ بْنُ زَيْدٍ ، عَنْ يَحْيَى بْنِ سَعِيدٍ ، عَنْ مَوْلَاةِ  عَمْرَةَ ، قَالَتْ :\" كَانَتْ عَمْرَةُ  تَأْمُرُ النِّسَاءَ أَنْ لَا يَغْتَسِلْنَ حَتَّى تَخْرُجَ الْقُطْنَةُ بَيْضَاءَ \"",
      "english": {
        "narrator": "",
        "text": ""
      }
    },
    {
      "id": 200,
      "chapterId": 1,
      "bookId": 9,
      "arabic": "أَخْبَرَنَا مُحَمَّدُ بْنُ يُوسُفَ ، قَالَ : قَالَ سُفْيَانُ  :\" الْكُدْرَةُ وَالصُّفْرَةُ فِي أَيَّامِ الْحَيْضِ حَيْضٌ، وَكُلُّ شَيْءٍ رَأَتْهُ بَعْدَ أَيَّامِ الْحَيْضِ مِنْ دَمٍ أَوْ كُدْرَةٍ أَوْ صُفْرَةٍ، فَهِيَ مُسْتَحَاضَةٌ \"، سُئِلَ عَبْدُ الله : تَأْخُذُ بِقَوْلِ سُفْيَانَ؟، قَالَ : نَعَمْ",
      "english": {
        "narrator": "",
        "text": ""
      }
    }
  ]
}