{
  "page": 40,
  "perPage": 50,
  "totalPages": 69,
  "totalCount": 3406,
  "nextPage": 41,
  "prevPage": 39,
  "items": [
    {
      "id": 53,
      "chapterId": 19,
      "bookId": 9,
      "arabic": "أَخْبَرَنَا أَبُو الْوَلِيدِ  ، حَدَّثَنَا شُعْبَةُ  ، قَالَ : حَدَّثَنَا أَبُو إِسْحَاق  ، قَالَ : سَمِعْتُ الْبَرَاءَ بْنَ عَازِبٍ  ، يَقُولُ : إِنَّ رَسُولَ اللَّهِ صَلَّى اللَّهُ عَلَيْهِ وَسَلَّمَ أَمَرَ رَجُلًا إِذَا أَخَذَ مَضْجَعَهُ أَنْ يَقُولَ :\" اللَّهُمَّ أَسْلَمْتُ نَفْسِي إِلَيْكَ، وَوَجَّهْتُ وَجْهِي إِلَيْكَ، وَفَوَّضْتُ أَمْرِي إِلَيْكَ، وَأَلْجَأْتُ ظَهْرِي إِلَيْكَ، رَغْبَةً وَرَهْبَةً إِلَيْكَ، لَا مَلْجَأَ وَلَا مَنْجَى مِنْكَ إِلَّا إِلَيْكَ، آمَنْتُ بِكِتَابِكَ الَّذِي أَنْزَلْتَ، وَنَبِيِّكَ الَّذِي أَرْسَلْتَ، فَإِنْ مَاتَ، مَاتَ عَلَى الْفِطْرَةِ \"",
      "english": {
        "narrator": "",
        "text": ""
      }
    },
    {
      "id": 54,
      "chapterId": 19,
      "bookId": 9,
      "arabic": "أَخْبَرَنَا أَبُو النُّعْمَانِ  ، حَدَّثَنَا حَمَّادُ بْنُ زَيْدٍ  ، عَنْ عُبَيْدِ اللَّهِ بْنِ عُمَرَ  ، عَنْ سَعِيدِ بْنِ أَبِي سَعِيدٍ الْمَقْبُرِيِّ  ، عَنْ أَبِي هُرَيْرَةَ  ، قَالَ : قَالَ رَسُولُ اللَّهِ صَلَّى اللَّهُ عَلَيْهِ وَسَلَّمَ :\" إِذَا أَوَى أَحَدُكُمْ إِلَى فِرَاشِهِ، فَلْيَنْفُضْ فِرَاشَهُ بِدَاخِلَةِ إِزَارِهِ، فَإِنَّهُ لَا يَدْرِي مَا خَلَفَهُ فِيهِ، وَلْيَقُلْ : اللَّهُمَّ بِكَ وَضَعْتُ جَنْبِي، وَبِكَ أَرْفَعُهُ، اللَّهُمَّ إِنْ أَمْسَكْتَ نَفْسِي، فَاغْفِرْ لَهَا، وَإِنْ أَرْسَلْتَهَا، فَاحْفَظْهَا بِمَا تَحْفَظُ بِهِ عِبَادَكَ الصَّالِحِينَ \"",
      "english": {
        "narrator": "",
        "text": ""
      }
    },
    {
      "id": 55,
      "chapterId": 19,
      "bookId": 9,
      "arabic": "أَخْبَرَنَا يَزِيدُ بْنُ هَارُونَ  ، أَخْبَرَنَا الْعَوَّامُ بْنُ حَوْشَبٍ  ، قَالَ : حَدَّثَنِي عَمْرُو بْنُ مُرَّةَ  ، عَنْ عَبْدِ الرَّحْمَنِ بْنِ أَبِي لَيْلَى  ، عَنْ عَلِيٍّ  ، قَالَ : أَتَانَا رَسُولُ اللَّهِ صَلَّى اللَّهُ عَلَيْهِ وَسَلَّمَ حَتَّى وَضَعَ قَدَمَهُ بَيْنِي وَبَيْنَ فَاطِمَةَ ، فَعَلَّمَنَا مَا نَقُولُ إِذَا أَخَذْنَا مَضَاجِعَنَا :\" ثَلَاثًا وَثَلَاثِينَ تَسْبِيحَةً، وَثَلَاثًا وَثَلَاثِينَ تَحْمِيدَةً، وَأَرْبَعًا وَثَلَاثِينَ تَكْبِيرَةً \".\nقَالَ عَلِيٌّ : فَمَا تَرَكْتُهَا بَعْدُ.\nفَقَالَ لَهُ رَجُلٌ : وَلَا لَيْلَةَ صِفِّينَ؟.\nقَالَ : وَلَا لَيْلَةَ صِفِّينَ",
      "english": {
        "narrator": "",
        "text": ""
      }
    },
    {
      "id": 56,
      "chapterId": 19,
      "bookId": 9,
      "arabic": "أَخْبَرَنَا مُحَمَّدُ بْنُ يُوسُفَ  ، عَنْ سُفْيَانَ  ، عَنْ عَبْدِ الْمَلِكِ بْنِ عُمَيْرٍ  ، عَنْ رِبْعِيِّ بْنِ حِرَاشٍ  ، عَنْ حُذَيْفَةَ  ، قَالَ : كَانَ النَّبِيُّ صَلَّى اللَّهُ عَلَيْهِ وَسَلَّمَ إِذَا اسْتَيْقَظَ.\nقَالَ :\" الْحَمْدُ لِلَّهِ الَّذِي أَحْيَانَا بَعْدَ مَا أَمَاتَنَا، وَإِلَيْهِ النُّشُورُ \"",
      "english": {
        "narrator": "",
        "text": ""
      }
    },
    {
      "id": 57,
      "chapterId": 19,
      "bookId": 9,
      "arabic": "أَخْبَرَنَا مُحَمَّدُ بْنُ يَزِيدَ الْحِزَامِيُّ  ، حَدَّثَنَا الْوَلِيدُ بْنُ مُسْلِمٍ  ، حَدَّثَنَا الْأَوْزَاعِيُّ  ، قَالَ : حَدَّثَنِي عُمَيْرُ بْنُ هَانِئٍ الْعَنْسِيُّ  ، قَالَ : حَدَّثَنِي جُنَادَةُ بْنُ أَبِي أُمَيَّةَ  ، قَالَ : حَدَّثَنِي عُبَادَةُ بْنُ الصَّامِتِ  ، عَنِ النَّبِيِّ صَلَّى اللَّهُ عَلَيْهِ وَسَلَّمَ، قَالَ :\" مَنْ تَعَارَّ مِنَ اللَّيْلِ، فَقَالَ : لَا إِلَهَ إِلَّا اللَّهُ وَحْدَهُ لَا شَرِيكَ لَهُ، لَهُ الْمُلْكُ وَلَهُ الْحَمْدُ، وَهُوَ عَلَى كُلِّ شَيْءٍ قَدِيرٌ، سُبْحَانَ اللَّهِ، وَالْحَمْدُ لِلَّهِ، وَاللَّهُ أَكْبَرُ، وَلَا حَوْلَ وَلَا قُوَّةَ إِلَّا بِاللَّهِ \".\nثُمَّ قَالَ : \" رَبِّ اغْفِرْ لِي أَوْ قَالَ : ثُمَّ دَعَا اسْتُجِيبَ لَهُ فَإِنْ عَزَمَ فَتَوَضَّأَ ثُمَّ صَلَّى قُبِلَتْ صَلَاتُهُ \"",
      "english": {
        "narrator": "",
        "text": ""
      }
    },
    {
      "id": 58,
      "chapterId": 19,
      "bookId": 9,
      "arabic": "أَخْبَرَنَا مُحَمَّدُ بْنُ يُوسُفَ  ، عَنْ سُفْيَانَ  ، عَنْ سَلَمَةَ بْنِ كُهَيْلٍ  ، عَنْ عَبْدِ اللَّهِ بْنِ عَبْدِ الرَّحْمَنِ بْنِ أَبْزَى  ، عَنْ أَبِيهِ  ، قَالَ : كَانَ النَّبِيُّ صَلَّى اللَّهُ عَلَيْهِ وَسَلَّمَ إِذَا أَصْبَحَ.\nقَالَ :\" أَصْبَحْنَا عَلَى فِطْرَةِ الْإِسْلَامِ، وَكَلِمَةِ الْإِخْلَاصِ، وَدِينِ نَبِيِّنَا مُحَمَّدٍ، وَمِلَّةِ أَبِينَا إِبْرَاهِيمَ حَنِيفًا مُسْلِمًا \"",
      "english": {
        "narrator": "",
        "text": ""
      }
    },
    {
      "id": 59,
      "chapterId": 19,
      "bookId": 9,
      "arabic": "أَخْبَرَنَا سَعِيدُ بْنُ عَامِرٍ  ، عَنْ شُعْبَةَ  ، عَنْ يَعْلَى بْنِ عَطَاءٍ  ، عَنْ عَمْرِو بْنِ عَاصِمٍ  ، عَنْ أَبِي هُرَيْرَةَ  ، قَالَ : قَالَ أَبُو بَكْرٍ : يَا رَسُولَ اللَّهِ، مُرْنِي بِشَيْءٍ أَقُولُهُ إِذَا أَصْبَحْتُ وَإِذَا أَمْسَيْتُ.\nقَالَ :\" قُلْ : اللَّهُمَّ فَاطِرَ السَّمَوَاتِ وَالْأَرْضِ، عَالِمَ الْغَيْبِ وَالشَّهَادَةِ، رَبَّ كُلِّ شَيْءٍ وَمَلِيكَهُ، أَشْهَدُ أَنْ لَا إِلَهَ إِلَّا أَنْتَ، أَعُوذُ بِكَ مِنْ شَرِّ نَفْسِي، وَمِنْ شَرِّ الشَّيْطَانِ وَشِرْكِهِ \".\n قَالَ : \" قُلْهُ إِذَا أَصْبَحْتَ وَإِذَا أَمْسَيْتَ، وَإِذَا أَخَذْتَ مَضْجَعَكَ \"",
      "english": {
        "narrator": "",
        "text": ""
      }
    },
    {
      "id": 60,
      "chapterId": 19,
      "bookId": 9,
      "arabic": "أَخْبَرَنَا عَبْدُ اللَّهِ بْنُ يَزِيدَ الْمُقْرِئُ  ، حَدَّثَنَا سَعِيدٌ هُوَ : ابْنُ أَبِي أَيُّوبَ  ، عَنْ أَبِي مَرْحُومٍ  ، عَنْ سَهْلِ بْنِ مُعَاذِ بْنِ أَنَسٍ  ، عَنْ أَبِيهِ  ، قَالَ : قَالَ رَسُولُ اللَّهِ صَلَّى اللَّهُ عَلَيْهِ وَسَلَّمَ :\" مَنْ لَبِسَ ثَوْبًا، فَقَالَ : الْحَمْدُ لِلَّهِ الَّذِي كَسَانِي هَذَا وَرَزَقَنِيهِ مِنْ غَيْرِ حَوْلٍ مِنِّي وَلَا قُوَّةٍ، غُفِرَ لَهُ مَا تَقَدَّمَ مِنْ ذَنْبِهِ \"",
      "english": {
        "narrator": "",
        "text": ""
      }
    },
    {
      "id": 61,
      "chapterId": 19,
      "bookId": 9,
      "arabic": "أَخْبَرَنَا عَبْدُ اللَّهِ بْنُ مَسْلَمَةَ  ، حَدَّثَنَا سُلَيْمَانُ يَعْنِي : ابْنَ بِلَالٍ  ، عَنْ رَبِيعَةَ  ، عَنْ عَبْدِ الْمَلِكِ بْنِ سَعِيدٍ  ، عَنْ أَبِي حُمَيْدٍ  أَوْ أَبِي أُسَيْدٍ   قَالَ : قَالَ رَسُولُ اللَّهِ صَلَّى اللَّهُ عَلَيْهِ وَسَلَّمَ :\" إِذَا دَخَلَ أَحَدُكُمْ الْمَسْجِدَ، فَلْيَقُلْ : اللَّهُمَّ افْتَحْ لِي أَبْوَابَ رَحْمَتِكَ، وَإِذَا خَرَجَ، فَلْيَقُلْ : اللَّهُمَّ إِنِّي أَسْأَلُكَ مِنْ فَضْلِكَ \"",
      "english": {
        "narrator": "",
        "text": ""
      }
    },
    {
      "id": 62,
      "chapterId": 19,
      "bookId": 9,
      "arabic": "أَخْبَرَنَا يَزِيدُ بْنُ هَارُونَ  ، أَخْبَرَنَا أَزْهَرُ بْنُ سِنَانٍ  ، عَنْ مُحَمَّدِ بْنِ وَاسِعٍ  ، قَالَ : قَدِمْتُ مَكَّةَ فَلَقِيتُ بِهَا أَخِي سَالِمَ بْنَ عَبْدِ اللَّهِ  فَحَدَّثَنِي، عَنْ أَبِيهِ  ، عَنْ جَدِّهِ   : أَنّ النَّبِيَّ صَلَّى اللَّهُ عَلَيْهِ وَسَلَّمَ، قَالَ :\" مَنْ دَخَلَ السُّوقَ، فَقَالَ : لَا إِلَهَ إِلَّا اللَّهُ وَحْدَهُ لَا شَرِيكَ لَهُ لَهُ الْمُلْكُ وَلَهُ الْحَمْدُ، يُحْيِي وَيُمِيتُ، وَهُوَ حَيٌّ لَا يَمُوتُ، بِيَدِهِ الْخَيْرُ، وَهُوَ عَلَى كُلِّ شَيْءٍ قَدِيرٌ، كَتَبَ اللَّهُ لَهُ أَلْفَ أَلْفِ حَسَنَةٍ، وَمَحَا عَنْهُ أَلْفَ أَلْفِ سَيِّئَةٍ، وَرَفَعَ لَهُ أَلْفَ أَلْفِ دَرَجَةٍ \".\nقَالَ : فَقَدِمْتُ خُرَاسَانَ فَلَقِيتُ قُتَيْبَةَ بْنَ مُسْلِمٍ، فَقُلْتُ : إِنِّي أَتَيْتُكَ بِهَدِيَّةٍ، فَحَدَّثْتُهُ، فَكَانَ يَرْكَبُ فِي مَوْكِبِهِ فَيَأْتِي السُّوقَ، فَيَقُومُ، فَيَقُولُهَا ثُمَّ يَرْجِعُ",
      "english": {
        "narrator": "",
        "text": ""
      }
    },
    {
      "id": 63,
      "chapterId": 19,
      "bookId": 9,
      "arabic": "أَخْبَرَنَا سَعِيدُ بْنُ عَامِرٍ  ، عَنْ هِشَامٍ  ، عَنْ مُحَمَّدِ بْنِ سِيرِينَ  ، عَنْ أَبِي هُرَيْرَةَ  ، قَالَ : قَالَ رَسُولُ اللَّهِ صَلَّى اللَّهُ عَلَيْهِ وَسَلَّمَ :\" تَسَمُّوا بِاسْمِي وَلَا تَكَنَّوْا بِكُنْيَتِي \"",
      "english": {
        "narrator": "",
        "text": ""
      }
    },
    {
      "id": 64,
      "chapterId": 19,
      "bookId": 9,
      "arabic": "حَدَّثَنَا عَفَّانُ بْنُ مُسْلِمٍ  ، حَدَّثَنَا هُشَيْمٌ  ، أَخْبَرَنَا دَاوُدُ بْنُ عَمْرٍو  ، عَنْ عَبْدِ اللَّهِ بْنِ أَبِي زَكَرِيَّا الْخُزَاعِيِّ  ، عَنْ أَبِي الدَّرْدَاءِ  ، قَالَ : قَالَ رَسُولُ اللَّهِ صَلَّى اللَّهُ عَلَيْهِ وَسَلَّمَ :\" إِنَّكُمْ تُدْعَوْنَ يَوْمَ الْقِيَامَةِ بِأَسْمَائِكُمْ وَأَسْمَاءِ آبَائِكُمْ، فَأَحْسِنُوا أَسْمَاءَكُمْ \"",
      "english": {
        "narrator": "",
        "text": ""
      }
    },
    {
      "id": 65,
      "chapterId": 19,
      "bookId": 9,
      "arabic": "أَخْبَرَنَا مُحَمَّدُ بْنُ كَثِيرٍ  ، أَخْبَرَنَا عَبَيْدُ اللَّهِ بْنُ عُمَرَ  ، عَنْ نَافِعٍ  ، عَنِ ابْنِ عُمَرَ  ، قَالَ : قَالَ رَسُولُ اللَّهِ صَلَّى اللَّهُ عَلَيْهِ وَسَلَّمَ :\" أَحَبُّ الْأَسْمَاءِ إِلَى اللَّهِ : عَبْدُ اللَّهِ، وَعَبْدُ الرَّحْمَنِ \"",
      "english": {
        "narrator": "",
        "text": ""
      }
    },
    {
      "id": 66,
      "chapterId": 19,
      "bookId": 9,
      "arabic": "أَخْبَرَنَا زَكَرِيَّا بْنُ عَدِيٍّ  ، حَدَّثَنَا مُعْتَمِرٌ  ، عَنْ الرُّكَيْنِ  ، عَنْ أَبِيهِ  ،  عَنْ سَمُرَةَ   : أَنّ النَّبِيَّ صَلَّى اللَّهُ عَلَيْهِ وَسَلَّمَ \" نَهَى أَنْنُسَمِّيَ أَرِقَّاءَنَا أَرْبَعَةَ أَسْمَاءٍ : أَفْلَحُ، وَنَافِعٌ، وَرَبَاحٌ، وَيَسَارٌ \"",
      "english": {
        "narrator": "",
        "text": ""
      }
    },
    {
      "id": 67,
      "chapterId": 19,
      "bookId": 9,
      "arabic": "حَدَّثَنَا حَجَّاجُ بْنُ مِنْهَالٍ  ، حَدَّثَنَا حَمَّادٌ هُوَ : ابْنُ سَلَمَةَ  ، عَنْ عُبَيْدِ اللَّهِ  ، عَنْ نَافِعٍ  ، عَنْ ابْنِ عُمَرَ   : أَنَّ أُمَّ عَاصِمٍ كَانَ يُقَالُ لَهَا عَاصِيَةُ ،\" فَسَمَّاهَا النَّبِيُّ صَلَّى اللَّهُ عَلَيْهِ وَسَلَّمَ جَمِيلَةَ \"",
      "english": {
        "narrator": "",
        "text": ""
      }
    },
    {
      "id": 68,
      "chapterId": 19,
      "bookId": 9,
      "arabic": "حَدَّثَنَا مُسَدَّدٌ  ، حَدَّثَنَا يَحْيَى بْنُ سَعِيدٍ  ، حَدَّثَنَا شُعْبَةُ  ، حَدَّثَنَا عَطَاءُ بْنُ أَبِي مَيْمُونَةَ  ، عَنْ أَبِي رَافِعٍ  ،  عَنْ أَبِي هُرَيْرَةَ  ، قالَ : كَانَ اسْمُ زَيْنَبَ ، بَرَّةَ ،\" فَسَمَّاهَا النَّبِيُّ صَلَّى اللَّهُ عَلَيْهِ وَسَلَّمَ زَيْنَبَ \"",
      "english": {
        "narrator": "",
        "text": ""
      }
    },
    {
      "id": 69,
      "chapterId": 19,
      "bookId": 9,
      "arabic": "أَخْبَرَنَا يَزِيدُ بْنُ هَارُونَ  ، أَخْبَرَنَا شُعْبَةُ  ، عَنْ عَبْدِ الْمَلِكِ بْنِ عُمَيْرٍ  ، عَنْ رِبْعِيِّ بْنِ حِرَاشٍ  ، عَنِ الطُّفَيْلِ   أَخِي عَائِشَةَ ، قَالَ : قَالَ رَجُلٌ مِنَ الْمُشْرِكِينَ لِرَجُلٍ مِنَ الْمُسْلِمِينَ : نِعْمَ الْقَوْمُ أَنْتُمْ لَوْلَا أَنَّكُمْ تَقُولُونَ : مَا شَاءَ اللَّهُ، وَشَاءَ مُحَمَّدٌ .\nفَسَمِعَ النَّبِيُّ صَلَّى اللَّهُ عَلَيْهِ وَسَلَّمَ، فَقَالَ :\" لَا تَقُولُوا : مَا شَاءَ اللَّهُ وَشَاءَ مُحَمَّدٌ ، وَلَكِنْ، قُولُوا : مَا شَاءَ اللَّهُ، ثُمَّ شَاءَ مُحَمَّدٌ \"",
      "english": {
        "narrator": "",
        "text": ""
      }
    },
    {
      "id": 70,
      "chapterId": 19,
      "bookId": 9,
      "arabic": "أَخْبَرَنَا يَزِيدُ بْنُ هَارُونَ  ، أَخْبَرَنَا مُحَمَّدٌ هُوَ : ابْنُ إِسْحَاق  ، عَنْ صَالِحِ بْنِ إِبْرَاهِيمَ  ، عَنْ عَبْدِ الرَّحْمَنِ الْأَعْرَجِ  ، عَنْ أَبِي هُرَيْرَةَ  ، قَالَ : قَالَ رَسُولُ اللَّهِ صَلَّى اللَّهُ عَلَيْهِ وَسَلَّمَ :\" لَا تَقُولُوا لِحَائِطِ الْعِنَبِ الْكَرْمُ، إِنَّمَا الْكَرْمُ الرَّجُلُ الْمُسْلِمُ \"",
      "english": {
        "narrator": "",
        "text": ""
      }
    },
    {
      "id": 71,
      "chapterId": 19,
      "bookId": 9,
      "arabic": "حَدَّثَنَا أَبُو عَاصِمٍ  ، عَنْ عَبْدِ اللَّهِ بْنِ عُبَيْدٍ L5403 ، عَنِ أَنَسٍ  ، قَالَ : كَانَ غُلَامٌ يَسُوقُ بِأَزْوَاجِ النَّبِيِّ صَلَّى اللَّهُ عَلَيْهِ وَسَلَّمَ، فَقَالَ :\" يَا أَنْجَشَةُ، رُوَيْدًا سَوْقَكَ بِالْقَوَارِيرِ \"",
      "english": {
        "narrator": "",
        "text": ""
      }
    },
    {
      "id": 72,
      "chapterId": 19,
      "bookId": 9,
      "arabic": "أَخْبَرَنَا يَزِيدُ بْنُ هَارُونَ  ، أَخْبَرَنَا بَهْزُ بْنُ حَكِيمٍ  ، عَنْ أَبِيهِ  ، عَنْ جَدِّهِ  ، قَالَ : سَمِعْتُ رَسُولَ اللَّهِ صَلَّى اللَّهُ عَلَيْهِ وَسَلَّمَ، يَقُولُ :\" وَيْلٌ لِلَّذِي يُحَدِّثُ فَيَكْذِبُ لِيُضْحِكَ بِهِ الْقَوْمَ، وَيْلٌ لَهُ ! وَيْلٌ لَهُ ! \"",
      "english": {
        "narrator": "",
        "text": ""
      }
    },
    {
      "id": 73,
      "chapterId": 19,
      "bookId": 9,
      "arabic": "أَخْبَرَنَا مُحَمَّدُ بْنُ عِيسَى  ، حَدَّثَنَا عَبْدَةُ بْنُ سُلَيْمَانَ  ، عَنْ مُحَمَّدِ بْنِ إِسْحَاق  ، عَنْ يَعْقُوبَ بْنِ عُتْبَةَ  ، عَنْ عِكْرِمَةَ  ، عَنِ ابْنِ عَبَّاسٍ  ، قَالَ :صَدَّقَ النَّبِيُّ صَلَّى اللَّهُ عَلَيْهِ وَسَلَّمَ أُمَيَّةَ بْنَ أَبِي الصَّلْتِ فِي بَيْتَيْنِ مِنْ الشِّعْرِ، فَقَالَ : رَجُلٌ وَثَوْرٌ تَحْتَ رِجْلِ يَمِينِهِ وَالنَّسْرُ لِلْأُخْرَى وَلَيْثٌ مُرْصَدُ فَقَالَ النَّبِيُّ صَلَّى اللَّهُ عَلَيْهِ وَسَلَّمَ : \" صَدَقَ \".\nقَالَ : وَالشَّمْسُ تَطْلُعُ كُلَّ آخِرِ لَيْلَةٍ حَمْرَاءَ يُصْبِحُ لَوْنُهَا يَتَوَرَّدُ فَقَالَ النَّبِيُّ صَلَّى اللَّهُ عَلَيْهِ وَسَلَّمَ : \" صَدَقَ \".\nفَقَالَ قَائِلٌ : تَأْبَى فَمَا تَطْلُعُ لَنَا فِي رِسْلِهَا إِلَّا مُعَذَّبَةً وَإِلَّا تُجْلَدُ فَقَالَ النَّبِيُّ صَلَّى اللَّهُ عَلَيْهِ وَسَلَّمَ : \" صَدَقَ \"",
      "english": {
        "narrator": "",
        "text": ""
      }
    },
    {
      "id": 74,
      "chapterId": 19,
      "bookId": 9,
      "arabic": "أَخْبَرَنَا أَبُو عَاصِمٍ  ، عَنْ ابْنِ جُرَيْجٍ  ، عَنْ زِيَادٍ هُوَ : ابْنُ سَعْدٍ  ، قَالَ : أَخْبَرَنِي أَنَّ ابْنَ شِهَابٍ  ، أَخْبَرَهُ عَنْ أَبِي بَكْرِ بْنِ عَبْدِ الرَّحْمَنِ بْنِ هِشَامٍ  ، عَنْ مَرْوَانَ بْنِ الْحَكَمِ  ، عَنْ عَبْدِ الرَّحْمَنِ بْنِ الْأَسْوَدِ بْنِ عَبْدِ يَغُوثَ  ، عَنْ أُبَيِّ بْنِ كَعْبٍ  ، عَنِ النَّبِيِّ صَلَّى اللَّهُ عَلَيْهِ وَسَلَّمَ، قَالَ :\" إِنَّ مِنَ الشِّعْرِ حِكْمَةً \"",
      "english": {
        "narrator": "",
        "text": ""
      }
    },
    {
      "id": 75,
      "chapterId": 19,
      "bookId": 9,
      "arabic": "أَخْبَرَنَا عُبَيْدُ اللَّهِ بْنُ مُوسَى  ، حَدَّثَنَا حَنْظَلَةُ  ، عَنْ سَالِمٍ  عَنِ ابْنِ عُمَرَ  ، قَالَ : قَالَ رَسُولُ اللَّهِ صَلَّى اللَّهُ عَلَيْهِ وَسَلَّمَ :أَنْ يَمْتَلِئَ جَوْفُ أَحَدِكُمْ قَيْحًا أَوْ دَمًا خَيْرٌ مِنْ أَنْ يَمْتَلِئَ شِعْرًا \"",
      "english": {
        "narrator": "",
        "text": ""
      }
    },
    {
      "id": 1,
      "chapterId": 20,
      "bookId": 9,
      "arabic": "أَخْبَرَنَا سَعِيدُ بْنُ سُلَيْمَانَ  ، عَنْ إِسْمَاعِيل بْنِ جَعْفَرٍ  ، عَنْ عَبْدِ اللَّهِ بْنِ سَعِيدِ بْنِ أَبِي هِنْدٍ  ، عَنْ أَبِيهِ  ، عَنِ ابْنِ عَبَّاسٍ  ، قَالَ : قَالَ رَسُولُ اللَّهِ صَلَّى اللَّهُ عَلَيْهِ وَسَلَّمَ :\" مَنْ يُرِدِ اللَّهُ بِهِ خَيْرًا، يُفَقِّهْهُ فِي الدِّينِ \"",
      "english": {
        "narrator": "",
        "text": ""
      }
    },
    {
      "id": 2,
      "chapterId": 20,
      "bookId": 9,
      "arabic": "أَخْبَرَنَا الْمَكِّيُّ بْنُ إِبْرَاهِيمَ  ، حَدَّثَنَا عَبْدُ اللَّهِ هُوَ : ابْنُ سَعِيدٍ  ، أَنَّهُ سَمِعَ أَبَاهُ  يُحَدِّثُ،  عَنِ ابْنِ عَبَّاسٍ  ، قَالَ : قَالَ رَسُولُ اللَّهِ صَلَّى اللَّهُ عَلَيْهِ وَسَلَّمَ :\" إِنَّ الصِّحَّةَ وَالْفَرَاغَ نِعْمَتَانِ مِنْ نِعَمِ اللَّهِ، مَغْبُونٌ فِيهِمَا كَثِيرٌ مِنَ النَّاسِ \"",
      "english": {
        "narrator": "",
        "text": ""
      }
    },
    {
      "id": 3,
      "chapterId": 20,
      "bookId": 9,
      "arabic": "أَخْبَرَنَا عَمْرُو بْنُ عَوْنٍ  ، أَخْبَرَنَا خَالِدٌ يَعْنِي : ابْنَ عَبْدِ اللَّهِ  ، عَنْ خَالِدٍ الْحَذَّاءِ  ، عَنْ عِكْرِمَةَ  ، عَنِ ابْنِ عَبَّاسٍ  ، عَنِ النَّبِيِّ صَلَّى اللَّهُ عَلَيْهِ وَسَلَّمَ، قَالَ :\" مَنِ اسْتَمَعَ إِلَى حَدِيثِ قَوْمٍ وَهُمْ لَهُ كَارِهُونَ، صُبَّ فِي أُذُنِهِ الْآنُكُ \"",
      "english": {
        "narrator": "",
        "text": ""
      }
    },
    {
      "id": 4,
      "chapterId": 20,
      "bookId": 9,
      "arabic": "أَخْبَرَنَا أَبُو الْوَلِيدِ الطَّيَالِسِيُّ  ، حَدَّثَنَا حَمَّادُ بْنُ سَلَمَةَ  ، عَنْ مُحَمَّدِ بْنِ إِسْحَاق  ، عَنْ مُحَمَّدِ بْنِ إِبْرَاهِيمَ  ، عَنْ سَلَمَةَ بْنِ أَبِي الطُّفَيْلِ  ، عَنْ عَلِيٍّ  ، قَالَ : قَالَ رَسُولُ اللَّهِ صَلَّى اللَّهُ عَلَيْهِ وَسَلَّمَ :\" لَا تُتْبِعِ النَّظْرَةَ النَّظْرَةَ، فَإِنَّ الْأُولَى لَكَ، وَالْآخِرَةَ عَلَيْكَ \"",
      "english": {
        "narrator": "",
        "text": ""
      }
    },
    {
      "id": 5,
      "chapterId": 20,
      "bookId": 9,
      "arabic": "أَخْبَرَنَا سَعِيدُ بْنُ الرَّبِيعِ  ، حَدَّثَنَا شُعْبَةُ  ، عَنْ يَعْلَى بْنِ عَطَاءٍ  ، قَالَ : سَمِعْتُ عَبْدَ اللَّهِ بْنَ سُفْيَانَ  ، عَنْ أَبِيهِ  ، قَالَ : قُلْتُ : يَا رَسُولَ اللَّهِ أَخْبِرْنِي بِعَمَلٍ فِي الْإِسْلَامِ لَا أَسْأَلُ عَنْهُ أَحَدًا.\nقَالَ :\" اتَّقِ اللَّهَ، ثُمَّ اسْتَقِمْ \".\nقَالَ : قُلْتُ : ثُمَّ أَيُّ شَيْءٍ؟.\nقَالَ : فَأَشَارَ إِلَى لِسَانِهِ",
      "english": {
        "narrator": "",
        "text": ""
      }
    },
    {
      "id": 6,
      "chapterId": 20,
      "bookId": 9,
      "arabic": "أَخْبَرَنَا أَبُو نُعَيْمٍ  ، حَدَّثَنَا إِبْرَاهِيمُ يَعْنِي : ابْنَ إِسْمَاعِيل بْنِ مُجَمِّعٍ  ، قَالَ : أَخْبَرَنِي ابْنُ شِهَابٍ  ، عَنْ عَبْدِ الرَّحْمَنِ بْنِ مُعَاذٍ  ، عَنْ سُفْيَانَ بْنِ عَبْدِ اللَّهِ  ، قَالَ : قُلْتُ : يَا رَسُولَ اللَّهِ مُرْنِي بِأَمْرٍ أَعْتَصِمُ بِهِ.\nقَالَ :\" قُلْ رَبِّيَ اللَّهُ ثُمَّ اسْتَقِمْ \".\nقَالَ : قُلْتُ : يَا نَبِيَّ اللَّهِ مَا أَكْثَرُ مَا تَخَوَّفُ عَلَيَّ؟.\nقَالَ : فَأَخَذَ نَبِيُّ اللَّهِ صَلَّى اللَّهُ عَلَيْهِ وَسَلَّمَ بِلِسَانِهِ ثُمَّ قَالَ : \" هَذَا \"",
      "english": {
        "narrator": "",
        "text": ""
      }
    },
    {
      "id": 7,
      "chapterId": 20,
      "bookId": 9,
      "arabic": "أَخْبَرَنَا مُحَمَّدُ بْنُ يُوسُفَ  ، حَدَّثَنَا مَالِكُ بْنُ مِغْوَلٍ  ، عَنْ الْأَعْمَشِ  ، عَنْ أَبِي سُفْيَانَ  ، عَنْ جَابِرٍ  ، قَالَ : قِيلَ : يَا رَسُولَ اللَّهِ، أَيُّ الْإِسْلَامِ أَفْضَلُ؟.\nقَالَ :\" مَنْ سَلِمَ الْمُسْلِمُونَ مِنْ لِسَانِهِ وَيَدِهِ \"",
      "english": {
        "narrator": "",
        "text": ""
      }
    },
    {
      "id": 8,
      "chapterId": 20,
      "bookId": 9,
      "arabic": "أَخْبَرَنَا إِسْحَاق بْنُ عِيسَى  ، عَنْ عَبْدِ اللَّهِ بْنِ عُقْبَةَ  ، عَنْ يَزِيدَ بْنِ عَمْرٍو  ، عَنْ أَبِي عَبْدِ الرَّحْمَنِ الْحُبُلِيِّ  ، عَنْ عَبْدِ اللَّهِ بْنِ عَمْرِو بْنِ الْعَاصِ  ، قَالَ : قَالَ رَسُولُ اللَّهِ صَلَّى اللَّهُ عَلَيْهِ وَسَلَّمَ :\" مَنْ صَمَتَ، نَجَا \"",
      "english": {
        "narrator": "",
        "text": ""
      }
    },
    {
      "id": 9,
      "chapterId": 20,
      "bookId": 9,
      "arabic": "أَخْبَرَنَا نُعَيْمُ بْنُ حَمَّادٍ  ، عَنْ عَبْدِ الْعَزِيزِ بْنِ مُحَمَّدٍ  ، عَنْ الْعَلَاءِ  ، عَنْ أَبِيهِ  ، عَنْ أَبِي هُرَيْرَةَ  ، عَنِ النَّبِيِّ صَلَّى اللَّهُ عَلَيْهِ وَسَلَّمَ أَنَّهُ قِيلَ لَهُ : مَا الْغِيبَةُ؟.\nقَالَ : \" ذِكْرُكَ أَخَاكَ بِمَا يَكْرَهُ \".\nقِيلَ : وَإِنْ كَانَ فِي أَخِي مَا أَقُولُ؟.\nقَالَ :\" فَإِنْ كَانَ فِيهِ، فَقَدْ اغْتَبْتَهُ، وَإِنْ لَمْ يَكُنْ فِيهِ، فَقَدْ بَهَتَّهُ \"",
      "english": {
        "narrator": "",
        "text": ""
      }
    },
    {
      "id": 10,
      "chapterId": 20,
      "bookId": 9,
      "arabic": "أَخْبَرَنَا عُثْمَانُ بْنُ مُحَمَّدٍ  ، حَدَّثَنَا جَرِيرٌ  ، عَنْ إِدْرِيسَ الْأَوْدِيِّ  ، عَنْ أَبِي إِسْحَاق  ، عَنْ أَبِي الْأَحْوَصِ  : أَنَّ عَبْدَ اللَّهِ   يَرْفَعُ الْحَدِيثَ إِلَى النَّبِيِّ صَلَّى اللَّهُ عَلَيْهِ وَسَلَّمَ قَالَ :\" إِنَّ شَرَّ الرَّوَايَا رَوَايَا الْكَذِبِ، وَلَا يَصْلُحُ مِنْ الْكَذِبِ جِدٌّ وَلَا هَزْلٌ.\nوَلَا يَعِدُ الرَّجُلُ ابْنَهُ ثُمَّ لَا يُنْجِزُ لَهُ : إِنَّ الصِّدْقَ يَهْدِي إِلَى الْبِرِّ، وَإِنَّ الْبِرَّ يَهْدِي إِلَى الْجَنَّةِ، وَإِنَّ الْكَذِبَ يَهْدِي إِلَى الْفُجُورِ، وَإِنَّ الْفُجُورَ يَهْدِي إِلَى النَّارِ، وَإِنَّهُ يُقَالُ لِلصَّادِقِ : صَدَقَ وَبَرَّ، وَيُقَالُ لِلْكَاذِبِ : كَذَبَ وَفَجَرَ.\nوَإِنَّ الرَّجُلَ لَيَصْدُقُ حَتَّى يُكْتَبَ عِنْدَ اللَّهِ صِدِّيقًا، وَيَكْذِبُ حَتَّى يُكْتَبَ عِنْدَ اللَّهِ كَذَّابًا \".\nوَإِنَّهُ قَالَ : \" لَنَا هَلْ أُنَبِّئُكُمْ مَا الْعَضْهُ؟ وَإِنَّ الْعَضْهَ : هِيَ النَّمِيمَةُ الَّتِي تُفْسِدُ بَيْنَ النَّاسِ \"",
      "english": {
        "narrator": "",
        "text": ""
      }
    },
    {
      "id": 11,
      "chapterId": 20,
      "bookId": 9,
      "arabic": "أَخْبَرَنَا أَبُو نُعَيْمٍ  ، حَدَّثَنَا زَكَرِيَّا  ، عَنْ الشَّعْبِيِّ  ، قَالَ : سَمِعْتُ عَبْدَ اللَّهِ بْنَ عَمْرٍو  ، يَقُولُ : قَالَ رَسُولُ اللَّهِ صَلَّى اللَّهُ عَلَيْهِ وَسَلَّمَ :\" الْمُسْلِمُ مَنْ سَلِمَ الْمُسْلِمُونَ مِنْ لِسَانِهِ وَيَدِهِ \"",
      "english": {
        "narrator": "",
        "text": ""
      }
    },
    {
      "id": 12,
      "chapterId": 20,
      "bookId": 9,
      "arabic": "أَخْبَرَنَا أَبُو نُعَيْمٍ  ، حَدَّثَنَا الْفُضَيْلُ بْنُ مَرْزُوقٍ  ، حَدَّثَنَا عَدِيُّ بْنُ ثَابِتٍ  ، عَنْ أَبِي حَازِمٍ  ، عَنْ أَبِي هُرَيْرَةَ  ، قَالَ : قَالَ رَسُولُ اللَّهِ صَلَّى اللَّهُ عَلَيْهِ وَسَلَّمَ : \" يَا أَيُّهَا النَّاسُ،إِنَّ اللَّهَ طَيِّبٌ لَا يَقْبَلُ إِلَّا الطَّيِّبَ إِنَّ اللَّهَ أَمَرَ الْمُؤْمِنِينَ بِمَا أَمَرَ بِهِ الْمُرْسَلِينَ، قَالَ : # يَأَيُّهَا الرُّسُلُ كُلُوا مِنَ الطَّيِّبَاتِ وَاعْمَلُوا صَالِحًا إِنِّي بِمَا تَعْمَلُونَ عَلِيمٌ سورة المؤمنون آية 51 #، وَقَالَ : # يَأَيُّهَا الَّذِينَ آمَنُوا كُلُوا مِنْ طَيِّبَاتِ مَا رَزَقْنَاكُمْ وَاشْكُرُوا لِلَّهِ إِنْ كُنْتُمْ إِيَّاهُ تَعْبُدُونَ سورة البقرة آية 172 #.\nقَالَ : ثُمَّ ذَكَرَ الرَّجُلَ يُطِيلُ السَّفَرَ أَشْعَثَ أَغْبَرَ يَمُدُّ يَدَيْهِ إِلَى السَّمَاءِ : يَا رَبِّ ! يَا رَبِّ ! وَمَطْعَمُهُ حَرَامٌ، وَمَلْبَسُهُ حَرَامٌ، وَمَشْرَبُهُ حَرَامٌ، وَغُذِّيَ بِالْحَرَامِ، فَأَنَّى يُسْتَجَابُ لِذَلِكَ؟ \"",
      "english": {
        "narrator": "",
        "text": ""
      }
    },
    {
      "id": 13,
      "chapterId": 20,
      "bookId": 9,
      "arabic": "حَدَّثَنَا عَفَّانُ  ، حَدَّثَنَا حَمَّادُ بْنُ سَلَمَةَ  ، عَنْ الْجُرَيْرِيِّ  ، عَنْ أَبِي نَضْرَةَ  ، عَنْ عَبْدِ اللَّهِ بْنِ مَوَلَةَ  ، عَنْ بُرَيْدَةَ الْأَسْلَمِيِّ  ، قَالَ : قَالَ رَسُولُ اللَّهِ صَلَّى اللَّهُ عَلَيْهِ وَسَلَّمَ :\" يَكْفِي أَحَدَكُمْ مِنَ الدُّنْيَا خَادِمٌ وَمَرْكَبٌ \"",
      "english": {
        "narrator": "",
        "text": ""
      }
    },
    {
      "id": 14,
      "chapterId": 20,
      "bookId": 9,
      "arabic": "حَدَّثَنَا سَعِيدُ بْنُ مَنْصُورٍ  ، حَدَّثَنَا أَبُو عَوَانَةَ  ، عَنْ بَيَانٍ هُوَ : ابْنُ بِشْرٍ الْأَحْمَسِيُّ  ، عَنْ قَيْسٍ  ، عَنْ مِرْدَاسٍ الْأَسْلَمِيِّ  ، قَالَ : قَالَ رَسُولُ اللَّهِ صَلَّى اللَّهُ عَلَيْهِ وَسَلَّمَ :\" يَذْهَبُ الصَّالِحُونَ أَسْلَافًا وَيَبْقَى حُثَالَةٌ كَحُثَالَةِ الشَّعِيرِ \"",
      "english": {
        "narrator": "",
        "text": ""
      }
    },
    {
      "id": 15,
      "chapterId": 20,
      "bookId": 9,
      "arabic": "أَخْبَرَنَا إِسْحَاق بْنُ عِيسَى  ، عَنْ عَبْدِ الرَّحْمَنِ بْنِ أَبِي الزِّنَادِ  ، عَنْ عَمْرِو بْنِ أَبِي عَمْرٍو  ، عَنْ سَعِيدٍ الْمَقْبُرِيِّ  ،  عَنْ أَبِي هُرَيْرَةَ  ، عَنِ النَّبِيِّ صَلَّى اللَّهُ عَلَيْهِ وَسَلَّمَ، قَالَ :\" كَمْ مِنْ صَائِمٍ لَيْسَ لَهُ مِنْ صِيَامِهِ إِلَّا الظَّمَأُ، وَكَمْ مِنْ قَائِمٍ لَيْسَ لَهُ مِنْ قِيَامِهِ إِلَّا السَّهَرُ \"",
      "english": {
        "narrator": "",
        "text": ""
      }
    },
    {
      "id": 16,
      "chapterId": 20,
      "bookId": 9,
      "arabic": "أَخْبَرَنَا عَبْدُ اللَّهِ بْنُ يَزِيدَ  ، حَدَّثَنَا سَعِيدٌ هُوَ : ابْنُ أَبِي أَيُّوبَ  ، قَالَ : حَدَّثَنِي كَعْبُ بْنُ عَلْقَمَةَ  ، عَنْ عِيسَى بْنِ هِلَالٍ الصَّدَفِيِّ  ، عَنْ عَبْدِ اللَّهِ بْنِ عَمْرٍو  ، عَنِ النَّبِيِّ صَلَّى اللَّهُ عَلَيْهِ وَسَلَّمَ أَنَّهُ ذَكَرَ الصَّلَاةَ يَوْمًا، فَقَالَ :\" مَنْ حَافَظَ عَلَيْهَا، كَانَتْ لَهُ نُورًا، وَبُرْهَانًا، وَنَجَاةً مِنَ النَّارِ يَوْمَ الْقِيَامَةِ، وَمَنْ لَمْ يُحَافِظْ عَلَيْهَا، لَمْ تَكُنْ لَهُ نُورًا، وَلَا نَجَاةً، وَلَا بُرْهَانًا، وَكَانَ يَوْمَ الْقِيَامَةِ مَعَ قَارُونَ، وَفِرْعَوْنَ، وَهَامَانَ، أُبَيِّ بْنِ خَلَفٍ \"",
      "english": {
        "narrator": "",
        "text": ""
      }
    },
    {
      "id": 17,
      "chapterId": 20,
      "bookId": 9,
      "arabic": "أَخْبَرَنَا عَبْدُ اللَّهِ بْنُ صَالِحٍ  ، قَالَ : حَدَّثَنِي اللَّيْثُ  ، قَالَ : حَدَّثَنِي ابْنُ عَجْلَانَ  ، عَنْ حُسَيْنِ بْنِ عَبْدِ اللَّهِ بْنِ عُبَيْدِ اللَّهِ بْنِ عَبَّاسٍ  ، عَنْ عِكْرِمَةَ  ،  عَنِ ابْنِ عَبَّاسٍ   : أَنّ رَسُولَ اللَّهِ صَلَّى اللَّهُ عَلَيْهِ وَسَلَّمَ كَانَيَرْغَبُ فِي قِيَامِ اللَّيْلِ حَتَّى قَالَ : \" وَلَوْ رَكْعَةً \"",
      "english": {
        "narrator": "",
        "text": ""
      }
    },
    {
      "id": 18,
      "chapterId": 20,
      "bookId": 9,
      "arabic": "أَخْبَرَنَا مُحَمَّدُ بْنُ يُوسُفَ  ، حَدَّثَنَا إِسْرَائِيلُ  ، حَدَّثَنَا أَبُو إِسْحَاق  ، عَنْ عُبَيْدِ بْنِ عَمْرٍو أَبِي الْمُغِيرَةِ  ، عَنْ حُذَيْفَةَ  ، قَالَ : كَانَ فِي لِسَانِي ذَرَبٌ عَلَى أَهْلِي، وَلَمْ يَكُنْ يَعْدُهُمْ إِلَى غَيْرِهِمْ، فَسَأَلْتُ النَّبِيَّ صَلَّى اللَّهُ عَلَيْهِ وَسَلَّمَ، فَقَالَ :\" أَيْنَ أَنْتَ مِنَ الِاسْتِغْفَارِ؟ إِنِّي لَأَسْتَغْفِرُ اللَّهَ كُلَّ يَوْمٍ مِائَةَ مَرَّةٍ \"",
      "english": {
        "narrator": "",
        "text": ""
      }
    },
    {
      "id": 19,
      "chapterId": 20,
      "bookId": 9,
      "arabic": "قَالَ أَبُو إِسْحَاق  : فَحَدَّثْتُ أَبَا بُرْدَةَ  ، وَأَبَا بَكْرٍ   ابْنَيْ أَبِي مُوسَى، قَالَا : قَالَ النَّبِيُّ صَلَّى اللَّهُ عَلَيْهِ وَسَلَّمَ :\" أَسْتَغْفِرُ اللَّهَ كُلَّ يَوْمٍ مِائَةَ مَرَّةٍ أَسْتَغْفِرُ اللَّهَ وَأَتُوبُ إِلَيْهِ \"",
      "english": {
        "narrator": "",
        "text": ""
      }
    },
    {
      "id": 20,
      "chapterId": 20,
      "bookId": 9,
      "arabic": "حَدَّثَنَا الْحَكَمُ بْنُ الْمُبَارَكِ  ، عَنْ سَلْمِ بْنِ قُتَيْبَةَ  ، عَنْ سُهَيْلٍ الْقُطَعِيِّ  ، عَنْ ثَابِتٍ  ، عَنْ أَنَسٍ  ، عَنِ النَّبِيِّ صَلَّى اللَّهُ عَلَيْهِ وَسَلَّمَ أَنَّهُ قَرَأَ : # هُوَ أَهْلُ التَّقْوَى وَأَهْلُ الْمَغْفِرَةِ سورة المدثر آية 56 #.\n قَالَ : \" قَالَ رَبُّكُمْ :أَنَا أَهْلٌ أَنْ أُتَّقَى، فَمَنْ اتَّقَانِي فَأَنَا أَهْلٌ أَنْ أَغْفِرَ لَهُ \"",
      "english": {
        "narrator": "",
        "text": ""
      }
    },
    {
      "id": 21,
      "chapterId": 20,
      "bookId": 9,
      "arabic": "حَدَّثَنَا عُثْمَانُ بْنُ مُحَمَّدٍ  ، قَالَ : حَدَّثَنَا مُعْتَمِرٌ  ، عَنْ كَهْمَسِ بْنِ الْحَسَنِ  ، عَنْ أَبِي السَّلِيلِ  ، عَنْ أَبِي ذَرٍّ  ، قَالَ : قَالَ رَسُولُ اللَّهِ صَلَّى اللَّهُ عَلَيْهِ وَسَلَّمَ :\" إِنِّي لَأَعْلَمُ آيَةً لَوْ أَخَذَ بِهَا النَّاسُ بِهَا لَكَفَتْهُمْ : # فَإِذَا بَلَغْنَ أَجَلَهُنَّ فَأَمْسِكُوهُنَّ بِمَعْرُوفٍ أَوْ فَارِقُوهُنَّ بِمَعْرُوفٍ وَأَشْهِدُوا ذَوَيْ عَدْلٍ مِنْكُمْ وَأَقِيمُوا الشَّهَادَةَ لِلَّهِ ذَلِكُمْ يُوعَظُ بِهِ مَنْ كَانَ يُؤْمِنُ بِاللَّهِ وَالْيَوْمِ الآخِرِ وَمَنْ يَتَّقِ اللَّهَ يَجْعَلْ لَهُ مَخْرَجًا سورة الطلاق آية 2 # \"",
      "english": {
        "narrator": "",
        "text": ""
      }
    },
    {
      "id": 22,
      "chapterId": 20,
      "bookId": 9,
      "arabic": "أَخْبَرَنَا مَنْصُورُ بْنُ سَلَمَةَ  ، حَدَّثَنَا سَعِيدٌ هُوَ : ابْنُ مُسْلِمِ بْنِ بَانَكَ  ، عَنْ مَالِكٍ  ، عَنْ عَامِرِ بْنِ عَبْدِ اللَّهِ بْنِ الزُّبَيْرِ  ، عَنْ عَوْفِ بْنِ الْحَارِثِ  ،  عَنْ عَائِشَةَ  ، قَالَتْ : قَالَ لِي رَسُولُ اللَّهِ صَلَّى اللَّهُ عَلَيْهِ وَسَلَّمَ : \" يَا عَائِشُ،إِيَّاكِ وَمُحَقَّرَاتِ الذُّنُوبِ، فَإِنَّ لَهَا مِنَ اللَّهِ طَالِبًا \"",
      "english": {
        "narrator": "",
        "text": ""
      }
    },
    {
      "id": 23,
      "chapterId": 20,
      "bookId": 9,
      "arabic": "حَدَّثَنَا مُسْلِمُ بْنُ إِبْرَاهِيمَ  ، حَدَّثَنَا عَلِيُّ بْنُ مَسْعَدَةَ الْبَاهِلِيُّ  ، حَدَّثَنَا قَتَادَةُ  ، عَنْ أَنَسٍ  ، قَالَ : قَالَ رَسُولُ اللَّهِ صَلَّى اللَّهُ عَلَيْهِ وَسَلَّمَ :\" كُلُّ بَنِي آدَمَ خَطَّاءٌ، وَخَيْرُ الْخَطَّائِينَ التَّوَّابُونَ \"",
      "english": {
        "narrator": "",
        "text": ""
      }
    },
    {
      "id": 24,
      "chapterId": 20,
      "bookId": 9,
      "arabic": "أَخْبَرَنَا النَّضْرُ بْنُ شُمَيْلٍ  ، حَدَّثَنَا حَمَّادُ بْنُ سَلَمَةَ  ، عَنْ سِمَاكِ بْنِ حَرْبٍ  ،  عَنْ النُّعْمَانِ هُوَ : ابْنُ بَشِيرٍ   أَنَّهُ سَمِعَهُ، يَقُولُ : قَالَ رَسُولُ اللَّهِ صَلَّى اللَّهُ عَلَيْهِ وَسَلَّمَ :\" سَافَرَ رَجُلٌ فِي أَرْضٍ تَنُوفَةٍ فَقَالَ : تَحْتَ شَجَرَةٍ وَمَعَهُ رَاحِلَتُهُ، وعَلَيْهَا زَادُهُ وَطَعَامُهُ، فَاسْتَيْقَظَ وَقَدْ ذَهَبَتْ رَاحِلَتُهُ، فَعَلَا شَرَفًا، فَلَمْ يَرَ شَيْئًا، ثُمَّ عَلَا شَرَفًا، فَلَمْ يَرَ شَيْئًا، ثُمَّ عَلَا شَرَفًا فَلَمْ يَرَ شَيْئًا، قَالَ : فَالْتَفَتَ فَإِذَا هُوَ بِهَا تَجُرُّ خِطَامَهَا، فَمَا هُوَ بِأَشَدَّ فَرَحًا بِهَا مِنَ اللَّهِ بِتَوْبَةِ عَبْدِهِ إِذَا تَابَ إِلَيْهِ \"",
      "english": {
        "narrator": "",
        "text": ""
      }
    },
    {
      "id": 25,
      "chapterId": 20,
      "bookId": 9,
      "arabic": "حَدَّثَنَا مُسَدَّدٌ  ، حَدَّثَنَا يَحْيَى  ، عَنْ سُفْيَانَ  ، عَنْ أَبِيهِ  ، عَنْ أَبِي يَعْلَى  ، عَنْ الرَّبِيعِ بْنِ خُثَيْمٍ  ، عَنْ عَبْدِ اللَّهِ  ، قَالَ : خَطَّ لَنَا رَسُولُ اللَّهِ صَلَّى اللَّهُ عَلَيْهِ وَسَلَّمَ خَطًّا مُرَبَّعًا، ثُمَّ خَطَّ وَسَطَهُ خَطًّا، ثُمَّ خَطَّ حَوْلَهُ خُطُوطًا، وَخَطَّ خَطًّا خَارِجًا مِنَ الْخَطِّ، فَقَالَ :\" هَذَا الْإِنْسَانُ لِلْخَطِّ الْأَوْسَطِ وَهَذَا الْأَجَلُ مُحِيطٌ بِهِ، وَهَذِهِ الْأَعْرَاضُ لِلْخُطُوطِ فَإِذَا أَخْطَأَهُ وَاحِدٌ نَهَشَهُ الْآخَرُ، وَهَذَا الْأَمَلُ لِلْخَطِّ الْخَارِجِ \"",
      "english": {
        "narrator": "",
        "text": ""
      }
    },
    {
      "id": 26,
      "chapterId": 20,
      "bookId": 9,
      "arabic": "أَخْبَرَنَا أَبُو النُّعْمَانِ  ، حَدَّثَنَا عَبْدُ اللَّهِ بْنُ الْمُبَارَكِ  ، عَنْ زَكَرِيَّا  ، عَنْ مُحَمَّدِ بْنِ عَبْدِ الرَّحْمَنِ بْنِ سَعْدِ بْنِ زُرَارَةَ  ، عَنِ ابْنِ كَعْبِ بْنِ مَالِكٍ  ، عَنْ أَبِيهِ  ، قَالَ : قَالَ رَسُولُ اللَّهِ صَلَّى اللَّهُ عَلَيْهِ وَسَلَّمَ :\" مَا ذِئْبَانِ جَائِعَانِ أُرْسِلَا فِي غَنَمٍ بِأَفْسَدَ لَهَا مِنْ حِرْصِ الْمَرْءِ عَلَى الْمَالِ وَالشَّرَفِ لِدِينِهِ \"",
      "english": {
        "narrator": "",
        "text": ""
      }
    },
    {
      "id": 27,
      "chapterId": 20,
      "bookId": 9,
      "arabic": "أَخْبَرَنَا أَبُو النُّعْمَانِ  ، حَدَّثَنَا عَبْدُ اللَّهِ بْنُ الْمُبَارَكِ  ، حَدَّثَنَا هِشَامُ بْنُ الْغَازِ  ، عَنْ حَيَّانَ أَبِي النَّضْرِ  ، عَنْ وَاثِلَةَ بْنِ الْأَسْقَعِ  ، عَنِ النَّبِيِّ صَلَّى اللَّهُ عَلَيْهِ وَسَلَّمَ، قَالَ : \" قَالَ اللَّهُ تَبَارَكَ وَتَعَالَى :أَنَا عِنْدَ ظَنِّ عَبْدِي بِي، فَلْيَظُنَّ بِي مَا شَاءَ \"",
      "english": {
        "narrator": "",
        "text": ""
      }
    }
  ]
}