{
  "page": 43,
  "perPage": 50,
  "totalPages": 69,
  "totalCount": 3406,
  "nextPage": 44,
  "prevPage": 42,
  "items": [
    {
      "id": 128,
      "chapterId": 20,
      "bookId": 9,
      "arabic": "أَخْبَرَنَا يَزِيدُ بْنُ هَارُونَ  ، أَخْبَرَنَا مُحَمَّدُ بْنُ عَمْرٍو  ، عَنْ أَبِي سَلَمَةَ  ، عَنْ أَبِي هُرَيْرَةَ  ، قَالَ : قَالَ رَسُولُ اللَّهِ صَلَّى اللَّهُ عَلَيْهِ وَسَلَّمَ :\" إِنَّ فِي الْجَنَّةِ شَجَرَةً يَسِيرُ الرَّاكِبُ فِي ظِلِّهَا مِائَةَ عَامٍ لَا يَقْطَعُهَا، وَاقْرَءُوا إِنْ شِئْتُمْ : # وَظِلٍّ مَمْدُودٍ سورة الواقعة آية 30 # \"",
      "english": {
        "narrator": "",
        "text": ""
      }
    },
    {
      "id": 129,
      "chapterId": 20,
      "bookId": 9,
      "arabic": "أَخْبَرَنَا عَبْدُ الصَّمَدِ بْنُ عَبْدِ الْوَارِثِ  ، حَدَّثَنَا شُعْبَةُ  ، عَنْ أَبِي الضَّحَّاكِ  ، قَالَ : سَمِعْتُ أَبَا هُرَيْرَةَ  ، عَنِ النَّبِيِّ صَلَّى اللَّهُ عَلَيْهِ وَسَلَّمَ، قَالَ :\" إِنَّ فِي الْجَنَّةِ شَجَرَةً يَسِيرُ الرَّاكِبُ فِي ظِلِّهَا مِائَةَ عَامٍ لَا يَقْطَعُهَا، هِيَ شَجَرَةُ الْخُلْدِ \"",
      "english": {
        "narrator": "",
        "text": ""
      }
    },
    {
      "id": 130,
      "chapterId": 20,
      "bookId": 9,
      "arabic": "أَخْبَرَنَا يَزِيدُ بْنُ هَارُونَ  ، أَخْبَرَنَا عَبَّادٌ هُوَ : ابْنُ مَنْصُورٍ  ، قَالَ : سَمِعْتُ شَهْرَ بْنَ حَوْشَبٍ  ، يَقُولُ : سَمِعْتُ أَبَا هُرَيْرَةَ  ، يَقُولُ : قَالَ رَسُولُ اللَّهِ صَلَّى اللَّهُ عَلَيْهِ وَسَلَّمَ :\" الْعَجْوَةُ مِنَ الْجَنَّةِ، وَهِيَ شِفَاءٌ مِنَ السُّمِّ \"",
      "english": {
        "narrator": "",
        "text": ""
      }
    },
    {
      "id": 131,
      "chapterId": 20,
      "bookId": 9,
      "arabic": "أَخْبَرَنَا يَزِيدُ بْنُ هَارُونَ  ، أَخْبَرَنَا حُمَيْدٌ  ، عَنْ أَنَسٍ  ، عَنِ النَّبِيِّ صَلَّى اللَّهُ عَلَيْهِ وَسَلَّمَ، قَالَ : \" إِنَّ فِي الْجَنَّةِ لَسُوقًا \".\nقَالُوا : وَمَا هِيَ، قَالَ :\" كُثْبَانٌ مِنْ مِسْكٍ يَخْرُجُونَ إِلَيْهَا فَيَجْتَمِعُونَ فِيهَا، فَيَبْعَثُ اللَّهُ عَلَيْهِمْ رِيحًا فَتُدْخِلُهُمْ بُيُوتَهُمْ، فَيَقُولُ لَهُمْ أَهْلُوهُمْ : لَقَدْ ازْدَدْتُمْ بَعْدَنَا حُسْنًا، وَيَقُولُونَ لِأَهْلِيهِمْ مِثْلَ ذَلِكَ \"، حَدَّثَنَا سَعِيدُ بْنُ عَبْدِ الْجَبَّارِ  ، عَنْ حَمَّادِ بْنِ سَلَمَةَ  ، عَنْ ثَابِتٍ  ، عَنْ أَنَسٍ  ، عَنِ النَّبِيِّ صَلَّى اللَّهُ عَلَيْهِ وَسَلَّمَ بِنَحْوِهِ",
      "english": {
        "narrator": "",
        "text": ""
      }
    },
    {
      "id": 132,
      "chapterId": 20,
      "bookId": 9,
      "arabic": "أَخْبَرَنَا سُلَيْمَانُ بْنُ حَرْبٍ  ، حَدَّثَنَا حَمَّادُ بْنُ سَلَمَةَ  ، عَنْ ثَابِتٍ  ،  عَنْ أَنَسٍ  ، قَالَ : قَالَ رَسُولُ اللَّهِ صَلَّى اللَّهُ عَلَيْهِ وَسَلَّمَ :\" حُفَّتْ الْجَنَّةُ بِالْمَكَارِهِ، وَحُفَّتْ النَّارُ بِالشَّهَوَاتِ \"",
      "english": {
        "narrator": "",
        "text": ""
      }
    },
    {
      "id": 133,
      "chapterId": 20,
      "bookId": 9,
      "arabic": "حَدَّثَنَا عَبْدُ اللَّهِ بْنُ صَالِحٍ  ، قَالَ : حَدَّثَنِي مُعَاوِيَةُ  : أَنَّ عَبْدَ الرَّحْمَنِ بْنَ جُبَيْرٍ  حَدَّثَهُ، عَنْ أَبِيهِ جُبَيْرِ بْنِ نُفَيْرٍ  ، عَنْ عَبْدِ اللَّهِ بْنِ عَمْرٍو  ، قَالَ : بَيْنَا أَنَا قَاعِدٌ فِي الْمَسْجِدِ وَحَلْقَةٌ مِنْ فُقَرَاءِ الْمُهَاجِرِينَ قُعُودٌ إِذْ دَخَلَ النَّبِيُّ صَلَّى اللَّهُ عَلَيْهِ وَسَلَّمَ فَقَعَدَ إِلَيْهِمْ، فَقُمْتُ إِلَيْهِمْ، فَقَالَ النَّبِيُّ صَلَّى اللَّهُ عَلَيْهِ وَسَلَّمَ لَهُمْ :\" لِيُبْشِرْ فُقَرَاءُ الْمُهَاجِرِينَ بِمَا يَسُرُّ وُجُوهَهُمْ، فَإِنَّهُمْ يَدْخُلُونَ الْجَنَّةَ قَبْلَ الْأَغْنِيَاءِ بِأَرْبَعِينَ عَامًا \".\nقَالَ : فَلَقَدْ رَأَيْتُ أَلْوَانَهُمْ أَسْفَرَتْ، قَالَ عَبْدُ اللَّهِ بْنُ عَمْرٍو : حَتَّى تَمَنَّيْتُ أَنْ أَكُونَ مَعَهُمْ",
      "english": {
        "narrator": "",
        "text": ""
      }
    },
    {
      "id": 134,
      "chapterId": 20,
      "bookId": 9,
      "arabic": "أَخْبَرَنَا الْحَكَمُ بْنُ نَافِعٍ  ، أَخْبَرَنَا شُعَيْبٌ  ، عَنْ الزُّهْرِيِّ  ، قَالَ : أَخْبَرَنِي أَبُو سَلَمَةَ  ، عَنْ أَبِي هُرَيْرَةَ   : أَنَّهُ سَمِعَهُ يَقُولُ : قَالَ النَّبِيُّ صَلَّى اللَّهُ عَلَيْهِ وَسَلَّمَ :\" اشْتَكَتِ النَّارُ إِلَى رَبِّهَا، فَقَالَتْ : يَا رَبِّ أَكَلَ بَعْضِي بَعْضًا، فَأَذِنَ اللَّهُ لَهَا بِنَفَسَيْنِ : نَفَسٍ فِي الشِّتَاءِ، وَنَفَسٍ فِي الصَّيْفِ، فَهُوَ أَشَدُّ مَا تَجِدُونَ مِنَ الْحَرِّ، وَأَشَدُّ مَا تَجِدُونَ مِنَ الزَّمْهَرِيرِ \".\nأَخْبَرَنَا حَجَّاجٌ  ، حَدَّثَنَا حَمَّادُ بْنُ سَلَمَةَ  ، عَنْ عَاصِمِ بْنِ بَهْدَلَةَ  ، عَنْ أَبِي صَالِحٍ  ، عَنْ أَبِي هُرَيْرَةَ  ، عَنِ النَّبِيِّ صَلَّى اللَّهُ عَلَيْهِ وَسَلَّمَ نَحْوَهُ",
      "english": {
        "narrator": "",
        "text": ""
      }
    },
    {
      "id": 135,
      "chapterId": 20,
      "bookId": 9,
      "arabic": "أَخْبَرَنَا جَعْفَرُ بْنُ عَوْنٍ  ، أَخْبَرَنَا الْهَجَرِيُّ  ، عَنْ أَبِي عِيَاضٍ  ، عَنْ أَبِي هُرَيْرَةَ  ، قَالَ : قَالَ رَسُولُ اللَّهِ صَلَّى اللَّهُ عَلَيْهِ وَسَلَّمَ :\" إِنَّ نَارَكُمْ هَذِهِ جُزْءٌ مِنْ سَبْعِينَ جُزْءًا مِنْ نَارِ جَهَنَّمَ \"",
      "english": {
        "narrator": "",
        "text": ""
      }
    },
    {
      "id": 136,
      "chapterId": 20,
      "bookId": 9,
      "arabic": "أَخْبَرَنَا أَبُو عَاصِمٍ  ، عَنْ ابْنِ عَجْلَانَ  ، عَنْ أَبِيه  ، عَنْ أَبِي هُرَيْرَةَ  ، عَنِ النَّبِيِّ صَلَّى اللَّهُ عَلَيْهِ وَسَلَّمَ، قَالَ :\" أَهْوَنُ النَّاسِ عَذَابًا مَنْ لَهُ نَعْلَانِ يَغْلِي مِنْهُمَا دِمَاغُهُ \"",
      "english": {
        "narrator": "",
        "text": ""
      }
    },
    {
      "id": 137,
      "chapterId": 20,
      "bookId": 9,
      "arabic": "أَخْبَرَنَا حَجَّاجُ بْنُ مِنْهَالٍ  ، حَدَّثَنَا حَمَّادُ بْنُ سَلَمَةَ  ، عَنْ عَمَّارِ بْنِ أَبِي عَمَّارٍ  ، عَنْ أَبِي هُرَيْرَةَ   : أَنَّ رَسُولَ اللَّهِ صَلَّى اللَّهُ عَلَيْهِ وَسَلَّمَ، قَالَ :\" يُلْقَى فِي النَّارِ أَهْلُهَا، وَتَقُولُ : هَلْ مِنْ مَزِيدٍ هَلْ مِنْ مَزِيدٍ ثَلَاثًا، حَتَّى يَأْتِيَهَا رَبُّهَا تَعَالَى فَيَضَعَ قَدَمَهُ عَلَيْهَا فَتُزْوَى وَتَقُولُ : قَطْ قَطْ قَطْ \"",
      "english": {
        "narrator": "",
        "text": ""
      }
    },
    {
      "id": 1,
      "chapterId": 21,
      "bookId": 9,
      "arabic": "أَخْبَرَنَا يَزِيدُ بْنُ هَارُونَ  ، أَنْبَأَنَا عَاصِمٌ  ، عَنْ مُوَرِّقٍ الْعِجْلِيِّ  ، قَالَ : قَالَ عُمَرُ بْنُ الْخَطَّابِ   :\" تَعَلَّمُوا الْفَرَائِضَ وَاللَّحْنَ وَالسُّنَنَ كَمَا تَعَلَّمُونَ الْقُرْآنَ \"",
      "english": {
        "narrator": "",
        "text": ""
      }
    },
    {
      "id": 2,
      "chapterId": 21,
      "bookId": 9,
      "arabic": "حَدَّثَنَا مُحَمَّدُ بْنُ يُوسُفَ  ، حَدَّثَنَا سُفْيَانُ  ، عَنْ الْأَعْمَشِ  ، عَنْ إِبْرَاهِيمَ  ، قَالَ : قَالَ عُمَرُ   :\" تَعَلَّمُوا الْفَرَائِضَ فَإِنَّهَا مِنْ دِينِكُمْ \"",
      "english": {
        "narrator": "",
        "text": ""
      }
    },
    {
      "id": 3,
      "chapterId": 21,
      "bookId": 9,
      "arabic": "حَدَّثَنَا مُحَمَّدُ بْنُ عِيسَى ، حَدَّثَنَا يُوسُفُ الْمَاجِشُونُ ، قَالَ : قَالَ ابْنُ شِهَابٍ  :\" لَوْ هَلَكَ عُثْمَانُ، وَزَيْدٌ فِي بَعْضِ الزَّمَانِ، لَهَلَكَ عِلْمُ الْفَرَائِضِ، لَقَدْ أَتَى عَلَى النَّاسِ زَمَانٌ، وَمَا يَعْلَمُهَا غَيْرُهُمَا \"",
      "english": {
        "narrator": "",
        "text": ""
      }
    },
    {
      "id": 4,
      "chapterId": 21,
      "bookId": 9,
      "arabic": "حَدَّثَنَا أَبُو نُعَيْمٍ  ، حَدَّثَنَا الْمَسْعُودِيُّ  ، عَنْ الْقَاسِمِ  ، قَالَ : قَالَ عَبْدُ اللَّهِ   :\" تَعَلَّمُوا الْقُرْآنَ وَالْفَرَائِضَ، فَإِنَّهُ يُوشِكُ أَنْ يَفْتَقِرَ الرَّجُلُ إِلَى عِلْمٍ كَانَ يَعْلَمُهُ، أَوْ يَبْقَى فِي قَوْمٍ لَا يَعْلَمُونَ",
      "english": {
        "narrator": "",
        "text": ""
      }
    },
    {
      "id": 5,
      "chapterId": 21,
      "bookId": 9,
      "arabic": "حَدَّثَنَا أَبُو نُعَيْمٍ  ، حَدَّثَنَا زِيَادُ بْنُ أَبِي مُسْلِمٍ  ، عَنْ أَبِي الْخَلِيلِ  ، قَالَ : قَالَ أَبُو مُوسَى   :\" مَنْ عَلِمَ الْقُرْآنَ وَلَمْ يَعْلَمْ الْفَرَائِضَ، فَإِنَّ مَثَلَهُ مَثَلُ الْبُرْنُسِ لَا وَجْهَ لَهُ، أَوْ : لَيْسَ لَهُ وَجْهٌ \"",
      "english": {
        "narrator": "",
        "text": ""
      }
    },
    {
      "id": 6,
      "chapterId": 21,
      "bookId": 9,
      "arabic": "حَدَّثَنَا أَحْمَدُ بْنُ عَبْدِ اللَّهِ ، حَدَّثَنَا أَبُو شِهَابٍ ، عَنْ الْأَعْمَشِ ، عَنْ إِبْرَاهِيمَ ، قَال : قُلْتُ لِعَلْقَمَةَ  : مَا أَدْرِي مَا أَسْأَلُكَ عَنْهُ؟ قَالَ :\" أَمِتْ جِيرَانَكَ \"",
      "english": {
        "narrator": "",
        "text": ""
      }
    },
    {
      "id": 7,
      "chapterId": 21,
      "bookId": 9,
      "arabic": "حَدَّثَنَا أَبُو نُعَيْمٍ  ، حَدَّثَنَا مُحَمَّدُ بْنُ طَلْحَةَ  ، عَنْ الْقَاسِمِ بْنِ الْوَلِيدِ الْهَمْدَانِيِّ  ، عَنْ عَبْدِ اللَّهِ بْنِ مَسْعُودٍ  ، قَالَ :\" تَعَلَّمُوا الْفَرَائِضَ، وَالطَّلاقَ، وَالْحَجَّ، فَإِنَّهُ مِنْ دِينِكُمْ \"",
      "english": {
        "narrator": "",
        "text": ""
      }
    },
    {
      "id": 8,
      "chapterId": 21,
      "bookId": 9,
      "arabic": "حَدَّثَنَا سُلَيْمَانُ بْنُ حَرْبٍ  ، حَدَّثَنَا حَمَّادُ بْنُ زَيْدٍ  ، عَنْ كَثِيرٍ  ، عَنْ الْحَسَنِ  ، قَالَ :\" كَانُوا يُرَغِّبُونَ فِي تَعْلِيمِ الْقُرْآنِ وَالْفَرَائِضِ وَالْمَنَاسِكِ \"",
      "english": {
        "narrator": "",
        "text": ""
      }
    },
    {
      "id": 9,
      "chapterId": 21,
      "bookId": 9,
      "arabic": "أَخْبَرَنَا مُحَمَّدُ بْنُ يُوسُفَ  ، عَنْ سُفْيَانَ  ، عَنْ أَبِي إِسْحَاق  ، عَنْ أَبِي عُبَيْدَةَ  ، عَنْ عَبْدِ اللَّهِ  ، قَالَ :\" مَنْ قَرَأَ الْقُرْآنَ، فَلْيَتَعَلَّمْ الْفَرَائِضَ، فَإِنْ لَقِيَهُ أَعْرَابِيٌّ، قَالَ : يَا مُهَاجِرُ، أَتَقْرَأُ الْقُرْآنَ؟ فَإِنْ قَالَ : نَعَمْ، قَالَ : تَفْرِضُ؟ فَإِنْ قَالَ : نَعَمْ، فَهُوَ زِيَادَةٌ وَخَيْر، وَإِنْ قَالَ : لَا، قَالَ : فَمَا فَضْلُكَ عَلَيَّ يَا مُهَاجِرُ؟ !",
      "english": {
        "narrator": "",
        "text": ""
      }
    },
    {
      "id": 10,
      "chapterId": 21,
      "bookId": 9,
      "arabic": "حَدَّثَنَا عَبْدُ اللَّهِ بْنُ سَعِيدٍ  ، حَدَّثَنَا عُقْبَةُ بْنُ خَالِدٍ  ، عَنْ الْأَعْمَشِ  ، عَنْ مُسْلِمٍ  ، قَالَ : سَأَلْنَا مَسْرُوقًا  : كَانَتْ عَائِشَةُ   تُحْسِنُ الْفَرَائِضَ؟ قَالَ :\" وَالَّذِي لَا إِلَهَ غَيْرُهُ، لَقَدْ رَأَيْتُ الْأَكَابِرَ مِنْ أَصْحَابِ مُحَمَّدٍ يَسْأَلُونَهَا عَنْ الْفَرَائِضِ \"",
      "english": {
        "narrator": "",
        "text": ""
      }
    },
    {
      "id": 11,
      "chapterId": 21,
      "bookId": 9,
      "arabic": "أَخْبَرَنَا سَعِيدُ بْنُ عَامِرٍ  ، عَنْ شُعْبَةَ  ، عَنْ عَاصِمٍ  ، عَنْ أَبِي عُثْمَانَ  ،  عَنْ سَعْدِ بْنِ أَبِي وَقَّاصٍ  ، وَعَنْ أَبِي بَكْرَةَ   قَالَ شُعْبَةُ : هَذَا أَوَّلُ مَنْ رَمَى بِسَهْمٍ فِي سَبِيلِ اللَّهِ، وَهَذَا تَدَلَّى مِنْ حِصْنِ الطَّائِفِ إِلَى رَسُولِ اللَّهِ صَلَّى اللَّهُ عَلَيْهِ وَسَلَّم إِنَّهُمَا حَدَّثَا : أَنَّ رَسُولَ اللَّهِ صَلَّى اللَّهُ عَلَيْهِ وَسَلَّمَ، قَالَ :\" مَنْ ادَّعَى إِلَى غَيْرِ أَبِيهِ وَهُوَ يَعْلَمُ أَنَّهُ غَيْرُ أَبِيهِ، فَالْجَنَّةُ عَلَيْهِ حَرَامٌ \"",
      "english": {
        "narrator": "",
        "text": ""
      }
    },
    {
      "id": 12,
      "chapterId": 21,
      "bookId": 9,
      "arabic": "حَدَّثَنَا مُحَمَّدُ بْنُ يُوسُفَ  ، حَدَّثَنَا سُفْيَانُ  ، عَنْ الْأَعْمَشِ  ، عَنْ عَبْدِ اللَّهِ بْنِ مُرَّةَ  ، عَنْ أَبِي مَعْمَرٍ  ، عَنْ أَبِي بَكْرٍ الصِّدِّيقِ  ، قَالَ :\" كُفْرٌ بِاللَّهِ ادِّعَاءٌ إِلَى نَسَبٍ لَا يُعْرَفُ، وَكُفْرٌ بِاللَّهِ تَبَرُّؤٌ مِنْ نَسَبٍ وَإِنْ دَقَّ.\n حَدَّثَنَا مُحَمَّدُ بْنُ يُوسُفَ  ، حَدَّثَنَا سُفْيَانُ  ، عَنْ زَكَرِيَّا أَبِي يَحْيَى  ، قَالَ : سَمِعْتُ أَبَا وَائِلٍ  يُحَدِّثُ، عَنْ ابْنِ مَسْعُودٍ  ، نَحْوًا مِنْهُ",
      "english": {
        "narrator": "",
        "text": ""
      }
    },
    {
      "id": 13,
      "chapterId": 21,
      "bookId": 9,
      "arabic": "حَدَّثَنَا مُحَمَّدُ بْنُ الْعَلَاءِ  ، حَدَّثَنَا إِسْحَاق بْنُ مَنْصُورٍ السَّلُولِيُّ  ، عَنْ جَعْفَرٍ الْأَحْمَرِ  ، عَنْ السَّرِيِّ بْنِ إِسْمَاعِيل  ، عَنْ قَيْسِ بْنِ أَبِي حَازِمٍ  ، قَالَ : أَتَيْتُ النَّبِيَّ صَلَّى اللَّهُ عَلَيْهِ وَسَلَّمَ لِأُبَايِعَهُ، فَجِئْتُ وَقَدْ قُبِض، وَأَبُو بَكْرٍ   قَائِمٌ فِي مَقَامِهِ، فَأَطَالَ الثَّنَاءَ وَأَكْثَرَ الْبُكَاءَ، فَقَالَ : سَمِعْتُ رَسُولَ اللَّهِ صَلَّى اللَّهُ عَلَيْهِ وَسَلَّمَ، يَقُولُ :\" كُفْرٌ بِاللَّهِ انْتِفَاءٌ مِنْ نَسَبٍ وَإِنْ دَقَّ، وَادِّعَاءُ نَسَبٍ لَا يُعْرَفُ \"",
      "english": {
        "narrator": "",
        "text": ""
      }
    },
    {
      "id": 14,
      "chapterId": 21,
      "bookId": 9,
      "arabic": "حَدَّثَنَا مُحَمَّدُ بْنُ يُوسُفَ  ، حَدَّثَنَا عَبْدُ الْحَمِيدِ بْنُ بَهْرَامَ  ، عَنْ شَهْرِ بْنِ حَوْشَبٍ  ،  عَنْ ابْنِ عَبَّاسٍ  ، قَالَ : قَالَ رَسُولُ اللَّهِ صَلَّى اللَّهُ عَلَيْهِ وَسَلَّمَ :\" أَيُّمَا رَجُلٍ ادَّعَى إِلَى غَيْرِ وَالِدِه، أَوْ تَوَلَّى غَيْرَ مَوَالِيهِ الَّذِينَ أَعْتَقُوهُ، فَإِنَّ عَلَيْهِ لَعْنَةَ اللَّه، وَالْمَلائِكَةِ، وَالنَّاسِ أَجْمَعِينَ إِلَى يَوْمِ الْقِيَامَة، لا يُقْبَلُ مِنْهُ صَرْفٌ وَلَا عَدْلٌ",
      "english": {
        "narrator": "",
        "text": ""
      }
    },
    {
      "id": 15,
      "chapterId": 21,
      "bookId": 9,
      "arabic": "أَخْبَرَنَا يَزِيدُ بْنُ هَارُونَ  ، أَنْبَأَنَا شَرِيكٌ  ، عَنْ الْأَعْمَشِ  ، عَنْ إِبْرَاهِيمَ  ، قَالَ : قَالَ عَبْدُ اللَّهِ  : كَانَ عُمَرُ   إِذَا سَلَكَ بِنَا طَرِيقًا وَجَدْنَاهُ سَهْلًا، وَإِنَّهُ قَالَ فِي زَوْجٍ وَأَبَوَيْنِ :\" لِلزَّوْجِ النِّصْفُ، وَلِلْأُمِّ ثُلُثُ مَا بَقِيَ",
      "english": {
        "narrator": "",
        "text": ""
      }
    },
    {
      "id": 16,
      "chapterId": 21,
      "bookId": 9,
      "arabic": "أَخْبَرَنَا يَزِيدُ بْنُ هَارُونَ  ، حَدَّثَنَا هَمَّامٌ  ، حَدَّثَنَا يَزِيدُ الرِّشْكُ  ، قَالَ : سَأَلْتُ سَعِيدَ بْنَ الْمُسَيِّبِ   عَنْ رَجُلٍ تَرَكَ امْرَأَتَهُ، وَأَبَوَيْهِ، فَقَالَ :\" قَسَّمَهَا زَيْدُ بْنُ ثَابِتٍ   مِنْ أَرْبَعَةٍ \"",
      "english": {
        "narrator": "",
        "text": ""
      }
    },
    {
      "id": 17,
      "chapterId": 21,
      "bookId": 9,
      "arabic": "حَدَّثَنَا سَعِيدُ بْنُ عَامِرٍ  ، عَنْ شُعْبَةَ  ، عَنْ أَيُّوبَ  ، عَنْ أَبِي قِلَابَةَ  ، عَنْ أَبِي الْمُهَلَّبِ  : أَنَّ عُثْمَانَ بْنَ عَفَّانَ   قَالَ فِي امْرَأَةٍ وَأَبَوَيْنِ :\" لِلْمَرْأَةِ الرُّبُعُ، وَلِلْأُمِّ ثُلُثُ مَا بَقِيَ \"",
      "english": {
        "narrator": "",
        "text": ""
      }
    },
    {
      "id": 18,
      "chapterId": 21,
      "bookId": 9,
      "arabic": "حَدَّثَنَا حَجَّاجُ بْنُ مِنْهَالٍ  ، حَدَّثَنَا حَمَّادُ بْنُ سَلَمَةَ  ، عَنْ أَيُّوبَ  ، عَنْ أَبِي قِلَابَةَ  ، عَنْ أَبِي الْمُهَلَّبِ  ، عَنْ عُثْمَانَ بْنِ عَفَّانَ   أَنَّهُ قَالَ :\" لِلْمَرْأَةِ الرُّبُعُ سَهْمٌ مِنْ أَرْبَعَةٍ، وَلِلْأُمِّ ثُلُثُ مَا بَقِيَ سَهْم، وَلِلأَبِّ سَهْمَانِ \".\nأَخْبَرَنَا حَجَّاجٌ  ، حَدَّثَنَا حَمَّادٌ  ، عَنْ حَجَّاجٍ  ، عَنْ عُمَيْرِ بْنِ سَعِيدٍ  : أَنَّهُ سَأَلَ الْحَارِثَ الْأَعْوَرَ   عَنْ امْرَأَةٍ، وَأَبَوَيْنِ، فَقَالَ مِثْلَ قَوْلِ عُثْمَانَ",
      "english": {
        "narrator": "",
        "text": ""
      }
    },
    {
      "id": 19,
      "chapterId": 21,
      "bookId": 9,
      "arabic": "حَدَّثَنَا أَبُو نُعَيْمٍ  ، حَدَّثَنَا هِشَامٌ  ، عَنْ قَتَادَةَ  ، عَنْ سَعِيدِ بْنِ الْمُسَيِّبِ  ، عَنْ زَيْدِ بْنِ ثَابِتٍ  ، أَنَّهُ قَالَ فِي امْرَأَةٍ تَرَكَتْ زَوْجَهَا وَأَبَوَيْهَا :\" لِلزَّوْجِ النِّصْفُ، وَلِلْأُمِّ ثُلُثُ مَا بَقِيَ \"",
      "english": {
        "narrator": "",
        "text": ""
      }
    },
    {
      "id": 20,
      "chapterId": 21,
      "bookId": 9,
      "arabic": "أَخْبَرَنَا عُبَيْدُ اللَّهِ بْنُ مُوسَى  ، عَنْ ابْنِ أَبِي لَيْلَى  ، عَنْ عَامِرٍ الشَّعْبِيِّ  ، عَنْ عَلِيٍّ   : فِي امْرَأَةٍ وَأَبَوَيْنِ، قَالَ :\" مِنْ أَرْبَعَةٍ : لِلْمَرْأَةِ الرُّبُعُ، وَلِلْأُمِّ ثُلُثُ مَا بَقِي، وَمَا بَقِيَ فَلِلْأَبِ \"",
      "english": {
        "narrator": "",
        "text": ""
      }
    },
    {
      "id": 21,
      "chapterId": 21,
      "bookId": 9,
      "arabic": "حَدَّثَنَا مُحَمَّدُ بْنُ يُوسُفَ  ، عَنْ سُفْيَانَ  ، عَنْ الْأَعْمَشِ  ، وَمَنْصُورٍ  ، عَنْ إِبْرَاهِيمَ  ، عَنْ عَبْدِ اللَّهِ  ، قَالَ : كَانَ عُمَرُ   إِذَا سَلَكَ بِنَا طَرِيقًا اتَّبَعْنَاهُ فِيهِ، وَجَدْنَاهُ سَهْلًا، وَإِنَّهُ\" قَضَى فِي امْرَأَةٍ وَأَبَوَيْنِ مِنْ أَرْبَعَةٍ : فَأَعْطَى الْمَرْأَةَ الرُّبُع، وَالأُمَّ ثُلُثَ مَا بَقِيَ، وَالْأَبَ سَهْمَيْنِ.\n حَدَّثَنَا مُحَمَّدُ بْنُ يُوسُفَ  ، حَدَّثَنَا سُفْيَانُ  عَنْ عِيسَى  ، عَنْ الشَّعْبِيِّ  ، عَنْ زَيْدِ بْنِ ثَابِتٍ   مِثْلَ ذَلِكَ",
      "english": {
        "narrator": "",
        "text": ""
      }
    },
    {
      "id": 22,
      "chapterId": 21,
      "bookId": 9,
      "arabic": "أَخْبَرَنَا مُحَمَّدٌ  ، حَدَّثَنَا سُفْيَانُ  ، عَنْ أَبِيهِ  ، عَنْ الْمُسَيَّبِ بْنِ رَافِعٍ  ، عَنْ عَبْدِ اللَّهِ  ، قَالَ : كَانَ يَقُولُ :\" مَا كَانَ اللَّهُ لِيَرَانِي أَنْ أُفَضِّلَ أُمًّا عَلَى أَبٍ \"",
      "english": {
        "narrator": "",
        "text": ""
      }
    },
    {
      "id": 23,
      "chapterId": 21,
      "bookId": 9,
      "arabic": "أَخْبَرَنَا سَعِيدُ بْنُ عَامِرٍ  ، أَنْبَأَنَا شُعْبَةُ  ، عَنْ الْحَكَمِ  ، عَنْ عِكْرِمَةَ  ، قَالَ :\" أَرْسَلَ ابْنُ عَبَّاسٍ إِلَى زَيْدِ بْنِ ثَابِتٍ   : أَتَجِدُ فِي كِتَابِ اللَّهِ لِلْأُمِّ ثُلُثُ مَا بَقِي؟ فَقَالَ زَيْدٌ : إِنَّمَا أَنْتَ رَجُلٌ تَقُولُ بِرَأْيِكَ، وَأَنَا رَجُلٌ أَقُولُ بِرَأْيِي \"",
      "english": {
        "narrator": "",
        "text": ""
      }
    },
    {
      "id": 24,
      "chapterId": 21,
      "bookId": 9,
      "arabic": "حَدَّثَنَا حَجَّاجُ بْنُ مِنْهَالٍ  ، حَدَّثَنَا حَمَّادُ بْنُ سَلَمَةَ  ، عَنْ حَجَّاجٍ  ، عَنْ الشَّعْبِيِّ  ، وَحَجَّاجٍ  ، عَنْ عَطَاءٍ  ، عَنْ ابْنِ عَبَّاسٍ   : أَنَّهُمَا قَالَا فِي زَوْجٍ وَأَبَوَيْنِ :\" لِلزَّوْجِ النِّصْفُ، وَلِلْأُمِّ ثُلُثُ جَمِيعِ الْمَالِ، وَمَا بَقِيَ فَلِلْأَبِ \"",
      "english": {
        "narrator": "",
        "text": ""
      }
    },
    {
      "id": 25,
      "chapterId": 21,
      "bookId": 9,
      "arabic": "حَدَّثَنَا حَجَّاجُ بْنُ مِنْهَالٍ  ، أَنْبَأَنَا أَبُو عَوَانَةَ  ، عَنْ الْأَعْمَشِ  ، عَنْ إِبْرَاهِيمَ  ، عَنْ عَلِيٍّ  ، قَالَ :\" لِلْأُمِّ ثُلُثُ جَمِيعِ الْمَالِ فِي امْرَأَةٍ وَأَبَوَيْنِ، وَفِي زَوْجٍ وَأَبَوَيْنِ \"",
      "english": {
        "narrator": "",
        "text": ""
      }
    },
    {
      "id": 26,
      "chapterId": 21,
      "bookId": 9,
      "arabic": "حَدَّثَنَا مُحَمَّدُ بْنُ عِيسَى  ، حَدَّثَنَا ابْنُ إِدْرِيسَ  ، عَنْ أَبِيهِ  ، عَنْ الْفُضَيْلِ بْنِ عَمْرٍو  ، عَنْ إِبْرَاهِيمَ  ، قَالَ : خَالَفَ ابْنُ عَبَّاسٍ   أَهْلَ الْقِبْلَةِ فِي امْرَأَةٍ وَأَبَوَيْنِ :\" جَعَلَ لِلْأُمِّ الثُّلُثَ مِنْ جَمِيعِ الْمَالِ \"",
      "english": {
        "narrator": "",
        "text": ""
      }
    },
    {
      "id": 27,
      "chapterId": 21,
      "bookId": 9,
      "arabic": "أَخْبَرَنَا مُحَمَّدُ بْنُ يُوسُفَ  ، عَنْ سُفْيَانَ الثَّوْرِيِّ  ، عَنْ أَشْعَثَ بْنِ أَبِي الشَّعْثَاءِ  ، عَنْ الْأَسْوَدِ بْنِ يَزِيدَ  ، قَالَ : \" قَضَى مُعَاذُ بْنُ جَبَلٍ   بِالْيَمَنِ فِي بِنْتٍ وَأُخْتٍ،فَأَعْطَى الْبِنْتَ النِّصْفَ، وَالْأُخْتَ النِّصْفَ \"",
      "english": {
        "narrator": "",
        "text": ""
      }
    },
    {
      "id": 28,
      "chapterId": 21,
      "bookId": 9,
      "arabic": "أَخْبَرَنَا مُحَمَّدُ بْنُ يُوسُفَ  ، حَدَّثَنَا سُفْيَانُ  ، عَنْ الْأَعْمَشِ  ، عَنْ إِبْرَاهِيمَ  ، عَنْ الْأَسْوَدِ بْنِ يَزِيدَ  : أَنَّ ابْنَ الزُّبَيْرِ كَانَ لَا يُوَرِّثُ الْأُخْتَ مِنْ الْأَبِ، وَالْأُمِّ مَعَ الْبِنْتِ حَتَّى حَدَّثَهُ الْأَسْوَدُ أَنَّ مُعَاذَ بْنَ جَبَلٍ  جَعَلَ لِلْبِنْتِ النِّصْفَ، وَلِلْأُخْتِ النِّصْفَ \"، فَقَالَ : أَنْتَ رَسُولِي إِلَى عَبْدِ اللَّهِ بْنِ عُتْبَة، فَأَخْبِرْهُ بِذَاكَ، وَكَانَ قَاضِيَهُ بِالْكُوفَةِ",
      "english": {
        "narrator": "",
        "text": ""
      }
    },
    {
      "id": 29,
      "chapterId": 21,
      "bookId": 9,
      "arabic": "حَدَّثَنَا بِشْرُ بْنُ عُمَرَ  ، قَالَ : سَأَلْتُ ابْنَ أَبِي الزِّنَادِ  ، عَنْ رَجُلٍ تَرَكَ بِنْتًا وَأُخْتًا؟ فَقَالَ : \" لِابْنَتِهِ النِّصْف، وَلأُخْتِهِ مَا بَقِيَ \" قَالَ : وَقَالَ : أَخْبَرَنِي أَبِي  ، عَنْ خَارِجَةَ بْنِ زَيْدٍ  : أَنَّ زَيْدَ بْنَ ثَابِتٍ   كَانَ\" يَجْعَلُ الْأَخَوَاتِ مَعَ الْبَنَاتِ عَصَبَةً، لَا يَجْعَلُ لَهُنَّ إِلَّا مَا بَقِيَ \"",
      "english": {
        "narrator": "",
        "text": ""
      }
    },
    {
      "id": 30,
      "chapterId": 21,
      "bookId": 9,
      "arabic": "حَدَّثَنَا مُحَمَّدُ بْنُ يُوسُفَ  ، حَدَّثَنَا سُفْيَانُ  ، عَنْ مَنْصُورٍ  ، وَالْأَعْمَشِ  ، عَنْ إِبْرَاهِيمَ   : فِي زَوْجٍ، وَأُمٍّ، وَإِخْوَةٍ لِأَبٍ وَأُم، وَإِخْوَةٍ لِأُمٍّ، قَالَ :كَانَ عُمَر  ، وَعَبْدُ اللَّه  ، ِوَزَيْدٌ   يُشَرِّكُونَ، وَقَالَ عُمَرُ : \" لَمْ يَزِدْهُمْ الْأَبُ إِلَّا قُرْبًا \"",
      "english": {
        "narrator": "",
        "text": ""
      }
    },
    {
      "id": 31,
      "chapterId": 21,
      "bookId": 9,
      "arabic": "حَدَّثَنَا مُحَمَّدٌ  ، حَدَّثَنَا سُفْيَانُ  ، عَنْ أَبِي إِسْحَاق  ، عَنْ الْحَارِثِ  ،  عَنْ عَلِيٍّ   : أَنَّهُ كَانَ\" لَا يُشَرِّكُ \"",
      "english": {
        "narrator": "",
        "text": ""
      }
    },
    {
      "id": 32,
      "chapterId": 21,
      "bookId": 9,
      "arabic": "أَخْبَرَنَا مُحَمَّدٌ  ، حَدَّثَنَا سُفْيَانُ  ، عَنْ سُلَيْمَانَ التَّيْمِيِّ  ، عَنْ أَبِي مِجْلَزٍ   :أَنَّ عُثْمَانَ  كَانَ يُشَرِّك، وَعَلِيٌّ   كَانَ لا يُشَرِّكُ \"",
      "english": {
        "narrator": "",
        "text": ""
      }
    },
    {
      "id": 33,
      "chapterId": 21,
      "bookId": 9,
      "arabic": "حَدَّثَنَا مُحَمَّدٌ  ، حَدَّثَنَا سُفْيَانُ  ، عَنْ ابْنِ ذَكْوَانَ  : \" أَنَّ زَيْدًا   كَانَيُشَرِّكُ \"",
      "english": {
        "narrator": "",
        "text": ""
      }
    },
    {
      "id": 34,
      "chapterId": 21,
      "bookId": 9,
      "arabic": "حَدَّثَنَا مُحَمَّدٌ ، حَدَّثَنَا سُفْيَانُ ، عَنْ عَبْدِ الْمَلِكِ بْنِ عُمَيْرٍ ، عَنْ شُرَيْح  : \" أَنَّهُ كَانَيُشَرِّكُ",
      "english": {
        "narrator": "",
        "text": ""
      }
    },
    {
      "id": 35,
      "chapterId": 21,
      "bookId": 9,
      "arabic": "حَدَّثَنَا مُحَمَّدُ بْنُ الصَّلْتِ  ، حَدَّثَنَا أَبُو شِهَابٍ  ، عَنْ الْحَجَّاجِ  ، عَنْ عَبْدِ الْمَلِكِ بْنِ الْمُغِيرَةِ  ، عَنْ سَعِيدِ بْنِ فَيْرُوزَ  ، عَنْ أَبِيه  : أَنَّ عُمَرَ   قَالَ فِي الْمُشَرَّكَة :\" لَمْ يَزِدْهُمْ الْأَبُ إِلَّا قُرْبًا",
      "english": {
        "narrator": "",
        "text": ""
      }
    },
    {
      "id": 36,
      "chapterId": 21,
      "bookId": 9,
      "arabic": "أَخْبَرَنَا أَبُو نُعَيْمٍ  ، حَدَّثَنَا زُهَيْرٌ  ، عَنْ أَبِي إِسْحَاق  ، عَنْ الْحَارِثِ الْأَعْوَرِ  ، قَالَ : أُتِيَ عَبْدُ اللَّهِ  فِي فَرِيضَةِ بَنِي عَمٍّ، أَحَدُهُمْ أَخٌ لِأُمٍّ، فَقَالَ : الْمَالُ أَجْمَعُ لِأَخِيهِ لِأُمِّه، فَأَنْزَلَهُ بِحِسَابِ، أَوْ بِمَنْزِلَةِ الْأَخِ مِنْ الْأَبِ وَالْأُمِّ، فَلَمَّا قَدِمَ عَلِيٌّ  ، سَأَلْتُهُ عَنْهَا، وَأَخْبَرْتُهُ بِقَوْلِ عَبْدِ اللَّهِ، فَقَالَ : \" يَرْحَمُهُ اللَّهُ، إِنْ كَانَ لَفَقِيهًا، أَمَّا أَنَافَلَمْ أَكُنْ لِأَزِيدَهُ عَلَى مَا فَرَضَ اللَّهُ لَهُ : سَهْمٌ السُّدُسُ، ثُمَّ يُقَاسِمُهُمْ كَرَجُلٍ مِنْهُمْ \"",
      "english": {
        "narrator": "",
        "text": ""
      }
    },
    {
      "id": 37,
      "chapterId": 21,
      "bookId": 9,
      "arabic": "حَدَّثَنَا مُحَمَّدُ بْنُ يُوسُفَ  ، حَدَّثَنَا سُفْيَانُ  ، عَنْ أَبِي إِسْحَاق  ، عَنْ الْحَارِثِ  ، عَنْ عَلِي : أَنَّهُ أُتِيَ فِي ابْنَيْ عَمٍّ أَحَدُهُمَا أَخٌ لِأُمٍّ، فَقِيلَ لِعَلِيٍّ : إِنَّ ابْنَ مَسْعُودٍ كَانَ يُعْطِيهِ الْمَالَ كُلَّهُ، فَقَالَ عَلِيٌّ   رَضِيَ اللَّهُ عَنْهُ : إِنْ كَانَ لَفَقِيهًا، وَلَوْ كُنْتُ أَنَا\" أَعْطَيْتُهُ السُّدُسَ، وَمَا بَقِيَ كَانَ بَيْنَهُمْ \"",
      "english": {
        "narrator": "",
        "text": ""
      }
    },
    {
      "id": 38,
      "chapterId": 21,
      "bookId": 9,
      "arabic": "حَدَّثَنَا مُحَمَّدُ بْنُ يُوسُفَ  ، حَدَّثَنَا سُفْيَانُ الثَّوْرِيُّ  ، عَنْ أَبِي قَيْسٍ الْأَوْدِيِّ  ، عَنْ هُزَيْلِ بْنِ شُرَحْبِيلَ  ، قَالَ : جَاءَ رَجُلٌ إِلَى أَبِي مُوسَى الْأَشْعَرِيِّ، وَإِلَى سَلْمَانَ بْنِ رَبِيعَةَ فَسَأَلَهُمَا عَنْ بِنْتٍ، وَبِنْتِ ابْنٍ، وَأُخْتٍ لِأُمٍّ وَأَبٍ، فَقَالَا : لِلِابْنَةِ النِّصْفُ، وَمَا بَقِيَ فَلِلْأُخْتِ، وَأْتِ ابْنَ مَسْعُودٍ فَإِنَّهُ سَيُتَابِعُنَا، فَجَاءَ الرَّجُلُ إِلَى عَبْدِ اللَّهِ  ، فَسَأَلَهُ عَنْ ذَلِكَ، فَقَالَ : لَقَدْ ضَلَلْتُ إِذًا، وَمَا أَنَا مِنْ الْمُهْتَدِينَ، وَإِنِّي أَقْضِي بِمَا \" قَضَى بِهِ رَسُولُ اللَّهِ صَلَّى اللَّهُ عَلَيْهِ وَسَلَّمَ :لِلِابْنَةِ النِّصْفُ، وَلِابْنَةِ الِابْنِ السُّدُسُ، وَمَا بَقِيَ فَلِلْأُخْتِ \"",
      "english": {
        "narrator": "",
        "text": ""
      }
    },
    {
      "id": 39,
      "chapterId": 21,
      "bookId": 9,
      "arabic": "أَخْبَرَنَا أَحْمَدُ بْنُ عَبْدِ اللَّهِ  ، حَدَّثَنَا أَبُو شِهَابٍ  ، عَنْ الْأَعْمَشِ  ، عَنْ مُسْلِمٍ  ، عَنْ مَسْرُوقٍ  ،  عَنْ عَبْدِ اللَّهِ   : أَنَّهُ كَانَ يَقُولُ فِي أَخَوَاتٍ لِأَبٍ وَأُمٍّ، وَإِخْوَةٍ وَأَخَوَاتٍ لِأَبٍ : قَالَ :\" لِلْأَخَوَاتِ لِلْأَبِ وَالْأُمِّ الثُّلُثَانِ، وَمَا بَقِيَ فَلِلذُّكُورِ دُونَ الْإِنَاثِ \"، فَقَدِمَ مَسْرُوقٌ الْمَدِينَةَ ، فَسَمِعَ قَوْلَ زَيْدٍ   فِيهَا فَأَعْجَبَهُ، فَقَالَ لَهُ بَعْضُ أَصْحَابِهِ : أَتَتْرُكُ قَوْلَ عَبْدِ اللَّهِ؟ قَالَ : إِنِّي أَتَيْتُ الْمَدِينَةَ فَوَجَدْتُ زَيْدَ بْنَ ثَابِتٍ مِنْ الرَّاسِخِينَ فِي الْعِلْمِ.\nقَالَ أَحْمَدُ : فَقُلْتُ لِأَبِي شِهَاب : وَكَيْفَ قَالَ زَيْدٌ فِيهَا؟ قَالَ : شَرَّكَ بَيْنَهُمْ",
      "english": {
        "narrator": "",
        "text": ""
      }
    },
    {
      "id": 40,
      "chapterId": 21,
      "bookId": 9,
      "arabic": "حَدَّثَنَا سَعِيدُ بْنُ الْمُغِيرَةِ  ، عَنْ عِيسَى بْنِ يُونُسَ  ، عَنْ إِسْمَاعِيل  ، قَالَ : ذَكَرْنَا عِنْدَ حَكِيمِ بْنِ جَابِر : أَنَّ ابْنَ مَسْعُودٍ  قَالَ فِي أَخَوَاتٍ لِأَبٍ وَأُمٍّ وَإِخْوَةٍ وَأَخَوَاتٍ لِأَبٍ : أَنَّهُ كَانَ يُعْطِي لِلْأَخَوَاتِ مِنْ الْأَبِ وَالْأُمِّ الثُّلُثَيْنِ، وَمَا بَقِيَ فَلِلذُّكُورِ دُونَ الْإِنَاثِ، فَقَالَ حَكِيمٌ  : قَالَ زَيْدُ بْنُ ثَابِتٍ   :\" هَذَا مِنْ عَمَلِ الْجَاهِلِيَّةِ أَنْ يَرِثَ الرِّجَالُ دُونَ النِّسَاءِ إِنَّ إِخْوَتَهُنَّ قَدْ رُدُّوا عَلَيْهِنَّ \"",
      "english": {
        "narrator": "",
        "text": ""
      }
    }
  ]
}