{
  "page": 44,
  "perPage": 50,
  "totalPages": 69,
  "totalCount": 3406,
  "nextPage": 45,
  "prevPage": 43,
  "items": [
    {
      "id": 41,
      "chapterId": 21,
      "bookId": 9,
      "arabic": "حَدَّثَنَا مُحَمَّدُ بْنُ يُوسُفَ  ، حَدَّثَنَا سُفْيَانُ  ، عَنْ مَعْبَدِ بْنِ خَالِدٍ  ، عَنْ مَسْرُوقٍ  ، عَنْ عَائِشَةَ   : \" أَنَّهَا كَانَتْتُشَرِّكُ بَيْنَ ابْنَتَيْنِ وَابْنَةِ ابْن، وَابْنِ ابْن : تُعْطِي الِابْنَتَيْنِ الثُّلُثَيْنِ، وَمَا بَقِيَ فَشَرِيكُهُمْ",
      "english": {
        "narrator": "",
        "text": ""
      }
    },
    {
      "id": 42,
      "chapterId": 21,
      "bookId": 9,
      "arabic": "وَكَانَ عَبْدُ اللَّهِ   لَا يُشَرِّكُ، يُعْطِي الذُّكُورَ دُونَ الْإِنَاثِ، وَقَالَ :\" الْأَخَوَاتُ بِمَنْزِلَةِ الْبَنَاتِ \"",
      "english": {
        "narrator": "",
        "text": ""
      }
    },
    {
      "id": 43,
      "chapterId": 21,
      "bookId": 9,
      "arabic": "أَخْبَرَنَا مُحَمَّدُ بْنُ يُوسُفَ  ، حَدَّثَنَا سُفْيَانُ  ، عَنْ أَبِي سَهْلٍ  ، عَنْ الشَّعْبِيِّ  : أَنَّ ابْنَ مَسْعُودٍ   كَانَ يَقُولُ فِي بِنْتٍ وَبَنَاتِ ابْنٍ، وَابْنِ ابْنٍ :\" إِنْ كَانَتِ الْمُقَاسَمَةُ بَيْنَهُمْ أَقَلَّ مِنْ السُّدُسِ، أَعْطَاهُمْ السُّدُسَ، وَإِنْ كَانَ أَكْثَرَ مِنَ السُّدُس، ِأَعْطَاهُمُ السُّدُسَ \"",
      "english": {
        "narrator": "",
        "text": ""
      }
    },
    {
      "id": 44,
      "chapterId": 21,
      "bookId": 9,
      "arabic": "حَدَّثَنَا مُحَمَّدٌ  ، حَدَّثَنَا سُفْيَانُ  ، عَنْ الْأَعْمَشِ  ، عَنْ إِبْرَاهِيمَ  ، عَنْ مَسْرُوقٍ  : أَنَّهُ كَانَ يُشَرِّكُ فَقَالَ لَهُ عَلْقَمَةُ : هَلْ أَحَدٌ مِنْهُمْ أَثْبَتُ مِنْ عَبْدِ اللَّهِ؟ فَقَالَ : لَا، وَلَكِنِّي رَأَيْتُ زَيْدَ بْنَ ثَابِتٍ  ، وَأَهْلَ الْمَدِينَةِ\" يُشَرِّكُونَ فِي ابْنَتَيْنِ وَبِنْتِ ابْن، ٍوَابْنِ ابْن، وَأُخْتَيْنِ \"",
      "english": {
        "narrator": "",
        "text": ""
      }
    },
    {
      "id": 45,
      "chapterId": 21,
      "bookId": 9,
      "arabic": "حَدَّثَنَا مُحَمَّدُ بْنُ يُوسُفَ ، حَدَّثَنَا سُفْيَانُ ، عَنْ هِشَامٍ ، عَنْ مُحَمَّدِ بْنِ سِيرِينَ ، عَنْ شُرَيْحٍ  : \" فِي امْرَأَةٍ تَرَكَتْ زَوْجَهَا، وَأُمَّهَا، وَأُخْتَهَا لِأَبِيهَا وَأُمِّهَا، وَأُخْتَهَا لِأَبِيهَا، وَإِخْوَتَهَا لِأُمِّهَا،جَعَلَهَا مِنْ سِتَّةٍ، ثُمَّ رَفَعَهَا فَبَلَغَتْ عَشْرَةً، لِلزَّوْجِ النِّصْفُ ثَلَاثَةُ أَسْهُمٍ، وَلِلْأُخْتِ مِنْ الْأَبِ وَالْأُمِّ النِّصْفُ ثَلَاثَةُ أَسْهُمٍ، وَلِلْأُمِّ السُّدُسُ سَهْمٌ، وَلِلْإِخْوَةِ مِنْ الْأُمِّ الثُّلُثُ سَهْمَانِ، وَلِلْأُخْتِ مِنْ الْأَبِ سَهْمٌ تَكْمِلَةُ الثُّلُثَيْنِ \"",
      "english": {
        "narrator": "",
        "text": ""
      }
    },
    {
      "id": 46,
      "chapterId": 21,
      "bookId": 9,
      "arabic": "حَدَّثَنَا مُحَمَّدُ بْنُ عُيَيْنَةَ  ، عَنْ عَلِيِّ بْنِ مُسْهِرٍ  ، عَنْ أَشْعَثَ  ، عَنْ الشَّعْبِيِّ  : أَنَّ عَلِيًّا  ، وَزَيْدًا   كَانَا\" لَا يَحْجُبَانِ بِالْكُفَّار، وَلا بِالْمَمْلُوكِينَ، وَلَا يُوَرِّثَانِهِمْ شَيْئًا \"",
      "english": {
        "narrator": "",
        "text": ""
      }
    },
    {
      "id": 47,
      "chapterId": 21,
      "bookId": 9,
      "arabic": "وَكَانَ عَبْدُ اللَّهِ  \" يَحْجُبُ بِالْكُفَّارِ وَبِالْمَمْلُوكِينَ، وَلَا يُوَرِّثُهُمْ \"",
      "english": {
        "narrator": "",
        "text": ""
      }
    },
    {
      "id": 48,
      "chapterId": 21,
      "bookId": 9,
      "arabic": "حَدَّثَنَا سُلَيْمَانُ بْنُ حَرْبٍ  ، حَدَّثَنَا شُعْبَةُ  ، عَنْ الْحَكَمِ  ، عَنْ إِبْرَاهِيمَ  : أَنَّ عَلِيًّا  ، وَزَيْدًا  ، قَالَا :\" الْمَمْلُوكُونَ، وَأَهْلُ الْكِتَابِ لا يَحْجُبُونَ وَلا يَرِثُونَ",
      "english": {
        "narrator": "",
        "text": ""
      }
    },
    {
      "id": 49,
      "chapterId": 21,
      "bookId": 9,
      "arabic": "وَقَالَ عَبْدُ اللَّهِ   :\" يَحْجُبُونَ وَلَا يَرِثُونَ \"",
      "english": {
        "narrator": "",
        "text": ""
      }
    },
    {
      "id": 50,
      "chapterId": 21,
      "bookId": 9,
      "arabic": "أَخْبَرَنَا يَزِيدُ بْنُ هَارُونَ  ، أَخْبَرَنَا يَحْيَى  ، عَنْ سَعِيدٍ  : أَنَّ عُمَرَ   \" كَانَكَتَبَ مِيرَاثَ الْجَدِّ، حَتَّى إِذَا طُعِنَ دَعَا بِهِ فَمَحَاهُ، ثُمّ قَالَ : سَتَرَوْنَ رَأْيَكُمْ فِيهِ \"",
      "english": {
        "narrator": "",
        "text": ""
      }
    },
    {
      "id": 51,
      "chapterId": 21,
      "bookId": 9,
      "arabic": "أَخْبَرَنَا يَزِيدُ ، أنبأنا أَشْعَثُ ، عَنْ ابْنِ سِيرِينَ ، قَالَ : قُلْتُ لِعَبِيدَةَ  : حَدِّثْنِي عَنِ الْجَدِّ، فَقَالَ :\" إِنِّي لَأَحْفَظُ فِي الْجَدِّ ثَمَانِينَ قَضِيَّةً مُخْتَلِفَةً \"",
      "english": {
        "narrator": "",
        "text": ""
      }
    },
    {
      "id": 52,
      "chapterId": 21,
      "bookId": 9,
      "arabic": "أَخْبَرَنَا أَبُو غَسَّانَ  ، حَدَّثَنَا إِسْرَائِيلُ  ، عَنْ أَبِي إِسْحَاق  ، عَنْ عُبَيْدِ بْنِ عَمْرٍو  ، عَنْ عَلِيٍّ  ، قَالَ : أَتَاهُ رَجُلٌ فَسَأَلَهُ عَنْ فَرِيضَة، فَقَالَ :\" إِنْ لَمْ يَكُنْ فِيهَا جَدٌّ، فَهَاتِهَا \"",
      "english": {
        "narrator": "",
        "text": ""
      }
    },
    {
      "id": 53,
      "chapterId": 21,
      "bookId": 9,
      "arabic": "حَدَّثَنَا مُحَمَّدُ بْنُ يُوسُفَ  ، حَدَّثَنَا سُفْيَانُ  ، عَنْ أَبِي إِسْحَاق  ، عَنْ عُبَيْدِ بْنِ عَمْرٍو  قَالَ : جَاءَ رَجُلٌ إِلَى عَلِيٍّ   فَسَأَلَهُ عَنْ فَرِيضَةٍ، فَقَالَ :\" إِنْ لَمْ يَكُنْ فِيهَا جَدٌّ، فَهَاتِهَا \"",
      "english": {
        "narrator": "",
        "text": ""
      }
    },
    {
      "id": 54,
      "chapterId": 21,
      "bookId": 9,
      "arabic": "حَدَّثَنَا مُحَمَّدُ بْنُ يُوسُفَ  ، حَدَّثَنَا سُفْيَانُ  ، عَنْ أَيُّوبَ السَّخْتِيَانِيِّ  ، عَنْ سَعِيدِ بْنِ جُبَيْرٍ  ، عَنْ رَجُلٍ  مِنْ مُرَادٍ ، ٍسَمِعَ عَلِيًّا  ، يَقُولُ :\" مَنْ سَرَّهُ أَنْ يَتَقَحَّمَ جَرَاثِيمَ جَهَنَّمَ، فَلْيَقْضِ بَيْنَ الْجَدِّ وَالْإِخْوَةِ",
      "english": {
        "narrator": "",
        "text": ""
      }
    },
    {
      "id": 55,
      "chapterId": 21,
      "bookId": 9,
      "arabic": "أَخْبَرَنَا مُسْلِمُ بْنُ إِبْرَاهِيمَ  ، حَدَّثَنَا وُهَيْبٌ  ، حَدَّثَنَا خَالِدٌ  ، عَنْ أَبِي نَضْرَةَ  ، عَنْ أَبِي سَعِيدٍ الْخُدْرِيِّ  .\nح وَعَنْ عِكْرِمَةَ  : أَنَّ أَبَا بَكْرٍ الصِّدِّيقَ  \" جَعَلَ الْجَدَّ أَبًا \".\nحَدَّثَنَا مُحَمَّدُ بْنُ يُوسُفَ  ، حَدَّثَنَا سُفْيَانُ  ، عَنْ سُلَيْمَانَ الشَّيْبَانِيِّ  ، عَنْ كُرْدُوسٍ  ، عَن أبِى بُرْدَةَ  ، عَنْ أَبِي مُوسَى  : أنَّ أَبَا بَكْرٍ الصِّدِّيقِ   جَعَلَ الْجَدَّ أَبًا",
      "english": {
        "narrator": "",
        "text": ""
      }
    },
    {
      "id": 56,
      "chapterId": 21,
      "bookId": 9,
      "arabic": "حَدَّثَنَا أَحْمَدُ بْنُ عَبْدِ اللَّهِ  ، حَدَّثَنَا أَبُو شِهَابٍ  ، عَنْ الشَّيْبَانِيِّ  ، عَنْ أَبِي بُرْدَةَ بْنِ أَبِي مُوسَى  ، عَنْ كُرْدُوسٍ  ، عَنْ أَبِي مُوسَى  ، أَنَّ أَبَا بَكْرٍ  \" جَعَلَ الْجَدَّ أَبًا \"",
      "english": {
        "narrator": "",
        "text": ""
      }
    },
    {
      "id": 57,
      "chapterId": 21,
      "bookId": 9,
      "arabic": "أَخْبَرَنَا الْأَسْوَدُ بْنُ عَامِرٍ  ، حَدَّثَنَا شُعْبَةُ  ، عَنْ عَمْرِو بْنِ مُرَّةَ  ، عَنْ أَبِي بُرْدَةَ  ، عَنْ مَرْوَانَ  ، عَنْ عُثْمَانَ  : أَنَّ أَبَا بَكْرٍ   كَانَ\" يَجْعَلُ الْجَدَّ أَبًا \"",
      "english": {
        "narrator": "",
        "text": ""
      }
    },
    {
      "id": 58,
      "chapterId": 21,
      "bookId": 9,
      "arabic": "حَدَّثَنَا عُبَيْدُ اللَّهِ  ، وَمُحَمَّدُ بْنُ يُوسُفَ  ، عَنْ إِسْرَائِيلَ  ، عَنْ أَبِي إِسْحَاق  ، عَنْ عُثْمَانَ  : أَنَّ أَبَا بَكْرٍ   كَانَ\" يَجْعَلُ الْجِدَّ أَبًا \"",
      "english": {
        "narrator": "",
        "text": ""
      }
    },
    {
      "id": 59,
      "chapterId": 21,
      "bookId": 9,
      "arabic": "أَخْبَرَنَا الْأَسْوَدُ بْنُ عَامِرٍ  ، حَدَّثَنَا شُعْبَةُ  ، عَنْ عَمْرِو بْنِ مُرَّةَ  ، عَنْ أَبِي بُرْدَةَ  ، قَالَ : لَقِيتُ مَرْوَانَ بْنَ الْحَكَمِ بِالْمَدِينَةِ ، فَقَالَ : يَا ابْنَ أَبِي مُوسَى، أَلَمْ أُخْبَرْ أَنَّ الْجَدَّ لَا يُنَزَّلُ فِيكُمْ مَنْزِلَةَ الْأَبِ، وَأَنْتَ لَا تُنْكِرُ؟ قَالَ : قُلْتُ : وَلَوْ كُنْتَ أَنْتَ لَمْ تُنْكِرْ، قَالَ مَرْوَانُ  : فَأَنَا أَشْهَدُ عَلَى عُثْمَانَ بْنِ عَفَّانَ  أَنَّهُ شَهِدَ عَلَى أَبِي بَكْرٍ   أَنَّهُ\" جَعَلَ الْجَدَّ أَبًا، إِذَا لَمْ يَكُنْ دُونَهُ أَبٌ \"",
      "english": {
        "narrator": "",
        "text": ""
      }
    },
    {
      "id": 60,
      "chapterId": 21,
      "bookId": 9,
      "arabic": "حَدَّثَنَا الْأَسْوَدُ بْنُ عَامِرٍ  ، أَنْبَأَنَا شُعْبَةُ  ، عَنْ خَالِدٍ الْحَذَّاءِ  ، عَنْ أَبِي نَضْرَةَ  ، وَعَنْ عِكْرِمَةَ  ، عَنْ ابْنِ عَبَّاسٍ  : أَنَّ أَبَا بَكْرٍ   كَانَ\" يَجْعَلُ الْجَدَّ أَبًا \"",
      "english": {
        "narrator": "",
        "text": ""
      }
    },
    {
      "id": 61,
      "chapterId": 21,
      "bookId": 9,
      "arabic": "حَدَّثَنَا مُسْلِمُ بْنُ إِبْرَاهِيمَ  ، حَدَّثَنَا وُهَيْبٌ  ، حَدَّثَنَا أَيُّوبُ  ، عَنْ عِكْرِمَةَ  ، عَنْ ابْنِ عَبَّاسٍ  ، قَالَ : جَعَلَهُ الَّذِي قَالَ رَسُولُ اللَّهِ صَلَّى اللَّهُ عَلَيْهِ وَسَلَّمَ :\" لَوْ كُنْتُ مُتَّخِذًا أَحَدًا خَلِيلًا، لَاتَّخَذْتُهُ خَلِيلًا، وَلَكِنْ أُخُوَّةُ الْإِسْلَامِ أَفْضَلُ، يَعْنِي أَبَا بَكْرٍ   جَعَلَهُ أَبًا، يَعْنِي : الْجَدَّ \"",
      "english": {
        "narrator": "",
        "text": ""
      }
    },
    {
      "id": 62,
      "chapterId": 21,
      "bookId": 9,
      "arabic": "حَدَّثَنَا مُسْلِمٌ  ، حَدَّثَنَا وُهَيْبٌ  ، حَدَّثَنَا أَيُّوبُ  ، عَنْ ابْنِ أَبِي مُلَيْكَةَ  ، عَنْ ابْنِ الزُّبَيْر  : أَنَّ أَبَا بَكْرٍ  \" جَعَلَ الْجَدَّ أَبًا \"",
      "english": {
        "narrator": "",
        "text": ""
      }
    },
    {
      "id": 63,
      "chapterId": 21,
      "bookId": 9,
      "arabic": "حَدَّثَنَا يَزِيدُ بْنُ هَارُونَ  ، أَنْبَأَنَا الْأَشْعَثُ  ، عَنْ الْحَسَنِ  ، قَالَ : إِنَّ الْجَدَّ قَدْ مَضَتْ سُنَّتُهُ، وَإِنَّ أَبَا بَكْرٍ  \" جَعَلَ الْجَدَّ أَبًا \"، وَلَكِنَّ النَّاسَ تَحَيَّرُوا",
      "english": {
        "narrator": "",
        "text": ""
      }
    },
    {
      "id": 64,
      "chapterId": 21,
      "bookId": 9,
      "arabic": "أَخْبَرَنَا مُحَمَّدُ بْنُ عُيَيْنَةَ ، عَنْ عَلِيِّ بْنِ مُسْهِرٍ ، عَنْ عَاصِمٍ ،  عَنْ الشَّعْبِيِّ ، قَالَ :\" إِنَّ أَوَّلَ جَدٍّ وَرِثَ فِي الْإِسْلَامِ عُمَرُ",
      "english": {
        "narrator": "",
        "text": ""
      }
    },
    {
      "id": 65,
      "chapterId": 21,
      "bookId": 9,
      "arabic": "حَدَّثَنَا أَبُو نُعَيْمٍ  ، حَدَّثَنَا حَسَنٌ  ، عَنْ عَاصِمٍ  ، عَنْ الشَّعْبِيِّ  ، قَالَ :\" أَوَّلُ جَدٍّ وَرِثَ فِي الْإِسْلَامِ عُمَر، فَأَخَذَ مَالَهُ، فَأَتَاهُ عَلِيٌّ  ، وَزَيْدٌ  ، فَقَالَا : لَيْسَ لَكَ ذَاكَ، إِنَّمَا أَنْتَ كَأَحَدِ الْأَخَوَيْنِ \"",
      "english": {
        "narrator": "",
        "text": ""
      }
    },
    {
      "id": 66,
      "chapterId": 21,
      "bookId": 9,
      "arabic": "حَدَّثَنَا عُبَيْدُ اللَّهِ بْنُ مُوسَى  ، عَنْ عِيسَى الْخياط  ، عَنْ الشَّعْبِيِّ  ، قَالَ : كَانَ عُمَرُ  \" يُقَاسِمُ بِالْجَدِّ مَعَ الْأَخِ وَالْأَخَوَيْنِ، فَإِذَا زَادُوا أَعْطَاهُ الثُّلُثَ، وَكَانَ يُعْطِيهِ مَعَ الْوَلَدِ السُّدُسَ",
      "english": {
        "narrator": "",
        "text": ""
      }
    },
    {
      "id": 67,
      "chapterId": 21,
      "bookId": 9,
      "arabic": "حَدَّثَنَا مُسْلِمُ بْنُ إِبْرَاهِيمَ  ، حَدَّثَنَا وُهَيْبٌ  ، حَدَّثَنَا هِشَامُ بْنُ عُرْوَةَ  ، عَنْ أَبِيهِ  ، عَنْ مَرْوَانَ بْنِ الْحَكَمِ  : أَنَّ عُمَرَ بْنَ الْخَطَّابِ   لَمَّا طُعِنَ، اسْتَشَارَهُمْ فِي الْجَدِّ، فَقَالَ :\" إِنِّي كُنْتُ رَأَيْتُ فِي الْجَدِّ رَأْيًا، فَإِنْ رَأَيْتُمْ أَنْ تَتَّبِعُوهُ، فَاتَّبِعُوهُ، فَقَالَ لَهُ عُثْمَانُ   : إِنْ نَتَّبِعْ رَأْيَكَ فَإِنَّهُ رَشَدٌ، وَإِنْ نَتَّبِعْ رَأْيَ الشَّيْخِ، فَنِعْمَ ذُو الرَّأْيِ كَانَ",
      "english": {
        "narrator": "",
        "text": ""
      }
    },
    {
      "id": 68,
      "chapterId": 21,
      "bookId": 9,
      "arabic": "أَخْبَرَنَا مُحَمَّدُ بْنُ عُيَيْنَةَ  ، عَنْ عَلِيِّ بْنِ مُسْهِرٍ  ، عَنْ الشَّيْبَانِيِّ  ، عَنْ الشَّعْبِيِّ  ، قَالَ : كَتَبَ ابْنُ عَبَّاسٍ إِلَى عَلِيّ وَابْنُ عَبَّاسٍ بِالْبَصْرَةِ : إِنِّي أُتِيتُ بِجَدٍّ وَسِتَّةِ إِخْوَةٍ، فَكَتَبَ إِلَيْهِ عَلِيٌّ   :\" أَنْ أَعْطِ الْجَدَّ سُدسا، وَلَا تُعْطِهِ أَحَدًا بَعْدَهُ",
      "english": {
        "narrator": "",
        "text": ""
      }
    },
    {
      "id": 69,
      "chapterId": 21,
      "bookId": 9,
      "arabic": "حَدَّثَنَا أَبُو نُعَيْمٍ ، حَدَّثَنَا حَسَنٌ ، عَنْ إِسْمَاعِيل ، عَنْ الشَّعْبِيِّ  فِي سِتَّةِ إِخْوَةٍ وَجَدٍّ، قَالَ :\" أَعْطِ الْجَدَّ السُّدُسَ.\n قَالَ أَبُو مُحَمَّد : كَأَنَّهُ يَعْنِي : عَلِيًّا رِضْوَانُ اللَّهِ عَلَيْهِ الشَّعْبِيُّ يَرْوِيهِ عَنْ عَلِيٍّ رِضْوَانُ اللَّهِ عَلَيْهِ",
      "english": {
        "narrator": "",
        "text": ""
      }
    },
    {
      "id": 70,
      "chapterId": 21,
      "bookId": 9,
      "arabic": "حَدَّثَنَا سُلَيْمَانُ بْنُ حَرْبٍ  ، حَدَّثَنَا شُعْبَةُ  ، عَنْ عَمْرِو بْنِ مُرَّةَ  ، عَنْ عَبْدِ اللَّهِ بْنِ سَلَمَةَ  : أَنَّ عَلِيًّا   كَانَ\" يَجْعَلُ الْجَدَّ أَخًا مَتَى يَكُونَ سَادِسًا",
      "english": {
        "narrator": "",
        "text": ""
      }
    },
    {
      "id": 71,
      "chapterId": 21,
      "bookId": 9,
      "arabic": "أَخْبَرَنَا أَبُو النُّعْمَانِ  ، حَدَّثَنَا وُهَيْبٌ  ، حَدَّثَنَا يُونُسُ  ، عَنْ الْحَسَنِ  : أَنَّ عَلِيًّا   كَانَ\" يُشَرِّكُ الْجَدَّ مَعَ الْإِخْوَةِ إِلَى السُّدُسِ",
      "english": {
        "narrator": "",
        "text": ""
      }
    },
    {
      "id": 72,
      "chapterId": 21,
      "bookId": 9,
      "arabic": "حَدَّثَنَا هَاشِمُ بْنُ الْقَاسِمِ  ، حَدَّثَنَا شُعْبَةُ  ، عَنْ عَمْرِو بْنِ مُرَّةَ  ، عَنْ عَبْدِ اللَّهِ بْنِ سَلَمَةَ  ، قَالَ : كَانَ عَلِيٌّ  \" يُشَرِّكُ بَيْنَ الْجَدِّ وَالْإِخْوَةِ حَتَّى يَكُونَ سَادِسًا",
      "english": {
        "narrator": "",
        "text": ""
      }
    },
    {
      "id": 73,
      "chapterId": 21,
      "bookId": 9,
      "arabic": "حَدَّثَنَا مُحَمَّدُ بْنُ يُوسُفَ  ، حَدَّثَنَا سُفْيَانُ  ، عَنْ الْأَعْمَشِ  ، عَنْ إِبْرَاهِيمَ  ، قَالَ : كَانَ عَلِيٌّ  \" يُشَرِّكُ الْجَدَّ إِلَى سِتَّةٍ مَعَ الْإِخْوَةِ، يُعْطِي كُلَّ صَاحِبِ فَرِيضَةٍ فَرِيضَتَهُ، وَلَا يُوَرِّثُ أَخًا لِأُمٍّ مَعَ جَدٍّ، وَلَا أُخْتًا لِأُمٍّ، وَلَا يَزِيدُ الْجَدَّ مَعَ الْوَلَدِ عَلَى السُّدُسِ، إِلَّا أَنْ يَكُونَ غَيْرُهُ، وَلَا يُقَاسِمُ بِأَخٍ لِأَبٍ مَعَ أَخٍ لِأَبٍ وَأُمٍّ، وَإِذَا كَانَتْ أُخْتٌ لِأَبٍ وَأُمٍّ، وَأَخٌ لِأَبٍ، أَعْطَى الْأُخْتَ النِّصْفَ، وَالنِّصْفَ الْآخَرَ بَيْنَ الْجَدِّ وَالْأَخِ نِصْفَيْنِ، وَإِذَا كَانُوا إِخْوَةً وَأَخَوَاتٍ، شَرَّكَهُمْ مَعَ الْجَدِّ إِلَى السُّدُسِ",
      "english": {
        "narrator": "",
        "text": ""
      }
    },
    {
      "id": 74,
      "chapterId": 21,
      "bookId": 9,
      "arabic": "حَدَّثَنَا مُحَمَّدُ بْنُ يُوسُفَ  ، عَنْ سُفْيَانَ  ، عَنْ الْعَبْسِيِّ هُوَ عَبْدُ اللَّهِ بْنُ خَالِدٍ  ، عَنْ عَبْدِ الرَّحْمَنِ بْنِ مَعْقِلٍ  ، قَالَ : سُئِلَ ابْنُ عَبَّاسٍ   عَنْ الْجَد؟ فَقَالَ :\" أَيُّ أَبٍ لَكَ أَكْبَر؟ فَقُلْتُ أَنَا : آدَمُ ، قَالَ : أَلَمْ تَسْمَعْ إِلَى قَوْلِ اللَّهِ تَعَالَى : # يَا بَنِي آدَمَ سورة الأعراف آية 26 #",
      "english": {
        "narrator": "",
        "text": ""
      }
    },
    {
      "id": 75,
      "chapterId": 21,
      "bookId": 9,
      "arabic": "أَخْبَرَنَا مُحَمَّدُ بْنُ يُوسُفَ  ، حَدَّثَنَا سُفْيَانُ  ، عَنْ إِسْمَاعِيل بْنِ سُمَيْعٍ  ، عَنْ رَجُلٍ  ، عَنْ ابْنِ عَبَّاسٍ  ، قَالَ :\" لَوَدِدْتُ أَنِّي وَالَّذِينَ يُخَالِفُونِي فِي الْجَدِّ تَلَاعَنَّا، أَيُّنَا أَسْوَأُ قَوْلًا",
      "english": {
        "narrator": "",
        "text": ""
      }
    },
    {
      "id": 76,
      "chapterId": 21,
      "bookId": 9,
      "arabic": "حَدَّثَنَا مُسْلِمُ بْنُ إِبْرَاهِيمَ  ، حَدَّثَنَا وُهَيْبٌ  ، حَدَّثَنَا ابْنُ طَاوُسٍ  ، عَنْ أَبِيهِ  ، عَنْ ابْنِ عَبَّاسٍ   : أَنَّهُ\" جَعَلَ الْجَدَّ أَبًا \"",
      "english": {
        "narrator": "",
        "text": ""
      }
    },
    {
      "id": 77,
      "chapterId": 21,
      "bookId": 9,
      "arabic": "أَخْبَرَنَا أَبُو نُعَيْمٍ  ، حَدَّثَنَا زُهَيْرٌ  ، عَنْ أَبِي إِسْحَاق  قَالَ : دَخَلْتُ عَلَى شُرَيْحٍ وَعِنْدَهُ عَامِرٌ، وَإِبْرَاهِيمُ، وَعَبْدُ الرَّحْمَنِ بْنُ عَبْدِ اللَّهِ فِي فَرِيضَةِ امْرَأَةٍ مِنَّا : الْعَالِيَةِ ، تَرَكَتْ زَوْجَهَا، وَأُمَّهَا، وَأَخَاهَا لِأَبِيهَا، وَجَدَّهَا، فَقَالَ لِي : هَلْ مِنْ أُخْتٍ؟ قُلْتُ : لَا، قَالَ : لِلْبَعْلِ الشَّطْرُ وَلِلْأُمِّ الثُّلُثُ، قَالَ : فَجَهِدْتُ عَلَى أَنْ يُجِيبَنِي، فَلَمْ يُجِبْنِي إِلَّا بِذَلِكَ، فَقَالَ إِبْرَاهِيمُ، وَعَامِرٌ، وَعَبْدُ الرَّحْمَنِ بْنُ عَبْدِ اللَّهِ : مَا جَاءَ أَحَدٌ بِفَرِيضَةٍ أَعْضَلَ مِنْ فَرِيضَةٍ جِئْتَ بِهَا، قَالَ : فَأَتَيْتُ عَبِيدَةَ السَّلْمَانِيَّ وَكَانَ يُقَال : لَيْسَ بِالْكُوفَةِ أَحَدٌ أَعْلَمَ بِفَرِيضَةٍ مِنْ عَبِيدَةَ، وَالْحَارِثِ الْأَعْوَرَ، وَكَانَ عَبِيدَةُ يَجْلِسُ فِي الْمَسْجِدِ، فَإِذَا وَرَدَتْ عَلَى شُرَيْحٍ فَرِيضَةٌ فِيهَا جَدٌّ، رَفَعَهُمْ إِلَى عَبِيدَةَ، فَفَرَضَ فَسَأَلْتُهُ، فَقَالَ : إِنْ شِئْتُمْ نَبَّأْتُكُمْ بِفَرِيضَةِ عَبْدِ اللَّهِ بْنِ مَسْعُودٍ   فِي هَذَا :\" جَعَلَ لِلزَّوْجِ ثَلَاثَةَ أَسْهُمٍ النِّصْفَ، وَلِلْأُمِّ ثُلُثُ مَا بَقِيَ، وَهُوَ السُّدُسُ مِنْ رَأْسِ الْمَالِ، وَلِلْأَخِ سَهْمٌ، وَلِلْجَدِّ سَهْمٌ، قَالَ أَبُو إِسْحَاقَ : الْجَدُّ أَبُو الْأَبِ",
      "english": {
        "narrator": "",
        "text": ""
      }
    },
    {
      "id": 78,
      "chapterId": 21,
      "bookId": 9,
      "arabic": "أَخْبَرَنَا أَبُو النُّعْمَانِ  ، حَدَّثَنَا وُهَيْبٌ  ، حَدَّثَنَا يُونُسُ  ، عَنْ الْحَسَنِ  : أَنَّ زَيْدًا   كَانَ\" يُشَرِّكُ الْجَدَّ مَعَ الْإِخْوَةِ إِلَى الثُّلُثِ \"",
      "english": {
        "narrator": "",
        "text": ""
      }
    },
    {
      "id": 79,
      "chapterId": 21,
      "bookId": 9,
      "arabic": "حَدَّثَنَا عُمَرُ بْنُ حَفْصِ بْنِ غِيَاثٍ  ، حَدَّثَنَا أَبِي  ، حَدَّثَنَا الْأَعْمَشُ  ، عَنْ إِبْرَاهِيمَ  ، عَنْ زَيْدِ بْنِ ثَابِتٍ   : أَنَّهُ كَانَ\" يُقَاسِمُ بِالْجَدِّ مَعَ الْإِخْوَةِ إِلَى الثُّلُثِ، ثُمَّ لَا يُنْقِصُهُ \"",
      "english": {
        "narrator": "",
        "text": ""
      }
    },
    {
      "id": 80,
      "chapterId": 21,
      "bookId": 9,
      "arabic": "حَدَّثَنَا سَعِيدُ بْنُ الْمُغِيرَةِ  ، عَنْ عِيسَى بْنِ يُونُسَ  ، عَنْ إِسْمَاعِيل  ، قَالَ : قَالَ عَامِرٌ   :\" خُذْ مِنْ أَمْرِ الْجَدِّ مَا اجْتَمَعَ النَّاسُ عَلَيْهِ، قَالَ أَبُو مُحَمَّدٍ : يَعْنِي قَوْلَ زَيْدٍ",
      "english": {
        "narrator": "",
        "text": ""
      }
    },
    {
      "id": 81,
      "chapterId": 21,
      "bookId": 9,
      "arabic": "أَخْبَرَنَا سَعِيدُ بْنُ عَامِرٍ  ، عَنْ هَمَّامٍ  ، عَنْ قَتَادَةَ  : أَنَّ زَيْدَ بْنَ ثَابِتٍ   قَالَ فِي أُخْتٍ، وَأُمٍّ، ٍّوَزَوْجٍ، وَجَدٍّ، قَالَ :\" جَعَلَهَا مِنْ سَبْعٍ وَعِشْرِينَ : لِلْأُمِّ سِتَّةٌ، وَلِلزَّوْجِ تِسْعَةٌ، وَلِلْجَدِّ ثَمَانِيَةٌ، وَلِلْأُخْتِ أَرْبَعَةٌ",
      "english": {
        "narrator": "",
        "text": ""
      }
    },
    {
      "id": 82,
      "chapterId": 21,
      "bookId": 9,
      "arabic": "أَخْبَرَنَا يَزِيدُ بْنُ هَارُونَ  ، حَدَّثَنَا الْأَشْعَثُ  ، عَنْ ابْنِ سِيرِينَ  ، عَنْ ابْنِ مَسْعُودٍ  ، قَالَ :\" إِنَّ أَوَّلَ جَدَّةٍ أُطْعِمَتْ فِي الْإِسْلَامِ سَهْمًا أَمُّ أَبٍ، وَابْنُهَا حَيٌّ",
      "english": {
        "narrator": "",
        "text": ""
      }
    },
    {
      "id": 83,
      "chapterId": 21,
      "bookId": 9,
      "arabic": "حَدَّثَنَا أَبُو نُعَيْمٍ  ، حَدَّثَنَا شَرِيكٌ  ، عَنْ لَيْثٍ  ، عَنْ طَاوُسٍ  ، عَنْ ابْنِ عَبَّاسٍ   : \" أَنَّ النَّبِيَّ صَلَّى اللَّهُ عَلَيْهِ وَسَلَّمَأَطْعَمَ جَدَّةً سُدُسًا \"",
      "english": {
        "narrator": "",
        "text": ""
      }
    },
    {
      "id": 84,
      "chapterId": 21,
      "bookId": 9,
      "arabic": "حَدَّثَنَا أَبُو نُعَيْمٍ  ، حَدَّثَنَا سُفْيَانُ  ، عَنْ ابْنِ جُرَيْجٍ  ، عَنْ إِبْرَاهِيمَ بْنِ مَيْسَرَةَ  ، عَنْ سَعِيدِ بْنِ الْمُسَيِّبِ  : أَنَّ عُمَرَ  \" وَرَّثَ جَدَّةً مَعَ ابْنِهَا \"",
      "english": {
        "narrator": "",
        "text": ""
      }
    },
    {
      "id": 85,
      "chapterId": 21,
      "bookId": 9,
      "arabic": "حَدَّثَنَا حَجَّاجُ بْنُ مِنْهَالٍ  ، حَدَّثَنَا شُعْبَةُ  ، أَخْبَرَنِي مَنْصُورُ بْنُ الْمُعْتَمِرِ  ، قَالَ : سَمِعْتُ إِبْرَاهِيمَ  ، قَالَ :\" أَطْعَمَ رَسُولُ اللَّهِ صَلَّى اللَّهُ عَلَيْهِ وَسَلَّمَ ثَلَاثَ جَدَّاتٍ سُدُسًا.\nقَالَ : قُلْتُ لِإِبْرَاهِيمَ : مَنْ هُنَّهْ؟ قَالَ : جَدَّتَاكَ مِنْ قِبَلِ أَبِيكَ، وَجَدَّتُكَ مِنْ قِبَلِ أُمِّكَ \"",
      "english": {
        "narrator": "",
        "text": ""
      }
    },
    {
      "id": 86,
      "chapterId": 21,
      "bookId": 9,
      "arabic": "حَدَّثَنَا حَجَّاجُ بْنُ مِنْهَالٍ  ، حَدَّثَنَا يَزِيدُ بْنُ إِبْرَاهِيمَ  ، قَالَ : أَنْبَأَنِي الْحَسَنُ  ، قَالَ :\" تَرِثُ الْجِدَّةُ وَابْنُهَا حَيٌّ \"",
      "english": {
        "narrator": "",
        "text": ""
      }
    },
    {
      "id": 87,
      "chapterId": 21,
      "bookId": 9,
      "arabic": "حَدَّثَنَا سُلَيْمَانُ بْنُ حَرْبٍ ، حَدَّثَنَا حَمَّادُ بْنُ سَلَمَةَ ، عَنْ دَاوُدَ ، عَنِ الشَّعْبِيِّ ، قَالَ :\" لَا تَرِثُ أُمُّ أَبِ الْأُمِّ، ابْنُهَا الَّذِي تُدْلِي بِهِ لَا يَرِثُ، فَكَيْفَ تَرِثُ هِيَ؟ \"",
      "english": {
        "narrator": "",
        "text": ""
      }
    },
    {
      "id": 88,
      "chapterId": 21,
      "bookId": 9,
      "arabic": "أَخْبَرَنَا أَبُو مَعْمَرٍ  ، عَنْ إِسْمَاعِيل بْنِ عُلَيَّةَ  ، عَنْ سَلَمَةَ بْنِ عَلْقَمَةَ  ، عَنْ حُمَيْدِ بْنِ هِلَالٍ  ، عَنْ أَبِي الدَّهْمَاءِ  ، عَنْ عِمْرَانَ بْنِ حُصَيْنٍ  ، قَالَ :\" تَرِثُ الْجِدَّةُ وَابْنُهَا حَيٌّ \"",
      "english": {
        "narrator": "",
        "text": ""
      }
    },
    {
      "id": 89,
      "chapterId": 21,
      "bookId": 9,
      "arabic": "أَخْبَرَنَا يَزِيدُ بْنُ هَارُونَ  ، أَنْبَأَنَا الْأَشْعَثُ  ، عَنْ الزُّهْرِيِّ  ، قَالَ : جَاءَتْ إِلَى أَبِي بَكْرٍ جَدَّةٌ أُمُّ أَبٍ، أَوْ أُمُّ أُمٍّ، فَقَالَتْ : إِنَّ ابْنَ ابْنِي أَوْ ابْنَ ابْنَتِي تُوُفِّيَ، وَبَلَغَنِي أَنَّ لِي نَصِيبًا، فَمَا لِي؟ فَقَالَ أَبُو بَكْرٍ : مَا سَمِعْتُ رَسُولَ اللَّهِ صَلَّى اللَّهُ عَلَيْهِ وَسَلَّمَ قَالَ فِيهَا شَيْئًا، وَسَأَسْأَلُ النَّاسَ، فَلَمَّا صَلَّى الظُّهْر، قَالَ : أَيُّكُمْ سَمِعَ رَسُولَ اللَّهِ صَلَّى اللَّهُ عَلَيْهِ وَسَلَّمَ قَالَ فِي الْجَدَّةِ شَيْئًا؟ فَقَالَ الْمُغِيرَةُ بْنُ شُعْبَةَ   : أَنَا، قَالَ : مَاذَا؟ قَالَ :أَعْطَاهَا رَسُولُ اللَّهِ صَلَّى اللَّهُ عَلَيْهِ وَسَلَّمَ سُدُسًا، قَالَ : أَيَعْلَمُ ذَاكَ أَحَدٌ غَيْرُكَ؟ فَقَالَ مُحَمَّدُ بْنُ مَسْلَمَةَ   : صَدَقَ، فَأَعْطَاهَا أَبُو بَكْرٍ السُّدُسَ، فَجَاءَتْ إِلَى عُمَرَ مِثْلُهَا، فَقَال : مَا أَدْرِي، مَا سَمِعْتُ مِنْ رَسُولِ اللَّهِ صَلَّى اللَّهُ عَلَيْهِ وَسَلَّمَ فِيهَا شَيْئًا، وَسَأَسْأَلُ النَّاسَ، فَحَدَّثُوهُ بِحَدِيثِ الْمُغِيرَةِ بْنِ شُعْبَةَ، وَمُحَمَّدِ بْنِ مَسْلَمَةَ، فَقَالَ عُمَرُ : أَيُّكُمَا خَلَتْ بِهِ فَلَهَا السُّدُسُ، فَإِنْ اجْتَمَعْتُمَا، فَهُوَ بَيْنَكُمَا",
      "english": {
        "narrator": "",
        "text": ""
      }
    },
    {
      "id": 90,
      "chapterId": 21,
      "bookId": 9,
      "arabic": "أَخْبَرَنَا يَزِيدُ بْنُ هَارُونَ  ، حَدَّثَنَا الْأَشْعَثُ  ، عَنْ الشَّعْبِيِّ  ، عَنْ عَلِيٍّ  ، وَزَيْدٍ   قَالَا :\" إِذَا كَانَتْ الْجَدَّاتُ سَوَاءً، وَرِثَ ثَلَاثُ جَدَّاتٍ جَدَّتَا أَبِيهِ أُمُّ أُمِّهِ، وَأُمُّ أَبِيهِ، وَجَدَّةُ أُمِّهِ، فَإِنْ كَانَتْ إِحَدَاهُنَّ أَقْرَب، فَالسَّهْمُ لِذَوِي الْقُرْبَى",
      "english": {
        "narrator": "",
        "text": ""
      }
    }
  ]
}