{
  "page": 45,
  "perPage": 50,
  "totalPages": 69,
  "totalCount": 3406,
  "nextPage": 46,
  "prevPage": 44,
  "items": [
    {
      "id": 91,
      "chapterId": 21,
      "bookId": 9,
      "arabic": "أَخْبَرَنَا أَبُو نُعَيْمٍ  ، حَدَّثَنَا حَسَنٌ  ، عَنْ أَشْعَثَ  ، عَنْ الشَّعْبِيِّ  ، عَنْ عَلِيٍّ  ، وَزَيْدٍ   : \" أَنَّهُمَا كَانَالا يُوَرِّثَانِ الْجِدَّةَ أُمَّ الأَبِ مَعَ الأَبِ \"",
      "english": {
        "narrator": "",
        "text": ""
      }
    },
    {
      "id": 92,
      "chapterId": 21,
      "bookId": 9,
      "arabic": "حَدَّثَنَا سَعِيدُ بْنُ الْمُغِيرَةِ  ، عَنْ ابْنِ الْمُبَارَكِ  ، عَنْ مَعْمَرٍ  ، عَنْ الزُّهْرِيِّ  : أَنَّ عُثْمَانَ   كَانَ\" لَا يُوَرِّثُ الْجَدَّةَ وَابْنُهَا حَيٌّ \"",
      "english": {
        "narrator": "",
        "text": ""
      }
    },
    {
      "id": 93,
      "chapterId": 21,
      "bookId": 9,
      "arabic": "أَخْبَرَنَا يَزِيدُ بْنُ هَارُونَ  ، أَنْبَأَنَا الْأَشْعَثُ  ، عَنْ ابْنِ سِيرِينَ  ، عَنْ ابْنِ مَسْعُودٍ  ، قَالَ :\" إِنَّ الْجَدَّاتِ لَيْسَ لَهُنَّ مِيرَاثٌ، إِنَّمَا هِيَ طُعْمَةٌ أُطْعِمْنَهَا، وَالْجَدَّاتُ أَقْرَبُهُنَّ وَأَبْعَدُهُنَّ سَوَاءٌ \"",
      "english": {
        "narrator": "",
        "text": ""
      }
    },
    {
      "id": 94,
      "chapterId": 21,
      "bookId": 9,
      "arabic": "أَخْبَرَنَا حَجَّاجُ بْنُ مِنْهَالٍ  ، أَنْبَأَنَا أَبُو عَوَانَةَ  ، عَنْ الْمُغِيرَةِ  ، عَنْ إِبْرَاهِيمَ  ، قَالَ : قَالَ عَبْدُ اللَّهِ   :\" تَرِثُ الْجَدَّةُ وَابْنُهَا حَيٌّ \"",
      "english": {
        "narrator": "",
        "text": ""
      }
    },
    {
      "id": 95,
      "chapterId": 21,
      "bookId": 9,
      "arabic": "أَخْبَرَنَا يَزِيدُ بْنُ هَارُونَ  ، أَنْبَأَنَا الْأَشْعَثُ  ، عَنْ الشَّعْبِيِّ  ، قَالَ : \" جِئْنَ أَرْبَعُ جَدَّاتٍ يَتَسَاوَقْنَ إِلَى مَسْرُوقٍ  ،فَأَلْغَى أَمَّ أَبِ الْأَبِ، وَوَرَّثَ ثَلَاثًا : جَدَّتَيْ أَبِيهِ : أُمَّ أُمِّهِ، وَأُمَّ أَبِيهِ، وَجَدَّةَ أُمِّهِ \"",
      "english": {
        "narrator": "",
        "text": ""
      }
    },
    {
      "id": 96,
      "chapterId": 21,
      "bookId": 9,
      "arabic": "أَخْبَرَنَا يَزِيدُ بْنُ هَارُونَ  ، أَنْبَأَنَا شَرِيكٌ  ، عَنْ الْأَعْمَشِ  ، عَنْ إِبْرَاهِيمَ  ، عَنْ عَبْدِ اللَّهِ   فِي ابْنَةٍ، وَابْنَةِ ابْنٍ، قَالَ :\" النِّصْفُ وَالسُّدُسُ، وَمَا بَقِيَ، فَرَدٌّ عَلَى الْبِنْتِ \"",
      "english": {
        "narrator": "",
        "text": ""
      }
    },
    {
      "id": 97,
      "chapterId": 21,
      "bookId": 9,
      "arabic": "حَدَّثَنَا مُحَمَّدُ بْنُ عِيسَى  ، حَدَّثَنَا جَرِيرٌ  ، عَنْ مَنْصُورٍ  ، عَنْ إِبْرَاهِيمَ  ، عَنْ عَلْقَمَةَ  ، عَنْ عَبْدِ اللَّه   : \" أَنَّهُ أُتِيَ فِي إِخْوَةٍ لِأُمٍّ، وَأُمٍّ،فَأَعْطَى الْإِخْوَةَ مِنَ الْأُمِّ الثُّلُثَ، وَالْأُمَّ سَائِرَ الْمَالِ، وَقَالَ : الْأُمُّ عَصَبَةُ مَنْ لَا عَصَبَةَ لَهُ \"",
      "english": {
        "narrator": "",
        "text": ""
      }
    },
    {
      "id": 98,
      "chapterId": 21,
      "bookId": 9,
      "arabic": "حَدَّثَنَا أَبُو نُعَيْمٍ ، حَدَّثَنَا حَسَنٌ ، عَنْ أَبِيهِ ، قَالَ : سَأَلْتُ الشَّعْبِيَّ  عَنْ رَجُلٍ مَاتَ وَتَرَكَ ابْنَتَهُ، لَا يُعْلَمُ لَهُ وَارِثٌ غَيْرُهَا، قَالَ :\" لَهَا الْمَالُ كُلُّهُ \"",
      "english": {
        "narrator": "",
        "text": ""
      }
    },
    {
      "id": 99,
      "chapterId": 21,
      "bookId": 9,
      "arabic": "حَدَّثَنَا مُحَمَّدُ بْنُ يُوسُفَ  ، حَدَّثَنَا سُفْيَانُ  ، عَنْ مُحَمَّدِ بْنِ سَالِمٍ  ، عَنْ الشَّعْبِيِّ  ، أَنَّ ابْنَ مَسْعُودٍ   كَانَلَا يَرُدُّ عَلَى أَخٍ لِأُمٍّ مَعَ أُمٍّ، وَلا عَلَى جَدَّةٍ، إِذَا كَانَ مَعَهَا غَيْرُهَا مَنْ لَهُ فَرِيضَةٌ، وَلَا عَلَى ابْنَةِ ابْنٍ، مَعَ ابْنَةِ الصُّلْبِ، وَلَا عَلَى امْرَأَةٍ وَزَوْج",
      "english": {
        "narrator": "",
        "text": ""
      }
    },
    {
      "id": 100,
      "chapterId": 21,
      "bookId": 9,
      "arabic": "وَكَانَ عَلِيٌّ  \" يَرُدُّ عَلَى كُلِّ ذِي سَهْمٍ، إِلَّا الْمَرْأَةَ وَالزَّوْجَ \"",
      "english": {
        "narrator": "",
        "text": ""
      }
    },
    {
      "id": 101,
      "chapterId": 21,
      "bookId": 9,
      "arabic": "أَخْبَرَنَا مُحَمَّدٌ  ، حَدَّثَنَا سُفْيَانُ  ، قَالَ : أَخْبَرَنِي مُحَمَّدُ بْنُ سَالِمٍ  ، عَنْ خَارِجَةَ بْنِ زَيْدٍ  ، عَنْ زَيْدِ بْنِ ثَابِت   : \" أَنَّهُأُتِيَ فِي ابْنَةٍ، أَوْ أُخْت، فَأَعْطَاهَا النِّصْفَ، وَجَعَلَ مَا بَقِيَ فِي بَيْتِ الْمَالِوقَالَ يَزِيدُ بْنُ هَارُونَ  : عَنْ مُحَمَّدِ بْنِ سَالِمٍ  ، عَنْ الشَّعْبِيِّ  ، عَنْ خَارِجَةَ",
      "english": {
        "narrator": "",
        "text": ""
      }
    },
    {
      "id": 102,
      "chapterId": 21,
      "bookId": 9,
      "arabic": "أَخْبَرَنَا مُحَمَّدُ بْنُ عُيَيْنَةَ  ، عَنْ عَلِيِّ بْنِ مُسْهِرٍ  ، عَنْ سَعِيدٍ  ، عَنْ أَبِي مَعْشَرٍ  ، عَنْ إِبْرَاهِيمَ  ، عَنْ عَبْدِ اللَّهِ  ، قَالَ فِي ابْنِ الْمُلَاعَنَةِ، قَالَ :\" مِيرَاثُهُ لِأُمِّهِ \"",
      "english": {
        "narrator": "",
        "text": ""
      }
    },
    {
      "id": 103,
      "chapterId": 21,
      "bookId": 9,
      "arabic": "أَخْبَرَنَا مُعَاذُ بْنُ هَانِئٍ  ، حَدَّثَنَا إِبْرَاهِيمُ بْنُ طَهْمَانَ  ، قَالَ : سَمِعْتُ رَجُلًا  سَأَلَ عَطَاءَ بْنَ أَبِي رَبَاحٍ   عَنْ وَلَدِ الْمُتَلَاعِنَيْنِ لِمَنْ مِيرَاثُهُ؟ قَالَ :\" لِأُمِّهِ وَأَهْلِهَا",
      "english": {
        "narrator": "",
        "text": ""
      }
    },
    {
      "id": 104,
      "chapterId": 21,
      "bookId": 9,
      "arabic": "أَخْبَرَنَا أَبُو نُعَيْمٍ  ، حَدَّثَنَا حَسَنٌ  ، عَنْ أَبِي سَهْلٍ  ، عَنْ الشَّعْبِيِّ  قَالَ : قَالَ عَلِيٌّ   فِي ابْنِ الْمُلَاعَنَةِ :\" تَرَكَ أَخَاهُ لِأُمِّهِ، وَأُمَّهُ لِأَخِيهِ السُّدُسُ، وَلِأُمِّهِ الثُّلُثُ، ثُمَّ يُرَدُّ عَلَيْهِمْ، فَيَصِيرُ لِلْأَخِ الثُّلُثُ، وَلِلْأُمِّ الثُّلُثَانِ \".\nوَقَالَ ابْنُ مَسْعُودٍ   : لِأَخِيهِ السُّدُسُ، وَمَا بَقِيَ فَلِلْأُمِّ",
      "english": {
        "narrator": "",
        "text": ""
      }
    },
    {
      "id": 105,
      "chapterId": 21,
      "bookId": 9,
      "arabic": "أَخْبَرَنَا أَبُو نُعَيْمٍ ، حَدَّثَنَا حَسَنٌ ، عَنْ أَبِي سَهْلٍ ، عَنْ الشَّعْبِيِّ  فِي ابْنِ الْمُلَاعَنَةِ : تَرَكَ ابْنَ أَخٍ وَجَدًّا، قَالَ :\" الْمَالُ لِابْنِ الْأَخِ \"",
      "english": {
        "narrator": "",
        "text": ""
      }
    },
    {
      "id": 106,
      "chapterId": 21,
      "bookId": 9,
      "arabic": "حَدَّثَنَا مُحَمَّدُ بْنُ عِيسَى  ، حَدَّثَنَا سَالِمُ بْنُ نُوحٍ  ، عَنْ عُمَرَ بْنِ عَامِرٍ  ، عَنْ قَتَادَةَ  ، عَنْ سَعِيدِ بْنِ الْمُسَيِّبِ  ، عَنْ زَيْدِ بْنِ ثَابِتٍ   فِي مِيرَاثِ ابْنِ الْمُلَاعَنَة :\" لِأُمِّهِ الثُّلُثُ، وَالثُّلُثَانِ لِبَيْتِ الْمَالِ \"",
      "english": {
        "narrator": "",
        "text": ""
      }
    },
    {
      "id": 107,
      "chapterId": 21,
      "bookId": 9,
      "arabic": "حَدَّثَنَا مُحَمَّدُ بْنُ عِيسَى  ، حَدَّثَنَا سَالِمُ بْنُ نُوحٍ  ، عَنْ عُمَرَ بْنِ عَامِرٍ  ، عَنْ حَمَّادٍ  ، عَنْ إِبْرَاهِيمَ  ، عَنْ عَبْدِ اللَّهِ  ، قَالَ :\" مِيرَاثُهُ لِأُمِّهِ تَعْقِلُ عَنْهُ عَصَبَةُ أُمِّهِ \"، وَقَالَ قَتَادَةُ  ، عَنْ الْحَسَنِ   : لِأُمِّهِ الثُّلُثُ، وَبَقِيَّةُ الْمَالِ لِعَصَبَةِ أُمِّهِ",
      "english": {
        "narrator": "",
        "text": ""
      }
    },
    {
      "id": 108,
      "chapterId": 21,
      "bookId": 9,
      "arabic": "أَخْبَرَنَا حَجَّاجُ بْنُ مِنْهَالٍ  ، حَدَّثَنَا حَمَّادُ بْنُ سَلَمَةَ  ، أَخْبَرَنَا قَتَادَةُ  : أَنَّ عَلِيًّا  ، وَابْنَ مَسْعُودٍ   قَالَا فِي وَلَدِ المُلَاعَنَةٍ تَرْكُ جَدَّتِهِ وَإِخْوَتِهِ لأُمِّهِ، قَالَ :\" لِلْجَدَّةِ الثُّلُثُ، وَلِلْإِخْوَةِ الثُّلُثَانِ \"، وَقَالَ زَيْدُ بْنُ ثَابِتٍ   : لِلْجَدَّةِ السُّدُسُ، وَلِلْإِخْوَةِ لِلْأُمِّ الثُّلُثُ، وَمَا بَقِيَ فَلِبَيْتِ الْمَالِ",
      "english": {
        "narrator": "",
        "text": ""
      }
    },
    {
      "id": 109,
      "chapterId": 21,
      "bookId": 9,
      "arabic": "حَدَّثَنَا حَجَّاجٌ  ، حَدَّثَنَا حَمَّادٌ  ، أَنْبَأَنَا يُونُسُ  ، وَحُمَيدٌ  ، عَنْ الْحَسَنِ  ، قَالَ :\" تَرِثُهُ أُمُّهُ يَعْنِي : ابْنَ الْمُلَاعَنَةِ \"",
      "english": {
        "narrator": "",
        "text": ""
      }
    },
    {
      "id": 110,
      "chapterId": 21,
      "bookId": 9,
      "arabic": "أَخْبَرَنَا حَجَّاجٌ ، حَدَّثَنَا حَمَّادٌ ، حَدَّثَنَا حَجَّاجٌ : أَنَّ النَّخَعِيَّ ، وَالشَّعْبِيّ ، قَالَا :\" تَرِثُهُ أُمُّهُ \"",
      "english": {
        "narrator": "",
        "text": ""
      }
    },
    {
      "id": 111,
      "chapterId": 21,
      "bookId": 9,
      "arabic": "أَخْبَرَنَا مُحَمَّدُ بْنُ يُوسُفَ  ، حَدَّثَنَا سُفْيَانُ  ، عَنْ دَاوُدَ بْنِ أَبِي هِنْدٍ  ، عَنْ عَبْدِ اللَّهِ بْنِ عُبَيْدِ بْنِ عُمَيْرٍ  ، قَالَ : كَتَبْتُ إِلَى أَخٍ لِي   مِنْ بَنِي زُرَيْقٍ أَسْأَلُهُ : لِمَنْ قَضَى النَّبِيُّ صَلَّى اللَّهُ عَلَيْهِ وَسَلَّمَ فِي ابْنِ الْمُلَاعَنَةِ؟ فَكَتَبَ إِلَيَّ : \" أَنَّ النَّبِيَّ صَلَّى اللَّهُ عَلَيْهِ وَسَلَّم :قَضَى بِهِ لِأُمِّهِ هِيَ بِمَنْزِلَةِ أُمِّهِ وَأَبِيهِ.\nوقَالَ سُفْيَانُ : الْمَالُ كُلُّهُ لِلْأُمِّ هِيَ بِمَنْزِلَةِ أَبِيهِ وَأُمِّهِ",
      "english": {
        "narrator": "",
        "text": ""
      }
    },
    {
      "id": 112,
      "chapterId": 21,
      "bookId": 9,
      "arabic": "أَخْبَرَنَا مُحَمَّدٌ  ، حَدَّثَنَا سُفْيَانُ  ، عَنْ هِشَامٍ  ، عَنْ الْحَسَنِ   فِي ابْنِ الْمُلَاعَنَةِ تَرَكَ أُمَّهُ وَعَصَبَةَ أُمِّهِ، قَالَ :\" الثُّلُثُ لِأُمِّهِ، وَمَا بَقِيَ فَلِعَصَبَةِ أُمِّهِ \"",
      "english": {
        "narrator": "",
        "text": ""
      }
    },
    {
      "id": 113,
      "chapterId": 21,
      "bookId": 9,
      "arabic": "أَخْبَرَنَا عُبَيْدُ اللَّهِ بْنُ مُوسَى  ، عَنْ ابْنِ أَبِي لَيْلَى  ، عَنْ عَامِرٍ  ، عَنْ عَلِيٍّ  ، وَعَبْدِ اللَّهِ   فِي ابْنِ الْمُلاعَنَةِ، قَالا :\" عَصَبَتُهُ عَصَبَةُ أُمِّهِ \"",
      "english": {
        "narrator": "",
        "text": ""
      }
    },
    {
      "id": 114,
      "chapterId": 21,
      "bookId": 9,
      "arabic": "حَدَّثَنَا أَبُو الْوَلِيدِ الْحَلَبِيُّ مُوسَى بْنُ خَالِدٍ ، حَدَّثَنَا المُعْتَمِر ، عَنْ يُونُسَ ، عَنِ الْحَسَنِ ، أَنَّهُ كَانَ يَقُول :\" مِيرَاثُ وَلَدِ الْمُلَاعَنَةِ لِأُمِّه، قُلْتُ : فَإِنْ كَانَ لَهُ أَخٌ مِنْ أُمِّه؟ قَالَ : لَهُ السُّدُسُ \"",
      "english": {
        "narrator": "",
        "text": ""
      }
    },
    {
      "id": 115,
      "chapterId": 21,
      "bookId": 9,
      "arabic": "حَدَّثَنَا أَبُو الْمُغِيرَةِ ، حَدَّثَنَا الْأَوْزَاعِيُّ ، حَدَّثَنَا الزُّهْرِيُّ ، قَالَ :\" وَلَدُ الْمُلَاعَنَةِ لِأُمِّه، تَرِثُ فَرِيضَتَهَا مِنْهُ، وَسَائِرُ ذَلِكَ فِي بَيْتِ الْمَالِ \"",
      "english": {
        "narrator": "",
        "text": ""
      }
    },
    {
      "id": 116,
      "chapterId": 21,
      "bookId": 9,
      "arabic": "أَخْبَرَنَا عُبَيْدُ اللَّهِ بْنُ مُوسَى  ، عَنْ مُوسَى بْنِ عُبَيْدَةَ  ، عَنْ نَافِعٍ  ، عَنْ ابْنِ عُمَرَ  ، قَالَ :\" إِذَا تَلَاعَنَا، فُرِّقَ بَيْنَهُمَا وَلَمْ يَجْتَمِعَا، وَدُعِيَ الْوَلَدُ لِأُمِّهِ، يُقَالُ : ابْنُ فُلَانَةَ، هِيَ عَصَبَتُهُ يَرِثُهَا وَتَرِثُهُ، وَمَنْ دَعَاهُ لِزِنْيَةٍ، جُلِدَ \"",
      "english": {
        "narrator": "",
        "text": ""
      }
    },
    {
      "id": 117,
      "chapterId": 21,
      "bookId": 9,
      "arabic": "حَدَّثَنَا مُعَاذُ بْنُ هَانِئٍ ، حَدَّثَنَا إِبْرَاهِيمُ بْنُ طَهْمَانَ ، حَدَّثَنَا الشَّيْبَانِيُّ ، عَنْ الشَّعْبِيِّ  فِي وَلَدِ الْمُتَلَاعِنَيْنِ : \" أَنَّهُتَرِثُهُ عَصَبَةُ أُمِّهِ، وَهُمْ يَعْقِلُونَ عَنْهُ \"",
      "english": {
        "narrator": "",
        "text": ""
      }
    },
    {
      "id": 118,
      "chapterId": 21,
      "bookId": 9,
      "arabic": "حَدَّثَنَا سَهْلُ بْنُ حَمَّادٍ  ، أَنْبَأَنَا هَمَّامٌ  ، عَنْ قَتَادَةَ  ، عَنْ عَزْرَةَ  ، عَنْ سَعِيدِ بْنِ جُبَيْرٍ  ، عَنْ ابْنِ عَبَّاسٍ   فِي وَلَدِ الْمُلَاعَنَةِ هُوَ الَّذِي لَا أَبَ لَهُ\" تَرِثُهُ أُمُّهُ وَإِخْوَتُهُ مِنْ أُمِّهِ، ِوَعَصَبَةُُ أُمِّهِ، فَإِنْ قَذَفَهُ قَاذِف، جُلِدَ قَاذِفُهُ \"",
      "english": {
        "narrator": "",
        "text": ""
      }
    },
    {
      "id": 119,
      "chapterId": 21,
      "bookId": 9,
      "arabic": "أَخْبَرَنَا مُحَمَّدُ بْنُ الْمُبَارَكِ  ، حَدَّثَنَا يَحْيَى بْنُ حَمْزَةَ  ، عَنْ النُّعْمَانِ  ، عَنْ مَكْحُولٍ   : أَنَّهُ سُئِلَ عَنْ مِيرَاثِ وَلَدِ الْمُلَاعَنَةِ لِمَنْ هُوَ؟ قَالَ : جَعَلَهُ رَسُولُ اللَّهِ صَلَّى اللَّهُ عَلَيْهِ وَسَلَّمَ :\" لِأُمِّهِ فِي سَبَبِهِ لِمَا لَقِيَتْ مِنْ الْبَلَاءِ، وَلِإِخْوَتِهِ مِنْ أُمِّهِ، وقَالَ مَكْحُول : فَإِنْ مَاتَتْ الْأُمُّ، وَتَرَكَتْ ابْنَهَا، ثُمَّ تُوُفِّيَ ابْنُهَا الَّذِي جُعِلَ لَهَا، كَانَ مِيرَاثُهُ لِإِخْوَتِهِ مِنْ أُمِّهِ كُلُّهُ، لِأَنَّهُ كَانَ لِأُمِّهِمْ وَجَدِّهِمْ، وَكَانَ لِأَبِيهَا السُّدُسُ مِنْ ابْنِ ابْنَتِهِ، وَلَيْسَ يَرِثُ الْجَدُّ إِلَّا فِي هَذِهِ الْمَنْزِلَةِ، لِأَنَّهُ إِنَّمَا هُوَ أَبُ الْأُمِّ، وَإِنَّمَا وَرِثَ الْإِخْوَةُ مِنْ الْأُمِّ أُمَّهُمْ، وَوَرِثَ الْجَدُّ ابْنَتَهُ لِأَنَّهُ جُعِلَ لَهَا، فَالْمَالُ الَّذِي لِلْوَلَدِ لِوَرَثَةِ الْأُمِّ وَهُوَ بِحَوْزَةِ الْجَدُّ وَحْدَهُ إِذَا لَمْ يَكُنْ غَيْرُهُ \"",
      "english": {
        "narrator": "",
        "text": ""
      }
    },
    {
      "id": 120,
      "chapterId": 21,
      "bookId": 9,
      "arabic": "أَخْبَرَنَا مُحَمَّدُ بْنُ الْعَلَاءِ  ، حَدَّثَنَا يَحْيَى بْنُ أَبِي بُكَيْرٍ  ، حَدَّثَنَا إِبْرَاهِيمُ بْنُ طَهْمَانَ  ، عَنْ سِمَاكِ بْنِ حَرْبٍ  ، عَنْ عِكْرِمَةَ  ، عَنْ ابْنِ عَبَّاسٍ  : أَنَّ قَوْمًا اخْتَصَمُوا إِلَى عَلِيٍّ   رَضِيَ اللَّهُ تَعَالَى عَنْه فِي وَلَدِ الْمُتَلَاعِنَيْنِ، فَجَاءَ عَصَبَةُ أَبِيهِ يَطْلُبُونَ مِيرَاثَه، فَقَالَ :\" إِنَّ أَبَاهُ كَانَ تَبَرَّأَ مِنْهُ، فَلَيْسَ لَكُمْ مِنْ مِيرَاثِهِ شَيْءٌ، فَقَضَى بِمِيرَاثِهِ لِأُمِّهِ، وَجَعَلَهَا عَصَبَتَهُ \"",
      "english": {
        "narrator": "",
        "text": ""
      }
    },
    {
      "id": 121,
      "chapterId": 21,
      "bookId": 9,
      "arabic": "أَخْبَرَنَا عُبَيْدُ اللَّهِ بْنُ مُوسَى  ، عَنْ إِسْرَائِيلَ  ، عَنْ عَبْدِ الْأَعْلَى  : أَنَّهُ سَمِعَ مُحَمَّدَ بْنَ عَلِيٍّ  يُحَدِّثُ، عَنْ عَلِيٍّ   : فِي الرَّجُلِ يَكُونُ لَهُ مَا لِلرَّجُلِ وَمَا لِلْمَرْأَةِ مِنْ أَيِّهِمَا يُوَرَّثُ، فَقَالَ :\" مِنْ أَيِّهِمَا بَالَ \"",
      "english": {
        "narrator": "",
        "text": ""
      }
    },
    {
      "id": 122,
      "chapterId": 21,
      "bookId": 9,
      "arabic": "حَدَّثَنَا أَبُو بَكْرِ بْنُ أَبِي شَيْبَةَ  ، حَدَّثَنَا هُشَيْمٌ  ، عَنْ مُغِيرَةَ  ، عَنْ شِبَاكٍ  ، عَنْ الشَّعْبِيِّ  ، عَنْ عَلِيٍّ   فِي الْخُنْثَى، قَالَ :\" يُوَرَّثُ مِنْ قِبَلِ مَبَالِهِ \"",
      "english": {
        "narrator": "",
        "text": ""
      }
    },
    {
      "id": 123,
      "chapterId": 21,
      "bookId": 9,
      "arabic": "حَدَّثَنَا أَبُو نُعَيْمٍ  ، حَدَّثَنَا أَبُو هَانِئٍ  ، قَالَ : سُئِلَ عَامِرٌ   عَنْ مَوْلُودٍ وُلِدَ، وَلَيْسَ بِذَكَرٍ، وَلَا أُنْثَى، لَيْسَ لَهُ مَا لِلذَّكَرِ، وَلَيْسَ لَهُ مَا لِلْأُنْثَى، يُخْرِجُ مِنْ سُرَّتِهِ كَهَيْئَةِ الْبَوْلِ وَالْغَائِطِ، سُئِلَ عَنْ مِيرَاثِهِ، فَقَالَ :\" نِصْفُ حَظِّ الذَّكَرِ، وَنِصْفُ حَظِّ الْأُنْثَى \"",
      "english": {
        "narrator": "",
        "text": ""
      }
    },
    {
      "id": 124,
      "chapterId": 21,
      "bookId": 9,
      "arabic": "أَخْبَرَنَا يَزِيدُ بْنُ هَارُونَ  ، حَدَّثَنَا عَاصِمٌ  ، عَنْ الشَّعْبِيِّ  ، قَالَ : سُئِلَ أَبُو بَكْرٍ   عَنْ الْكَلَالَةِ، فَقَالَ : \" إِنِّي سَأَقُولُ فِيهَا بِرَأْيِي، فَإِنْ كَانَ صَوَابًا فَمِنْ اللَّهِ، وَإِنْ كَانَ خَطَأً فَمِنِّي، وَمِنَ الشَّيْطَانِ : أُرَاهُمَا خَلَا الْوَالِدَ وَالْوَلَدِ \"، َفَلَمَّا اسْتُخْلِفَ عُمَرُ  ، قَالَ : إِنِّي لَأَسْتَحْيِي اللَّهَ أَنْ أَرُدَّ شَيْئًا قَالَهُ أَبُو بَكْرٍ",
      "english": {
        "narrator": "",
        "text": ""
      }
    },
    {
      "id": 125,
      "chapterId": 21,
      "bookId": 9,
      "arabic": "حَدَّثَنَا عَبْدُ اللَّهِ بْنُ يَزِيدَ  ، حَدَّثَنَا سَعِيدٌ هُوَ ابْنُ أَبِي أَيُّوبَ  ، قَالَ : حَدَّثَنِي يَزِيدُ بْنُ أَبِي حَبِيبٍ  ، عَنْ مَرْثَدِ بْنِ عَبْدِ اللَّهِ الْيَزَنِيِّ  ، عَنْ عُقْبَةَ بْنِ عَامِرٍ الْجُهَنِيِّ  ، أَنَّهُ قَالَ :\" مَا أَعْضَلَ بِأَصْحَابِ رَسُولِ اللَّهِ صَلَّى اللَّهُ عَلَيْهِ وَسَلَّمَ شَيْءٌ مَا أَعْضَلَتْ بِهِمْ الْكَلَالَةُ \"",
      "english": {
        "narrator": "",
        "text": ""
      }
    },
    {
      "id": 126,
      "chapterId": 21,
      "bookId": 9,
      "arabic": "حَدَّثَنَا مُحَمَّدُ بْنُ يُوسُفَ  ، حَدَّثَنَا سُفْيَانُ  ، عَنْ عَمْرِو بْنِ دِينَارٍ  ، عَنْ الْحَسَنِ بْنِ مُحَمَّدٍ  ، عَنْ ابْنِ عَبَّاسٍ  ، قَالَ :\" الْكَلَالَةُ مَا خَلَا الْوَالِدَ وَالْوَلَدَ \"",
      "english": {
        "narrator": "",
        "text": ""
      }
    },
    {
      "id": 127,
      "chapterId": 21,
      "bookId": 9,
      "arabic": "أَخْبَرَنَا مُحَمَّدٌ  ، حَدَّثَنَا سُفْيَانُ  ، عَنْ يَعْلَى بْنِ عَطَاءٍ  ، عَنْ الْقَاسِمِ بْنِ عَبْدِ اللَّهِ L1584 ، عَنْ سَعْدٍ   : \" أَنَّهُ كَانَ يَقْرَأُ هَذِهِ الْآيَةَ : # وَإِنْ كَانَ رَجُلٌ يُورَثُ كَلالَةً أَو امْرَأَةٌ وَلَهُ أَخٌ أَوْ أُخْتٌ سورة النساء آية 12 #لِأُمٍّ \"",
      "english": {
        "narrator": "",
        "text": ""
      }
    },
    {
      "id": 128,
      "chapterId": 21,
      "bookId": 9,
      "arabic": "أَخْبَرَنَا عَبْدُ اللَّهِ بْنُ يَزِيدَ  ، حَدَّثَنَا حَيْوَةُ  ، حَدَّثَنَا أَبُو الْأَسْوَدِ مُحَمَّدُ بْنُ عَبْدِ الرَّحْمَنِ بْنِ نَوْفَلٍ  : أَنَّ عَاصِمَ بْنَ عُمَرَ بْنِ قَتَادَةَ الْأَنْصَارِيَّ  أَخْبَرَهُ : أَنَّ عُمَرَ بْنَ الْخَطَّابِ   \" الْتَمَسَ مَنْ يَرِثُ ابْنَ الدَّحْدَاحَةِ، فَلَمْ يَجِدْ وَارِثًا،فَدَفَعَ مَالَ ابْنِ الدَّحْدَاحَةِ إِلَى أَخْوَالِ ابْنِ الدَّحْدَاحَةِ \"",
      "english": {
        "narrator": "",
        "text": ""
      }
    },
    {
      "id": 129,
      "chapterId": 21,
      "bookId": 9,
      "arabic": "أَخْبَرَنَا أَبُو عَاصِمٍ  ، عَنْ ابْنِ جُرَيْجٍ  ، عَنْ عَمْرِو بْنِ مُسْلِمٍ  ، عَنْ طَاوُسٍ  ، عَنْ عَائِشَةَ  ، قَالَتْ :\" اللَّهُ وَرَسُولُهُ مَوْلَى مَنْ لَا مَوْلَى لَهُ، وَالْخَالُ وَارِثُ مَنْ لَا وَارِثَ لَهُ \"",
      "english": {
        "narrator": "",
        "text": ""
      }
    },
    {
      "id": 130,
      "chapterId": 21,
      "bookId": 9,
      "arabic": "أَخْبَرَنَا مُحَمَّدُ بْنُ يُوسُفَ  ، حَدَّثَنَا سُفْيَانُ  ، عَنْ فِرَاسٍ  ، عَنْ الشَّعْبِيِّ  ، عَنْ زِيَادٍ  ، قَالَ : \" أُتِيَ عُمَرُ   فِي عَمٍّ لِأُمٍّ، وَخَالَة،فَأَعْطَى الْعَمَّ لِلْأُمِّ الثُّلُثَيْنِ، وَأَعْطَى الْخَالَةَ الثُّلُثَ \"",
      "english": {
        "narrator": "",
        "text": ""
      }
    },
    {
      "id": 131,
      "chapterId": 21,
      "bookId": 9,
      "arabic": "أَخْبَرَنَا مُحَمَّدُ بْنُ يُوسُفَ  ، حَدَّثَنَا سُفْيَانُ  ، عَنْ يُونُسَ  ،  عَنِ الْحَسَنِ  : أَنَّ عُمَرَ بْنَ الْخَطَّابِ  \" أَعْطَى الْخَالَةَ الثُّلُثَ، وَالْعَمَّةَ الثُّلُثَيْنِ \"",
      "english": {
        "narrator": "",
        "text": ""
      }
    },
    {
      "id": 132,
      "chapterId": 21,
      "bookId": 9,
      "arabic": "أَخْبَرَنَا مُحَمَّدُ بْنُ يُوسُفَ  ، حَدَّثَنَا سُفْيَانُ  ، عَنْ الْحَسَنِ بْنِ عَمْرٍو  ، عَنْ غَالِبِ بْنِ عَبَّادٍ  ، عَنْ قَيْسِ بْنِ حَبْتَرٍ النَّهْشَلِيِّ  ، قَالَ : أُتِيَ عَبْدُ الْمَلِكِ بْنُ مَرْوَانَ فِي خَالَةٍ وَعَمَّةٍ، فَقَامَ شَيْخٌ  ، فَقَالَ : شَهِدْتُ عُمَرَ بْنَ الْخَطَّابِ  \" أَعْطَى الْخَالَةَ الثُّلُثَ، وَالْعَمَّةَ الثُّلُثَيْنِ \"، قَالَ : فَهَمَّ أَنْ يَكْتُبَ بِهِ، ثُمَّ قَالَ : أَيْنَ زَيْدٌ عَنْ هَذَا",
      "english": {
        "narrator": "",
        "text": ""
      }
    },
    {
      "id": 133,
      "chapterId": 21,
      "bookId": 9,
      "arabic": "أَخْبَرَنَا مُحَمَّدُ بْنُ يُوسُفَ  ، حَدَّثَنَا سُفْيَانُ  ، عَنْ مُحَمَّدِ بْنِ سَالِمٍ  ، عَنْ الشَّعْبِيِّ  ، عَنْ مَسْرُوقٍ  ، عَنْ عَبْدِ اللَّهِ   قَالَ :\" الْخَالَةُ بِمَنْزِلَةِ الْأُمِّ، وَالْعَمَّةُ بِمَنْزِلَةِ الْأَبِ، وَبِنْتُ الْأَخِ بِمَنْزِلَةِ الْأَخِ، وَكُلُّ ذِي رَحِمٍ بِمَنْزِلَةِ رَحِمِهِ الَّتِي يُدْلِي بِهَا إِذَا لَمْ يَكُنْ وَارِثٌ ذُو قَرَابَةٍ \"",
      "english": {
        "narrator": "",
        "text": ""
      }
    },
    {
      "id": 134,
      "chapterId": 21,
      "bookId": 9,
      "arabic": "أَخْبَرَنَا يَزِيدُ بْنُ هَارُونَ  ، أَنْبَأَنَا هِشَامٌ  ، عَنْ مُحَمَّدٍ  ، عَنْ عَبْدِ اللَّهِ بْنِ عُتْبَةَ  ، قَالَ : حَدَّثَنِي الضَّحَّاكُ بْنُ قَيْسٍ  : أَنَّ عُمَرَ   قَضَى فِي أَهْلِ طَاعُونِ عَمَوَاسَ أَنَّهُمْ كَانُواإِذَا كَانُوا مِنْ قِبَلِ الْأَبِ سَوَاءً، فَبَنُو الْأُمِّ أَحَقُّ، وَإِذَا كَانَ بَعْضُهُمْ أَقْرَبَ مِنْ بَعْضٍ بِأَبٍ، فَهُمْ أَحَقُّ بِالْمَالِ \"",
      "english": {
        "narrator": "",
        "text": ""
      }
    },
    {
      "id": 135,
      "chapterId": 21,
      "bookId": 9,
      "arabic": "حَدَّثَنَا أَحْمَدُ بْنُ عَبْدِ اللَّهِ  ، حَدَّثَنَا أَبُو شِهَابٍ  ، حَدَّثَنِي أَبُو إِسْحَاق الشَّيْبَانِيُّ  ، عَنْ عُبَيْدِ بْنِ أَبِي الْجَعْدِ  ، عَنْ عَبْدِ اللَّهِ بْنِ شَدَّادِ بْنِ الْهَادِ  ، قَالَ : أُصِيبَ سَالِمٌ مَوْلَى أَبِي حُذَيْفَةَ يَوْمَ الْيَمَامَة، فَبَلَغَ مِيرَاثُهُ مِائَتَيْ دِرْهَمٍ، فَقَالَ عُمَرُ   :\" احْبِسُوهَا عَلَى أُمِّهِ حَتَّى تَأْتِيَ عَلَى آخِرِهَا \"",
      "english": {
        "narrator": "",
        "text": ""
      }
    },
    {
      "id": 136,
      "chapterId": 21,
      "bookId": 9,
      "arabic": "حَدَّثَنَا أَبُو نُعَيْمٍ  ، حَدَّثَنَا زُهَيْرٌ  ، عَنْ أَبِي إِسْحَاق  ، عَنْ الْحَارِثِ  ، عَنْ عَلِيٍّ  ، عَنِ النَّبِيِّ صَلَّى اللَّهُ عَلَيْهِ وَسَلَّمَ، قَالَ :\" الْإِخْوَةُ مِنْ الْأُمِّ يَتَوَارَثُونَ دُونَ بَنِي الْعَلَّاتِ، يَرِثُ الرَّجُلُ أَخَاهُ لِأَبِيهِ وَأُمِّهِ، دُونَ أَخِيهِ لِأَبِيهِ \"",
      "english": {
        "narrator": "",
        "text": ""
      }
    },
    {
      "id": 137,
      "chapterId": 21,
      "bookId": 9,
      "arabic": "حَدَّثَنَا سَهْلُ بْنُ حَمَّادٍ  ، حَدَّثَنَا شُعْبَةُ  ، عَنْ النُّعْمَانِ بْنِ سَالِمٍ  ، قَالَ : قُلْتُ لِابْنِ عُمَرَ   : \" أَرَأَيْتَرَجُلًا تَرَكَ ابْنَ ابْنَتِهِ، أَيَرِثُهُ؟ قَالَ : لا \"",
      "english": {
        "narrator": "",
        "text": ""
      }
    },
    {
      "id": 138,
      "chapterId": 21,
      "bookId": 9,
      "arabic": "حَدَّثَنَا يَعْلَى  ، حَدَّثَنَا الْأَعْمَشُ  ، عَنْ إِبْرَاهِيمَ  ، قَالَ : قَالَ عَبْدُ اللَّهِ   :\" الْأُمُّ عَصَبَةُ مَنْ لَا عَصَبَةَ لَهُ، وَالْأُخْتُ عَصَبَةُ مَنْ لَا عَصَبَةَ لَهُ \"",
      "english": {
        "narrator": "",
        "text": ""
      }
    },
    {
      "id": 139,
      "chapterId": 21,
      "bookId": 9,
      "arabic": "حَدَّثَنَا مُسْلِمُ بْنُ إِبْرَاهِيمَ  ، حَدَّثَنَا وُهَيْبٌ  ، حَدَّثَنَا ابْنُ طَاوُسٍ  ، عَنْ أَبِيهِ  ، عَنْ ابْنِ عَبَّاسٍ  ، عَنِ النَّبِيِّ صَلَّى اللَّهُ عَلَيْهِ وَسَلَّمَ، قَالَ :\" أَلْحِقُوا الْفَرَائِضَ بِأَهْلِهَا، فَمَا بَقِي، فَهُوَ لِأَوْلَى رَجُلٍ ذَكَرٍ \"",
      "english": {
        "narrator": "",
        "text": ""
      }
    },
    {
      "id": 140,
      "chapterId": 21,
      "bookId": 9,
      "arabic": "أَخْبَرَنَا يَزِيدُ بْنُ هَارُونَ  ، حَدَّثَنَا يَحْيَى  : أَنَّ سُلَيْمَانَ بْنَ يَسَارٍ  أَخْبَرَهُ، عَنْ مُحَمَّدِ بْنِ الْأَشْعَثِ  : أَنَّ عَمَّةً لَهُ تُوُفِّيَتْ يَهُودِيَّةً بِالْيَمَنِ ، فَذَكَرَ ذَلِكَ لِعُمَرَ بْنِ الْخَطَّابِ   فَقَالَ :\" يَرِثُهَا أَقْرَبُ النَّاسِ إِلَيْهَا مِنْ أَهْلِ دِينِهَا \"",
      "english": {
        "narrator": "",
        "text": ""
      }
    }
  ]
}