{
  "page": 46,
  "perPage": 50,
  "totalPages": 69,
  "totalCount": 3406,
  "nextPage": 47,
  "prevPage": 45,
  "items": [
    {
      "id": 141,
      "chapterId": 21,
      "bookId": 9,
      "arabic": "حَدَّثَنَا مُحَمَّدُ بْنُ يُوسُفَ  ، حَدَّثَنَا سُفْيَانُ  ، عَنْ قَيْسِ بْنِ مُسْلِمٍ  ، عَنْ طَارِقِ بْنِ شِهَابٍ  ، قَالَ : مَاتَتْ عَمَّةُ الْأَشْعَثِ بْنِ قَيْسٍ وَهِيَ يَهُودِيَّة، فَأَتَى عُمَرَ بْنَ الْخَطَّاب  ، فَقَالَ :\" أَهْلُ دِينِهَا يَرِثُونَهَا \"",
      "english": {
        "narrator": "",
        "text": ""
      }
    },
    {
      "id": 142,
      "chapterId": 21,
      "bookId": 9,
      "arabic": "حَدَّثَنَا مُحَمَّدُ بْنُ يُوسُفَ  ، حَدَّثَنَا سُفْيَانُ  ، عَنْ حَمَّادٍ  ، عَنْ إِبْرَاهِيمَ  ، قَالَ : قَالَ عُمَرُ بْنُ الْخَطَّابِ   :\" أَهْلُ الشِّرْكِ لَا نَرِثُهُمْ، وَلَا يَرِثُونَا \"",
      "english": {
        "narrator": "",
        "text": ""
      }
    },
    {
      "id": 143,
      "chapterId": 21,
      "bookId": 9,
      "arabic": "حَدَّثَنَا أَبُو نُعَيْمٍ  ، حَدَّثَنَا حَسَنٌ  ، عَنْ عِيسَى الْخياط  ، عَنْ الشَّعْبِيِّ   : \" أَنَّ رَسُولَ اللَّهِ صَلَّى اللَّهُ عَلَيْهِ وَسَلَّمَ، وَأَبَا بَكْرٍ، وَعُمَرَ، قَالُوا :لَا يَتَوَارَثُ أَهْلُ دِينَيْنِ \"",
      "english": {
        "narrator": "",
        "text": ""
      }
    },
    {
      "id": 144,
      "chapterId": 21,
      "bookId": 9,
      "arabic": "حَدَّثَنَا أَبُو نُعَيْمٍ  ، حَدَّثَنَا زُهَيْرٌ  ، عَنْ مُطَرِّفٍ  ، عَنْ عَامِرٍ  ، عَنْ عُمَرَ  ، قَالَ :\" لَا يَتَوَارَثُ أَهْلُ مِلَّتَيْنِ \"",
      "english": {
        "narrator": "",
        "text": ""
      }
    },
    {
      "id": 145,
      "chapterId": 21,
      "bookId": 9,
      "arabic": "أَخْبَرَنَا أَبُو نُعَيْمٍ  ، حَدَّثَنَا شَرِيكٌ  ، عَنْ الْأَشْعَثِ  ، عَنْ الْحَسَنِ  ، عَنْ جَابِرٍ  ، قَالَ :\" لَا نَرِثُ أَهْلَ الْكِتَابِ وَلَا يَرِثُونَا، إِلَّا أَنْ يَمُوتَ لِلرَّجُلِ عَبْدُهُ أَوْ أَمَتُهُ \"",
      "english": {
        "narrator": "",
        "text": ""
      }
    },
    {
      "id": 146,
      "chapterId": 21,
      "bookId": 9,
      "arabic": "حَدَّثَنَا مُحَمَّدُ بْنُ عِيسَى  ، حَدَّثَنَا شَرِيكٌ  ، عَنْ الْأَشْعَثِ  ، عَنْ الْحَسَنِ  ، عَنْ جَابِرٍ  ، قَالَ : قَالَ رَسُولُ اللَّهِ صَلَّى اللَّهُ عَلَيْهِ وَسَلَّمَ :\" لَا نَرِثُ أَهْلَ الْكِتَابِ وَلَا يَرِثُونَا، إِلَّا الرَّجُلُ يَرِثُ عَبْدَهُ، أَوْ أَمَتَهُ \"",
      "english": {
        "narrator": "",
        "text": ""
      }
    },
    {
      "id": 147,
      "chapterId": 21,
      "bookId": 9,
      "arabic": "حَدَّثَنَا سُلَيْمَانُ بْنُ حَرْبٍ  ، حَدَّثَنَا حَمَّادُ بْنُ سَلَمَةَ  ، عَنْ دَاوُدَ  ، عَنْ الشَّعْبِيِّ  ، عَنْ مَسْرُوقٍ  ، قَالَ : \" كَانَ مُعَاوِيَةُ  يُوَرِّثُ الْمُسْلِمَ مِنْ الْكَافِرِ، وَلَا يُوَرِّثُ الْكَافِرَ مِنْ الْمُسْلِمِ، قَالَ : قَالَ مَسْرُوقٌ : وَمَا حَدَثَ فِي الْإِسْلَامِ قَضَاءٌ أَحَبُّ إِلَيَّ مِنْهُ، قِيلَ لِأَبِي مُحَمَّدٍ : تَقُولُ بِهَذَا؟ قَالَ : لا",
      "english": {
        "narrator": "",
        "text": ""
      }
    },
    {
      "id": 148,
      "chapterId": 21,
      "bookId": 9,
      "arabic": "حَدَّثَنَا يَزِيدُ بْنُ هَارُونَ  ، عَنْ دَاوُدَ بْنِ أَبِي هِنْدٍ  ، عَنْ عَامِرٍ  : أَنَّ الْمُعْزِلَةَ بِنْتَ الْحَارِثِ تُوُفِّيَتْ بِالْيَمَنِ وَهِيَ يَهُودِيَّةٌ، فَرَكِبَ الْأَشْعَثُ بْنُ قَيْسٍ، وَكَانَتْ عَمَّتَهُ، إِلَى عُمَرَ فِي مِيرَاثِهَا، فَقَالَ عُمَرُ   : \" لَيْسَ ذَاكَ لَكَ،يَرِثُهَا أَقْرَبُ النَّاسِ مِنْهَا مِنْ أَهْلِ دِينِهَا، لَا يَتَوَارَثُ مِلَّتَانِ \"",
      "english": {
        "narrator": "",
        "text": ""
      }
    },
    {
      "id": 149,
      "chapterId": 21,
      "bookId": 9,
      "arabic": "حَدَّثَنَا سُلَيْمَانُ بْنُ حَرْبٍ  ، حَدَّثَنَا حَمَّادُ بْنُ زَيْدٍ  ، حَدَّثَنَا أَنَسُ بْنُ سِيرِينَ  ، قَالَ : قَالَ عُمَرُ بْنُ الْخَطَّابِ   :\" لَا يَتَوَارَثُ مِلَّتَانِ شَتَّى، وَلَا يَحْجُبُ مَنْ لَا يَرِثُ \"",
      "english": {
        "narrator": "",
        "text": ""
      }
    },
    {
      "id": 150,
      "chapterId": 21,
      "bookId": 9,
      "arabic": "حَدَّثَنَا نَصْرُ بْنُ عَلِيٍّ  ، حَدَّثَنَا عَبْدُ الْأَعْلَى  ، عَنْ مَعْمَرٍ  ، عَنْ الزُّهْرِيِّ  ، عَنْ عَلِيِّ بْنِ حُسَيْنٍ  ، عَنْ عَمْرِو بْنِ عُثْمَانَ  ، عَنْ أُسَامَةَ بْنِ زَيْدٍ   أَنّ رَسُولَ اللَّهِ صَلَّى اللَّهُ عَلَيْهِ وَسَلَّمَ، قَالَ :\" لَا يَرِثُ الْمُسْلِمُ الْكَافِرَ، وَلَا الْكَافِرُ الْمُسْلِمَ \"",
      "english": {
        "narrator": "",
        "text": ""
      }
    },
    {
      "id": 151,
      "chapterId": 21,
      "bookId": 9,
      "arabic": "حَدَّثَنَا جَعْفَرُ بْنُ عَوْنٍ ، عَنْ سَعِيدٍ ، عَنْ أَبِي مَعْشَرٍ ،  عَنْ إِبْرَاهِيمَ ، قَالَ :\" إِذَا مَاتَ الْمَيِّتُ وَجَبَتْ الْحُقُوقُ لِأَهْلِهَا، وَلَمْ يَجْعَلْ لِمَنْ أَسْلَمَ أَوْ أُعْتِقَ قَبْلَ أَنْ يُقْسَمَ الْمِيرَاثُ شَيْئًا \"",
      "english": {
        "narrator": "",
        "text": ""
      }
    },
    {
      "id": 152,
      "chapterId": 21,
      "bookId": 9,
      "arabic": "أَخْبَرَنَا مُحَمَّدُ بْنُ يُوسُفَ  ، حَدَّثَنَا سُفْيَانُ  ، عَنْ عَبْدِ اللَّهِ بْنِ عِيسَى  ، عَنْ الزُّهْرِيِّ  ، عَنْ عَلِيِّ بْنِ حُسَيْنٍ  ، عَنْ أُسَامَةَ بْنِ زَيْدٍ  ، قَالَ : قَالَ رَسُولُ اللَّهِ صَلَّى اللَّهُ عَلَيْهِ وَسَلَّمَ :\" لَا يَرِثُ الْمُسْلِمُ الْكَافِرَ، وَلَا الْكَافِرُ الْمُسْلِمَ \"",
      "english": {
        "narrator": "",
        "text": ""
      }
    },
    {
      "id": 153,
      "chapterId": 21,
      "bookId": 9,
      "arabic": "حَدَّثَنَا عَمْرُو بْنُ عَوْنٍ  ، حَدَّثَنَا سُفْيَانُ  ، عَنْ الزُّهْرِيِّ  ، عَنْ عَلِيِّ بْنِ حُسَيْنٍ  ، عَنْ عَمْرِو بْنِ عُثْمَانَ  ، عَنْ أُسَامَةَ بْنِ زَيْدٍ  ، عَنِ النَّبِيِّ صَلَّى اللَّهُ عَلَيْهِ وَسَلَّمَ، قَالَ :\" لَا يَرِثُ الْمُسْلِمُ الْكَافِرَ، وَلَا الْكَافِرُ الْمُسْلِمَ \"",
      "english": {
        "narrator": "",
        "text": ""
      }
    },
    {
      "id": 154,
      "chapterId": 21,
      "bookId": 9,
      "arabic": "حَدَّثَنَا أَبُو النُّعْمَانِ ، حَدَّثَنَا أَبُو عَوَانَةَ ، عَنْ مُغِيرَةَ ،  عَنْ إِبْرَاهِيمَ ، قَالَ :\" لَيْسَ لِلْمُكَاتَبِ مِيرَاثٌ، مَا بَقِيَ عَلَيْهِ شَيْءٌ مِنْ مُكَاتَبَتِهِ \"",
      "english": {
        "narrator": "",
        "text": ""
      }
    },
    {
      "id": 155,
      "chapterId": 21,
      "bookId": 9,
      "arabic": "حَدَّثَنَا يَعْلَى  ، حَدَّثَنَا عَبْدُ الْمَلِكِ  ، عَنْ عَطَاءٍ   : \" فِي رَجُلٍ لَهُ بَنُونَ قَدْ أَعْتَقَ مِنْ بَعْضِهِمْ النِّصْفَ، وَمِنْ بَعْضٍ الثُّلُثَ، وَمِنْ بَعْضٍ الرُّبُعَ، قَالَ :لَا يَرِثُونَ حَتَّى يُعْتَقُوا \"",
      "english": {
        "narrator": "",
        "text": ""
      }
    },
    {
      "id": 156,
      "chapterId": 21,
      "bookId": 9,
      "arabic": "حَدَّثَنَا عبد الله بن جعفر الرقي ، وَسَعِيدُ بْنُ الْمُغِيرَةِ ، عَنْ ابْنِ الْمُبَارَكِ ، عَنْ مَعْمَرٍ ، عَنْ حَمَّادٍ ، عَنْ إِبْرَاهِيمَ  : \" فِي رَجُلٍ اشْتَرَى ابْنَهُ فِي مَرَضِهِ، قَالَ :إِنْ خَرَجَ مِنْ الثُّلُثِ وَرِثَهُ، وَإِنْ وَقَعَتْ عَلَيْهِ السِّعَايَةُ لَمْ يَرِثْ \"",
      "english": {
        "narrator": "",
        "text": ""
      }
    },
    {
      "id": 157,
      "chapterId": 21,
      "bookId": 9,
      "arabic": "حَدَّثَنَا أَبُو نُعَيْمٍ ، حَدَّثَنَا حَسَنٌ ، عَنْ أَبِيهِ ، عَنْ الشَّعْبِيِّ ، قَالَ :\" حَدُّ الْمُكَاتَبِ حَدُّ الْمَمْلُوكِ، حَتَّى يُعْتَقَ \"",
      "english": {
        "narrator": "",
        "text": ""
      }
    },
    {
      "id": 158,
      "chapterId": 21,
      "bookId": 9,
      "arabic": "حَدَّثَنَا مُحَمَّدُ بْنُ عِيسَى  ، حَدَّثَنَا سَعِيدُ بْنُ عَبْدِ الرَّحْمَنِ  ، حَدَّثَنَا يُونُسُ  ، عَنْ الزُّهْرِيِّ  ، قَالَ : قَالَ النَّبِيُّ صَلَّى اللَّهُ عَلَيْهِ وَسَلَّمَ :\" الْمَوْلَى أَخٌ فِي الدِّينِ وَنِعْمَةٌ، أَحَقُّ النَّاسِ بِمِيرَاثِهِ أَقْرَبُهُمْ مِنْ الْمُعْتِقِ \"",
      "english": {
        "narrator": "",
        "text": ""
      }
    },
    {
      "id": 159,
      "chapterId": 21,
      "bookId": 9,
      "arabic": "حَدَّثَنَا مُحَمَّدُ بْنُ عِيسَى ، حَدَّثَنَا هُشَيْمٌ ، حدثنا مَنْصُورٌ ، عَنْ الْحَسَنِ ، وَمُحَمَّدُ بْنُ سَالِمٍ ، عَنْ الشَّعْبِيِّ  فِي رَجُلٍ أَعْتَقَ مَمْلُوكًا، ثُمَّ مَاتَ الْمَوْلَى وَالْمَمْلُوكُ، وَتَرَكَ الْمُعْتِقُ أَبَاهُ وَابْنَهُ، قَالَا :\" الْمَالُ لِلِابْنِ \"",
      "english": {
        "narrator": "",
        "text": ""
      }
    },
    {
      "id": 160,
      "chapterId": 21,
      "bookId": 9,
      "arabic": "حَدَّثَنَا مُحَمَّدُ بْنُ عِيسَى  ، حَدَّثَنَا عَبَّادٌ  ، عَنْ عُمَرَ بْنِ عَامِرٍ  ، عَنْ قَتَادَةَ  ، عَنْ سَعِيدِ بْنِ الْمُسَيِّبِ  ، عَنْ زَيْدِ بْنِ ثَابِتٍ   فِي رَجُلٍ تَرَكَ أَبَاهُ وَابْنَ ابْنِهِ، فَقَالَ :\" الْوَلَاءُ لِابْنِ الِابْنِ \"",
      "english": {
        "narrator": "",
        "text": ""
      }
    },
    {
      "id": 161,
      "chapterId": 21,
      "bookId": 9,
      "arabic": "حَدَّثَنَا مُحَمَّدُ بْنُ عِيسَى  ، حَدَّثَنَا مُعَمَّرٌ  ، حَدَّثَنَا خُصَيْفٌ  ، عَنْ زِيَادِ بْنِ أَبِي مَرْيَمَ   : أَنَّ امْرَأَةً أَعْتَقَتْ عَبْدًا لَهَا، ثُمَّ تُوُفِّيَتْ وَتَرَكَتْ ابْنَهَا وَأَخَاهَا، ثُمَّ تُوُفِّيَ مَوْلَاهَا، فَأَتَى النَّبِيَّ صَلَّى اللَّهُ عَلَيْهِ وَسَلَّمَ ابْنُ الْمَرْأَةِ وَأَخُوهَا فِي مِيرَاثِهِ، فَقَالَ النَّبِيُّ صَلَّى اللَّهُ عَلَيْهِ وَسَلَّمَ :\" مِيرَاثُهُ لِابْنِ الْمَرْأَةِ، فَقَالَ أَخُوهَا : يَا رَسُولَ اللَّه، ِلَوْ أَنَّهُ جَرَّ جَرِيرَةً، عَلَى مَنْ كَانَتْ؟ قَالَ : عَلَيْكَ \"",
      "english": {
        "narrator": "",
        "text": ""
      }
    },
    {
      "id": 162,
      "chapterId": 21,
      "bookId": 9,
      "arabic": "حَدَّثَنَا مُحَمَّدُ بْنُ الصَّلْتِ ، حَدَّثَنَا هُشَيْمٌ ، أَخْبَرَنَا مُغِيرَةُ ، قَالَ : سَأَلْتُ إِبْرَاهِيمَ  \" عَنْ رَجُلٍ أَعْتَقَ مَمْلُوكًا لَهُ، فَمَاتَ وَمَاتَ الْمَوْلَى، فَتَرَكَ الْمُعْتِقُ أَبَاهُ وَابْنَهُ، فَقَالَ لِأَبِيهِ :كَذَا، وَمَا بَقِيَ فَلِابْنِهِ \"",
      "english": {
        "narrator": "",
        "text": ""
      }
    },
    {
      "id": 163,
      "chapterId": 21,
      "bookId": 9,
      "arabic": "حَدَّثَنَا مُحَمَّدُ بْنُ الصَّلْتِ  ، حَدَّثَنَا هُشَيْمٌ  ، عَنْ شُعْبَةَ  قَالَ : سَمِعْتُ الْحَكَمَ  ، وَحَمَّادًا   ، يَقُولَانِ :\" هُوَ لِلِابْنِ \"",
      "english": {
        "narrator": "",
        "text": ""
      }
    },
    {
      "id": 164,
      "chapterId": 21,
      "bookId": 9,
      "arabic": "أَخْبَرَنَا يَزِيدُ بْنُ هَارُونَ  ، أَنْبَأَنَا الْأَشْعَثُ  ، عَنْ الْحَسَن   \" : أَنَّ النَّبِيَّ صَلَّى اللَّهُ عَلَيْهِ وَسَلَّمَ \" خَرَجَ إِلَى الْبَقِيعِ ، فَرَأَى رَجُلًا يُبَاعُ، فَأَتَاهُ فَسَاوَمَ بِهِ، ثُمَّ تَرَكَهُ فَرَآهُ رَجُلٌ فَاشْتَرَاهُ فَأَعْتَقَهُ، ثُمَّ جَاءَ بِهِ إِلَى النَّبِيِّ صَلَّى اللَّهُ عَلَيْهِ وَسَلَّمَ فَقَالَ : إِنِّي اشْتَرَيْتُ هَذَا فَأَعْتَقْتُهُ، فَمَا تَرَى فِيهِ؟ فَقَالَ :هُوَ أَخُوكَ وَمَوْلَاكَ، قَالَ : مَا تَرَى فِي صُحْبَتِهِ؟ قَالَ : إِنْ شَكَرَكَ فَهُوَ خَيْرٌ لَهُ وَشَرٌّ لَكَ، وَإِنْ كَفَرَكَ فَهُوَ خَيْرٌ لَكَ وَشَرٌّ لَهُ، قَالَ : مَا تَرَى فِي مَالِهِ؟ قَالَ : إِنْ مَاتَ وَلَمْ يَتْرُكْ عَصَبَةً فَأَنْتَ وَارِثُهُ \"",
      "english": {
        "narrator": "",
        "text": ""
      }
    },
    {
      "id": 165,
      "chapterId": 21,
      "bookId": 9,
      "arabic": "أَخْبَرَنَا يَزِيدُ بْنُ هَارُونَ  ، أَنْبَأَنَا أَشْعَثُ  ، عَنْ الْحَكَمِ  ، وَسَلَمَةَ بْنِ كُهَيْلٍ  ، عَنْ عَبْدِ اللَّهِ بْنِ شَدَّادٍ   : أَنَّ ابْنَةَ حَمْزَةَ أَعْتَقَتْ عَبْدًا لَهَا، فَمَاتَ وَتَرَكَ ابْنَتَهُ وَمَوْلَاتَهُ بِنْتَ حَمْزَةَ ، \"فَقَسَمَ رَسُولُ اللَّهِ صَلَّى اللَّهُ عَلَيْهِ وَسَلَّمَ مِيرَاثَهُ بَيْنَ ابْنَتِهِ وَمَوْلَاتِهِ بِنْتِ حَمْزَةَ نِصْفَيْنِ \"",
      "english": {
        "narrator": "",
        "text": ""
      }
    },
    {
      "id": 166,
      "chapterId": 21,
      "bookId": 9,
      "arabic": "حَدَّثَنَا مُحَمَّدُ بْنُ عُيَيْنَةَ  ، عَنْ عَلِيِّ بْنِ مُسْهِرٍ  ، عَنْ الشَّيْبَانِيِّ  ، عَنْ الْحَكَمِ  ، عَنْ شَمُوسَ الْكِنْدِيَّةِ L1465 ، قَالَتْ : \" قَاضَيْتُ إِلَى عَلِيٍّ   فِي أَبٍ مَاتَ فَلَمْ يَدَعْ أَحَدًا غَيْرِي، وَمَوْلَاهُ،فَأَعْطَانِي النِّصْفَ، َوَأَعْطَى مَوْلَاهُ النِّصْفَ \"",
      "english": {
        "narrator": "",
        "text": ""
      }
    },
    {
      "id": 167,
      "chapterId": 21,
      "bookId": 9,
      "arabic": "أَخْبَرَنَا مُحَمَّدُ بْنُ عُيَيْنَةَ  ، عَنْ عَلِيِّ بْنِ مُسْهِرٍ  ، عَنْ ابْنِ أَبِي لَيْلَى  ، عَنْ الْحَكَمِ  ، عَنْ أَبِي الْكَنُودِ  ، عَنْ عَلِيٍّ   : \" أَنَّهُ أُتِيَ بِابْنَةٍ وَمَوْلًى،فَأَعْطَى الِابْنَةَ النِّصْفَ، وَالْمَوْلَى النِّصْفَ، قَالَ الْحَكَمُ : فَمَنْزِلِي هَذَا نَصِيبُ الْمَوْلَى الَّذِي وَرِثَهُ عَنْ مَوْلَاهُ",
      "english": {
        "narrator": "",
        "text": ""
      }
    },
    {
      "id": 168,
      "chapterId": 21,
      "bookId": 9,
      "arabic": "أَخْبَرَنَا إِبْرَاهِيمُ بْنُ مُوسَى  ، عَنْ ابْنِ إِدْرِيسَ  ، عَنْ أَشْعَثَ  ، عَنْ الْحَكَمِ  ، عَنْ عَبْدِ الرَّحْمَنِ بْنِ مُدْلِجٍ : أَنَّهُ مَاتَ وَتَرَكَ ابْنَتَهُ وَمَوَالِيَهُ،فَأَعْطَى عَلِيٌّ   ابْنَتَهُ النِّصْفَ وَمَوَالِيَهُ النِّصْفَ \"",
      "english": {
        "narrator": "",
        "text": ""
      }
    },
    {
      "id": 169,
      "chapterId": 21,
      "bookId": 9,
      "arabic": "حَدَّثَنَا إِبْرَاهِيمُ  ، عَنْ ابْنِ إِدْرِيسَ  ، عَنْ الشَّيْبَانِيِّ  ، عَنْ الْحَكَمِ  ، عَنْ الشَّمُّوسِ L1465  : \" أَنَّ أَبَاهَا مَاتَ،فَجَعَلَ عَلِيٌّ   لَهَا النِّصْفَ وَلِمَوَالِيهِ النِّصْفَ \"",
      "english": {
        "narrator": "",
        "text": ""
      }
    },
    {
      "id": 170,
      "chapterId": 21,
      "bookId": 9,
      "arabic": "حَدَّثَنَا مُحَمَّدُ بْنُ عِيسَى ، حَدَّثَنَا حَفْصُ بْنُ غِيَاثٍ ، حَدَّثَنَا أَشْعَثُ ، عَنْ جَهْمِ بْنِ دِينَارٍ ، عَنْ إِبْرَاهِيمَ  : أَنَّهُ \" سُئِلَ عَنْ أُخْتَيْنِ اشْتَرَتْ إِحْدَاهُمَا أَبَاهَا فَأَعْتَقَتْهُ، ثُمَّ مَاتَ، قَالَ لَهُمَا :الثُّلُثَانِ فَرِيضَتُهُمَا فِي كِتَابِ اللَّهِ، وَمَا بَقِيَ فَلِلْمُعْتِقَةِ دُونَ الْأُخْرَى \"",
      "english": {
        "narrator": "",
        "text": ""
      }
    },
    {
      "id": 171,
      "chapterId": 21,
      "bookId": 9,
      "arabic": "حَدَّثَنَا مُحَمَّدُ بْنُ يُوسُفَ ، حَدَّثَنَا إِسْرَائِيلُ ، حَدَّثَنَا الْأَشْعَثُ ، عَنْ الشَّعْبِيِّ  : \" فِي امْرَأَةٍ أَعْتَقَتْ أَبَاهَا، فَمَاتَ الْأَبُ وَتَرَكَ أَرْبَعَ بَنَاتٍ هِيَ إِحْدَاهُنَّ، قَالَ :لَيْسَ عَلَيْهِ مِنَّةٌ، لَهُنَّ الثُّلُثَانِ، وَهِيَ مَعَهُنَّ \"",
      "english": {
        "narrator": "",
        "text": ""
      }
    },
    {
      "id": 172,
      "chapterId": 21,
      "bookId": 9,
      "arabic": "حَدَّثَنَا أَبُو نُعَيْمٍ  ، حَدَّثَنَا زُهَيْرٌ  ، عَنْ حَيَّانَ بْنِ سَلْمَانَ L2590 ، قَالَ : كُنْتُ عِنْدَ سُوَيْدِ بْنِ غَفَلَةَ  ، فَجَاءَهُ رَجُلٌ، فَسَأَلَهُ عَنْ \" فَرِيضَةِ رَجُلٍ تَرَكَ ابْنَتَهُ وَامْرَأَتَه، فَقَالَ : أَنَا أُنْبِئُكَ قَضَاءَ عَلِيٍّ  ، قَالَ : حَسْبِي قَضَاءُ عَلِيٍّ، قَالَ : قَضَى عَلِيٌّلِامْرَأَتِهِ الثُّمُنَ، وَلِابْنَتِهِ النِّصْفَ، ثُمَّ رَدَّ الْبَقِيَّةَ عَلَى ابْنَتِهِ \"",
      "english": {
        "narrator": "",
        "text": ""
      }
    },
    {
      "id": 173,
      "chapterId": 21,
      "bookId": 9,
      "arabic": "حَدَّثَنَا عُبَيْدُ اللَّهِ ، عَنْ إِسْرَائِيلَ ، عَنْ أَبِي الْهَيْثَمِ ،  عَنْ إِبْرَاهِيمَ  : أَنَّ مَوْلَاةً لِإِبْرَاهِيمَ تُوُفِّيَتْ وَتَرَكَتْ مَالًا، فَقُلْتُ لِإِبْرَاهِيمَ، فَقَالَ :\" إِنَّ لَهَا ذَا قَرَابَةٍ \"",
      "english": {
        "narrator": "",
        "text": ""
      }
    },
    {
      "id": 174,
      "chapterId": 21,
      "bookId": 9,
      "arabic": "أَخْبَرَنَا يَزِيدُ بْنُ هَارُونَ  ، حَدَّثَنَا أَشْعَثُ  ، عَنْ الشَّعْبِيِّ  ، عَنْ عُمَرَ  ، وَعَلِيٍّ  ، وَزَيْدٍ  ، قَالَ : وَأَحْسَبُهُ قَدْ ذَكَرَ عَبْدَ اللَّهِ   أَيْضًا : أَنَّهُمْ قَالُوا :\" الْوَلَاءُ لِلْكُبْرِ.\nيَعْنُونَ بِالْكُبْرِ : مَا كَانَ أَقْرَبَ بِأَبٍ أَوْ أُمٍّ \"",
      "english": {
        "narrator": "",
        "text": ""
      }
    },
    {
      "id": 175,
      "chapterId": 21,
      "bookId": 9,
      "arabic": "حَدَّثَنَا يَزِيدُ  ، حَدَّثَنَا أَشْعَثُ  ، عَنْ ابْنِ سِيرِينَ  ، عَنْ عَبْدِ اللَّهِ بْنِ عُتْبَةَ  ، قَالَ : \" كَتَبَ إِلَيَّ عُمَرُ فِي شَأْنِ فُكَيْهَةَ بِنْتِ سَمْعَانَ أَنَّهَا مَاتَتْ وَتَرَكَتْ ابْنَ أَخِيهَا لِأَبِيهَا وَأُمِّهَا، وَابْنَ أَخِيهَا لِأَبِيهَا، فَكَتَبَ عُمَرُ   :إِنَّ الْوَلَاءَ لِلْكُبْرِ \"",
      "english": {
        "narrator": "",
        "text": ""
      }
    },
    {
      "id": 176,
      "chapterId": 21,
      "bookId": 9,
      "arabic": "حَدَّثَنَا أَحْمَدُ بْنُ عَبْدِ اللَّهِ  ، حَدَّثَنَا أَبُو شِهَابٍ  ، عَنْ الشَّيْبَانِيِّ  ، عَنْ الشَّعْبِيِّ  : أَنَّ عَلِيًّا  ، وَزَيْدًا   قَالَا :\" الْوَلَاءُ لِلْكُبْر \".\nوَقَالَ عَبْدُ اللَّهِ  ، وَشُرَيْحٌ   : لِلْوَرَثَةِ",
      "english": {
        "narrator": "",
        "text": ""
      }
    },
    {
      "id": 177,
      "chapterId": 21,
      "bookId": 9,
      "arabic": "حَدَّثَنَا مُحَمَّدُ بْنُ عُيَيْنَةَ  ، عَنْ عَلِيِّ بْنِ مُسْهِرٍ  ، عَنْ أَشْعَثَ  ، عَنِ الشَّعْبِيِّ  ، قَالَ : \" قَضَى عُمَر  ، وَعَبْدُ اللَّهِ  ، وَعَلِيٌّ  ، وَزَيْدٌ  لِلْكُبْرِ بِالْوَلَاءِ \"",
      "english": {
        "narrator": "",
        "text": ""
      }
    },
    {
      "id": 178,
      "chapterId": 21,
      "bookId": 9,
      "arabic": "حَدَّثَنَا أَبُو نُعَيْمٍ  ، حَدَّثَنَا شَرِيكٌ  ، عَنْ أَشْعَثَ  ، عَنْ ابْنِ سِيرِينَ  ، قَالَ : \" تُوُفِّيَتْ فُكَيْهَةُ بِنْتُ سَمْعَانَ وَتَرَكَتْ ابْنَ أَخِيهَا لِأَبِيهَا، وَبَنِي بَنِي أَخِيهَا لِأَبِيهَا وَأُمِّهَا،فَوَرَّثَ عُمَرُ   بَنِي أَخِيهَا لِأَبِيهَا \"",
      "english": {
        "narrator": "",
        "text": ""
      }
    },
    {
      "id": 179,
      "chapterId": 21,
      "bookId": 9,
      "arabic": "حَدَّثَنَا مُحَمَّدُ بْنُ عِيسَى  ، حَدَّثَنَا عَبْدُ السَّلَامِ بْنُ حَرْبٍ  ، عَنْ الْأَعْمَشِ  ، عَنْ إِبْرَاهِيمَ  ،  عَنْ عُمَرَ  ، وَعَلِيٍّ  ، وَزَيْدٍ   : أَنَّهُمْ قَالُوا :\" الْوَلَاءُ لِلْكُبْرِ \"",
      "english": {
        "narrator": "",
        "text": ""
      }
    },
    {
      "id": 180,
      "chapterId": 21,
      "bookId": 9,
      "arabic": "حَدَّثَنَا مُحَمَّدُ بْنُ عِيسَى  ، حَدَّثَنَا أَبُو عَوَانَةَ  ، عَنْ مُغِيرَةَ  ، عَنْ إِبْرَاهِيمَ  : \" فِي أَخَوَيْنِ وَرِثَا مَوْلًى كَانَ أَعْتَقَهُ أَبُوهُمَا، فَمَاتَ أَحَدُهُمَا وَتَرَكَ وَلَدًا، قَالَ : كَانَ عَلِيٌّ  ، وَزَيْدٌ  ، وَعَبْدُ اللَّهِ   ، يَقُولُونَ :\" الْوَلاءُ لِلْكَبِر \"",
      "english": {
        "narrator": "",
        "text": ""
      }
    },
    {
      "id": 181,
      "chapterId": 21,
      "bookId": 9,
      "arabic": "حَدَّثَنَا مُحَمَّدُ بْنُ عِيسَى  ، حَدَّثَنَا حَمَّادُ بْنُ زَيْدٍ  ، قَالَ : سَمِعْتُ مَطَرًا الْوَرَّاقَ  ، يَقُولُ : قَالَ عُمَرُ  ، وَعَلِيٌّ   :\" الْوَلاءُ لِلْكِبَرِ \"",
      "english": {
        "narrator": "",
        "text": ""
      }
    },
    {
      "id": 182,
      "chapterId": 21,
      "bookId": 9,
      "arabic": "أَخْبَرَنَا مُحَمَّدُ بْنُ عِيسَى ، عَنْ رَوْحٍ ، عَنْ ابْنِ جُرَيْجٍ ، عَنْ عَطَاءٍ ، وَابْنِ جُرَيْجٍ ، عَنْ ابْنِ طَاوُسٍ ، عَنْ أَبِيهِ ، قَالَ :\" الْوَلَاءُ لِلْكُبْرِ \"",
      "english": {
        "narrator": "",
        "text": ""
      }
    },
    {
      "id": 183,
      "chapterId": 21,
      "bookId": 9,
      "arabic": "أَخْبَرَنَا عُبَيْدُ اللَّهِ بْنُ مُوسَى ، عَنْ إِسْرَائِيلَ ، عَنْ مَنْصُورٍ ، عَنْ إِبْرَاهِيمَ ، قَالَ :\" الْوَلَاءُ لِلْكُبْرِ \"",
      "english": {
        "narrator": "",
        "text": ""
      }
    },
    {
      "id": 184,
      "chapterId": 21,
      "bookId": 9,
      "arabic": "حَدَّثَنَا أَبُو نُعَيْمٍ  ، حَدَّثَنَا سُفْيَانُ  ، عَنْ مُطَرِّفٍ  ، عَنْ الشَّعْبِيِّ  ، وَسُفْيَانُ  ، عَنْ يُونُسَ  ، عَنْ الْحَسَنِ   فِي الرَّجُلِ يُوَالِي الرَّجُلَ، قَالَا :\" هُوَ بَيْنَ الْمُسْلِمِينَ \".\nقَالَ سُفْيَانُ : وَكَذَلِكَ نَقُولُ",
      "english": {
        "narrator": "",
        "text": ""
      }
    },
    {
      "id": 185,
      "chapterId": 21,
      "bookId": 9,
      "arabic": "حَدَّثَنَا أَبُو نُعَيْمٍ  ، حَدَّثَنَا عَبْدُ الْعَزِيزِ بْنُ عُمَرَ بْنِ عَبْدِ الْعَزِيزِ  ، عَنْ عَبْدِ اللَّهِ بْنِ مَوْهَبٍ  ، قَالَ : سَمِعْتُ تَمِيمًا الدَّارِيَّ  ، يَقُولُ : سَأَلْتُ رَسُولَ اللَّهِ صَلَّى اللَّهُ عَلَيْهِ وَسَلَّمَ، فَقُلْتُ : يَا رَسُولَ اللَّهِ، مَا السُّنَّةُ فِي الرَّجُلِ مِنْ أَهْلِ الْكُفْرِ يُسْلِمُ عَلَى يَدَيْ رَجُلٍ مِنْ الْمُسْلِمِينَ؟ فَقَالَ رَسُولُ اللَّهِ صَلَّى اللَّهُ عَلَيْهِ وَسَلَّمَ :\" هُوَ أَوْلَى النَّاسِ بِمَحْيَاهُ وَمَمَاتِهِ \"",
      "english": {
        "narrator": "",
        "text": ""
      }
    },
    {
      "id": 186,
      "chapterId": 21,
      "bookId": 9,
      "arabic": "حَدَّثَنَا عُبَيْدُ اللَّهِ ، عَنْ إِسْرَائِيلَ ، عَنْ مَنْصُورٍ ، عَنْ إِبْرَاهِيمَ ، قَالَ : سُئِلَ عَنْ رَجُلٍ مِنْ أَهْلِ السَّوَادِ، أَسْلَمَ عَلَى يَدَيْ رَجُلٍ، قَالَ :\" يَعْقِلُ عَنْهُ، وَيَرِثُهُ \"",
      "english": {
        "narrator": "",
        "text": ""
      }
    },
    {
      "id": 187,
      "chapterId": 21,
      "bookId": 9,
      "arabic": "حَدَّثَنَا سُلَيْمَانُ بْنُ حَرْبٍ ، حَدَّثَنَا شُعْبَةُ ، عَنْ مُغِيرَةَ ،  عَنْ إِبْرَاهِيمَ ، قَالَ :\" تَرِثُ الْمَرْأَةُ مِنْ دِيَةِ زَوْجِهَا فِي الْعَمْدِ وَالْخَطَإِ \"",
      "english": {
        "narrator": "",
        "text": ""
      }
    },
    {
      "id": 188,
      "chapterId": 21,
      "bookId": 9,
      "arabic": "حَدَّثَنَا أَبُو النُّعْمَانِ ، حَدَّثَنَا أَبُو عَوَانَةَ ، عَنْ مُغِيرَةَ ، عَنْ إِبْرَاهِيمَ ، قَالَ :\" الدِّيَةُ عَلَى فَرَائِضِ اللَّهِ \"",
      "english": {
        "narrator": "",
        "text": ""
      }
    },
    {
      "id": 189,
      "chapterId": 21,
      "bookId": 9,
      "arabic": "حَدَّثَنَا مُسْلِمُ بْنُ إِبْرَاهِيمَ  ، حَدَّثَنَا وُهَيْبٌ  ، حَدَّثَنَا أَيُّوبُ  ، عَنْ أَبِي قِلَابَةَ  ، قَالَ :\" الدِّيَةُ سَبِيلُهَا سَبِيلُ الْمِيرَاثِ \"",
      "english": {
        "narrator": "",
        "text": ""
      }
    },
    {
      "id": 190,
      "chapterId": 21,
      "bookId": 9,
      "arabic": "حَدَّثَنَا سُلَيْمَانُ بْنُ حَرْبٍ ، حَدَّثَنَا حَمَّادُ بْنُ سَلَمَةَ ، عَنْ حُمَيْدٍ ، وَدَاوُدَ بْنِ أَبِي هِنْدٍ : أن عمر بن عبد العزيز  كتب أن :\" يورث الإخوة من الأم من الدية \"",
      "english": {
        "narrator": "",
        "text": ""
      }
    }
  ]
}