{
  "page": 47,
  "perPage": 50,
  "totalPages": 69,
  "totalCount": 3406,
  "nextPage": 48,
  "prevPage": 46,
  "items": [
    {
      "id": 191,
      "chapterId": 21,
      "bookId": 9,
      "arabic": "حَدَّثَنَا عَبْدُ اللَّهِ بْنُ صَالِحٍ  ، حَدَّثَنِي اللَّيْثُ  ، حَدَّثَنِي يُونُسُ  ، عَنْ ابْنِ شِهَابٍ  ، قَالَ :\" الْعَقْلُ مِيرَاثٌ بَيْنَ وَرَثَةِ الْقَتِيلِ عَلَى كِتَابِ اللَّهِ وَفَرَائِضِهِ \"",
      "english": {
        "narrator": "",
        "text": ""
      }
    },
    {
      "id": 192,
      "chapterId": 21,
      "bookId": 9,
      "arabic": "حَدَّثَنَا قَبِيصَةُ  ، حَدَّثَنَا سُفْيَانُ  ، عَنْ عَمْرِو بْنِ دِينَارٍ  ، عَنْ بَعْضِ  وَلَدِ ابْنِ الْحَنَفِيَّةِ، عَنْ عَلِيٍّ  ، قَالَ :\" لَقَدْ ظَلَمَ مَنْ لَمْ يُوَرِّثْ الْإِخْوَةَ مِنْ الْأُمِّ مِنْ الدِّيَةِ \"",
      "english": {
        "narrator": "",
        "text": ""
      }
    },
    {
      "id": 193,
      "chapterId": 21,
      "bookId": 9,
      "arabic": "حَدَّثَنَا عَبْدُ اللَّهِ بْنُ سَعِيدٍ  ، حَدَّثَنَا أَبُو خَالِدٍ  ، أَنْبَأَنَا ابْنُ سَالِمٍ  ، عَنْ الشَّعْبِيِّ  ، عَنْ عُمَرَ  ، وَعَلِيٍّ  ، وَزَيْدٍ   ، قَالُوا :\" الدِّيَةُ تُورَثُ كَمَا يُورَثُ الْمَالُ خَطَؤُهُ وَعَمْدُهُ \"",
      "english": {
        "narrator": "",
        "text": ""
      }
    },
    {
      "id": 194,
      "chapterId": 21,
      "bookId": 9,
      "arabic": "حَدَّثَنَا جَعْفَرُ بْنُ عَوْنٍ  ، حَدَّثَنَا إِسْمَاعِيل  ، عَنْ عَامِرٍ  ، قَالَ : \" كَانَ عَلِيٌّ  لَا يُوَرِّثُ الْإِخْوَةَ مِنْ الْأُمِّ، وَلَا الزَّوْجَ، وَلَا الْمَرْأَةَ، مِنْ الدِّيَةِ شَيْئًا \".\nقَالَ عَبْد اللَّهِ : بَعْضُهُمْ يُدْخِلُ بَيْنَ إِسْمَاعِيل، وَعَامِرٍ رَجُلًا",
      "english": {
        "narrator": "",
        "text": ""
      }
    },
    {
      "id": 195,
      "chapterId": 21,
      "bookId": 9,
      "arabic": "حَدَّثَنَا سُلَيْمَانُ بْنُ حَرْبٍ ، عَنْ حَمَّادِ بْنِ سَلَمَةَ ، عَنْ زِيَادٍ الْأَعْلَمِ ،  عَنْ الْحَسَنِ ، قَالَ :\" لَا تُوَرَّثُ الْإِخْوَةُ مِنْ الْأُمِّ مِنْ الدِّيَةِ \"",
      "english": {
        "narrator": "",
        "text": ""
      }
    },
    {
      "id": 196,
      "chapterId": 21,
      "bookId": 9,
      "arabic": "حَدَّثَنَا يَحْيَى بْنُ حَسَّانَ  ، حَدَّثَنَا ابْنُ أَبِي الزِّنَادِ  ، عَنْ أَبِيهِ  ، عَنْ خَارِجَةَ بْنِ زَيْدٍ  ، عَنْ زَيْدِ بْنِ ثَابِتٍ  ، قَالَ :\" كُلُّ قَوْمٍ مُتَوَارِثِينَ عَمِيَ مَوْتُهُمْ فِي هَدْمٍ، أَوْ غَرَقٍ، فَإِنَّهُمْ لَا يَتَوَارَثُونَ، يَرِثُهُمْ الْأَحْيَاءُ \"",
      "english": {
        "narrator": "",
        "text": ""
      }
    },
    {
      "id": 197,
      "chapterId": 21,
      "bookId": 9,
      "arabic": "حَدَّثَنَا يَحْيَى بْنُ حَسَّانَ ، حَدَّثَنَا حَمَّادُ بْنُ زَيْدٍ ، عَنْ يَحْيَى بْنِ عَتِيقٍ ، قَالَ : قَرَأْتُ فِي بَعْضِ كُتُبِ عُمَرَ بْنِ عَبْدِ الْعَزِيزِ  فِي الْقَوْمِ يَقَعُ عَلَيْهِمْ الْبَيْتُ، لَا يُدْرَى أَيُّهُمَا مَاتَ قَبْلُ؟ قَالَ :\" لَا يُوَرَّثُ الْأَمْوَاتُ بَعْضُهُمْ مِنْ بَعْضٍ، وَيُوَرَّثُ الْأَحْيَاءُ مِنْ الْأَمْوَاتِ \"",
      "english": {
        "narrator": "",
        "text": ""
      }
    },
    {
      "id": 198,
      "chapterId": 21,
      "bookId": 9,
      "arabic": "حَدَّثَنَا نُعَيْمُ بْنُ حَمَّادٍ  ، عَنْ عَبْدِ الْعَزِيزِ بْنِ مُحَمَّدٍ  ، حَدَّثَنَا جَعْفَرٌ  ، عَنْ أَبِيهِ   : أَنَّ أُمَّ كُلْثُومٍ ، وَابْنَهَا زَيْدًا مَاتَا فِي يَوْمٍ وَاحِدٍ، فَالْتَقَتْ الصَّائِحَتَانِ فِي الطَّرِيقِ،فَلَمْ يَرِثْ كُلُّ وَاحِدٍ مِنْهُمَا مِنْ صَاحِبِهِ، وَأَنَّ أَهْلَ الْحَرَّةِ لَمْ يَتَوَارَثُوا، وَأَنَّ أَهْلَ صِفِّينَ لَمْ يَتَوَارَثُوا \"",
      "english": {
        "narrator": "",
        "text": ""
      }
    },
    {
      "id": 199,
      "chapterId": 21,
      "bookId": 9,
      "arabic": "أَخْبَرَنَا جَعْفَرُ بْنُ عَوْنٍ  ، أَنْبَأَنَا ابْنُ أَبِي لَيْلَى  ، عَنْ الشَّعْبِيِّ   : \" أَنَّ بَيْتًا بِالشَّامِ وَقَعَ عَلَى قَوْمٍ،فَوَرَّثَ عُمَرُ   بَعْضَهُمْ مِنْ بَعْضٍ \"",
      "english": {
        "narrator": "",
        "text": ""
      }
    },
    {
      "id": 200,
      "chapterId": 21,
      "bookId": 9,
      "arabic": "حَدَّثَنَا أَبُو نُعَيْمٍ  ، حَدَّثَنَا سُفْيَانُ  ، عَنْ حُرَيْسٍ  ، عَنْ أَبِيهِ  ، عَنْ عَلِيٍّ   : \" أَنَّهُوَرَّثَ أَخَوَيْنِ قُتِلَا بِصِفِّينَ، أَحَدَهُمَا مِنْ الْآخَرِ \"",
      "english": {
        "narrator": "",
        "text": ""
      }
    },
    {
      "id": 201,
      "chapterId": 21,
      "bookId": 9,
      "arabic": "أَخْبَرَنَا يَزِيدُ بْنُ هَارُونَ  ، أَنْبَأَنَا حُمَيْدٌ  ، عَنْ بَكْرِ بْنِ عَبْدِ اللَّهِ الْمُزَنِيِّ   : \" أَنَّ رَجُلًا هَلَكَ، وَتَرَكَ عَمَّتَهُ، وَخَالَتَهُ،فَأَعْطَى عُمَرُ الْعَمَّةَ نَصِيبَ الْأَخِ، وَأَعْطَى الْخَالَةَ نَصِيبَ الْأُخْتِ \"",
      "english": {
        "narrator": "",
        "text": ""
      }
    },
    {
      "id": 202,
      "chapterId": 21,
      "bookId": 9,
      "arabic": "أَخْبَرَنَا أَحْمَدُ بْنُ عَبْدِ اللَّهِ ، حَدَّثَنَا أَبُو شِهَابٍ ، عَنْ الْأَعْمَشِ ، عَنْ إِبْرَاهِيمَ ، قَالَ :\" مَنْ أَدْلَى بِرَحِمٍ، أُعْطِيَ بِرَحِمِهِ الَّتِي يُدْلِي بِهَا \"",
      "english": {
        "narrator": "",
        "text": ""
      }
    },
    {
      "id": 203,
      "chapterId": 21,
      "bookId": 9,
      "arabic": "حَدَّثَنَا أَحْمَدُ بْنُ عَبْدِ اللَّهِ ، حَدَّثَنَا أَبُو شِهَابٍ ، قَالَ : حَدَّثَنِي أَبُو إِسْحَاق الشَّيْبَانِيُّ ، عَنْ الشَّعْبِيِّ  : \" فِي رَجُلٍ تَرَكَ عَمَّتَهُ، وَابْنَةَ أَخِيهِ، قَالَ :الْمَالُ لِابْنَةِ أَخِيهِ \"",
      "english": {
        "narrator": "",
        "text": ""
      }
    },
    {
      "id": 204,
      "chapterId": 21,
      "bookId": 9,
      "arabic": "حَدَّثَنَا أَبُو نُعَيْمٍ  ، حَدَّثَنَا شَرِيكٌ  ، عَنْ لَيْثٍ  ، عَنْ مُحَمَّدِ بْنِ الْمُنْكَدِرِ  ، عَنْ أَبِي هُرَيْرَةَ  ، عَنِ النَّبِيِّ صَلَّى اللَّهُ عَلَيْهِ وَسَلَّمَ، قَالَ :\" الْخَالُ وَارِثٌ \"",
      "english": {
        "narrator": "",
        "text": ""
      }
    },
    {
      "id": 205,
      "chapterId": 21,
      "bookId": 9,
      "arabic": "حَدَّثَنَا أَبُو نُعَيْمٍ  ، حَدَّثَنَا حَسَنٌ  ، عَنْ عُبَيْدَةَ  ، عَنْ إِبْرَاهِيمَ  : أَنَّ عُمَرَ  ، وَعَبْدَ اللَّهِ   رَأَيَا أَنْيُوَرِّثَا خَالًا \"",
      "english": {
        "narrator": "",
        "text": ""
      }
    },
    {
      "id": 206,
      "chapterId": 21,
      "bookId": 9,
      "arabic": "حَدَّثَنَا أَبُو نُعَيْمٍ ، حَدَّثَنَا حَسَنٌ ، عَنْ سُلَيْمَانَ أَبِي إِسْحَاق ، عَنْ الشَّعْبِيِّ  : فِي عَمَّةٍ، وَبِنْتِ أَخٍ، قَالَ :\" الْمَالُ لِابْنَةِ الْأَخِ \"",
      "english": {
        "narrator": "",
        "text": ""
      }
    },
    {
      "id": 207,
      "chapterId": 21,
      "bookId": 9,
      "arabic": "حَدَّثَنَا أَبُو نُعَيْمٍ ، أنبأنا حَسَنٌ ، عَنْ سُلَيْمَانَ ، عَنْ بَعْضِهِمْ ، عَنْ إِبْرَاهِيمَ ، قَالَ :\" لِلْعَمَّةِ \"",
      "english": {
        "narrator": "",
        "text": ""
      }
    },
    {
      "id": 208,
      "chapterId": 21,
      "bookId": 9,
      "arabic": "حَدَّثَنَا أَبُو نُعَيْمٍ ، حَدَّثَنَا سُفْيَانُ ، عَنْ الشَّيْبَانِيِّ ، عَنْ الشَّعْبِيِّ  : فِي بِنْتِ أَخٍ، وَعَمَّةٍ، قَالَ :\" أَعْطِي الْمَالَ لِابْنَةِ الْأَخِ \"",
      "english": {
        "narrator": "",
        "text": ""
      }
    },
    {
      "id": 209,
      "chapterId": 21,
      "bookId": 9,
      "arabic": "حَدَّثَنَا يَعْلَى  ، حَدَّثَنَا زَكَرِيَّا  ، عَنْ عَامِرٍ  ، عَنْ مَسْرُوقٍ   : فِي رَجُلٍ تُوُفِّيَ وَلَيْسَ لَهُ وَارِثٌ إِلَّا ابْنَةُ أَخِيهِ وَخَالُهُ، قَالَ :\" لِلْخَالِ نَصِيبُ أُخْتِهِ، وَلِابْنَةِ الْأَخِ نَصِيبُ أَبِيهَا \"",
      "english": {
        "narrator": "",
        "text": ""
      }
    },
    {
      "id": 210,
      "chapterId": 21,
      "bookId": 9,
      "arabic": "حَدَّثَنَا أَبُو نُعَيْمٍ  ، حَدَّثَنَا يُونُسُ  ، عَنْ عَامِرٍ  ، قَالَ : \" كَانَ مَسْرُوقٌ  يُنَزِّلُ الْعَمَّةَ بِمَنْزِلَةِ الْأَبِ، إِذَا لَمْ يَكُنْ أَبٌ، وَالْخَالَةَ بِمَنْزِلَةِ الْأُمِّ، إِذَا لَمْ تَكُنْ أُمٌّ \"",
      "english": {
        "narrator": "",
        "text": ""
      }
    },
    {
      "id": 211,
      "chapterId": 21,
      "bookId": 9,
      "arabic": "حَدَّثَنَا يَعْلَى  ، عَنْ مُحَمَّدِ بْنِ إِسْحَاق  ، عَنْ مُحَمَّدِ بْنِ حَبَّانَ  نَسَبَهُ إِلَى جَدِّهِ ، عَنْ عَمِّهْ وَاسِعِ بْنِ حَبَّانَ  ، قَالَ : تُوُفِّيَ ابْنُ الدَّحْدَاحَةِ، وَكَانَ أَتِيًّا، وَهُوَ الَّذِي لَا يُعْرَفُ لَهُ أَصْلٌ، فَكَانَ فِي بَنِي الْعَجْلَانِ، وَلَمْ يَتْرُكْ عَقِبًا، فَقَالَ رَسُولُ اللَّهِ صَلَّى اللَّهُ عَلَيْهِ وَسَلَّمَ لِعَاصِمِ بْنِ عَدِيٍّ :\" هَلْ تَعْلَمُونَ لَهُ فِيكُمْ نَسَبًا؟ قَالَ : مَا نَعْرِفُهُ يَا رَسُولَ اللَّهِ، فَدَعَا ابْنَ أُخْتِهِ، فَأَعْطَاهُ مِيرَاثَهُ",
      "english": {
        "narrator": "",
        "text": ""
      }
    },
    {
      "id": 212,
      "chapterId": 21,
      "bookId": 9,
      "arabic": "حَدَّثَنَا عُمَرُ بْنُ حَفْصِ بْنِ غِيَاثٍ  ، حَدَّثَنَا أَبِي  ، عَنِ الْأَعْمَشِ  ، عَنْ إِبْرَاهِيمَ  ، عَنْ عُمَرَ   : \" أَنَّهُأَعْطَى خَالًا الْمَالَ \"",
      "english": {
        "narrator": "",
        "text": ""
      }
    },
    {
      "id": 213,
      "chapterId": 21,
      "bookId": 9,
      "arabic": "حَدَّثَنَا أَبُو نُعَيْمٍ  ، حَدَّثَنَا أَبُو هَانِئٍ  ، قَالَ : سُئِلَ عَامِرٌ  عَنْ امْرَأَةٍ أَوْ رَجُلٍ، تُوُفِّيَ وَتَرَكَ خَالَةً وَعَمَّةً، قَالَ : \" لَيْسَ لَهُ وَارِثٌ وَلَا رَحِمٌ غَيْرُهُمَا \"، فَقَالَ : كَانَ عَبْدُ اللَّهِ بْنُ مَسْعُودٍ  يُنَزِّلُ الْخَالَةَ بِمَنْزِلَةِ أُمِّهِ، وَيُنَزِّلُ الْعَمَّةَ بِمَنْزِلَةِ أَخِيهَا",
      "english": {
        "narrator": "",
        "text": ""
      }
    },
    {
      "id": 214,
      "chapterId": 21,
      "bookId": 9,
      "arabic": "حَدَّثَنَا أَحْمَدُ بْنُ عَبْدِ اللَّهِ  ، حَدَّثَنَا أَبُو شِهَابٍ  ، عَنْ عَمْرٍو  ، عَنِ الْحَسَنِ   : فِي رَجُلٍ اعْتَرَفَ عِنْدَ مَوْتِهِ بِأَلْفِ دِرْهَمٍ لِرَجُلٍ، وَأَقَامَ آخَرُ بَيِّنَةً بِأَلْفِ دِرْهَمٍ، وَتَرَكَ الْمَيِّتُ أَلْفَ دِرْهَمٍ، فَقَالَ :\" الْمَالُ بَيْنَهُمَا نِصْفَيْنِ، إِلَّا أَنْ يَكُونَ مُفْلِسًا، فَلَا يَجُوزُ إِقْرَارُهُ \"",
      "english": {
        "narrator": "",
        "text": ""
      }
    },
    {
      "id": 215,
      "chapterId": 21,
      "bookId": 9,
      "arabic": "أَخْبَرَنَا أَبُو نُعَيْمٍ  ، قَالَ : قُلْتُ لِشَرِيكٍ   : كَيْفَ ذَكَرْتَ فِي الْأَخَوَيْنِ يَدَّعِي أَحَدُهُمَا أَخًا؟ قَالَ :\" يَدْخُلُ عَلَيْهِ فِي نَصِيبِهِ \"، قُلْتُ : مَنْ ذَكَرَهُ؟ قَالَ : جَابِرٌ  ، عَنْ عَامِرٍ  ، عَنْ عَلِيٍّ",
      "english": {
        "narrator": "",
        "text": ""
      }
    },
    {
      "id": 216,
      "chapterId": 21,
      "bookId": 9,
      "arabic": "حَدَّثَنَا أَبُو بَكْرِ بْنُ أَبِي شَيْبَةَ ، حَدَّثَنَا عَبْدُ الرَّحْمَنِ بْنُ مُحَمَّدٍ الْمُحَارِبِيُّ ، عَنْ الْأَعْمَشِ ، عَنْ إِبْرَاهِيمَ  : فِي الْإِخْوَةِ يَدَّعِي بَعْضُهُمْ الْأَخَ، وَيُنْكِرُ الْآخَرُونَ، قَالَ :\" يَدْخُلُ مَعَهُمْ بِمَنْزِلَةِ عَبْدٍ يَكُونُ بَيْنَ الْإِخْوَةِ، فَيَعْتِقَ أَحَدُهُمْ نَصِيبَهُ، قَالَ : وَكَانَ عَامِرٌ ، وَالْحَكَمُ ، وَأَصْحَابُهُمَا يَقُولُونَ : لَا يَدْخُلُ إِلَّا فِي نَصِيبِ الَّذِي اعْتَرَفَ بِهِ",
      "english": {
        "narrator": "",
        "text": ""
      }
    },
    {
      "id": 217,
      "chapterId": 21,
      "bookId": 9,
      "arabic": "حَدَّثَنَا أَبُو بَكْرِ ابْنُ أَبِي شَيْبَةَ  ، عَنْ وَكِيعٍ  ، قَالَ : إِذَا كَانَا أَخَوَيْنِ، فَادَّعَى أَحَدُهُمَا أَخًا وَأَنْكَرَهُ الْآخَرُ؟ قَالَ : كَانَ ابْنُ أَبِي لَيْلَى  ، يَقُولُ :\" هِيَ مِنْ سِتَّةٍ : لِلَّذِي لَمْ يَدَّعِ ثَلَاثَةٌ، وَلِلْمُدَّعِي سَهْمَانِ، وَلِلْمُدَّعَى سَهْمٌ \"",
      "english": {
        "narrator": "",
        "text": ""
      }
    },
    {
      "id": 218,
      "chapterId": 21,
      "bookId": 9,
      "arabic": "حَدَّثَنَا يُونُسُ بْنُ مُحَمَّدٍ  ، حَدَّثَنَا أَبُو عَوَانَةَ  ، عَنْ مُغِيرَةَ  ، عَنْ حَمَّادٍ   : \" فِي الرَّجُلِ يَكُونُ لَهُ ثَلَاثَةُ بَنِينَ، فَقَالَ :ثُلُثِي لِأَصْغَرِ بَنِيَّ، فَقَالَ الْأَوْسَطُ : أَنَا أُجِيزُ، وَقَالَ الْأَكْبَرُ : أَنَا لَا أُجِيزُ، قَالَ : هِيَ مِنْ تِسْعَةٍ يُخْرِجُ ثَلاثَةً فَلَهُ سَهْمُهُ، وَسَهْمُ الَّذِي أَجَاز \".\nوَقَالَ حَمَّادٌ : يَرُدُّ السَّهْمَ عَلَيْهِمْ جَمِيعًا، وَقَالَ عَامِرٌ   : الَّذِي رَدَّ إِنَّمَا رَدَّ عَلَى نَفْسِهِ",
      "english": {
        "narrator": "",
        "text": ""
      }
    },
    {
      "id": 219,
      "chapterId": 21,
      "bookId": 9,
      "arabic": "حَدَّثَنَا أَبُو بَكْرِ بْنُ أَبِي شَيْبَةَ ، حَدَّثَنَا يَحْيَى بْنُ آدَمَ ، عَنْ شَرِيكٍ ، عَنْ خَالِدٍ ، عَنْ ابْنِ سِيرِينَ ، عَنْ شُرَيْحٍ  : فِي رَجُلٍ أَقَرَّ بِأَخٍ، قَالَ :\" بَيِّنَتُهُ أَنَّهُ أَخُوهُ \"",
      "english": {
        "narrator": "",
        "text": ""
      }
    },
    {
      "id": 220,
      "chapterId": 21,
      "bookId": 9,
      "arabic": "أَخْبَرَنَا أَبُو النُّعْمَانِ  ، حَدَّثَنَا أَبُو عَوَانَةَ  ، عَنْ مُغِيرَةَ  ، عَنْ الْحَارِثِ الْعُكْلِيِّ   : فِي رَجُلٍ أَقَرَّ عِنْدَ مَوْتِهِ بِأَلْفِ دِرْهَمٍ مُضَارَبَةً، وَأَلْفٍ دَيْنًا، وَلَمْ يَدَعْ إِلَّا أَلْفَ دِرْهَمٍ، قَالَ :\" يُبْدَأُ بِالدَّيْنِ، فَإِنْ فَضَلَ فَضْلٌ كَانَ لِصَاحِبِ الْمُضَارَبَةِ \"",
      "english": {
        "narrator": "",
        "text": ""
      }
    },
    {
      "id": 221,
      "chapterId": 21,
      "bookId": 9,
      "arabic": "حَدَّثَنَا أَبُو نُعَيْمٍ ، حَدَّثَنَا حَسَنٌ ، عَنْ مُطَرِّفٍ ، عَنْ الشَّعْبِيِّ  : \" فِي رَجُلٍ مَاتَ وَتَرَكَ ثَلَاثَ مِئَةِ دِرْهَمٍ، وَثَلَاثَةَ بَنِينَ، فَجَاءَ رَجُلٌ يَدَّعِي مِائَةَ دِرْهَمٍ عَلَى الْمَيِّتِ، فَأَقَرَّ لَهُ أَحَدُهُمْ، قَالَ :يَدْخُلُ عَلَيْهِ بِالْحِصَّةِ \"، ثُمَّ قَالَ الشَّعْبِيُّ : مَا أُرَى أَنْ يَكُونَ مِيرَاثًا، حَتَّى يُقْضَى الدَّيْنُ",
      "english": {
        "narrator": "",
        "text": ""
      }
    },
    {
      "id": 222,
      "chapterId": 21,
      "bookId": 9,
      "arabic": "حَدَّثَنَا أَبُو خَيْثَمَةَ مُصْعَبُ بْنُ سَعِيدٍ الْحَرَّانِيُّ  ، حَدَّثَنَا مُحَمَّدُ بْنُ عَبْدِ اللَّهِ  ، عَنْ الْأَشْعَثِ  ، عَنْ الْحَسَنِ   : فِي رَجُلٍ هَلَكَ وَتَرَكَ ابْنَيْنِ، وَتَرَكَ أَلْفَيْ دِرْهَمٍ، فَاقْتَسَمَا الْأَلْفَيْ دِرْهَمٍ، وَغَابَ أَحَدُ الِابْنَيْنِ، فَجَاءَ رَجُلٌ، فَاسْتَحَقَّ عَلَى الْمَيِّتِ أَلْفَ دِرْهَمٍ، قَالَ :\" يَأْخُذُ جَمِيعَ مَا فِي يَدِ هَذَا الشَّاهِدِ، وَيُقَالُ لَهُ : اتَّبِعْ أَخَاكَ الْغَائِبَ، وَخُذْ نِصْفَ مَا فِي يَدِهِ \"",
      "english": {
        "narrator": "",
        "text": ""
      }
    },
    {
      "id": 223,
      "chapterId": 21,
      "bookId": 9,
      "arabic": "حَدَّثَنَا سُلَيْمَانُ بْنُ حَرْبٍ  ، عَنْ حَمَّادِ بْنِ سَلَمَةَ  ، عَنْ زِيَادٍ الْأَعْلَمِ  ، عَنْ الْحَسَنِ  ، قَالَ :\" إِذَا أَقَرَّ بَعْضُ الْوَرَثَةِ بِدَيْنٍ، فَهُوَ عَلَيْهِ بِحِصَّتِهِ \"",
      "english": {
        "narrator": "",
        "text": ""
      }
    },
    {
      "id": 224,
      "chapterId": 21,
      "bookId": 9,
      "arabic": "حَدَّثَنَا سُلَيْمَانُ بْنُ حَرْبٍ ، عَنْ حَمَّادِ بْنِ سَلَمَةَ ، عَنْ أَبِي هَاشِمٍ ،  عَنْ إِبْرَاهِيمَ ، قَالَ :\" إِذَا شَهِدَ اثْنَانِ مِنْ الْوَرَثَةِ بِدَيْنٍ، فَهُوَ مِنْ جَمِيعِ الْمَالِ إِذَا كَانُوا عُدُولًا \"، وَقَالَ الشَّعْبِيُّ  : عَلَيْهِمَا فِي بَاب فِي مِيرَاثِ الْمُرْتَدِّ",
      "english": {
        "narrator": "",
        "text": ""
      }
    },
    {
      "id": 225,
      "chapterId": 21,
      "bookId": 9,
      "arabic": "حَدَّثَنَا مُحَمَّدُ بْنُ عِيسَى  ، حَدَّثَنَا ثَابِتُ بْنُ الْوَلِيدِ بْنِ جُمَيْعٍ  ، قَالَ : أَخْبَرَنِي أَبِي  ، عَنْ الْقَاسِمِ بْنِ عَبْدِ الرَّحْمَنِ  ، قَالَ : كَانَ ابْنُ مَسْعُودٍ  \" يُوَرِّثُ أَهْلَ الْمُرْتَدِّ إِذَا قُتِلَ \"",
      "english": {
        "narrator": "",
        "text": ""
      }
    },
    {
      "id": 226,
      "chapterId": 21,
      "bookId": 9,
      "arabic": "حَدَّثَنَا الْحَجَّاجُ بْنُ مِنْهَالٍ  ، حَدَّثَنَا أَبُو عَوَانَةَ  ، عَنْ الْأَعْمَشِ  ، عَنْ أَبِي عَمْرٍو الشَّيْبَانِيِّ  : أَنَّ عَلِيَّ بْنَ أَبِي طَالِبٍ  \" جَعَلَ مِيرَاثَ الْمُرْتَدِّ لِوَرَثَتِهِ مِنَ الْمُسْلِمِينَ \"",
      "english": {
        "narrator": "",
        "text": ""
      }
    },
    {
      "id": 227,
      "chapterId": 21,
      "bookId": 9,
      "arabic": "أَخْبَرَنَا يَزِيدُ بْنُ هَارُونَ  ، حَدَّثَنَا الْحَجَّاجُ  ، عَنِ الْحَكَمِ  : أَنَّ عَلِيًّا  \" قَضَى فِي مِيرَاثِ الْمُرْتَدِّ لِأَهْلِهِ مِنْ الْمُسْلِمِينَ \"",
      "english": {
        "narrator": "",
        "text": ""
      }
    },
    {
      "id": 228,
      "chapterId": 21,
      "bookId": 9,
      "arabic": "حَدَّثَنَا زَكَرِيَّا بْنُ عَدِيٍّ  ، حَدَّثَنَا عُبَيْدُ اللَّهِ هُوَ ابْنُ عَمْرٍو  ، عَنْ عَبْدِ الْكَرِيمِ  ، عَنْ الْحَكَمِ  ، قَالَ :\" إِذَا قَتَلَ الرَّجُلُ أَخَاهُ عَمْدًا، لَمْ يُوَرَّثْ مِنْ مِيرَاثِهِ، وَلَا مِنْ دِيَتِهِ، فَإِذَا قَتَلَهُ خَطَأً، وُرِّثَ مِنْ مِيرَاثِهِ، وَلَمْ يُوَرَّثْ مِنْ دِيَتِهِ.\n قَالَ : وَكَانَ عَطَاءٌ   يَقُولُ ذَلِكَ",
      "english": {
        "narrator": "",
        "text": ""
      }
    },
    {
      "id": 229,
      "chapterId": 21,
      "bookId": 9,
      "arabic": "حَدَّثَنَا مُحَمَّدُ بْنُ عُيَيْنَةَ  ، عَنْ عَلِيِّ بْنِ مُسْهِرٍ  ، عَنْ سَعِيدٍ  ، عَنْ قَتَادَةَ  ، عَنْ خِلَاسٍ  ، عَنْ عَلِيٍّ  ، قَالَ : رَمَى رَجُلٌ أُمَّهُ بِحَجَرٍ فَقَتَلَهَا، فَطَلَبَ مِيرَاثَهُ مِنْ إِخْوَتِهِ، فَقَالَ لَهُ إِخْوَتُهُ : لَا مِيرَاثَ لَكَ، فَارْتَفَعُوا إِلَى عَلِيٍّ،\" فَجَعَلَ عَلَيْهِ الدِّيَةَ، وَأَخْرَجَهُ مِنْ الْمِيرَاثِ \"",
      "english": {
        "narrator": "",
        "text": ""
      }
    },
    {
      "id": 230,
      "chapterId": 21,
      "bookId": 9,
      "arabic": "حَدَّثَنَا أَبُو نُعَيْمٍ  ، حَدَّثَنَا زُهَيْرٌ  ، عَنْ الْحَسَنِ بْنِ الْحُرِّ  ، عَنْ الْحَكَمِ   : أَنَّ الرَّجُلَ إِذَا قَتَلَ امْرَأَتَهُ خَطَأً، \" أَنَّهُيُمْنَعُ مِيرَاثَهُ مِنْ الْعَقْلِ وَغَيْرِهِ \"",
      "english": {
        "narrator": "",
        "text": ""
      }
    },
    {
      "id": 231,
      "chapterId": 21,
      "bookId": 9,
      "arabic": "أَخْبَرَنَا أَبُو نُعَيْمٍ  ، حَدَّثَنَا سُفْيَانُ  ، عَنْ لَيْثٍ  ، عَنْ مُجَاهِدٍ  ، عَنْ ابْنِ عَبَّاسٍ  ، قَالَ :\" لَا يَرِثُ الْقَاتِلُ مِنْ الْمَقْتُولِ شَيْئًا \"",
      "english": {
        "narrator": "",
        "text": ""
      }
    },
    {
      "id": 232,
      "chapterId": 21,
      "bookId": 9,
      "arabic": "حَدَّثَنَا سَعِيدُ بْنُ الْمُغِيرَةِ ، عَنْ ابْنِ الْمُبَارَكِ ، عَنْ مَعْمَرٍ ، عَنْ قَتَادَةَ  : \" فِي رَجُلٍ قَذَفَ امْرَأَتَهُ، وَجَاءَ بِشُهُودٍ فَرُجِمَتْ؟ قَالَ :يَرِثُهَا \"",
      "english": {
        "narrator": "",
        "text": ""
      }
    },
    {
      "id": 233,
      "chapterId": 21,
      "bookId": 9,
      "arabic": "حَدَّثَنَا أَبُو النُّعْمَانِ  ، حَدَّثَنَا أَبُو عَوَانَةَ  ، عَنْ حَمَّادٍ   : \" فِي رَجُلٍ جُلِدَ الْحَدَّ أَرَاهُ مَاتَ، شَكَّ أَبُو النُّعْمَانِ ؟ قَالَ :يَتَوَارَثَانِ \"",
      "english": {
        "narrator": "",
        "text": ""
      }
    },
    {
      "id": 234,
      "chapterId": 21,
      "bookId": 9,
      "arabic": "حَدَّثَنَا أَبُو النُّعْمَانِ  ، حَدَّثَنَا أَبُو عَوَانَةَ  ، عَنْ مُحَمَّدِ بْنِ سَالِمٍ  ، عَنْ عَامِرٍ  ، عَنْ عَلِيٍّ  ، قَالَ :\" الْقَاتِلُ لَا يَرِثُ، وَلَا يَحْجُبُ \"",
      "english": {
        "narrator": "",
        "text": ""
      }
    },
    {
      "id": 235,
      "chapterId": 21,
      "bookId": 9,
      "arabic": "حَدَّثَنَا أَبُو نُعَيْمٍ  ، حَدَّثَنَا حَسَنٌ  ، عَنْ لَيْثٍ  ، عَنْ أَبِي عَمْرٍو الْعَبْدِيِّ  ، عَنْ عَلِيٍّ  ، قَالَ :\" لَا يُوَرَّثُ الْقَاتِلُ \"",
      "english": {
        "narrator": "",
        "text": ""
      }
    },
    {
      "id": 236,
      "chapterId": 21,
      "bookId": 9,
      "arabic": "حَدَّثَنَا زَكَرِيَّا بْنُ عَدِيٍّ  ، حَدَّثَنَا أَبُو بَكْرٍ  ، عَنْ مُطَرِّفٍ  ، عَنْ الشَّعْبِيِّ  ، قَالَ : قَالَ عُمَرُ   :\" لَا يَرِثُ قَاتِلٌ خَطَأً، وَلَا عَمْدًا \"",
      "english": {
        "narrator": "",
        "text": ""
      }
    },
    {
      "id": 237,
      "chapterId": 21,
      "bookId": 9,
      "arabic": "أَخْبَرَنَا مُحَمَّدُ بْنُ يُوسُفَ  ، عَنْ سُفْيَانَ  ، عَنْ لَيْثٍ  ، عَنْ طَاوُسٍ  ، عَنْ ابْنِ عَبَّاسٍ  ، قَالَ :\" لَا يَرِثُ الْقَاتِلُ \"",
      "english": {
        "narrator": "",
        "text": ""
      }
    },
    {
      "id": 238,
      "chapterId": 21,
      "bookId": 9,
      "arabic": "أَخْبَرَنَا مُحَمَّدُ بْنُ عِيسَى ، حَدَّثَنَا عَبْدُ الْأَعْلَى ، عَنْ مَعْمَرٍ ، عَنْ الزُّهْرِيِّ ، قَالَ :\" إِذَا اجْتَمَعَ نَسَبَانِ، وُرِّثَ بِأَكْبَرِهِمَا، يَعْنِي الْمَجُوسَ \"",
      "english": {
        "narrator": "",
        "text": ""
      }
    },
    {
      "id": 239,
      "chapterId": 21,
      "bookId": 9,
      "arabic": "حَدَّثَنَا حَجَّاجُ بْنُ مِنْهَالٍ  ، حَدَّثَنَا حَمَّادُ بْنُ سَلَمَةَ  ، عَنْ حَمَّادِ بْنِ أَبِي سُلَيْمَانَ  ، قَالَ :\" يَرِثُ مِنْ الْجَانِبِ الَّذِي يَصْلُحُ، وَلَا يَرِثُ مِنْ الْجَانِبِ الَّذِي لَا يَصْلُحُ \"",
      "english": {
        "narrator": "",
        "text": ""
      }
    },
    {
      "id": 240,
      "chapterId": 21,
      "bookId": 9,
      "arabic": "حَدَّثَنَا حَجَّاجٌ  ، حَدَّثَنَا حَمَّادٌ  ، عَنْ سُفْيَانَ الثَّوْرِيِّ  ، عَنْ رَجُلٍ  ، عَنْ الشَّعْبِيِّ  : أَنَّ عَلِيًّا  ، وَابْنَ مَسْعُودٍ  ، قَالَا فِي الْمَجُوسِ :\" إِذَا أَسْلَمُوا، يَرِثُونَ مِنْ الْقَرَابَتَيْنِ جَمِيعًا \"",
      "english": {
        "narrator": "",
        "text": ""
      }
    }
  ]
}