{
  "page": 48,
  "perPage": 50,
  "totalPages": 69,
  "totalCount": 3406,
  "nextPage": 49,
  "prevPage": 47,
  "items": [
    {
      "id": 241,
      "chapterId": 21,
      "bookId": 9,
      "arabic": "أَخْبَرَنَا يَحْيَى بْنُ حَسَّانَ ، حَدَّثَنَا ابْنُ أَبِي الزِّنَادِ ، عَنْ أَبِيهِ ، عَنْ عُمَرَ بْنِ عَبْدِ الْعَزِيزِ  فِي امْرَأَةِ الْأَسِيرِ : \" أَنَّهَاتَرِثُهُ وَيَرِثُهَا \"",
      "english": {
        "narrator": "",
        "text": ""
      }
    },
    {
      "id": 242,
      "chapterId": 21,
      "bookId": 9,
      "arabic": "حَدَّثَنَا مُحَمَّدُ بْنُ الْفَضْلِ ، حَدَّثَنَا عَبْدُ اللَّهِ بْنُ الْمُبَارَكِ ، حَدَّثَنِي مَعْمَرٌ ، عَنْ إِسْحَاق بْنِ رَاشِدٍ ، عَنْ عُمَرَ بْنِ عَبْدِ الْعَزِيزِ  فِي الْأَسِيرِ يُوصِي، قَالَ :\" أُجيزُ لَهُ وَصِيَّتَهُ مَا دَامَ عَلَى دِينِهِ لَمْ يَتَغَيَّرْ عَنْ دِينِهِ \"",
      "english": {
        "narrator": "",
        "text": ""
      }
    },
    {
      "id": 243,
      "chapterId": 21,
      "bookId": 9,
      "arabic": "أَخْبَرَنَا مُحَمَّدُ بْنُ يُوسُفَ ، حَدَّثَنَا سُفْيَانُ ، عَنْ دَاوُدَ ، عَنْ الشَّعْبِيِّ ، عَنْ شُرَيْحٍ ، قَالَ :\" يُوَرَّثُ الْأَسِيرُ إِذَا كَانَ فِي أَيْدِي الْعَدُوِّ \"",
      "english": {
        "narrator": "",
        "text": ""
      }
    },
    {
      "id": 244,
      "chapterId": 21,
      "bookId": 9,
      "arabic": "حَدَّثَنَا مُحَمَّدٌ ، قَالَ : حَدَّثَنَا سُفْيَانُ ، حَدَّثَنِي مَنْ سَمِعَ إِبْرَاهِيمَ ، يَقُولُ :\" يُوَرَّثُ الْأَسِيرُ \"",
      "english": {
        "narrator": "",
        "text": ""
      }
    },
    {
      "id": 245,
      "chapterId": 21,
      "bookId": 9,
      "arabic": "حَدَّثَنَا الْمُعَلَّى بْنُ أَسَدٍ ، حَدَّثَنَا وُهَيْبٌ ، عَنْ دَاوُدَ ، عَنْ سَعِيدِ بْنِ الْمُسَيِّبِ  : أَنَّهُ كَانَ\" لَا يُوَرِّثُ الْأَسِيرَ \"",
      "english": {
        "narrator": "",
        "text": ""
      }
    },
    {
      "id": 246,
      "chapterId": 21,
      "bookId": 9,
      "arabic": "أَخْبَرَنَا يَزِيدُ بْنُ هَارُونَ  ، حَدَّثَنَا الْأَشْعَثُ  ، عَنْ الشَّعْبِيِّ  ، قَالَ : كَتَبَ عُمَرُ بْنُ الْخَطَّابِ   إِلَى شُرَيْحٍ : أَنْ\" لَا يُوَرِّثَ الْحَمِيلَ إِلَّا بِبَيِّنَةٍ، وَإِنْ جَاءَتْ بِهِ فِي خِرَقِهَا \"",
      "english": {
        "narrator": "",
        "text": ""
      }
    },
    {
      "id": 247,
      "chapterId": 21,
      "bookId": 9,
      "arabic": "أَخْبَرَنَا عُبَيْدُ اللَّهِ ، عَنْ إِسْرَائِيلَ ، عَنْ مَنْصُورٍ ، عَنْ إِبْرَاهِيمَ ، قَالَ :\" وَرِّثْ الْحَمِيلَ \"",
      "english": {
        "narrator": "",
        "text": ""
      }
    },
    {
      "id": 248,
      "chapterId": 21,
      "bookId": 9,
      "arabic": "حَدَّثَنَا أَبُو سَعِيدٍ مِنْ بَنِي أُمَيَّةَ، عَنْ أَبِي بَكْرِ بْنِ عَبْدِ اللَّهِ بْنِ أَبِي مَرْيَمَ ، عَنْ ضَمْرَةَ ، وَالْفُضَيْلِ بْنِ فَضَالَةَ ، وَابْنِ أَبِي عَوْفٍ ، وراشد ، وعطية ، قَالُوا :\" لَا يُوَرَّثُ الْحُمَلَاءُ \"",
      "english": {
        "narrator": "",
        "text": ""
      }
    },
    {
      "id": 249,
      "chapterId": 21,
      "bookId": 9,
      "arabic": "حَدَّثَنَا سَعِيدُ بْنُ الْمُغِيرَةِ ، قَالَ : قَالَ ابْنُ الْمُبَارَكِ : حَدَّثَنَا ابْنُ عَوْنٍ ، عَنْ مُحَمَّدٍ ، قَالَ : ذُكِرَ عِنْدَهُ قَوْلُ مَنْ يَقُولُ فِي الْحَمِيلِ، فَأَنْكَرَ ذَلِكَ، وَقَالَ :\" قَدْ تَوَارَثَ الْمُهَاجِرُونَ، وَالْأَنْصَارُ بِنَسَبِهِمْ الَّذِي كَانَ فِي الْجَاهِلِيَّةِ \"",
      "english": {
        "narrator": "",
        "text": ""
      }
    },
    {
      "id": 250,
      "chapterId": 21,
      "bookId": 9,
      "arabic": "حَدَّثَنَا أَبُو بَكْرِ بْنُ أَبِي شَيْبَةَ ، عَنْ ابْنِ إِدْرِيسَ ، عَنْ هِشَامٍ ، عَنْ الْحَسَنِ ، وَابْنِ سِيرِينَ ، قَالَا :\" لَا يُوَرَّثُ الْحَمِيلُ إِلَّا بِبَيِّنَةٍ \"",
      "english": {
        "narrator": "",
        "text": ""
      }
    },
    {
      "id": 251,
      "chapterId": 21,
      "bookId": 9,
      "arabic": "حَدَّثَنَا أَبُو بَكْرٍ ، حَدَّثَنَا جَرِيرٌ ، عَنْ لَيْثٍ ، عَنْ حَمَّادٍ ، عَنْ إِبْرَاهِيمَ ، قَالَ :\" لَمْ يَكُنْ أَبُو بَكْرٍ، وَعُمَرُ، وَعُثْمَانُ يُوَرِّثُونَ الْحَمِيلَ \"",
      "english": {
        "narrator": "",
        "text": ""
      }
    },
    {
      "id": 252,
      "chapterId": 21,
      "bookId": 9,
      "arabic": "حَدَّثَنَا أَبُو بَكْرٍ ، حَدَّثَنَا عَبْدُ الرَّحِيمِ الْمُحَارِبِيُّ ، عَنْ زَائِدَةَ ، عَنْ أَشْعَثَ بْنِ أَبِي الشَّعْثَاءِ ، قَالَ :\" أَقَرَّتْ امْرَأَةٌ مِنْ مُحَارِبٍ جَلِيبَةٌ بِنَسَبٍ لَهَا جَلِيبٍ، فَوَرَّثَهُ عَبْدُ اللَّهِ بْنُ عُتْبَةَ  مِنْ أُخْتِهِ \"",
      "english": {
        "narrator": "",
        "text": ""
      }
    },
    {
      "id": 253,
      "chapterId": 21,
      "bookId": 9,
      "arabic": "حَدَّثَنَا عَبْدُ اللَّهِ بْنُ صَالِحٍ ، حَدَّثَنِي اللَّيْثُ ، حَدَّثَنِي يُونُسُ ، عَنْ ابْنِ شِهَابٍ ، عَنْ رَجُلٍ قَالَ عِنْدَ فِرَاقِ الدُّنْيَا : أَنَا مَوْلَى فُلَانٍ، قَالَ :\" يُرَدُّ مِيرَاثَهُ لِمَنْ سَمَّى أَنَّهُ مَوْلَاهُ عِنْدَ فِرَاقِ الدُّنْيَا، إِلَّا أَنْ يَأْتُوا عَلَيْهِ بِبَيِّنَةٍ بِغَيْرِ ذَلِكَ يَرُدُّونَ بِهِ قَوْلَهُ، فَيُرَدُّ مِيرَاثُهُ إِلَى مَا قَامَتْ بِهِ الْبَيِّنَةُ \"",
      "english": {
        "narrator": "",
        "text": ""
      }
    },
    {
      "id": 254,
      "chapterId": 21,
      "bookId": 9,
      "arabic": "أَخْبَرَنَا أَبُو نُعَيْمٍ  ، حَدَّثَنَا شَرِيكٌ  ، عَنْ مُحَمَّدِ بْنِ سَالِمٍ  ، عَنْ الشَّعْبِيِّ  ، عَنْ عَلِيٍّ  ، وَعَبْدِ اللَّهِ   ، قَالَا :\" وَلَدُ الزِّنَا بِمَنْزِلَةِ ابْنِ الْمُلَاعَنَةِ \"",
      "english": {
        "narrator": "",
        "text": ""
      }
    },
    {
      "id": 255,
      "chapterId": 21,
      "bookId": 9,
      "arabic": "أَخْبَرَنَا أَبُو نُعَيْمٍ ، حَدَّثَنَا زُهَيْرٌ ، عَنْ الْحَسَنِ بْنِ الْحُرِّ ، حَدَّثَنِي الْحَكَمُ  : أَنَّ\" وَلَدَ الزِّنَا لَا يَرِثُهُ الَّذِي يَدَّعِيهِ، وَلَا يَرِثُهُ الْمَوْلُودُ \"",
      "english": {
        "narrator": "",
        "text": ""
      }
    },
    {
      "id": 256,
      "chapterId": 21,
      "bookId": 9,
      "arabic": "حَدَّثَنَا أَبُو بَكْرِ بْنُ أَبِي شَيْبَةَ ، حَدَّثَنَا رَوْحٌ ، عَنْ مُحَمَّدِ بْنِ أَبِي حَفْصَةَ ، عَنْ الزُّهْرِيِّ ، عَنْ عَلِيِّ بْنِ حُسَيْنٍ  أَنَّهُ كَانَ\" لَا يُوَرِّثُ وَلَدَ الزِّنَا، وَإِنْ ادَّعَاهُ الرَّجُلُ \"",
      "english": {
        "narrator": "",
        "text": ""
      }
    },
    {
      "id": 257,
      "chapterId": 21,
      "bookId": 9,
      "arabic": "حَدَّثَنَا عَبْدُ اللَّهِ بْنُ صَالِحٍ  ، حَدَّثَنِي بَكْرُ بْنُ مُضَرَ  ، عَنْ عَمْرٍو يَعْنِي ابْنَ الْحَارِثِ  ، عَنْ بُكَيْرٍ  ، عَنْ سُلَيْمَانَ بْنِ يَسَارٍ  ، قَالَ : \" أَيُّمَا رَجُلٍ أَتَى إِلَى غُلَامٍ يَزْعُمُ أَنَّهُ ابْنٌ لَهُ، وَأَنَّهُ زَنَى بِأُمِّهِ، وَلَمْ يَدَّعِ ذَلِكَ الْغُلَامَ أَحَدٌ، فَهُوَ يَرِثُهُ \".\nقَالَ بُكَيْرٌ : وَسَأَلْتُ عُرْوَةَ عَنْ ذَلِكَ، فَقَالَ مِثْلَ قَوْلِ سُلَيْمَانَ بْنِ يَسَارٍ وَقَالَ عُرْوَةُ   : بَلَغَنَا أَنَّ رَسُولَ اللَّهِ صَلَّى اللَّهُ عَلَيْهِ وَسَلَّمَ، قَالَ :\" الْوَلَدُ لِلْفِرَاشِ، وَلِلْعَاهِرِ الْحَجَرُ \"",
      "english": {
        "narrator": "",
        "text": ""
      }
    },
    {
      "id": 258,
      "chapterId": 21,
      "bookId": 9,
      "arabic": "حَدَّثَنَا إِبْرَاهِيمُ بْنُ مُوسَى  ، عَنْ حَفْصِ بْنِ غِيَاثٍ  ، عَنْ عَمْرٍو  ، عَنْ الْحَسَنِ  ، قَالَ :\" ابْنُ الْمُلَاعَنَةِ مِثْلُ وَلَدِ الزِّنَا، تَرِثُهُ أُمُّهُ، وَوَرَثَتُهُ، وَرَثَةُ أُمِّهِ \"",
      "english": {
        "narrator": "",
        "text": ""
      }
    },
    {
      "id": 259,
      "chapterId": 21,
      "bookId": 9,
      "arabic": "حَدَّثَنَا أَبُو النُّعْمَانِ ، حَدَّثَنَا أَبُو عَوَانَةَ ، عَنْ مُغِيرَةَ ، عَنْ إِبْرَاهِيمَ ، قَالَ :\" لَا يُوَرَّثُ وَلَدُ الزِّنَا \"",
      "english": {
        "narrator": "",
        "text": ""
      }
    },
    {
      "id": 260,
      "chapterId": 21,
      "bookId": 9,
      "arabic": "حَدَّثَنَا سَعِيدُ بْنُ الْمُغِيرَةِ ، عَنْ ابْنِ الْمُبَارَكِ ، عَنْ مَعْمَرٍ ، أَوْ يُونُسَ ، عَنْ الزُّهْرِيِّ  : فِي أَوْلَادِ الزِّنَا، قَالَ :\" يَتَوَارَثُونَ مِنْ قِبَلِ الْأُمَّهَاتِ، وَإِنْ وَلَدَتْ تَوْءَمًا فَمَاتَ، وَرِثَ السُّدُسَ \"",
      "english": {
        "narrator": "",
        "text": ""
      }
    },
    {
      "id": 261,
      "chapterId": 21,
      "bookId": 9,
      "arabic": "حَدَّثَنَا أَبُو بَكْرِ بْنُ أَبِي شَيْبَةَ ، قَالَ : حَدَّثَنَا هُشَيْمٌ ، عَنْ مُغِيرَةَ ، عَنْ شِبَاكٍ ، عَنْ إِبْرَاهِيمَ ، قَالَ :\" لَا يَرِثُ وَلَدُ الزِّنَا، إنما يرث من لم يقم على أبيه الحد، أو تملك أمه بنكاح 3، أو شراء \"",
      "english": {
        "narrator": "",
        "text": ""
      }
    },
    {
      "id": 262,
      "chapterId": 21,
      "bookId": 9,
      "arabic": "حَدَّثَنَا إِسْمَاعِيل بْنُ أَبَانَ  ، عَنْ مُوسَى بْنِ مُحَمَّدٍ الْأَنْصَارِيِّ  ، عَنْ إِسْمَاعِيل  ، عَنْ الْحَسَنِ   فِي الرَّجُلِ يَفْجُرُ بِالْمَرْأَةِ، ثُمَّ يَتَزَوَّجُهَا، قَالَ :\" لَا بَأْسَ، إِلَّا أَنْ تَكُونَ حُبْلَى، فَإِنَّ الْوَلَدَ لَا يَلْحَقُهُ \"",
      "english": {
        "narrator": "",
        "text": ""
      }
    },
    {
      "id": 263,
      "chapterId": 21,
      "bookId": 9,
      "arabic": "حَدَّثَنَا زَيْدُ بْنُ يَحْيَى  ، عَنْ مُحَمَّدِ بْنِ رَاشِدٍ  ، عَنْ سُلَيْمَانَ بْنِ مُوسَى  ، عَنْ عَمْرِو بْنِ شُعَيْبٍ  ، عَنْ أَبِيهِ  ، عَنْ جَدِّهِ   : أَنّ رَسُولَ اللَّهِ صَلَّى اللَّهُ عَلَيْهِ وَسَلَّمَ : قَضَى أَنَّ\" كُلَّ مُسْتَلْحَقٍ اسْتُلْحِقَ بَعْدَ أَبِيهِ الَّذِي ادَّعَاهُ وَرَثَتُهُ بَعْدَهُ، فَقَضَى إِنْ كَانَ مِنْ أَمَةٍ يَمْلِكُهَا يَوْمَ يَطَؤُهَا، فَقَدْ لَحِقَ بِمَنْ اسْتَلْحَقَهُ، وَلَيْسَ لَهُ فِيمَا قُسِمَ قَبْلَهُ مِنْ الْمِيرَاثِ شَيْءٌ، وَمَا أَدْرَكَ مِنْ مِيرَاثٍ لَمْ يُقْسَمْ، فَلَهُ نَصِيبُهُ، وَلَا يَلْحَقُ إِذَا كَانَ الَّذِي يُدْعَى لَهُ أَنْكَرَهُ، وَإِنْ كَانَ مِنْ أَمَةٍ لَا يَمْلِكُهَا، أَوْ حُرَّةٍ عَاهَرَهَا، فَإِنَّهُ لَا يَلْحَقُ وَلَا يَرِثُ، وَإِنْ كَانَ الَّذِي يُدْعَى لَهُ هُوَ ادَّعَاهُ، فَهُوَ وَلَدُ زِنَا لِأَهْلِ أُمِّهِ مَنْ كَانُوا : حُرَّةً، أَوْ أَمَةً \"",
      "english": {
        "narrator": "",
        "text": ""
      }
    },
    {
      "id": 264,
      "chapterId": 21,
      "bookId": 9,
      "arabic": "حَدَّثَنَا أَبُو نُعَيْمٍ ، عَنْ الْحَسَنِ ، عَنْ عُمَيْرِ بْنِ يَزِيدَ ، قَالَ : سَأَلْتُ الشَّعْبِيَّ  عَنْ مَمْلُوكٍ لِي وَلَدُ زِنًا، قَالَ :\" لَا تَبِعْهُ، وَلَا تَأْكُلْ ثَمَنَهُ، وَاسْتَخْدِمْهُ \"",
      "english": {
        "narrator": "",
        "text": ""
      }
    },
    {
      "id": 265,
      "chapterId": 21,
      "bookId": 9,
      "arabic": "حَدَّثَنَا مَرْوَانُ بْنُ مُحَمَّدٍ ، عَنْ سَعِيدٍ ، عَنْ الزُّهْرِيِّ  : سُئِلَ عَنْ وَلَدِ زِنَا يَمُوتُ، قَالَ :\" إِنْ كَانَ ابْنَ عَرَبِيَّةٍ، وَرِثَتْ أُمُّهُ الثُّلُثَ، وَجُعِلَ بَقِيَّةُ مَالِهِ فِي بَيْتِ الْمَالِ، وَإِنْ كَانَ ابْنَ مَوْلَاةٍ، وَرِثَتْ أُمُّهُ الثُّلُثَ، وَوَرِثَ مَوَالِيهَا الَّذِينَ أَعْتَقُوهَا مَا بَقِيَ.\nقَالَ مَرْوَانُ : سَمِعْتُ مَالِكًا  يَقُولُ ذَلِكَ",
      "english": {
        "narrator": "",
        "text": ""
      }
    },
    {
      "id": 266,
      "chapterId": 21,
      "bookId": 9,
      "arabic": "حَدَّثَنَا مَرْوَانُ بْنُ مُحَمَّدٍ  ، حَدَّثَنَا الْهَيْثَمُ بْنُ حُمَيْدٍ  ، عَنْ الْعَلَاءِ بْنِ الْحَارِثِ  ، حَدَّثَنِي عَمْرُو بْنُ شُعَيْبٍ   : أَنَّ النَّبِيَّ صَلَّى اللَّهُ عَلَيْهِ وَسَلَّمَ :\" قَضَى بِمِيرَاثِ ابْنِ الْمُلَاعَنَةِ لِأُمِّهِ كُلِّهِ، لِمَا لَقِيَتْ فِيهِ مِنْ الْعَنَاءِ \"",
      "english": {
        "narrator": "",
        "text": ""
      }
    },
    {
      "id": 267,
      "chapterId": 21,
      "bookId": 9,
      "arabic": "حَدَّثَنَا إِسْمَاعِيل بْنُ أَبَانَ  ، عَنْ مُوسَى بْنِ مُحَمَّدٍ الْأَنْصَارِيِّ  ، قَالَ : حَدَّثَنِي الْحَارِثُ بْنُ حَصِيرَةَ  ، عَنْ زَيْدِ بْنِ وَهْبٍ  ، عَنْ عَلِيٍّ   : أَنَّهُ قَالَ فِي وَلَدِ الزِّنَا لِأَوْلِيَاءِ أُمِّهِ :\" خُذُوا ابْنَكُمْ تَرِثُونَهُ وَتَعْقِلُونَهُ، وَلَا يَرِثُكُمْ \"",
      "english": {
        "narrator": "",
        "text": ""
      }
    },
    {
      "id": 268,
      "chapterId": 21,
      "bookId": 9,
      "arabic": "أَخْبَرَنَا أَبُو نُعَيْمٍ  ، وَعَبْدُ اللَّهِ بْنُ يَزِيدَ  ، قَالَا : حَدَّثَنَا شُعْبَةُ  ، عَنْ سَلَمَةَ بْنِ كُهَيْلٍ  ، عَنْ أَبِي عَمْرٍو الشَّيْبَانِيِّ  ، قَالَ : َقَالَ عَبْدُ اللَّهِ   :\" السَّائِبَةُ يَضَعُ مَالَهُ حَيْثُ شَاءَ \".\nقَالَ عَبْدُ اللَّهِ بْنُ يَزِيدَ : قَالَ شُعْبَةُ : لَمْ يَسْمَعْ هَذَا مِنْ سَلَمَةَ أَحَدٌ غَيْرِي",
      "english": {
        "narrator": "",
        "text": ""
      }
    },
    {
      "id": 269,
      "chapterId": 21,
      "bookId": 9,
      "arabic": "أَخْبَرَنَا الْحَكَمُ بْنُ الْمُبَارَكِ  ، حَدَّثَنَا حَاتِمُ بْنُ وَرْدَانَ  ، عَنْ يُونُسَ  ، عَنْ الْحَسَنِ   : سُئِلَ عَنْ مِيرَاثِ السَّائِبَةِ، فَقَالَ :\" كُلُّ عَتِيقٍ سَائِبَةٌ \"",
      "english": {
        "narrator": "",
        "text": ""
      }
    },
    {
      "id": 270,
      "chapterId": 21,
      "bookId": 9,
      "arabic": "أَخْبَرَنَا يَزِيدُ بْنُ هَارُونَ  ، أَنْبَأَنَا سُلَيْمَانُ  ، عَنْ أَبِي عُثْمَانَ  ، قَالَ : قَالَ عُمَرُ   :\" الصَّدَقَةُ وَالسَّائِبَةُ لِيَوْمِهِمَا، أَوْ لِوَقْتِهِمَا \"",
      "english": {
        "narrator": "",
        "text": ""
      }
    },
    {
      "id": 271,
      "chapterId": 21,
      "bookId": 9,
      "arabic": "حَدَّثَنَا أَبُو نُعَيْمٍ ، حَدَّثَنَا زَكَرِيَّا ، قَالَ : سُئِلَ عَامِرٍ  عَنْ الْمَمْلُوكِ يُعْتَقُ سَائِبَةً لِمَنْ وَلَاؤُهُ؟ قَالَ :\" لِلَّذِي أَعْتَقَهُ \"",
      "english": {
        "narrator": "",
        "text": ""
      }
    },
    {
      "id": 272,
      "chapterId": 21,
      "bookId": 9,
      "arabic": "حَدَّثَنَا أَبُو حَاتِمٍ الْبَصْرِيُّ هُوَ رَوْحُ بْنُ أَسْلَمَ  ، حَدَّثَنَا بِشْرُ بْنُ الْمُفَضَّلِ  ، حَدَّثَنَا عَبْدُ الرَّحْمَنِ بْنُ إِسْحَاق  ، عَنْ أَبِيهِ  ، عَنْ عَبْدِ الرَّحْمَنِ بْنِ عَمْرٍو  ، قَالَ : \" مَاتَ مَوْلًى عَلَى عَهْدِ عُثْمَانَ   وَلَيْسَ لَهُ وَالٍ،فَأَمَرَ بِمَالِهِ، فَأُدْخِلَ بَيْتَ الْمَالِ \"",
      "english": {
        "narrator": "",
        "text": ""
      }
    },
    {
      "id": 273,
      "chapterId": 21,
      "bookId": 9,
      "arabic": "حَدَّثَنَا يَعْلَى ، حَدَّثَنَا إِسْمَاعِيل ، عَنْ عَامِرٍ ، عَنْ مَسْرُوقٍ  : فِي رَجُلٍ مَاتَ وَلَمْ يَكُنْ لَهُ مَوْلَى عَتَاقَةٍ، قَالَ :\" مَالُهُ حَيْثُ أَوْصَى بِهِ، فَإِنْ لَمْ يَكُنْ أَوْصَى، فَهُوَ فِي بَيْتِ الْمَالِ \"",
      "english": {
        "narrator": "",
        "text": ""
      }
    },
    {
      "id": 274,
      "chapterId": 21,
      "bookId": 9,
      "arabic": "حَدَّثَنَا أَبُو سَعِيدِ بْنُ عَمْرٍو ، عَنْ أَبِي بَكْرِ بْنِ أَبِي مَرْيَمَ ، عَنْ ضَمْرَةَ ، وَرَاشِدِ بْنِ سَعْدٍ ، وَغَيْرِهِمَا، قَالُوا فِيمَنْ أُعْتِقَ سَائِبَةً :\" إِنَّ وَلَاءَهُ لِمَنْ أَعْتَقَهُ، إِنَّمَا سَيَّبَهُ مِنْ الرِّقِّ، وَلَمْ يُسَيِّبْهُ مِنْ الْوَلَاءِ \"",
      "english": {
        "narrator": "",
        "text": ""
      }
    },
    {
      "id": 275,
      "chapterId": 21,
      "bookId": 9,
      "arabic": "حَدَّثَنَا أَبُو بَكْرِ بْنُ أَبِي شَيْبَةَ ، حَدَّثَنَا أَبُو دَاوُدَ ، عَنْ شُعْبَةَ ، قَالَ : أَخْبَرَنِي مَنْصُورٌ ، عَنْ إِبْرَاهِيمَ ، وَالشَّعْبِيِّ ، قَالَا :\" لَا بَأْسَ بِبَيْعِ وَلَاءِ السَّائِبَةِ وَهِبَتِهِ \"",
      "english": {
        "narrator": "",
        "text": ""
      }
    },
    {
      "id": 276,
      "chapterId": 21,
      "bookId": 9,
      "arabic": "حَدَّثَنَا أَبُو نُعَيْمٍ  ، حَدَّثَنَا الْمَسْعُودِيُّ  ، عَنْ الْقَاسِمِ  ، قَالَ : \" أَعْتَقَ رَجُلٌ غُلَامًا سَائِبَةً، فَأَتَى عَبْدَ اللَّهِ  ، وَقَالَ : إِنِّي أَعْتَقْتُ غُلَامًا لِي سَائِبَةً، وَهَذِهِ تَرِكَتُهُ، قَالَ : هِيَ لَكَ، قَالَ :لَا حَاجَةَ لِي فِيهَا، قَالَ : فَضَعْهَا، فَإِنَّ هَهُنَا وَارِثًا كَثِيرًا \"",
      "english": {
        "narrator": "",
        "text": ""
      }
    },
    {
      "id": 277,
      "chapterId": 21,
      "bookId": 9,
      "arabic": "أَخْبَرَنَا يَزِيدُ بْنُ هَارُونَ  ، أَنْبَأَنَا الْأَشْعَثُ  ، عَنْ أَبِي الزُّبَيْرِ  ، عَنْ جَابِرِ بْنِ عَبْدِ اللَّهِ  ، قَالَ :\" إِذَا اسْتَهَلَّ الصَّبِيُّ، وُرِّثَ وَصُلِّيَ عَلَيْهِ \"",
      "english": {
        "narrator": "",
        "text": ""
      }
    },
    {
      "id": 278,
      "chapterId": 21,
      "bookId": 9,
      "arabic": "حَدَّثَنَا أَبُو نُعَيْمٍ  ، حَدَّثَنَا شَرِيكٌ  ، عَنْ أَبِي إِسْحَاق  ، عَنْ عَطَاءٍ  ، عَنْ ابْنِ عَبَّاسٍ  ، قَالَ :\" إِذَا اسْتَهَلَّ الصَّبِيُّ، وَرِثَ وَوُرِثَ وَصُلِّيَ عَلَيْهِ \"",
      "english": {
        "narrator": "",
        "text": ""
      }
    },
    {
      "id": 279,
      "chapterId": 21,
      "bookId": 9,
      "arabic": "حَدَّثَنَا مَالِكُ بْنُ إِسْمَاعِيل  ، حَدَّثَنَا إِسْرَائِيلُ  ، عَنْ سِمَاكٍ  ، عَنْ عِكْرِمَةَ  ، عَنْ ابْنِ عَبَّاسٍ  ، قَالَ :\" لَيْسَ مِنْ مَوْلُودٍ إِلَّا يَسْتَهِلُّ، وَاسْتِهْلَالُهُ بِعَصْرِ الشَّيْطَانُ بَطْنَهُ، فَيَصِيحُ، إِلَّا عِيسَى ابْنَ مَرْيَمَ \"",
      "english": {
        "narrator": "",
        "text": ""
      }
    },
    {
      "id": 280,
      "chapterId": 21,
      "bookId": 9,
      "arabic": "حَدَّثَنَا يَحْيَى بْنُ حَسَّانَ  ، حَدَّثَنَا يَحْيَى هُوَ ابْنُ حَمْزَةَ  ، عَنْ زَيْدِ بْنِ وَاقِدٍ  ، عَنْ مَكْحُولٍ  ، قَالَ : قَالَ رَسُولُ اللَّهِ صَلَّى اللَّهُ عَلَيْهِ وَسَلَّمَ :\" لَا يَرِثُ الْمَوْلُودُ حَتَّى يَسْتَهِلَّ صَارِخًا، وَإِنْ وَقَعَ حَيًّا \"",
      "english": {
        "narrator": "",
        "text": ""
      }
    },
    {
      "id": 281,
      "chapterId": 21,
      "bookId": 9,
      "arabic": "حَدَّثَنَا يَعْلَى  ، حَدَّثَنَا مُحَمَّدُ بْنُ إِسْحَاق  ، عَنْ عَطَاءٍ  ، عَنْ جَابِرٍ  ، قَالَ :\" إِذَا اسْتَهَلَّ الْمَوْلُودُ، صُلِّيَ عَلَيْهِ وَوُرِثَ \"",
      "english": {
        "narrator": "",
        "text": ""
      }
    },
    {
      "id": 282,
      "chapterId": 21,
      "bookId": 9,
      "arabic": "حَدَّثَنَا عَبْدُ اللَّهِ بْنُ مُحَمَّدٍ ، حَدَّثَنَا مَعْنٌ ، عَنْ ابْنِ أَبِي ذِئْبٍ ، عَنْ الزُّهْرِيِّ ، قَالَ : أَرَى\" الْعُطَاسَ اسْتِهْلَالًا \"",
      "english": {
        "narrator": "",
        "text": ""
      }
    },
    {
      "id": 283,
      "chapterId": 21,
      "bookId": 9,
      "arabic": "حَدَّثَنَا أَبُو النُّعْمَانِ ، حَدَّثَنَا أَبُو عَوَانَةَ ، عَنْ مُغِيرَةَ ، عَنْ إِبْرَاهِيمَ ، قَالَ :\" لَا يُوَرَّثُ الْمَوْلُودُ حَتَّى يَسْتَهِلَّ، وَلَا يُصَلَّى عَلَيْهِ حَتَّى يَسْتَهِلَّ، فَإِذَا اسْتَهَلَّ، صُلِّيَ عَلَيْهِ وَوُرِّثَ، وَكُمِّلَتْ الدِّيَةُ \"",
      "english": {
        "narrator": "",
        "text": ""
      }
    },
    {
      "id": 284,
      "chapterId": 21,
      "bookId": 9,
      "arabic": "حَدَّثَنَا عَبْدُ اللَّهِ بْنُ صَالِحٍ ، حَدَّثَنِي اللَّيْثُ ، حَدَّثَنِي يُونُسُ ، عَنْ ابْنِ شِهَابٍ  : وَسَأَلْنَاهُ عَنْ السِّقْطِ، فَقَالَ :\" لَا يُصَلَّى عَلَيْهِ، وَلَا يُصَلَّى عَلَى مَوْلُودٍ حَتَّى يَسْتَهِلَّ صَارِخًا \"",
      "english": {
        "narrator": "",
        "text": ""
      }
    },
    {
      "id": 285,
      "chapterId": 21,
      "bookId": 9,
      "arabic": "حَدَّثَنَا هَارُونُ بْنُ مُعَاوِيَةَ ، عَنْ أَبِي سُفْيَانَ ، عَنْ مَعْمَرٍ ،  عَنْ قَتَادَةَ ، قَالَ :\" إِذَا ابْتَاعَ الْمُكَاتَبَانِ أَحَدُهُمَا الْآخَرَ : هَذَا هَذَا مِنْ سَيِّدِهِ، وَهَذَا هَذَا مِنْ سَيِّدِهِ، فَالْبَيْعُ لِلْأَوَّلِ.\nوَيَقُولُ أَهْلُ الْمَدِينَةِ : الْوَلَاءُ لِسَيِّدِ الْبَائِعِ، وَيَقُولُونَ : إِنَّمَا ابْتَاعَ هَذَا مَا عَلَى الْمُكَاتَبِ، فَالْوَلَاءُ لِلسَّيِّدِ",
      "english": {
        "narrator": "",
        "text": ""
      }
    },
    {
      "id": 286,
      "chapterId": 21,
      "bookId": 9,
      "arabic": "حَدَّثَنَا يَزِيدُ بْنُ هَارُونَ  ، حَدَّثَنَا يَحْيَى  ، عَنْ سَعِيدٍ  ، أَنَّ عُمَرَ  ، قَالَ :\" أَيُّمَا حُرٍّ تَزَوَّجَ أَمَةً، فَقَدْ أَرَقَّ نِصْفَهُ، وَأَيُّمَا عَبْدٍ تَزَوَّجَ حُرَّةً، فَقَدْ أَعْتَقَ نِصْفَهُ، قَالَ أَبُو مُحَمَّد : يَعْنِي الْوَلَدَ",
      "english": {
        "narrator": "",
        "text": ""
      }
    },
    {
      "id": 287,
      "chapterId": 21,
      "bookId": 9,
      "arabic": "حَدَّثَنَا أَحْمَدُ بْنُ عَبْدِ اللَّهِ ، حَدَّثَنَا أَبُو شِهَابٍ ، عَنْ الشَّيْبَانِيِّ ،  عَنْ الشَّعْبِيِّ  : فِي الْعَبْدِ يَتَزَوَّجُ الْمَرْأَةَ، ثُمَّ يُطَلِّقُهَا وَلَهُ مِنْهَا وَلَدٌ؟ قَالَ :\" إِنْ كَانَتْ حُرَّةً، فَالنَّفَقَةُ عَلَى أُمِّهِ، وَإِنْ كَانَ عَبْدًا، يَعْنِي : الصَّبِيَّ، فَعَلَى مُوَالِيهِ \"",
      "english": {
        "narrator": "",
        "text": ""
      }
    },
    {
      "id": 288,
      "chapterId": 21,
      "bookId": 9,
      "arabic": "حَدَّثَنَا مُحَمَّدُ بْنُ عِيسَى ، حَدَّثَنَا هُشَيْمٌ ، حَدَّثَنَا زَكَرِيَّا ، عَنْ عَامِرٍ .\nح وحَدَّثَنَا جَرِيرٌ ، عَنْ مُغِيرَةَ ، عَنْ إِبْرَاهِيمَ  : أَنَّهُمَا قَالَا :\" وَلَاؤُهُ لِمَنْ بَدَأَ بِالْعِتْقِ أَوَّلَ مَرَّةٍ \"",
      "english": {
        "narrator": "",
        "text": ""
      }
    },
    {
      "id": 289,
      "chapterId": 21,
      "bookId": 9,
      "arabic": "حَدَّثَنَا مُحَمَّدُ بْنُ عِيسَى ، حَدَّثَنَا هُشَيْمٌ ، أنبأنا يُونُسُ ، عَنْ الْحَسَنِ .\n ح وحَدَّثَنَا جَرِيرٌ ، عَنْ أَبَانَ بْنِ تَغْلِبَ ، عَنْ الْحَكَمِ ، عَنْ إِبْرَاهِيمَ ، أَنَّهُمَا قَالَا :\" إِنْ ضَمِنَ، كَانَ الْوَلَاءُ لَهُ، وَإِنْ اسْتَسْعَى الْعَبْدُ، كَانَ الْوَلَاءُ بَيْنَهُمْ \"",
      "english": {
        "narrator": "",
        "text": ""
      }
    },
    {
      "id": 290,
      "chapterId": 21,
      "bookId": 9,
      "arabic": "حَدَّثَنَا يَعْلَى ، وَأَبُو نُعَيْمٍ ، قَالَا : حَدَّثَنَا زَكَرِيَّا ، عَنْ عَامِرٍ  : فِي عَبْدٍ بَيْنَ رَجُلَيْنِ أَعْتَقَ أَحَدُهُمَا نَصِيبَهُ، فَقَالَ :\" يُتَمَّمُ عِتْقُهُ، فَإِنْ لَمْ يَكُنْ لَهُ مَالٌ، اسْتُسْعِيَ الْعَبْدُ فِي النِّصْفِ بِقِيمَةِ عَدْلٍ، وَالْوَلَاءُ لِمَنْ أَعْتَقَ \"",
      "english": {
        "narrator": "",
        "text": ""
      }
    }
  ]
}