{
  "page": 49,
  "perPage": 50,
  "totalPages": 69,
  "totalCount": 3406,
  "nextPage": 50,
  "prevPage": 48,
  "items": [
    {
      "id": 291,
      "chapterId": 21,
      "bookId": 9,
      "arabic": "حَدَّثَنَا هَارُونُ بْنُ مُعَاوِيَةَ ، عَنْ أَبِي سُفْيَانَ الْمَعْمَرِيِّ ، عَنْ مَعْمَرٍ ، عَنْ ابْنِ طَاوُسٍ ، عَنْ أَبِيهِ  : فِي عَبْدٍ بَيْنَ رَجُلَيْنِ، أَعْتَقَ أَحَدَهُمَا نَصِيبَهُ وَأَمْسَكَهُ الْآخَرُ، قَالَ :\" مِيرَاثُهُ بَيْنَهُمَا \"",
      "english": {
        "narrator": "",
        "text": ""
      }
    },
    {
      "id": 292,
      "chapterId": 21,
      "bookId": 9,
      "arabic": "حَدَّثَنَا هَارُونُ ، عَنْ أَبِي سُفْيَانَ ، عَنْ مَعْمَرٍ ، عَنْ الزُّهْرِيِّ ، قَالَ :\" مِيرَاثُهُ لِلَّذِي أَمْسَكَهُ.\nوقال قَتَادَةُ  : هُوَ لِلْمُعْتِقِ كُلُّهُ، وَثَمَنُهُ عَلَيْهِ، وَيَقُولُهُ أَهْلُ الْكُوفَةِ",
      "english": {
        "narrator": "",
        "text": ""
      }
    },
    {
      "id": 293,
      "chapterId": 21,
      "bookId": 9,
      "arabic": "حَدَّثَنَا يَعْلَى بْنُ عُبَيْدٍ ، حَدَّثَنَا عَبْدُ الْمَلِكِ ، عَنْ عَطَاءٍ  : فِي الرَّجُلِ يَمُوتُ وَيَتْرُكُ مُكَاتَبًا، وَلَهُ بَنُونَ وَبَنَاتٌ، أَيَكُونُ لِلنِّسَاءِ مِنْ الْوَلَاءِ شَيْءٌ؟ قَالَ :\" تَرِثُ النِّسَاءُ مِمَّا عَلَى ظَهْرِهِ مِنْ مُكَاتَبَتِهِ، وَيَكُونُ الْوَلَاءُ لِلرِّجَالِ دُونَ النِّسَاءِ، إِلَّا مَا كَاتَبْنَ، أَوْ أَعْتَقْنَ \"",
      "english": {
        "narrator": "",
        "text": ""
      }
    },
    {
      "id": 294,
      "chapterId": 21,
      "bookId": 9,
      "arabic": "حَدَّثَنَا أَبُو نُعَيْمٍ ، حَدَّثَنَا شَرِيكٌ ، عَنْ لَيْثٍ ، عَنْ طَاوُسٍ ، قَالَ :\" لَا تَرِثُ النِّسَاءُ مِنْ الْوَلَاءِ إِلَّا مَا أَعْتَقْنَ، أَوْ أَعْتَقَ مَنْ أَعْتَقْنَ \"",
      "english": {
        "narrator": "",
        "text": ""
      }
    },
    {
      "id": 295,
      "chapterId": 21,
      "bookId": 9,
      "arabic": "حَدَّثَنَا مُحَمَّدُ بْنُ عِيسَى ، حَدَّثَنَا أَبُو سُفْيَانَ ، عَنْ مَعْمَرٍ ، عَنْ يَحْيَى بْنِ أَبِي كَثِيرٍ ، قَالَ :\" تُوُفِّيَ رَجُلٌ وَتَرَكَ مُكَاتَبًا، ثُمَّ مَاتَ الْمُكَاتَبُ وَتَرَكَ مَالًا، فَجَعَلَ ابْنُ الْمُسَيَّبِ ، وَأَبُو سَلَمَةَ بْنُ عَبْدِ الرَّحْمَنِ  مَا بَقِيَ مِنْ مُكَاتَبَتِهِ بَيْنَ بَنِي مَوْلَاهُ الرِّجَالُ وَالنِّسَاءُ عَلَى مِيرَاثِهِمْ، وَمَا فَضَلَ مِنْ الْمَالِ بَعْدَ كِتَابَتِهِ، فَلِلرِّجَالِ مِنْهُمْ مِنْ بَنِي مَوْلَاهُ، دُونَ النِّسَاءِ \"",
      "english": {
        "narrator": "",
        "text": ""
      }
    },
    {
      "id": 296,
      "chapterId": 21,
      "bookId": 9,
      "arabic": "أَخْبَرَنَا مُحَمَّدُ بْنُ عِيسَى  ، حَدَّثَنَا عَبْدُ السَّلَامِ بْنُ حَرْبٍ  ، عَنْ الْأَعْمَشِ  ، عَنْ إِبْرَاهِيمَ  ، عَنْ عُمَرَ  ، وَعَلِيٍّ  ، وَزَيْدٍ   ، أَنَّهُمْ قَالُوا :\" الْوَلَاءُ لِلْكُبْرِ، وَلَا يَرِثُونَ النِّسَاءَ مِنْ الْوَلَاءِ إِلَّا مَا أَعْتَقْنَ، أَوْ كَاتَبْنَ \"",
      "english": {
        "narrator": "",
        "text": ""
      }
    },
    {
      "id": 297,
      "chapterId": 21,
      "bookId": 9,
      "arabic": "حَدَّثَنَا مُحَمَّدُ بْنُ عِيسَى ، حَدَّثَنَا إِسْمَاعِيل بْنُ إِبْرَاهِيمَ ، عَنْ خَالِدٍ ، عَنْ أَبِي قِلَابَةَ .\nح وحَدَّثَنَا ابْنُ وَهْبٍ ، عَنْ يُونُسَ ، عَنْ الزُّهْرِيِّ ، عَنْ سَعِيدِ بْنِ الْمُسَيِّبِ .\n ح وحَدَّثَنَا ابْنُ أَبِي الزِّنَادِ ، عَنْ أَبِيهِ ، عَنْ سُلَيْمَانَ بْنِ يَسَارٍ  : أَنَّهُمْ قَالُوا :\" لَا يَرِثُ النِّسَاءُ مِنْ الْوَلَاءِ إِلَّا مَا أَعْتَقْنَ، أَوْ كَاتَبْنَ \"",
      "english": {
        "narrator": "",
        "text": ""
      }
    },
    {
      "id": 298,
      "chapterId": 21,
      "bookId": 9,
      "arabic": "حَدَّثَنَا مُحَمَّدُ بْنُ عِيسَى ، عن مُعَاذٌ ، عَنْ أَشْعَثَ ، عَنْ الْحَسَنِ ، قَالَ :\" لَا تَرِثُ النِّسَاءُ مِنْ الْوَلَاءِ إِلَّا مَا أَعْتَقْنَ، أَوْ أَعْتَقَ مَنْ أَعْتَقْنَ، إِلَّا الْمُلَاعَنَةُ، فَإِنَّهَا تَرِثُ مَنْ أَعْتَقَ ابْنُهَا، وَالَّذِي انْتَفَى مِنْهُ أَبُوهُ \"",
      "english": {
        "narrator": "",
        "text": ""
      }
    },
    {
      "id": 299,
      "chapterId": 21,
      "bookId": 9,
      "arabic": "حَدَّثَنَا مُحَمَّدُ بْنُ عِيسَى  ، حَدَّثَنَا ابْنُ وَهْبٍ  ، عَنْ يُونُسَ  ، عَنْ الزُّهْرِيِّ  ، عَنْ سَالِمٍ  ، عَنْ أَبِيهِ   : أَنَّهُ كَانَ\" يَرِثُ مَوَالِيَ عُمَرَ دُونَ بَنَاتِ عُمَرَ \"",
      "english": {
        "narrator": "",
        "text": ""
      }
    },
    {
      "id": 300,
      "chapterId": 21,
      "bookId": 9,
      "arabic": "أَخْبَرَنَا عَمْرُو بْنُ عَوْنٍ ، عَنْ خَالِدِ بْنِ عَبْدِ اللَّهِ ، عَنْ خَالِدٍ الْحَذَّاءِ ، عَنْ أَبِي قِلَابَةَ  فِي امْرَأَةٍ مَاتَتْ، وَتَرَكَتْ بَنِيهَا، فَوَرِثُوهَا مَالًا وَمَوَالِيَ، قَالَ :\" يَرْجِعُ الْوَلَاءُ إِلَى عَصَبَةِ الْمَرْأَةِ \"",
      "english": {
        "narrator": "",
        "text": ""
      }
    },
    {
      "id": 301,
      "chapterId": 21,
      "bookId": 9,
      "arabic": "حَدَّثَنَا عُبَيْدُ اللَّهِ ، عَنْ إِسْرَائِيلَ ، عَنْ مَنْصُورٍ ، قَالَ : سَأَلْتُ إِبْرَاهِيمَ  عَنْ رَجُلٍ كَاتَبَ عَبْدًا لَهُ، ثُمَّ مَاتَ وَتَرَكَ وَلَدًا رِجَالًا وَنِسَاءً، قَالَ :\" لِلذُّكُورِ دُونَ الْإِنَاثِ \"",
      "english": {
        "narrator": "",
        "text": ""
      }
    },
    {
      "id": 302,
      "chapterId": 21,
      "bookId": 9,
      "arabic": "حَدَّثَنَا أَبُو النُّعْمَانِ ، حَدَّثَنَا وُهَيْبٌ ، حَدَّثَنَا يُونُسُ ، عَنْ الْحَسَنِ ، أَنَّهُ كَانَ يَقُولُ فِي امْرَأَةٍ مَاتَتْ وَتَرَكَتْ مَوْلًى، قَالَ :\" الْوَلَاءُ لِبَنِيهَا، فَإِذَا مَاتُوا، رَجَعَ إِلَى عَصَبَتِهَا \"",
      "english": {
        "narrator": "",
        "text": ""
      }
    },
    {
      "id": 303,
      "chapterId": 21,
      "bookId": 9,
      "arabic": "حَدَّثَنَا سَعِيدُ بْنُ عَامِرٍ ، أَخْبَرَنَا شُعْبَةُ ، عَنْ مُغِيرَةَ ، عَنْ إِبْرَاهِيمَ  قَالَ :\" لَيْسَ لِلنِّسَاءِ مِنْ الْوَلَاءِ شَيْءٌ، إِلَّا مَا أَعْتَقَتْ هِيَ فيَ نَفْسِهَا \"",
      "english": {
        "narrator": "",
        "text": ""
      }
    },
    {
      "id": 304,
      "chapterId": 21,
      "bookId": 9,
      "arabic": "حَدَّثَنَا سَعِيدُ بْنُ عَامِرٍ  ، عَنْ ابْنِ عَوْنٍ  ، عَنْ مُحَمَّدٍ  ، قَالَ : مَاتَ مَوْلًى لِعُمَرَ، فَسَأَلَ ابْنُ عُمَرَ زَيْدَ بْنَ ثَابِتٍ  ، فَقَالَ : هَلْ لِبَنَاتِ عُمَرَ مِنْ مِيرَاثِهِ شَيْءٌ؟ قَالَ :\" مَا أَرَى لَهُنَّ شَيْئًا، وَإِنْ شِئْتَ أَنْ تُعْطِيَهُنَّ، أَعْطَيْتَهُنَّ \"",
      "english": {
        "narrator": "",
        "text": ""
      }
    },
    {
      "id": 305,
      "chapterId": 21,
      "bookId": 9,
      "arabic": "حَدَّثَنَا عَبْدُ اللَّهِ بْنُ سَعِيدٍ ، حَدَّثَنَا أَبُو أُسَامَةَ ، عَنْ هِشَامٍ ، عَنْ أَبِيهِ ، قَالَ :\" يُحْرِزُ الْوَلَاءَ مَنْ يُحْرِزُ الْمِيرَاثَ \"",
      "english": {
        "narrator": "",
        "text": ""
      }
    },
    {
      "id": 306,
      "chapterId": 21,
      "bookId": 9,
      "arabic": "حَدَّثَنَا عَبْدُ اللَّهِ بْنُ سَعِيدٍ  ، حَدَّثَنَا أَبُو خَالِدٍ  ، حَدَّثَنَا يَحْيَى  ، عَنْ أَبِي بَكْرِ بْنِ عَمْرِو بْنِ حَزْمٍ   :\" أَنَّ امْرَأَةً مِنْ مُحَارِبٍ وَهَبَتْ وَلَاءَ عَبْدِهَا لِنَفْسِهِ، فَأَعْتَقَتْهُ، فَوَهَبَ وَلاءَ نَفْسِهِ لِعَبْدِ الرَّحْمَنِ بْنِ عَمْرِو بْنِ حَزْمٍ، وَمَاتَتْ، فَخَاصَمَتِ الْمَوَالِيَ إِلَى عُثْمَانَ، فَدَعَا عُثْمَانُ الْبَيِّنَةَ عَلَى مَا قَالَ، قَالَ : فَأَتَى الْبَيِّنَةُ، فَقَالَ لَهُ عُثْمَانُ   : اذْهَبْ، فَوَالِ مَنْ شِئْتَ \".\nقَالَ أَبُو بَكْرٍ : فَوَالَى عَبْدَ الرَّحْمَنِ بْنَ عَمْرِو بْنِ حَزْمٍ",
      "english": {
        "narrator": "",
        "text": ""
      }
    },
    {
      "id": 307,
      "chapterId": 21,
      "bookId": 9,
      "arabic": "حَدَّثَنَا أَبُو نُعَيْمٍ  ، حَدَّثَنَا سُفْيَانُ  ، عَنْ عَبْدِ اللَّهِ بْنِ دِينَارٍ  ، عَنْ ابْنِ عُمَرَ  ، قَالَ : \" نَهَى رَسُولُ اللَّهِ صَلَّى اللَّهُ عَلَيْهِ وَسَلَّمَ عَنْبَيْعِ الْوَلَاءِ، وَعَنْ هِبَتِهِ \"",
      "english": {
        "narrator": "",
        "text": ""
      }
    },
    {
      "id": 308,
      "chapterId": 21,
      "bookId": 9,
      "arabic": "حَدَّثَنَا مُسْلِمٌ  ، حَدَّثَنَا شُعْبَةُ  ، حَدَّثَنَا عَبْدُ اللَّهِ بْنُ دِينَارٍ  ، عَنْ ابْنِ عُمَرَ   : \" أَنّ النَّبِيَّ صَلَّى اللَّهُ عَلَيْهِ وَسَلَّمَنَهَى عَنْ بَيْعِ الْوَلَاءِ، وَعَنْ هِبَتِهِ \"",
      "english": {
        "narrator": "",
        "text": ""
      }
    },
    {
      "id": 309,
      "chapterId": 21,
      "bookId": 9,
      "arabic": "حَدَّثَنَا يَعْلَى  ، حَدَّثَنَا عَبْدُ الْمَلِكِ  ، عَنْ عَطَاءٍ  ، قَالَ : سَمِعْتُ ابْنَ عَبَّاسٍ  ، يَقُولُ :\" لَا يُبَاعُ الْوَلَاءُ وَلَا يُوهَبُ، وَالْوَلَاءُ لِمَنْ أَعْتَقَ \"",
      "english": {
        "narrator": "",
        "text": ""
      }
    },
    {
      "id": 310,
      "chapterId": 21,
      "bookId": 9,
      "arabic": "حَدَّثَنَا جَعْفَرُ بْنُ عَوْنٍ  ، عَنْ سَعِيدٍ  ، عَنْ أَبِي مَعْشَرٍ  ، عَنْ إِبْرَاهِيمَ  ، قَالَ : قَالَ عَبْدُ اللَّهِ   :\" الْوَلَاءُ لُحْمَةٌ كَلُحْمَةِ النَّسَبِ، لَا يُبَاعُ وَلَا يُوهَبُ \"",
      "english": {
        "narrator": "",
        "text": ""
      }
    },
    {
      "id": 311,
      "chapterId": 21,
      "bookId": 9,
      "arabic": "حَدَّثَنَا مُسْلِم ، حَدَّثَنَا هَمَّامٌ ، حَدَّثَنَا قَتَادَةُ ، عَنْ الْحَسَنِ ، وَسَعِيدِ بْنِ الْمُسَيِّبِ  : \" أنهماكرها بيع الولاء \"",
      "english": {
        "narrator": "",
        "text": ""
      }
    },
    {
      "id": 312,
      "chapterId": 21,
      "bookId": 9,
      "arabic": "حَدَّثَنَا عَبْدُ اللَّهِ بْنُ سَعِيدٍ  ، حَدَّثَنَا ابْنُ إِدْرِيسَ  ، عَنْ ابْنِ جُرَيْجٍ  ، عَنْ عَطَاءٍ  ، قَالَ : قَالَ ابْنُ عَبَّاسٍ   :\" لَا يُبَاعُ الْوَلَاءُ، أَيُؤْكَلُ بِرَقَبَةِ رَجُلٍ مَرَّتَيْنِ؟ \"",
      "english": {
        "narrator": "",
        "text": ""
      }
    },
    {
      "id": 313,
      "chapterId": 21,
      "bookId": 9,
      "arabic": "حَدَّثَنَا مُحَمَّدُ بْنُ يُوسُفَ  ، حَدَّثَنَا سُفْيَانُ  ، عَنْ ابْنِ جُرَيْجٍ  ، عَنْ عَطَاءٍ  ، عَنْ ابْنِ عَبَّاسٍ  ، قَالَ :\" الْفَرَائِضُ مِنْ سِتَّةٍ، لَا نُعِيلُهَا \"",
      "english": {
        "narrator": "",
        "text": ""
      }
    },
    {
      "id": 314,
      "chapterId": 21,
      "bookId": 9,
      "arabic": "حَدَّثَنَا مُحَمَّدُ بْنُ عِمْرَانَ ، عَنْ مُعَاوِيَةَ بْنِ مَيْسَرَةَ بْنِ شُرَيْحٍ ، عَنْ شريح بْنِ الْحَارِثِ ، قَالَ : \" اخْتُصِمَ إِلَى شُرَيْحٍ فِي بِنْتَيْنِ، وَأَبَوَيْنِ، وَزَوْجٍ، فَقَضَى فِيهَا، فَأَقْبَلَ الزَّوْجُ يَشْكُوهُ فِي الْمَسْجِدِ، فَأَرْسَلَ إِلَيْهِ عَبْدَ اللَّهِ بْنَ رَبَاحٍ فَأَخَذَهُ، وَبَعَثَ إِلَى شُرَيْحٍ، فَقَالَ : مَا يَقُولُ هَذَا؟ قَالَ : هَذَا يَخَالُنِي امْرَأً جَائِرًا، وَأَنَا إِخَالُهُ امْرَأً فَاجِرًا، يُظْهِرُ الشَّكْوَى وَيَكْتُمُ قَضَاءً سَائِرًا، فَقَالَ لَهُ الرَّجُلُ : مَا تَقُولُ فِي بِنْتَيْنِ، وَأَبَوَيْنِ، وَزَوْجٍ؟ فَقَالَ :لِلزَّوْجِ الرُّبُعُ مِنْ جَمِيعِ الْمَالِ، وَلِلْأَبَوَيْنِ السُّدُسَانِ، وَمَا بَقِيَ فَلِلِابْنَتَيْنِ، قَالَ : فَلِأَيِّ شَيْءٍ نَقَصْتَنِي؟ قَالَ : لَيْسَ أَنَا نَقَصْتُكَ، اللَّهُ نَقَصَكَ، لِلِابْنَتَيْنِ الثُّلُثَانِ، وَلِلْأَبَوَيْنِ السُّدُسَانِ، وَلِلزَّوْجِ الرُّبُعُ، فَهِيَ مِنْ سَبْعَةٍ وَنِصْفٍ فَرِيضَةً، فَرِيضَتُكَ عَائِلَةٌ \"",
      "english": {
        "narrator": "",
        "text": ""
      }
    },
    {
      "id": 315,
      "chapterId": 21,
      "bookId": 9,
      "arabic": "حَدَّثَنَا مُحَمَّدُ بْنُ عُيَيْنَةَ  ، عَنْ عَلِيِّ بْنِ مُسْهِرٍ  ، عَنْ أَشْعَثَ  ، عَنْ الشَّعْبِيِّ  ، عَنْ عَلِيٍّ  ، وَعُمَرَ  ، وَزَيْدٍ   ، قَالُوا :\" الْوَالِدُ يَجُرُّ وَلَاءَ وَلَدِهِ \"",
      "english": {
        "narrator": "",
        "text": ""
      }
    },
    {
      "id": 316,
      "chapterId": 21,
      "bookId": 9,
      "arabic": "حَدَّثَنَا مُحَمَّدُ بْنُ عُيَيْنَةَ ، عَنْ عَلِيِّ بْنِ مُسْهِرٍ ، عَنْ أَشْعَثَ ، عَنْ الشَّعْبِيِّ ، قَالَ :\" الْجَدُّ يَجُرُّ الْوَلَاءَ \"",
      "english": {
        "narrator": "",
        "text": ""
      }
    },
    {
      "id": 317,
      "chapterId": 21,
      "bookId": 9,
      "arabic": "حَدَّثَنَا مُحَمَّدُ بْنُ عُيَيْنَةَ ، عَنْ عَلِيِّ بْنِ مُسْهِرٍ ، عَنْ أَشْعَثَ ، عَنْ ابْنِ سِيرِينَ ، عَنْ شُرَيْحٍ ، قَالَ :\" الْوَالِدُ يَجُرُّ وَلَاءَ وَلَدِهِ \"",
      "english": {
        "narrator": "",
        "text": ""
      }
    },
    {
      "id": 318,
      "chapterId": 21,
      "bookId": 9,
      "arabic": "حَدَّثَنَا أَبُو نُعَيْمٍ ، حَدَّثَنَا زَكَرِيَّا ، عَنْ عَامِرٍ  : \" فِي مَمْلُوكٍ تُوُفِّيَ وَلَهُ أَبٌ حُرٌّ، وَلَهُ بَنُونَ مِنْ امْرَأَةٍ حُرَّةٍ، لِمَنْ وَلَاءُ وَلَدِهِ؟ قَالَ :لِمَوَالِي الْجَدِّ \"",
      "english": {
        "narrator": "",
        "text": ""
      }
    },
    {
      "id": 319,
      "chapterId": 21,
      "bookId": 9,
      "arabic": "حَدَّثَنَا أَبُو نُعَيْمٍ ، حَدَّثَنَا إِسْرَائِيلُ ، عَنْ مُغِيرَةَ ، عَنْ إِبْرَاهِيمَ  : \" فِي مُكَاتَبٍ مَاتَ وَقَدْ أَدَّى نِصْفَ مُكَاتَبَتِهِ، وَلَهُ وَلَدٌ مِنْ امْرَأَةٍ حُرَةٍ، قَالَ :مَا أُرَاهُ إِلَّا قَدْ جَرَّ وَلَاءَ وَلَدِهِ \"",
      "english": {
        "narrator": "",
        "text": ""
      }
    },
    {
      "id": 320,
      "chapterId": 21,
      "bookId": 9,
      "arabic": "حَدَّثَنَا سُلَيْمَانُ بْنُ حَرْبٍ  ، حَدَّثَنَا شُعْبَةُ  ، عَنْ الْحَكَمِ  ،  عَنْ إِبْرَاهِيمَ  ، قَالَ : \" كَانَ شُرَيْحٌ لَا يَرْجِعُ عَنْ قَضَاءٍ يَقْضِي بِهِ، فَحَدَّثَهُ الْأَسْوَدُ  : أَنَّ عُمَرَ  ، قَالَ :إِذَا تَزَوَّجَ الْمَمْلُوكُ الْحُرَّةَ، فَوَلَدَتْ أَوْلَادًا أَحْرَارًا، ثُمَّ عُتِقَ بَعْدَ ذَلِكَ، رَجَعَ الْوَلَاءُ لِمَوَالِي أَبِيهِمْ \"، فَأَخَذَ بِهِ شُرَيْحٌ",
      "english": {
        "narrator": "",
        "text": ""
      }
    },
    {
      "id": 321,
      "chapterId": 21,
      "bookId": 9,
      "arabic": "حَدَّثَنَا يَعْلَى  ، عَنْ الْأَعْمَشِ  ، عَنْ إِبْرَاهِيمَ  ، قَالَ : قَالَ عُمَر   : \" الْمَمْلُوكِ يَكُونُ تَحْتَهُ الْحُرَّةُ،يُعْتَقُ الْوَلَدُ بِعِتْقِ أُمِّهِ، فَإِذَا عُتِقَ الْأَبُ، جَرَّ الْوَلَاءَ \"",
      "english": {
        "narrator": "",
        "text": ""
      }
    },
    {
      "id": 322,
      "chapterId": 21,
      "bookId": 9,
      "arabic": "حَدَّثَنَا مُسْلِمٌ ، حَدَّثَنَا عَبْدُ الْوَارِثِ ، عَنْ كَثِيرِ بْنِ شِنْظِيرٍ ، عَنْ عَطَاءٍ  : \" فِي الْحُرَّةِ تَحْتَ الْعَبْدِ، قَالَ :أَمَّا مَا وَلَدَتْ مِنْهُ وَهُوَ عَبْدٌ، فَوَلَاؤُهُمْ لِأَهْلِ نِعْمَتِهَا، وَمَا وَلَدَتْ مِنْهُ وَهُوَ حُرٌّ، فَوَلَاؤُهُمْ لِأَهْلِ نِعْمَتِهِ \"",
      "english": {
        "narrator": "",
        "text": ""
      }
    },
    {
      "id": 323,
      "chapterId": 21,
      "bookId": 9,
      "arabic": "حَدَّثَنَا جَعْفَرُ بْنُ عَوْنٍ  ، عَنْ الْأَعْمَشِ  ، عَنْ إِبْرَاهِيمَ  ، قَالَ : قَالَ عُمَرُ   :\" إِذَا كَانَتْ الْحُرَّةُ تَحْتَ الْمَمْلُوكِ، فَوَلَدَتْ لَهُ غُلَامًا، فَإِنَّهُ يُعْتَقُ بِعِتْقِ أُمِّهِ، وَوَلَاؤُهُ لِمَوَالِي أُمِّهِ، فَإِذَا أُعْتِقَ الْأَبُ، جَرَّ الْوَلَاءَ إِلَى مَوَالِي أَبِيهِ \"",
      "english": {
        "narrator": "",
        "text": ""
      }
    },
    {
      "id": 324,
      "chapterId": 21,
      "bookId": 9,
      "arabic": "حَدَّثَنَا الْحَكَمُ بْنُ الْمُبَارَكِ  ، حَدَّثَنَا مُحَمَّدُ بْنُ سَلَمَةَ  ، عَنْ ابْنِ إِسْحَاق  ، عَنْ الْعَلَاءِ بْنِ عَبْدِ الرَّحْمَنِ  ، عَنْ أَبِيهِ  ، قَالَ :\" كَانَتْ أُمِّي مَوْلَاةً لِلْحُرَقَةِ، وَكَانَ أَبِي يَعْقُوبُ مُكَاتَبًا لِمَالِكِ بْنِ أَوْسِ بْنِ الْحَدَثَانِ النَّصْرِيِّ، ثُمَّ إِنَّ أَبِي أَدَّى كِتَابَتَهُ، فَدَخَلَ الْحُرَقِيُّ عَلَى عُثْمَانَ، يَسْأَلُ الْحَقَّ يَعْنِي : الْعَطَاءَ ، وَعِنْدَهُ مَالِكُ بْنُ أَوْسٍ، فَقَالَ : ذَاكَ مَوْلَايَ، فَاخْتَصَمَا إِلَى عُثْمَانَ  ، فَقَضَى بِهِ لِلْحُرَقِيِّ \"",
      "english": {
        "narrator": "",
        "text": ""
      }
    },
    {
      "id": 325,
      "chapterId": 21,
      "bookId": 9,
      "arabic": "حَدَّثَنَا عَبْدُ اللَّهِ بْنُ يَزِيدَ ، حَدَّثَنَا حَيْوَةُ ، أَخْبَرَنِي سَهْمُ بْنُ يَزِيدَ الْحَمْرَاوِيُّ : \" أَنَّ رَجُلًا تُوُفِّيَ وَلَيْسَ لَهُ وَارِثٌ، فَكُتِبَ فِيهِ إِلَى عُمَرَ بْنِ عَبْدِ الْعَزِيزِ  وَهُوَ خَلِيفَةٌ، فَكَتَبَ : أَنْاقْتَسِمُوا مِيرَاثَهُ عَلَى مَنْ كَانَ يَأْخُذُ مَعَهُمْ الْعَطَاءَ، فَقُسِمَ مِيرَاثُهُ عَلَى مَنْ كَانَ يَأْخُذُ مَعَهُمْ الْعَطَاءَ فِي عِرَافَتِهِ \"",
      "english": {
        "narrator": "",
        "text": ""
      }
    },
    {
      "id": 1,
      "chapterId": 22,
      "bookId": 9,
      "arabic": "حَدَّثَنَا مُحَمَّدُ بْنُ عُبَيْدٍ  ، أَخْبَرَنَا عُبَيْدُ اللَّهِ  ، عَنْ نَافِعٍ  ، عَنْ ابْنِ عُمَرَ   : أَنّ رَسُولَ اللَّهِ صَلَّى اللَّهُ عَلَيْهِ وَسَلَّمَ، قَالَ :\" مَاحَقُّ امْرِئٍ مُسْلِمٍ يَبِيتُ لَيْلَتَيْنِ وَلَهُ شَيْءٌ يُوصِي فِيهِ، إِلَّا وَوَصِيَّتُهُ مَكْتُوبَةٌ عِنْدَهُ \"",
      "english": {
        "narrator": "",
        "text": ""
      }
    },
    {
      "id": 2,
      "chapterId": 22,
      "bookId": 9,
      "arabic": "حَدَّثَنَا عَفَّانُ  ، حَدَّثَنَا أَبُو الْأَشْهَبِ  ، حَدَّثَنَا الْحَسَنُ  ، قَالَ :\" الْمُؤْمِنُ لَا يَأْكُلُ فِي كُلِّ بَطْنِهِ، وَلَا تَزَالُ وَصِيَّتُهُ تَحْتَ جَنْبِهِ \"",
      "english": {
        "narrator": "",
        "text": ""
      }
    },
    {
      "id": 3,
      "chapterId": 22,
      "bookId": 9,
      "arabic": "أَخْبَرَنَا سُلَيْمَانُ بْنُ حَرْبٍ ، حَدَّثَنَا حَمَّادُ بْنُ سَلَمَةَ ، عَنْ دَاوُدَ بْنِ أَبِي هِنْدٍ ، عَنْ الْقَاسِمِ بْنِ عُمَرَ ، قَالَ : \" قَالَ لِي ثُمَامَةُ بْنُ حَزْنٍ  : مَا فَعَلَ أَبُوكَ؟ قُلْتُ : مَاتَ، قَالَ : فَهَلْ أَوْصَى؟ فَإِنَّهُ كَانَ يُقَالُ :إِذَا أَوْصَى الرَّجُلُ، كَانَتْ وَصِيَّتُهُ تَمَامًا لِمَا ضَيَّعَ مِنْ زَكَاتِهِ \".\nقَالَ أَبُو مُحَمَّد ، وقال غَيْرُهُ : الْقَاسِمُ بْنُ عَمْرٍو",
      "english": {
        "narrator": "",
        "text": ""
      }
    },
    {
      "id": 4,
      "chapterId": 22,
      "bookId": 9,
      "arabic": "حَدَّثَنَا أَبُو النُّعْمَانِ ، حَدَّثَنَا حَمَّادُ بْنُ زَيْدٍ ، حَدَّثَنَا دَاوُدُ بْنُ أَبِي هِنْدٍ ، عَنْ الشَّعْبِيِّ ، قَالَ : كَانَ يُقَالُ :\" مَنْ أَوْصَى بِوَصِيَّةٍ فَلَمْ يَجُرْ، وَلَمْ يَحِفْ، كَانَ لَهُ مِنْ الْأَجْرِ مِثْلُ مَا أَنْ لَوْ تَصَدَّقَ بِهِ فِي حَيَاتِهِ \"",
      "english": {
        "narrator": "",
        "text": ""
      }
    },
    {
      "id": 5,
      "chapterId": 22,
      "bookId": 9,
      "arabic": "أَخْبَرَنَا سَهْلُ بْنُ حَمَّادٍ ، حَدَّثَنَا شُعْبَةُ ، عَنْ أَبِي يُونُسَ ، عَنْ قَزَعَةَ ، قَالَ : قِيلَ لِهَرِمِ بْنِ حَيَّانَ  : أَوْصِهْ، قَالَ :\" أُوصِيكُمْ بِالْآيَاتِ الْأَوَاخِرِ مِنْ سُورَةِ النَّحْلِ ، وَقَرَأَ ابْنُ حَيَّانَ : # ادْعُ إِلَى سَبِيلِ رَبِّكَ بِالْحِكْمَةِ إِلَى قَوْلِهِ : وَالَّذِينَ هُمْ مُحْسِنُونَ سورة النحل آية 125 - 128 # \"",
      "english": {
        "narrator": "",
        "text": ""
      }
    },
    {
      "id": 6,
      "chapterId": 22,
      "bookId": 9,
      "arabic": "حَدَّثَنَا مُحَمَّدُ بْنُ يُوسُفَ  ، عَنْ مَالِكِ بْنِ مِغْوَلٍ  ، عَنْ طَلْحَةَ بْنِ مُصَرِّفٍ الْيَامِيِّ  ، قَالَ : سَأَلْتُ عَبْدَ اللَّهِ بْنَ أَبِي أَوْفَى   : أَوْصَى رَسُولُ اللَّهِ صَلَّى اللَّهُ عَلَيْهِ وَسَلَّمَ؟ قَالَ : لَا، قُلْت : فَكَيْفَ كُتِبَ عَلَى النَّاسِ الْوَصِيَّةُ أَوْ : أُمِرُوا بِالْوَصِيَّةِ؟ فَقَالَ :أَوْصَى بِكِتَابِ اللَّهِ.\nوقَالَ هُزَيْلُ بْنُ شُرَحْبِيلَ : أَبُو بَكْرٍ كَانَ يَتَأَمَّرُ عَلَى وَصِيِّ رَسُولِ اللَّهِ صَلَّى اللَّهُ عَلَيْهِ وَسَلَّمَ، وَدَّ أَبُو بَكْرٍ أَنَّهُ وَجَدَ مِنْ رَسُولِ اللَّهِ صَلَّى اللَّهُ عَلَيْهِ وَسَلَّمَ عَهْدًا، فَخَزَمَ أَنْفَهُ بِخِزَامَةٍ ذلِكَ",
      "english": {
        "narrator": "",
        "text": ""
      }
    },
    {
      "id": 7,
      "chapterId": 22,
      "bookId": 9,
      "arabic": "أَخْبَرَنَا يَزِيدُ ، أنبأنا هَمَّامٌ ، عَنْ قَتَادَةَ  : \" # كُتِبَ عَلَيْكُمْ إِذَا حَضَرَ أَحَدَكُمُ الْمَوْتُ إِنْ تَرَكَ خَيْرًا الْوَصِيَّةُ لِلْوَالِدَيْنِ وَالأَقْرَبِينَ بِالْمَعْرُوفِ حَقًّا عَلَى الْمُتَّقِينَ سورة البقرة آية 180 #، قَالَ :\" الْخَيْرُ : الْمَالُ، كَانَ يُقَالُ : أَلْفًا فَمَا فَوْقَ ذَلِكَ \"",
      "english": {
        "narrator": "",
        "text": ""
      }
    },
    {
      "id": 8,
      "chapterId": 22,
      "bookId": 9,
      "arabic": "أَخْبَرَنَا يَزِيدُ بْنُ هَارُونَ ، أَخْبَرَنَا ابْنُ عَوْنٍ ، عَنْ مُحَمَّدِ بْنِ سِيرِينَ  : \" أَنَّهُأَوْصَى ذِكْرُ مَا أَوْصَى بِهِ، أَوْ هَذَا ذِكْرُ مَا أَوْصَى بِهِ مُحَمَّدُ بْنُ أَبِي عَمْرَةَ بَنِيهِ وَأَهْلَ بَيْتِهِ : # فَاتَّقُوا اللَّهَ وَأَصْلِحُوا ذَاتَ بَيْنِكُمْ وَأَطِيعُوا اللَّهَ وَرَسُولَهُ إِنْ كُنْتُمْ مُؤْمِنِينَ سورة الأنفال آية 1 #، وَأَوْصَاهُمْ بِمَا أَوْصَى بِهِ إِبْرَاهِيمُ بَنِيهِ، وَيَعْقُوبُ : # يَا بَنِيَّ إِنَّ اللَّهَ اصْطَفَى لَكُمُ الدِّينَ فَلا تَمُوتُنَّ إِلا وَأَنْتُمْ مُسْلِمُونَ سورة البقرة آية 132 #، وَأَوْصَاهُمْ أَنْ لَا يَرْغَبُوا أَنْ يَكُونُوا مَوَالِيَ الْأَنْصَارِ وَإِخْوَانَهُمْ فِي الدِّينِ، وَأَنَّ الْعِفَّةَ وَالصِّدْقَ خَيْرٌ وَأَتْقَى مِنْ الزِّنَا وَالْكَذِبِ، إِنْ حَدَثَ بِهِ حَدَثٌ فِي مَرَضِي هَذَا قَبْلَ أَنْ أُغَيِّرَ وَصِيَّتِي هَذِهِ، ثُمَّ ذَكَرَ حَاجَتَهُ \"",
      "english": {
        "narrator": "",
        "text": ""
      }
    },
    {
      "id": 9,
      "chapterId": 22,
      "bookId": 9,
      "arabic": "أَخْبَرَنَا أَحْمَدُ بْنُ عَبْدِ اللَّهِ  ، حَدَّثَنَا أَبُو بَكْرٍ  ، حَدَّثَنَا هِشَامُ بْنُ حَسَّانَ  ، عَنْ ابْنِ سِيرِينَ  ، عَنْ أَنَسٍ  ، قَالَ : \" هَكَذَا كَانُوا يُوصُونَ : هَذَا مَا أَوْصَى بِهِ فُلَانُ بْنُ فُلَانٍ، أَنَّهُيَشْهَدُ أَنْ لَا إِلَهَ إِلَّا اللَّهُ وَحْدَهُ لَا شَرِيكَ لَهُ، وَأَنَّ مُحَمَّدًا عَبْدُهُ وَرَسُولُهُ، وَأَنَّ السَّاعَةَ آتِيَةٌ لَا رَيْبَ فِيهَا، وَأَنَّ اللَّهَ يَبْعَثُ مَنْ فِي الْقُبُورِ، وَأَوْصَى مَنْ تَرَكَ بَعْدَهُ مِنْ أَهْلِهِ أَنْ يَتَّقُوا اللَّهَ وَيُصْلِحُوا ذَاتَ بَيْنِهِمْ، وَأَنْ يُطِيعُوا اللَّهَ وَرَسُولَهُ إِنْ كَانُوا مُؤْمِنِينَ، وَأَوْصَاهُمْ بِمَا أَوْصَى بِهِ إِبْرَاهِيمُ بَنِيهِ وَيَعْقُوبُ : # يَا بَنِيَّ إِنَّ اللَّهَ اصْطَفَى لَكُمُ الدِّينَ فَلا تَمُوتُنَّ إِلا وَأَنْتُمْ مُسْلِمُونَ سورة البقرة آية 132 #، وَأَوْصَى إِنْ حَدَثَ بِهِ حَدَثٌ مِنْ وَجَعِهِ هَذَا، أَنَّ حَاجَتَهُ كَذَا وَكَذَا \"",
      "english": {
        "narrator": "",
        "text": ""
      }
    },
    {
      "id": 10,
      "chapterId": 22,
      "bookId": 9,
      "arabic": "حَدَّثَنَا الْحَكَمُ بْنُ الْمُبَارَكِ ، أَخْبَرَنَا الْوَلِيدُ ، عَنْ حَفْصِ بْنِ غَيْلَانَ ، عَنْ مَكْحُولٍ  حِينَ أَوْصَى، قَالَ : \" نَشَهُّدُ هَذَا فَاشْهَدْ بِهِ :نَشْهَدُ أَنْ لَا إِلَهَ إِلَّا اللَّهُ وَحْدَهُ لَا شَرِيكَ لَهُ، وَأَنَّ مُحَمَّدًا عَبْدُهُ وَرَسُولُهُ، وَيُؤْمِنُ بِاللَّهِ، وَيَكْفُرُ بِالطَّاغُوتِ عَلَى ذَلِكَ يَحْيَا إِنْ شَاءَ اللَّهُ، وَيَمُوتُ، وَيُبْعَثُ، وَأَوْصَى فِيمَا رَزَقَهُ اللَّهُ فِيمَا تَرَكَ إِنْ حَدَثَ بِهِ حَدَثٌ وَهُوَ كَذَا وَكَذَا، إِنْ لَمْ يُغَيِّرْ شَيْئًا مِمَّا فِي هَذِهِ الْوَصِيَّةِ \".\nحَدَّثَنَا الْحَكَمُ ، حَدَّثَنَا الْوَلِيدُ ، قَالَ : أَخْبَرَنِي ابْنُ ثَوْبَانَ ، عَنْ أَبِيهِ ، عَنْ مَكْحُولٍ ، قَالَ : هَذِهِ وَصِيَّةُ أَبِي الدَّرْدَاءِ",
      "english": {
        "narrator": "",
        "text": ""
      }
    },
    {
      "id": 11,
      "chapterId": 22,
      "bookId": 9,
      "arabic": "حَدَّثَنَا جَعْفَرُ بْنُ عَوْنٍ ، حَدَّثَنَا أَبُو حَيَّانَ التَّيْمِيُّ ، عَنْ أَبِيهِ ، قَالَ : كَتَبَ الرَّبِيعُ بْنُ خُثَيْمٍ وَصِيَّتَهُ : بِسْمِ اللَّهِ الرَّحْمَنِ الرَّحِيمِ : \" هَذَا مَا أَوْصَى بِهِ الرَّبِيعُ بْنُ خُثَيْمٍ  وَأَشْهَدَ اللَّهَ عَلَيْهِ، وَكَفَى بِاللَّهِ شَهِيدًا، وَجَازِيًا لِعِبَادِهِ الصَّالِحِينَ وَمُثِيبًابِأَنِّي رَضِيتُ بِاللَّهِ رَبًّا، وَبِالْإِسْلَامِ دِينًا، وَبِمُحَمَّدٍ نَبِيًّا، وَإِنِّي آمُرُ نَفْسِي وَمَنْ أَطَاعَنِي أَنْ نَعْبُدَ اللَّهَ فِي الْعَابِدِينَ، وَنَحْمَدَهُ فِي الْحَامِدِينَ، وَأَنْ نَنْصَحَ لِجَمَاعَةِ الْمُسْلِمِينَ \"",
      "english": {
        "narrator": "",
        "text": ""
      }
    },
    {
      "id": 12,
      "chapterId": 22,
      "bookId": 9,
      "arabic": "حَدَّثَنَا أَبُو النُّعْمَانِ  ، حَدَّثَنَا حَمَّادُ بْنُ زَيْدٍ  ، عَنْ هِشَامٍ  ، عَنْ أَبِيهِ  : \" أَنَّ عَلِيًّا دَخَلَ عَلَى مَرِيضٍ، فَذَكَرُوا لَهُ الْوَصِيَّةَ، فَقال عَلِيٌّ   :قَالَ اللَّهُ : # إِنْ تَرَكَ خَيْرًا سورة البقرة آية 180 #، وَلَا أُرَاهُ تَرَكَ خَيْرًا \".\nقَالَ حَمَّادٌ : فَحَفِظْتُ أَنَّهُ تَرَكَ أَكْثَرَ مِنْ سَبْعِ مِائَةٍ",
      "english": {
        "narrator": "",
        "text": ""
      }
    },
    {
      "id": 13,
      "chapterId": 22,
      "bookId": 9,
      "arabic": "حَدَّثَنَا مُحَمَّدُ بْنُ كُنَاسَةَ  ، حَدَّثَنَا هِشَامٌ  ، عَنْ أَبِيهِ  ، قَالَ : \"دَخَلَ عَلِيُّ بْنُ أَبِي طَالِبٍ   عَلَى رَجُلٍ مِنْ قَوْمِهِ يَعُودُهُ، فَقَالَ : أُوصِي؟ قَالَ : لا، لَمْ تَدَعْ مَالًا، فَدَعْ مَالَكَ لِوَلَدِكَ \"",
      "english": {
        "narrator": "",
        "text": ""
      }
    },
    {
      "id": 14,
      "chapterId": 22,
      "bookId": 9,
      "arabic": "حَدَّثَنَا أَبُو زَيْدٍ ، حَدَّثَنَا شُعْبَةُ ، عَنْ مَنْصُورٍ ، عَنْ إِبْرَاهِيمَ  : \" فِي رَجُلٍ أَوْصَى وَالْوَرَثَةُ شُهُودٌ مُقِرُّونَ، فَقَالَ :لَا يَجُوزُ \".\nقَالَ أَبُو مُحَمَّد : يَعْنِي : إِذَا أَنْكَرُوا بَعْدُ",
      "english": {
        "narrator": "",
        "text": ""
      }
    },
    {
      "id": 15,
      "chapterId": 22,
      "bookId": 9,
      "arabic": "حَدَّثَنَا سُلَيْمَانُ بْنُ حَرْبٍ ، حَدَّثَنَا شُعْبَةُ ، قَالَ : سَأَلْتُ الحَكَمَ ، وَحَمَّادًا  : \" عَنِ الْأَوْلِيَاءِ يُجِيزُونَ الْوَصِيَّةَ، فَإِذَا مَاتَ لَمْ يُجِيزُوا؟ قَالَا :لَا يَجُوزُ \"",
      "english": {
        "narrator": "",
        "text": ""
      }
    }
  ]
}