{
  "page": 5,
  "perPage": 50,
  "totalPages": 69,
  "totalCount": 3406,
  "nextPage": 6,
  "prevPage": 4,
  "items": [
    {
      "id": 201,
      "chapterId": 1,
      "bookId": 9,
      "arabic": "أَخْبَرَنَا يَعْلَى  ، عَنْ مُحَمَّدِ بْنِ إِسْحَاق  ، عَنْ عَبْدِ اللَّهِ بْنِ أَبِي بَكْرٍ  ، عَنْ صَاحِبَتِهِ فَاطِمَةَ بِنْتِ مُحَمَّدٍ  ، وَكَانَتْ فِي حِجْرِ عَمْرَةَ ، قَالَتْ : أَرْسَلَتْ امْرَأَةٌ مِنْ قُرَيْشٍ إِلَى عَمْرَةَ   بِكُرْسُفَةِ قُطْنٍ فِيهَا كَالصُّفْرَةِ تَسْأَلُهَا : هَلْ تَرَى إِذَا لَمْ تَرَ الْمَرْأَةُ مِنْ الْحِيضَةِ إِلَّا هَذَا أَنْ قَدْ طَهُرَتْ؟ فَقَالَتْ :\" لَا، حَتَّى تَرَى الْبَيَاضَ خَالِصًا \"",
      "english": {
        "narrator": "",
        "text": ""
      }
    },
    {
      "id": 202,
      "chapterId": 1,
      "bookId": 9,
      "arabic": "أَخْبَرَنَا مُحَمَّدُ بْنُ عَبْدِ اللَّهِ الرَّقَاشِيُّ  ، عَنْ يَزِيدَ بْنِ زُرَيْعٍ  ، حَدَّثَنَا مُحَمَّدُ بْنُ إِسْحَاق  ، قَالَ : حَدَّثَتْنِي فَاطِمَةُ  ، عَنْ أَسْمَاءَ  ، قَالَتْ :\" كُنَّا نَكُونُ فِي حِجْرِهَا فَكَانَتْ إِحْدَانَا تَحِيضُ ثُمَّ تَطْهُرُ فَتَغْتَسِلُ وَتُصَلِّي، ثُمَّ تَنْكُسُهَا الصُّفْرَةُ الْيَسِيرَةُ، فَتَأْمُرُنَا أَنْ نَعْتَزِلَ الصَّلَاةَ حَتَّى لَا نَرَى إِلَّا الْبَيَاضَ خَالِصًا \"",
      "english": {
        "narrator": "",
        "text": ""
      }
    },
    {
      "id": 203,
      "chapterId": 1,
      "bookId": 9,
      "arabic": "أَخْبَرَنَا عُبَيْدُ اللَّهِ بْنُ مُوسَى ، عَنْ سُفْيَانَ ، عَنْ ابْنِ جُرَيْجٍ ، عَنْ عَطَاءٍ ، قَالَ :\" الْكُدْرَةُ، وَالصُّفْرَةُ، وَالدَّمُ، فِي أَيَّامِ الْحَيْضِ بِمَنْزِلَةِ الْحَيْضِ \"",
      "english": {
        "narrator": "",
        "text": ""
      }
    },
    {
      "id": 204,
      "chapterId": 1,
      "bookId": 9,
      "arabic": "أَخْبَرَنَا زَيْدُ بْنُ يَحْيَى بْنِ عُبَيْدٍ الدِّمَشْقِيُّ  ، عَنْ مُحَمَّدِ بْنِ رَاشِدٍ  ، عَنْ سُلَيْمَانَ بْنِ مُوسَى  ، عَنْ عَطَاءِ بْنِ أَبِي رَبَاحٍ  ، عَنْ عَائِشَةَ  ، أَنَّهَا قَالَتْ :\" إِذَا رَأَتْ الدَّمَ، فَلْتُمْسِكْ عَنْ الصَّلَاةِ حَتَّى تَرَى الطُّهْرَ أَبْيَضَ كَالْقَصَّةِ، ثُمَّ تَغْتَسِلْ وَتُصَلِّي \"",
      "english": {
        "narrator": "",
        "text": ""
      }
    },
    {
      "id": 205,
      "chapterId": 1,
      "bookId": 9,
      "arabic": "أَخْبَرَنَا أَبُو النُّعْمَانِ ، حَدَّثَنَا حَمَّادُ بْنُ زَيْدٍ ، عَنْ عَامِرٍ الْأَحْوَلِ ، قَالَ :\" كَانَ الْحَسَنُ  لَا يَعُدُّ الصُّفْرَةَ وَالْكُدْرَةَ، وَلَا مِثْلَ غُسَالَةِ اللَّحْمِ شَيْئًا \"",
      "english": {
        "narrator": "",
        "text": ""
      }
    },
    {
      "id": 206,
      "chapterId": 1,
      "bookId": 9,
      "arabic": "أَخْبَرَنَا مُحَمَّدُ بْنُ عِيسَى ، حَدَّثَنَا ابْنُ عُلَيَّةَ ، عَنْ أَيُّوبَ ، عَنْ مُحَمَّدٍ ، عَنْ أُمِّ عَطِيَّةَ ، قَالَتْ :\" كُنَّا لَا نَعُدُّ الصُّفْرَةَ وَالْكُدْرَةَ شَيْئًا \"",
      "english": {
        "narrator": "",
        "text": ""
      }
    },
    {
      "id": 207,
      "chapterId": 1,
      "bookId": 9,
      "arabic": "أَخْبَرَنَا مُحَمَّدُ بْنُ عِيسَى ، حَدَّثَنَا مُعْتَمِرٌ ، عَنْ أَبِيهِ ، عَنْ الْحَسَنِ ، فِي الْمَرْأَةِ تَرَى الدَّمَ فِي أَيَّامِ طُهْرِهَا، قَالَ :\" أَرَى أَنْ تَغْتَسِلَ وَتُصَلِّيَ \"، وقَالَ ابْنُ سِيرِينَ  : \" لَمْ يَكُونُوا يَرَوْنَ بِالْكُدْرَةِ وَالصُّفْرَةِ بَأْسًا \"",
      "english": {
        "narrator": "",
        "text": ""
      }
    },
    {
      "id": 208,
      "chapterId": 1,
      "bookId": 9,
      "arabic": "أَخْبَرَنَا مُحَمَّدُ بْنُ يُوسُفَ ، حَدَّثَنَا إِسْرَائِيلُ ، عَنْ عَبْدِ الْأَعْلَى ، عَنْ مُحَمَّدِ بْنِ الْحَنَفِيَّةِ ، فِي الْمَرْأَةِ تَرَى الصُّفْرَةَ بَعْدَ الطُّهْرِ، قَالَ :\" تِلْكَ التَّرِيَّةُ تَغْسِلُهُ وَتَوَضَّأُ وَتُصَلِّي \"",
      "english": {
        "narrator": "",
        "text": ""
      }
    },
    {
      "id": 209,
      "chapterId": 1,
      "bookId": 9,
      "arabic": "أَخْبَرَنَا أَبُو نُعَيْمٍ  وَحَجَّاجٌ ، عَنْ حَمَّادِ بْنِ سَلَمَةَ ، عَنْ يُونُسَ ، وَحُمَيْدٍ ، عَنْ الْحَسَنِ ، قَالَ :\" لَيْسَ فِي التَّرِيَّةِ شَيْءٌ بَعْدَ الْغُسْلِ إِلَّا الطُّهُورُ \"، قَالَ عَبْد اللَّهِ : التَّرِيَّةُ الصُّفْرَةُ وَالْكُدْرَةُ",
      "english": {
        "narrator": "",
        "text": ""
      }
    },
    {
      "id": 210,
      "chapterId": 1,
      "bookId": 9,
      "arabic": "حَدَّثَنَا حَجَّاجٌ  ، وَعَفَّانُ  ، قَالَا : حَدَّثَنَا حَمَّادٌ  ، عَنْ الْحَجَّاجِ  ، عَنْ أَبِي إِسْحَاق  ، عَنْ الْحَارِثِ  ، عَنْ عَلِيٍّ   رَضِيَ اللهُ عَنْهُ، أَنَّهُ قَالَ :\" إِذَا رَأَتْ الْمَرْأَةُ التَّرِيَّةَ بَعْدَ الْغُسْلِ بِيَوْمٍ أَوْ يَوْمَيْنِ، فَإِنَّهَا تَطَهَّرُ وَتُصَلِّي \"",
      "english": {
        "narrator": "",
        "text": ""
      }
    },
    {
      "id": 211,
      "chapterId": 1,
      "bookId": 9,
      "arabic": "أَخْبَرَنَا حَجَّاجٌ ، حَدَّثَنَا حَمَّادُ بْنُ سَلَمَةَ ، عَنْ قَيْسٍ ، عَنْ عَطَاءٍ ، قَالَ :\" لَيْسَ فِي التَّرِيَّةِ بَعْدَ الْغُسْلِ إِلَّا الطُّهُورُ \"",
      "english": {
        "narrator": "",
        "text": ""
      }
    },
    {
      "id": 212,
      "chapterId": 1,
      "bookId": 9,
      "arabic": "أَخْبَرَنَا حَجَّاجٌ  ، حَدَّثَنَا حَمَّادٌ  ، عَنْ قَتَادَةَ  ، عَنْ أُمِّ الْهُذَيْلِ  ، عَنْ أُمِّ عَطِيَّةَ   رَضِيَ اللهُ عَنْهَا، وَكَانَتْ قَدْ بَايَعَتْ النَّبِيَّ صَلَّى اللَّهُ عَلَيْهِ وَسَلَّمَ، أَنَّهَا قَالَتْ :\" كُنَّا لَا نَعْتَدُّ بِالْكُدْرَةِ وَالصُّفْرَةِ بَعْدَ الْغُسْلِ شَيْئًا \"",
      "english": {
        "narrator": "",
        "text": ""
      }
    },
    {
      "id": 213,
      "chapterId": 1,
      "bookId": 9,
      "arabic": "أَخْبَرَنَا حَجَّاجٌ ، حَدَّثَنَا حَمَّادٌ ، عَنْ يُونُسَ ، عَنْ الْحَسَنِ ، قَالَ :\" إِذَا رَأَتْ الْحَائِضُ دَمًا عَبِيطًا بَعْدَ الْغُسْلِ بِيَوْمٍ أَوْ يَوْمَيْنِ، فَإِنَّهَا تُمْسِكُ عَنْ الصَّلَاةِ يَوْمًا، ثُمَّ هِيَ بَعْدَ ذَلِكَ مُسْتَحَاضَةٌ \"",
      "english": {
        "narrator": "",
        "text": ""
      }
    },
    {
      "id": 214,
      "chapterId": 1,
      "bookId": 9,
      "arabic": "أَخْبَرَنَا عُبَيْدُ اللَّهِ بْنُ مُوسَى  ، عَنْ إِسْرَائِيلَ  ، عَنْ أَبِي إِسْحَاق  ، عَنْ الْحَارِثِ  ، عَنْ عَلِيٍّ   رَضِيَ اللهُ عَنْهُ، قَالَ :\" إِذَا تَطَهَّرَتْ الْمَرْأَةُ مِنْ الْمَحِيضِ، ثُمَّ رَأَتْ بَعْدَ الطُّهْرِ مَا يَرِيبُهَا، فَإِنَّمَا هِيَ رَكْضَةٌ مِنْ الشَّيْطَانِ فِي الرَّحِمِ، فَإِذَا رَأَتْ مِثْلَ الرُّعَافِ، أَوْ قَطْرَةِ الدَّمِ، أَوْ غُسَالَةِ اللَّحْمِ، تَوَضَّأَتْ وُضُوءَهَا لِلصَّلَاةِ، ثُمَّ تُصَلِّي فَإِنْ كَانَ دَمًا عَبِيطًا الَّذِي لَا خَفَاءَ بِهِ، فَلْتَدَعْ الصَّلَاةَ \"، قَالَ أَبُو مُحَمَّد : سَمِعْتُ يَزِيدَ بْنَ هَارُونَ، يَقُولُ : \" إِذَا كَانَ أَيَّامُ الْمَرْأَةِ سَبْعَةً، فَرَأَتْ الطُّهْرَ بَيَاضًا، فَتَزَوَّجَتْ ثُمَّ رَأَتْ الدَّمَ مَا بَيْنَهَا وَبَيْنَ الْعَشْرِ، فَالنِّكَاحُ جَائِزٌ صَحِيحٌ، فَإِنْ رَأَتْ الطُّهْرَ دُونَ السَّبْعِ، فَتَزَوَّجَتْ ثُمَّ رَأَتْ الدَّمَ، فَلَا يَجُوزُ، وَهُوَ حَيْضٌ \" ، وسُئِلَ عَبْد اللَّهِ : تَقُولُ بِهِ؟، قَالَ : نَعَمْ",
      "english": {
        "narrator": "",
        "text": ""
      }
    },
    {
      "id": 215,
      "chapterId": 1,
      "bookId": 9,
      "arabic": "أَخْبَرَنَا يَزِيدُ بْنُ هَارُونَ  ، عَنْ شَرِيكٍ  ، عَنْ أَبِي إِسْحَاق  ، عَنْ الْحَارِثِ  ، عَنْ عَلِيٍّ   رَضِيَ اللهُ عَنْهُ فِي الْمَرْأَةِ\" يَكُونُ حَيْضُهَا سِتَّةَ أَيَّامٍ، أَوْ سَبْعَةَ أَيَّامٍ، ثُمَّ تَرَى كُدْرَةً أَوْ صُفْرَةً، أَوْ تَرَى الْقَطْرَةَ أَوْ الْقَطْرَتَيْنِ مِنْ الدَّمِ، أَنَّ ذَلِكَ بَاطِلٌ وَلَا يَضُرُّهَا شَيْءٌ \"",
      "english": {
        "narrator": "",
        "text": ""
      }
    },
    {
      "id": 216,
      "chapterId": 1,
      "bookId": 9,
      "arabic": "حَدَّثَنَا أَبُو نُعَيْمٍ ، حَدَّثَنَا شَرِيكٌ ، عَنْ عَبْدِ الْكَرِيمِ ، قَالَ :\" سَأَلْتُ عَطَاءً  عَنْ الْمَرْأَةِ تَغْتَسِلُ مِنْ الْحَيْضِ، فَتَرَى الصُّفْرَةَ، قَالَ : تَوَضَّأُ وَتَنْضَحُ \"",
      "english": {
        "narrator": "",
        "text": ""
      }
    },
    {
      "id": 217,
      "chapterId": 1,
      "bookId": 9,
      "arabic": "أَخْبَرَنَا يَعْلَى ، حَدَّثَنَا عَبْدُ الْمَلِكِ ، عَنْ عَطَاءٍ  فِي الْمُسْتَحَاضَةِ، قَالَ :\" تَدَعُ الصَّلَاةَ فِي قُرُوئِهَا ذَلِكَ يَوْمًا أَوْ يَوْمَيْنِ، ثُمَّ تَغْتَسِلُ، فَإِذَا كَانَ عِنْدَ الْأُولَى نَظَرَتْ، فَإِنْ كَانَتْ تَرِيَّةً، تَوَضَّأَتْ وَصَلَّتْ، وَإِنْ كَانَ دَمًا، أَخَّرَتْ الظُّهْرَ وَعَجَّلَتْ الْعَصْرَ، ثُمَّ صَلَّتْهُمَا بِغُسْلٍ وَاحِدٍ، فَإِذَا غَابَتْ الشَّمْسُ نَظَرَتْ، فَإِنْ كَانَتْ تَرِيَّةً، تَوَضَّأَتْ وَصَلَّتْ، وَإِنْ كَانَ دَمًا، أَخَّرَتْ الْمَغْرِبَ وَعَجَّلَتْ الْعِشَاءَ، ثُمَّ صَلَّتْهُمَا بِغُسْلٍ وَاحِدٍ، فَإِذَا طَلَعَ الْفَجْرُ، نَظَرَتْ، فَإِنْ كَانَتْ تَرِيَّةً، تَوَضَّأَتْ وَصَلَّتْ، وَإِنْ كَانَ دَمًا، اغْتَسَلَتْ وَصَلَّتْ الْغَدَاةَ فِي كُلِّ يَوْمٍ وَلَيْلَةٍ ثَلَاثَ مَرَّاتٍ \"، قَالَ أَبُو مُحَمَّد : \" الْأَقْرَاءُ عِنْدِي : الْحَيْضُ \"",
      "english": {
        "narrator": "",
        "text": ""
      }
    },
    {
      "id": 218,
      "chapterId": 1,
      "bookId": 9,
      "arabic": "أَخْبَرَنَا يَحْيَى بْنُ يَحْيَى  ، حَدَّثَنَا خَالِدُ بْنُ عَبْدِ اللَّهِ  ، عَنْ خَالِدٍ الْحَذَّاءِ  ، عَنْ عِكْرِمَةَ  ، عَنْ عَائِشَةَ   رَضِيَ اللهُ عَنْهَا : أَنّ النَّبِيَّ صَلَّى اللَّهُ عَلَيْهِ وَسَلَّمَ\" اعْتَكَفَ، وَاعْتَكَفَ مَعَهُ بَعْضُ نِسَائِهِ وَهِيَ مُسْتَحَاضَةٌ تَرَى الدَّمَ، فَرُبَّمَا وَضَعَتْ الطَّسْتَ تَحْتَهَا مِنْ الدَّمِ \"، وَزَعَمَ أَنَّ عَائِشَةَ رَأَتْ مَاءَ الْعُصْفُرِ، فَقَالَتْ : \" كَأَنَّ هَذَا شَيْءٌ كَانَتْ فُلَانَةُ تَجِدُهُ \"",
      "english": {
        "narrator": "",
        "text": ""
      }
    },
    {
      "id": 219,
      "chapterId": 1,
      "bookId": 9,
      "arabic": "أَخْبَرَنَا أَبُو النُّعْمَانِ ، حَدَّثَنَا عَبْدُ الْوَاحِدِ ، عَنْ الْحَجَّاجِ ، قَالَ : سَأَلْتُ عَطَاءً  عَنْ الْمَرْأَةِ تَطْهُرُ مِنْ الْمَحِيضِ، ثُمَّ تَرَى الصُّفْرَةَ، قَالَ :\" تَوَضَّأُ \"",
      "english": {
        "narrator": "",
        "text": ""
      }
    },
    {
      "id": 220,
      "chapterId": 1,
      "bookId": 9,
      "arabic": "قَالَ أَبُو مُحَمَّد : قَرَأْتُ عَلَى زَيْدِ بْنِ يَحْيَى ، عَنْ مَالِكٍ هُوَ ابْنُ أَنَسٍ ، قَالَ : سَأَلْتُهُ عَنْ الْمَرْأَةِ كَانَ حَيْضُهَا سَبْعَةَ أَيَّامٍ، فَزَادَتْ حَيْضَتُهَا، قَالَ :\" تَسْتَظْهِرُ بِثَلَاثَةِ أَيَّامٍ \"",
      "english": {
        "narrator": "",
        "text": ""
      }
    },
    {
      "id": 221,
      "chapterId": 1,
      "bookId": 9,
      "arabic": "أَخْبَرَنَا مُحَمَّدُ بْنُ عِيسَى ، حَدَّثَنَا عَبَّادُ بْنُ عَوَّامٍ ، عَنْ هِشَامٍ ، عَنْ الْحَسَنِ ، قَالَ :\" إِذَا طَهُرَتْ الْمَرْأَةُ فِي وَقْتِ صَلَاةٍ، فَلَمْ تَغْتَسِلْ وَهِيَ قَادِرَةٌ عَلَى أَنْ تَغْتَسِلَ، قَضَتْ تِلْكَ الصَّلَاةَ \"",
      "english": {
        "narrator": "",
        "text": ""
      }
    },
    {
      "id": 222,
      "chapterId": 1,
      "bookId": 9,
      "arabic": "أَخْبَرَنَا مُحَمَّدُ بْنُ عِيسَى ، حَدَّثَنَا عَبْدُ الْوَارِثِ ، عَنْ عَمْرٍو ، عَنْ الْحَسَنِ ، قَالَ :\" إِذَا صَلَّتْ الْمَرْأَةُ رَكْعَتَيْنِ، ثُمَّ حَاضَتْ فَلَا تَقْضِي إِذَا طَهُرَتْ \"",
      "english": {
        "narrator": "",
        "text": ""
      }
    },
    {
      "id": 223,
      "chapterId": 1,
      "bookId": 9,
      "arabic": "أَخْبَرَنَا مُحَمَّدُ بْنُ عِيسَى ، حَدَّثَنَا الْمَعْمَرِيُّ أَبُو سُفْيَانَ مُحَمَّدُ بْنُ حُمَيْدٍ ، عَنْ مَعْمَرٍ ، عَنْ قَتَادَةَ ، قَالَ :.\nح حَدَّثَنَا أَبُو مُعَاوِيَةَ ، حَدَّثَنَا الْحَجَّاجُ ، عَنْ عَطَاءٍ  فِي الْمَرْأَةِ تَطْهُرُ عِنْدَ الظُّهْرِ، فَتُؤَخِّرُ غُسْلَهَا حَتَّى يَدْخُلَ وَقْتُ الْعَصْرِ، قَالَا :\" تَقْضِي الظُّهْرَ \"",
      "english": {
        "narrator": "",
        "text": ""
      }
    },
    {
      "id": 224,
      "chapterId": 1,
      "bookId": 9,
      "arabic": "أَخْبَرَنَا مُحَمَّدُ بْنُ عِيسَى ، حَدَّثَنَا هُشَيْمٌ ، أَخْبَرَنَا يُونُسُ ، عَنْ الْحَسَنِ ، وَمُغِيرَةُ ، عَنْ عَامِرٍ ، وَعُبَيْدَةُ ، عَنْ إِبْرَاهِيمَ ، فِي الْمَرْأَةِ تُفَرِّطُ فِي الصَّلَاةِ حَتَّى يُدْرِكَهَا الْحَيْضُ، قَالُوا :\" تُعِيدُ تِلْكَ الصَّلَاةَ \"",
      "english": {
        "narrator": "",
        "text": ""
      }
    },
    {
      "id": 225,
      "chapterId": 1,
      "bookId": 9,
      "arabic": "أَخْبَرَنَا حَجَّاجٌ ، حَدَّثَنَا حَمَّادٌ ، عَنْ حَمَّادِ بْنِ أَبِي سُلَيْمَانَ ، وَيُونُسَ ، عَنْ الْحَسَنِ ، فِي امْرَأَةٍ حَضَرَتْ الصَّلَاةُ فَفَرَّطَتْ حَتَّى حَاضَتْ، قَالَا :\" تَقْضِي تِلْكَ الصَّلَاةَ إِذَا اغْتَسَلَتْ \"",
      "english": {
        "narrator": "",
        "text": ""
      }
    },
    {
      "id": 226,
      "chapterId": 1,
      "bookId": 9,
      "arabic": "أَخْبَرَنَا سُلَيْمَانُ بْنُ دَاوُدَ الزَّهْرَانِيُّ ، حَدَّثَنَا أَبُو شِهَابٍ ، عَنْ هِشَامٍ ، عَنْ الْحَسَنِ ، وَقَتَادَةَ ، قَالَا :\" إِذَا ضَيَّعَتْ الْمَرْأَةُ الصَّلَاةَ حَتَّى تَحِيضَ، فَعَلَيْهَا الْقَضَاءُ إِذَا طَهُرَتْ \"",
      "english": {
        "narrator": "",
        "text": ""
      }
    },
    {
      "id": 227,
      "chapterId": 1,
      "bookId": 9,
      "arabic": "أَخْبَرَنَا أَبُو نُعَيْمٍ ، حَدَّثَنَا الْحَسَنُ ، عَنْ مُغِيرَةَ ، عَنْ الشَّعْبِيِّ ، قَالَ :\" إِذَا فَرَّطَتْ ثُمَّ حَاضَتْ، قَضَتْ \"",
      "english": {
        "narrator": "",
        "text": ""
      }
    },
    {
      "id": 228,
      "chapterId": 1,
      "bookId": 9,
      "arabic": "حَدَّثَنَا سَعِيدُ بْنُ الْمُغِيرَةِ ، قَالَ ابْنُ الْمُبَارَكِ : حَدَّثَنَا عَنْ يَعْقُوبَ ، عَنْ أَبِي يُوسُفَ ،  عَنْ سَعِيدِ بْنِ جُبَيْرٍ ، قَالَ :\" إِذَا حَاضَتْ الْمَرْأَةُ فِي وَقْتِ الصَّلَاةِ، فَلَيْسَ عَلَيْهَا الْقَضَاءُ \"، قَالَ أَبُو مُحَمَّد : يَعْقُوبُ هُوَ ابْنُ الْقَعْقَاعِ قَاضِي مَرْوٍ ، وَأَبُو يُوسُفَ شَيْخٌ مَكِّيٌّ",
      "english": {
        "narrator": "",
        "text": ""
      }
    },
    {
      "id": 229,
      "chapterId": 1,
      "bookId": 9,
      "arabic": "أَخْبَرَنَا حَجَّاجٌ  حَدَّثَنَا حَمَّادٌ  ، عَنْ حَجَّاجٍ  ، وَقَيْسٍ  ، عَنْ عَطَاءٍ  ، قَالَ :\" إِذَا طَهُرَتْ قَبْلَ الْمَغْرِبِ، صَلَّتْ الظُّهْرَ وَالْعَصْرَ، وَإِذَا طَهُرَتْ قَبْلَ الْفَجْرِ، صَلَّتْ الْمَغْرِبَ وَالْعِشَاءَ \"، أَخْبَرَنَا حَجَّاجٌ  ، حَدَّثَنَا حَمَّادٌ  ، عَنْ عَلِيِّ بْنِ زَيْدٍ  ، عَنْ سَعِيدِ بْنِ الْمُسَيِّبِ  ، مِثْلَهُ، أَخْبَرَنَا عَبْدُ اللَّهِ بْنُ مُحَمَّدٍ  ، عَنْ أَبِي بَكْرِ بْنِ عَيَّاشٍ  ، عَنْ يَزِيدَ بْنِ أَبِي زِيَادٍ  ، عَنْ مِقْسَمٍ  ، عَنْ ابْنِ عَبَّاسٍ   رَضِيَ اللهُ عَنهُمَا، مِثْلَهُ",
      "english": {
        "narrator": "",
        "text": ""
      }
    },
    {
      "id": 230,
      "chapterId": 1,
      "bookId": 9,
      "arabic": "أَخْبَرَنَا مُحَمَّدُ بْنُ عِيسَى ، حَدَّثَنَا هُشَيْمٌ ، حَدَّثَنَا يُونُسُ ، عَنْ الْحَسَنِ  فِي الْحَائِضِ\" تُصَلِّي الصَّلَاةَ الَّتِي طَهُرَتْ فِي وَقْتِهَا \"",
      "english": {
        "narrator": "",
        "text": ""
      }
    },
    {
      "id": 231,
      "chapterId": 1,
      "bookId": 9,
      "arabic": "أَخْبَرَنَا مُحَمَّدُ بْنُ يُوسُفَ ، حَدَّثَنَا ابْنُ عُيَيْنَةَ ، عَنْ ابْنِ أَبِي نَجِيحٍ ، عَنْ عَطَاءٍ ، وَطَاوُسٍ ، وَمُجَاهِدٍ ، قَالُوا :\" إِذَا طَهُرَتْ الْحَائِضُ قَبْلَ الْفَجْرِ، صَلَّتْ الْمَغْرِبَ وَالْعِشَاءَ، وَإِذَا طَهُرَتْ قَبْلَ غُرُوبِ الشَّمْسِ، صَلَّتْ الظُّهْرَ وَالْعَصْرَ \"",
      "english": {
        "narrator": "",
        "text": ""
      }
    },
    {
      "id": 232,
      "chapterId": 1,
      "bookId": 9,
      "arabic": "أَخْبَرَنَا مُحَمَّدُ بْنُ يُوسُفَ ، حَدَّثَنَا سُفْيَانُ ، عَنْ مَنْصُورٍ ، عَنْ الْحَكَمِ  فِي الْحَائِضِ\" إِذَا رَأَتْ الطُّهْرَ آخِرَ النَّهَارِ، صَلَّتْ الظُّهْرَ وَالْعَصْرَ، وَإِذَا طَهُرَتْ آخِرَ اللَّيْلِ، صَلَّتْ الْمَغْرِبَ وَالْعِشَاءَ \"، أَخْبَرَنَا مُحَمَّدُ بْنُ يُوسُفَ ، عَنْ سُفْيَانَ ، عَنْ لَيْثٍ ، عَنْ طَاوُسٍ ، مِثْلَهُ",
      "english": {
        "narrator": "",
        "text": ""
      }
    },
    {
      "id": 233,
      "chapterId": 1,
      "bookId": 9,
      "arabic": "أَخْبَرَنَا أَبُو زَيْدٍ سَعِيدُ بْنُ الرَّبِيعِ ، حَدَّثَنَا شُعْبَةُ ، عَنْ مُغِيرَةَ ، قَالَ : كَانَ إِبْرَاهِيمُ ، يَقُولُ :\" إِذَا طَهُرَتْ عِنْدَ الْعَصْرِ، صَلَّتْ الظُّهْرَ وَالْعَصْرَ \"",
      "english": {
        "narrator": "",
        "text": ""
      }
    },
    {
      "id": 234,
      "chapterId": 1,
      "bookId": 9,
      "arabic": "أَخْبَرَنَا أَبُو زَيْدٍ ، قَالَ : قَالَ شُعْبَةُ : سَأَلْتُ حَمَّادًا ، قَالَ :\" إِذَا طَهُرَتْ فِي وَقْتِ صَلَاةٍ صَلَّتْ \"",
      "english": {
        "narrator": "",
        "text": ""
      }
    },
    {
      "id": 235,
      "chapterId": 1,
      "bookId": 9,
      "arabic": "أَخْبَرَنَا حَجَّاجٌ  ، حَدَّثَنَا حَمَّادٌ  ، عَنْ يُونُسَ  ، وَحُمَيْدٍ  ، عَنْ الْحَسَنِ  ، عَنْ أَنَسٍ   رَضِيَ اللهُ عَنْهُ، قَالَ :\" إِذَا طَهُرَتْ فِي وَقْتِ صَلَاةٍ، صَلَّتْ تِلْكَ الصَّلَاةَ، وَلَا تُصَلِّي غَيْرَهَا \"",
      "english": {
        "narrator": "",
        "text": ""
      }
    },
    {
      "id": 236,
      "chapterId": 1,
      "bookId": 9,
      "arabic": "قَالَ أَبُو مُحَمَّد : قَرَأْتُ عَلَى زَيْدِ بْنِ يَحْيَى ، عَنْ مَالِكٍ ، قَالَ : سَأَلْتُهُ عَنْ الْمَرْأَةِ تَطْهُرُ بَعْدَ الْعَصْرِ، قَالَ :\" تُصَلِّي الظُّهْرَ وَالْعَصْرَ \"، قُلْتُ : فَإِنْ كَانَ طُهْرُهَا قَرِيبًا مِنْ مَغِيبِ الشَّمْسِ، قَالَ : \" تُصَلِّي الْعَصْرَ وَلَا تُصَلِّي الظُّهْرَ، وَلَوْ أَنَّهَا لَمْ تَطْهُرْ حَتَّى تَغِيبَ الشَّمْسُ، لَمْ يَكُنْ عَلَيْهَا شَيْءٌ \"، سُئِلَ عَبْد اللَّهِ تَأْخُذُ بِهِ؟، قَالَ : لَا",
      "english": {
        "narrator": "",
        "text": ""
      }
    },
    {
      "id": 237,
      "chapterId": 1,
      "bookId": 9,
      "arabic": "أَخْبَرَنَا مُحَمَّدُ بْنُ يُوسُفَ  ، حَدَّثَنَا سُفْيَانُ  ، عَنْ أَشْعَثَ بْنِ أَبِي الشَّعْثَاءِ الْمُحَارِبِيِّ  ، عَنْ سَعِيدِ بْنِ جُبَيْرٍ  ، عَنْ ابْنِ عَبَّاسٍ  رَضِيَ اللهُ عَنْهُمَا، قَالَ : كَتَبَتْ إِلَيْهِ امْرَأَةٌ : إِنِّي قَدْ اسْتُحِضْتُ مُنْذُ كَذَا وَكَذَا، فَبَلَغَنِي أَنَّ عَلِيًّا   رَضِيَ اللهُ عَنْهُ، قَالَ :\" تَغْتَسِلُ عِنْدَ كُلِّ صَلَاةٍ \"، قَالَ ابْنُ عَبَّاسٍ : \" مَا نَجِدُ لَهَا غَيْرَ مَا قَالَ عَلِيٌّ \"",
      "english": {
        "narrator": "",
        "text": ""
      }
    },
    {
      "id": 238,
      "chapterId": 1,
      "bookId": 9,
      "arabic": "أَخْبَرَنَا مُحَمَّدُ بْنُ يُوسُفَ ، حَدَّثَنَا الْأَوْزَاعِيُّ ، عَنْ يَحْيَى بْنِ أَبِي كَثِيرٍ ، قَالَ : حَدَّثَنِي أَبُو سَلَمَةَ ، أَوْ عِكْرِمَةُ ، قَالَ : كَانَتْ زَيْنَبُ تَعْتَكِفُ مَعَ النَّبِيِّ صَلَّى اللَّهُ عَلَيْهِ وَسَلَّمَ وَهِيَ تُرِيقُ الدَّمَ، فَأَمَرَهَا أَنْ\" تَغْتَسِلَ عِنْدَ كُلِّ صَلَاةٍ \"",
      "english": {
        "narrator": "",
        "text": ""
      }
    },
    {
      "id": 239,
      "chapterId": 1,
      "bookId": 9,
      "arabic": "أَخْبَرَنَا مُحَمَّدُ بْنُ يُوسُفَ  ، حَدَّثَنَا الْأَوْزَاعِيُّ  ، عَنْ يَحْيَى بْنِ أَبِي كَثِيرٍ  ، أَنَّ عَلِيًّا  ، وَابْنَ مَسْعُودٍ   رَضِيَ اللهُ عَنْهُمَا كَانَا، يَقُولَانِ :\" الْمُسْتَحَاضَةُ تَغْتَسِلُ عِنْدَ كُلِّ صَلَاةٍ \"",
      "english": {
        "narrator": "",
        "text": ""
      }
    },
    {
      "id": 240,
      "chapterId": 1,
      "bookId": 9,
      "arabic": "أَخْبَرَنَا مُحَمَّدُ بْنُ يُوسُفَ ، حَدَّثَنَا الْأَوْزَاعِيُّ ، قَالَ : سَمِعْتُ عَطَاءَ بْنَ أَبِي رَبَاحٍ ، يَقُولُ :\" تَغْتَسِلُ بَيْنَ كُلِّ صَلَاتَيْنِ غُسْلًا وَاحِدًا، وَتَغْتَسِلُ لِلْفَجْرِ غُسْلًا وَاحِدًا \"، قَالَ الْأَوْزَاعِيُّ : وَكَانَ الزُّهْرِيُّ، وَمَكْحُولٌ، يَقُولَانِ : \" تَغْتَسِلُ عِنْدَ كُلِّ صَلَاةٍ \"",
      "english": {
        "narrator": "",
        "text": ""
      }
    },
    {
      "id": 241,
      "chapterId": 1,
      "bookId": 9,
      "arabic": "أَخْبَرَنَا يَزِيدُ بْنُ هَارُونَ  ، وَوَهْبُ بْنُ جَرِيرٍ  ، عَنْ هِشَامٍ  صَاحِبِ الدَّسْتَوَائِيِّ، عَنْ يَحْيَى بْنِ أَبِي كَثِيرٍ  ، عَنْ أَبِي سَلَمَةَ  ، أَنَّ أُمَّ حَبِيبَةَ ، قَالَ وَهْبٌ : أُمَّ حَبِيبَةَ بِنْتَ جَحْشٍ كَانَتْ تُهَرَاقُ الدَّمَ، وَإِنَّهَا سَأَلَتْ النَّبِيَّ صَلَّى اللَّهُ عَلَيْهِ وَسَلَّمَ عَنْ ذَاكَ، فَأَمَرَهَا\" أَنْ تَغْتَسِلَ عِنْدَ كُلِّ صَلَاةٍ وَتُصَلِّيَ \"",
      "english": {
        "narrator": "",
        "text": ""
      }
    },
    {
      "id": 242,
      "chapterId": 1,
      "bookId": 9,
      "arabic": "أَخْبَرَنَا عَبْدُ الصَّمَدِ بْنُ عَبْدِ الْوَارِثِ  ، حَدَّثَنَا شُعْبَةُ  ، حَدَّثَنَا أَبُو بِشْرٍ  ، قَالَ : سَمِعْتُ سَعِيدَ بْنَ جُبَيْرٍ  ، يَقُولُ : كَتَبَتْ امْرَأَةٌ إِلَى ابْنِ عَبَّاسٍ  ، وَابْنِ الزُّبَيْرِ  رَضِيَ اللهُ عَنْهُمَا : إِنِّي أُسْتَحَاضُ فَلَا أَطْهُرُ، وَإِنِّي أُذَكِّرُكُمَا اللَّهَ إِلَّا أَفْتَيْتُمَانِي، وَإِنِّي سَأَلْتُ عَنْ ذَلِكَ، فَقَالُوا  : كَانَ عَلِيٌّ  ، يَقُولُ :\" تَغْتَسِلُ لِكُلِّ صَلَاةٍ \"، فَقَرَأْتُ، وَكَتَبْتُ الْجَوَابَ بِيَدِي مَا أَجِدُ لَهَا إِلَّا مَا قَالَ عَلِيٌّ، فَقِيلَ : إِنَّ الْكُوفَةَ أَرْضٌ بَارِدَةٌ، فَقَالَ : \" لَوْ شَاءَ اللَّهُ لَابْتَلَاهَا بِأَشَدَّ مِنْ ذَلِكَ \"، أَخْبَرَنَا حَجَّاجُ بْنُ مِنْهَالٍ  ، حَدَّثَنَا حَمَّادٌ  ، عَنْ قَيْسٍ  ، عَنْ مُجَاهِدٍ  ، قَالَ : قِيلَ لِابْنِ عَبَّاسٍ   رَضِيَ اللهُ عَنْهُمَا : إِنَّ أَرْضَهَا أَرْضٌ بَارِدَةٌ، فَقَالَ : \" تُؤَخِّرُ الظُّهْرَ وَتُعَجِّلُ الْعَصْرَ، وَتَغْتَسِلُ غُسْلًا، وَتُؤَخِّرُ الْمَغْرِبَ، وَتُعَجِّلُ الْعِشَاءَ، وَتَغْتَسِلُ غُسْلًا، وَتَغْتَسِلُ لِلْفَجْرِ غُسْلًا \"",
      "english": {
        "narrator": "",
        "text": ""
      }
    },
    {
      "id": 243,
      "chapterId": 1,
      "bookId": 9,
      "arabic": "أَخْبَرَنَا حَجَّاجٌ  ، حَدَّثَنَا حَمَّادٌ  ، عَنْ هِشَامِ بْنِ عُرْوَةَ  ، عَنْ أَبِيهِ  ، عَنْ زَيْنَبَ بِنْتِ أُمِّ سَلَمَةَ   رَضِيَ اللهُ عَنْهَا : أَنَّ ابْنَةَ جَحْشٍ كَانَتْ تَحْتَ عَبْدِ الرَّحْمَنِ بْنِ عَوْفٍ\" وَكَانَتْ تُسْتَحَاضُ، فَكَانَتْ تَخْرُجُ مِنْ مِرْكَنِهَا وَإِنَّهُ لَعَالِيهِ الدَّمُ فَتُصَلِّي \"",
      "english": {
        "narrator": "",
        "text": ""
      }
    },
    {
      "id": 244,
      "chapterId": 1,
      "bookId": 9,
      "arabic": "أَخْبَرَنَا وَهْبُ بْنُ سَعِيدٍ الدِّمَشْقِيُّ ، عَنْ شُعَيْبِ بْنِ إِسْحَاق ، حَدَّثَنَا الْأَوْزَاعِيُّ ، قَالَ : سَمِعْتُ الزُّهْرِيَّ ، وَيَحْيَى بْنَ أَبِي كَثِيرٍ ، يَقُولَانِ :\" تُفْرِدُ لِكُلِّ صَلَاةٍ اغْتِسَالَةً \"، قَالَ الْأَوْزَاعِيُّ : وَبَلَغَنِي عَنْ مَكْحُولٍ، مِثْلُ ذَلِكَ",
      "english": {
        "narrator": "",
        "text": ""
      }
    },
    {
      "id": 245,
      "chapterId": 1,
      "bookId": 9,
      "arabic": "أَخْبَرَنَا وَهْبُ بْنُ سَعِيدٍ  ، عَنْ شُعَيْبٍ  ، حَدَّثَنَا الْأَوْزَاعِيُّ  ، أَخْبَرَنِي عَطَاءٌ  ، أَنَّ ابْنَ عَبَّاسٍ   رَضِيَ اللهُ عَنْهُ كَانَ، يَقُولُ :\" لِكُلِّ صَلَاتَيْنِ اغْتِسَالَةٌ، وَتُفْرِدُ لِصَلَاةِ الصُّبْحِ اغْتِسَالَةً \"",
      "english": {
        "narrator": "",
        "text": ""
      }
    },
    {
      "id": 246,
      "chapterId": 1,
      "bookId": 9,
      "arabic": "أَخْبَرَنَا حَجَّاجٌ ، حَدَّثَنَا حَمَّادٌ ، عَنْ حَمَّادٍ الْكُوفِيِّ ، أَنَّ امْرَأَةً سَأَلَتْ إِبْرَاهِيمَ ، فَقَالَتْ : إِنِّي أُسْتَحَاضُ، فَقَالَ :\" عَلَيْكِ بِالْمَاءِ فَانْضَحِيهِ، فَإِنَّهُ يَقْطَعُ الدَّمَ عَنْكِ \"",
      "english": {
        "narrator": "",
        "text": ""
      }
    },
    {
      "id": 247,
      "chapterId": 1,
      "bookId": 9,
      "arabic": "أَخْبَرَنَا عَفَّانُ بْنُ مُسْلِمٍ ، حَدَّثَنَا مُحَمَّدُ بْنُ دِينَارٍ ، حَدَّثَنَا يُونُسُ ، عَنْ الْحَسَنِ  فِي الْمُطَلَّقَةِ الَّتِي ارْتِيبَ بِهَا\" تَرَبَّصُ سَنَةً، فَإِنْ حَاضَتْ وَإِلَّا تَرَبَّصَتْ بَعْدَ انْقِضَاءِ السَّنَةِ ثَلَاثَةَ أَشْهُرٍ، فَإِنْ حَاضَتْ وَإِلَّا فَقَدْ انْقَضَتْ عِدَّتُهَا \"",
      "english": {
        "narrator": "",
        "text": ""
      }
    },
    {
      "id": 248,
      "chapterId": 1,
      "bookId": 9,
      "arabic": "أَخْبَرَنَا عَبْدُ اللَّهِ بْنُ مَسْلَمَةَ ، قَالَ : سُئِلَ مَالِكٌ عَنْ عِدَّةِ الْمُسْتَحَاضَةِ إِذَا طُلِّقَتْ ، فَحَدَّثَنَا مَالِكٌ ، عَنْ ابْنِ شِهَابٍ ، عَنْ سَعِيدِ بْنِ الْمُسَيِّبِ ، أَنَّهُ قَالَ :\" عِدَّتُهَا سَنَةٌ \"، قَالَ أَبُو مُحَمَّد : هُوَ قَوْلُ مَالِكٍ",
      "english": {
        "narrator": "",
        "text": ""
      }
    },
    {
      "id": 249,
      "chapterId": 1,
      "bookId": 9,
      "arabic": "أَخْبَرَنَا أَبُو النُّعْمَانِ ، حَدَّثَنَا حَمَّادُ بْنُ زَيْدٍ ، حَدَّثَنَا عَمْرُو بْنُ دِينَارٍ ، قَالَ : سُئِلَ جَابِرُ بْنُ زَيْدٍ  عَنْ الْمَرْأَةِ تُطَلَّقُ وَهِيَ الشَّابَّةٌ فترتفع حيضتها من غير كبر، قَالَ :\" مِنْ غَيْرِ حَيْضٍ تَحَيَّضُ؟ ! \"، وَقَالَ طَاوُسٌ  : \" ثَلَاثَةَ أَشْهُرٍ \"",
      "english": {
        "narrator": "",
        "text": ""
      }
    },
    {
      "id": 250,
      "chapterId": 1,
      "bookId": 9,
      "arabic": "أَخْبَرَنَا نَصْرُ بْنُ عَلِيٍّ ، حَدَّثَنَا عَبْدُ الْأَعْلَى ، عَنْ مَعْمَرٍ ، عَنْ الزُّهْرِيِّ ، قَالَ :\" إِذَا طَلَّقَ الرَّجُلُ امْرَأَتَهُ فَحَاضَتْ حَيْضَةً أَوْ حَيْضَتَيْنِ، ثُمَّ ارْتَفَعَتْ حَيْضَتُهَا إِنْ كَانَ ذَلِكَ مِنْ كِبَرٍ، اعْتَدَّتْ ثَلَاثَةَ أَشْهُرٍ، وَإِنْ كَانَتْ شَابَّةً وَارْتَابَتْ، اعْتَدَّتْ سَنَةً بَعْدَ الرِّيبَةِ \"",
      "english": {
        "narrator": "",
        "text": ""
      }
    }
  ]
}