{
  "page": 50,
  "perPage": 50,
  "totalPages": 69,
  "totalCount": 3406,
  "nextPage": 51,
  "prevPage": 49,
  "items": [
    {
      "id": 16,
      "chapterId": 22,
      "bookId": 9,
      "arabic": "أَخْبَرَنَا يَزِيدُ بْنُ هَارُونَ ، عَنْ دَاوُدَ بْنِ أَبِي هِنْدٍ ، عَنْ عَامِرٍ ،  عَنْ شُرَيْحٍ  : \" فِي الرَّجُلِ يُوصِي بِأَكْثَرَ مِنْ ثُلُثِهِ، قَالَ :إِنْ أَجَازَتْهُ الْوَرَثَةُ، أَجَزْنَاهُ، وَإِنْ قَالَتِ الْوَرَثَةُ : أَجَزْنَاهُ، فَهُمْ بِالْخِيَارِ إِذَا نَفَضُوا أَيْدِيَهُمْ مِنْ الْقَبْرِ \"",
      "english": {
        "narrator": "",
        "text": ""
      }
    },
    {
      "id": 17,
      "chapterId": 22,
      "bookId": 9,
      "arabic": "حَدَّثَنَا أَبُو نُعَيْمٍ  ، حَدَّثَنَا الْمَسْعُودِيُّ  ، عَنْ أَبِي عَوْنٍ  ، عَنْ الْقَاسِمِ  : \" أَنَّ رَجُلًا اسْتَأْذَنَ وَرَثَتَهُ أَنْ يُوصِيَ بِأَكْثَرَ مِنَ الثُّلُثِ، فَأَذِنُوا لَهُ، ثُمَّ رَجَعُوا فِيهِ بَعْدَ مَا مَاتَ، فَسُئِلَ عَبْدُ اللَّهِ   عَنْ ذَلِكَ، فَقَالَ :هَذَا التَّكَرُّهُ لَا يَجُوزُ \"",
      "english": {
        "narrator": "",
        "text": ""
      }
    },
    {
      "id": 18,
      "chapterId": 22,
      "bookId": 9,
      "arabic": "حَدَّثَنَا أَبُو النُّعْمَانِ  ، حَدَّثَنَا حَمَّادُ بْنُ زَيْدٍ  ، عَنْ هِشَامٍ  ، عَنْ الْحَسَنِ   : \" فِي الرَّجُلِ يُوصِي بِأَكْثَرَ مِنْ الثُّلُثِ فَرَضِيَ الْوَرَثَةُ، قَالَ :هُوَ جَائِزٌ \".\nقَالَ أَبُو مُحَمَّد : أَجَزْنَاهُ يَعْنِي فِي الْحَيَاةِ",
      "english": {
        "narrator": "",
        "text": ""
      }
    },
    {
      "id": 19,
      "chapterId": 22,
      "bookId": 9,
      "arabic": "حَدَّثَنَا أَبُو الْوَلِيدِ الطَّيَالِسِيُّ  ، حَدَّثَنَا هَمَّامٌ  ، حَدَّثَنَا قَتَادَةُ  ، عَنْ يُونُسَ بْنِ جُبَيْرٍ  ، عَنْ مُحَمَّدِ بْنِ سَعْدٍ  ، عَنْ أَبِيهِ   : أَنّ النَّبِيَّ صَلَّى اللَّهُ عَلَيْهِ وَسَلَّمَ دَخَلَ عَلَيْهِ وَهُوَ بِمَكَّةَ ، وَلَيْسَ لَهُ إِلَّا ابْنَةٌ، فَقُلْتُ لَهُ : \" إِنَّهُ لَيْسَ لِي إِلَّا ابْنَةٌ وَاحِدَةٌ، فَأُوصِي بِمَالِي كُلِّهِ؟ فَقَالَ النَّبِيُّ صَلَّى اللَّهُ عَلَيْهِ وَسَلَّمَ : لَا، قُلْتُ : فَأُوصِي بِالنِّصْفِ؟ فَقَالَ لَهُ النَّبِيُّ صَلَّى اللَّهُ عَلَيْهِ وَسَلَّمَ : لَا، قَالَ : فَأُوصِي بِالثُّلُثِ؟ قَالَ : فَقَالَ رَسُولُ اللَّهِ صَلَّى اللَّهُ عَلَيْهِ وَسَلَّمَ :الثُّلُثُ، وَالثُّلُثُ كَثِيرٌ \"",
      "english": {
        "narrator": "",
        "text": ""
      }
    },
    {
      "id": 20,
      "chapterId": 22,
      "bookId": 9,
      "arabic": "أَخْبَرَنَا يَزِيدُ بْنُ هَارُونَ  ، حَدَّثَنَا مُحَمَّدُ بْنُ إِسْحَاق  ، عَنْ الزُّهْرِيِّ  ، عَنْ عَامِرِ بْنِ سَعْدٍ  ، عَنْ أَبِيهِ  ، قَالَ : \" اشْتَكَيْتُ مَعَ النَّبِيِّ صَلَّى اللَّهُ عَلَيْهِ وَسَلَّمَ فِي حَجَّةِ الْوَدَاعِ حَتَّى أُدْنِفْتُ، فَدَخَلَ عَلَيَّ رَسُولُ اللَّهِ صَلَّى اللَّهُ عَلَيْهِ وَسَلَّمَ يَعُودُنِي، فَقُلْتُ : يَا رَسُولَ اللَّهِ، مَا أُرَانِي إِلَّا أَلَمَّ بِي وَأَنَا ذُو مَالٍ كَثِيرٍ، وَإِنَّمَا يَرِثُنِي ابْنَةٌ لِي، أَفَأَتَصَدَّقُ بِمَالِي كُلِّهِ؟ قَالَ : لَا، قُلْتُ : فَبِنِصْفِهِ؟ قَال : لَا، قُلْتُ : فَالثُّلُثِ؟ قَالَ :الثُّلُثُ، وَالثُّلُثُ كَثِيرٌ، إِنَّكَ إِنْ تَتْرُكْ وَرَثَتَكَ أَغْنِيَاءَ، خَيْرٌ مِنْ أَنْ تَتْرُكَهُمْ فُقَرَاءَ يَتَكَفَّفُونَ النَّاسَ بِأَيْدِيهِمْ، وَإِنَّكَ لَا تُنْفِقُ نَفَقَةً إِلَّا آجَرَكَ اللَّهُ فِيهَا، حَتَّى مَا تَجْعَلُ فِي فِي امْرَأَتِكَ \"",
      "english": {
        "narrator": "",
        "text": ""
      }
    },
    {
      "id": 21,
      "chapterId": 22,
      "bookId": 9,
      "arabic": "حَدَّثَنَا سُلَيْمَانُ بْنُ حَرْبٍ ، حَدَّثَنَا حَمَّادُ بْنُ زَيْدٍ ، عَنْ إِسْحَاق بْنِ سُوَيْدٍ ،  عَنْ الْعَلَاءِ بْنِ زِيَادٍ : \" أَنَّ أَبَاهُ زِيَادَ بْنَ مَطَرٍ  أَوْصَى، فَقَالَ :وَصِيَّتِي مَا اتَّفَقَ عَلَيْهِ فُقَهَاءُ أَهْلِ الْبَصْرَةِ ، فَسَأَلْتُ، فَاتَّفَقُوا عَلَى الْخُمُسِ \"",
      "english": {
        "narrator": "",
        "text": ""
      }
    },
    {
      "id": 22,
      "chapterId": 22,
      "bookId": 9,
      "arabic": "حَدَّثَنَا سُلَيْمَانُ بْنُ حَرْبٍ  ، حَدَّثَنَا حَمَّادُ بْنُ زَيْدٍ  ، عَنْ إِسْحَاق بْنِ سُوَيْدٍ  ، عَنْ الْعَلَاءِ بْنِ زِيَادٍ  : أَنَّ رَجُلًا سَأَلَ عُمَرَ بْنَ الْخَطَّابِ  ، فَقَالَ : \" إِنَّ وَارِثِي كَلَالَةٌ، فَأُوصِي بِالنِّصْفِ؟ قَالَ : لَا، قَالَ : فَالثُّلُثِ؟ قَالَ : لَا، قَالَ : فَالرُّبُع؟ قَالَ : لَا، قَالَ : فَالْخُمُس؟ قَالَ : لَا، حَتَّى صَارَ إِلَى الْعُشْرِ، فَقَالَ :أَوْصِ بِالْعُشْرِ \"",
      "english": {
        "narrator": "",
        "text": ""
      }
    },
    {
      "id": 23,
      "chapterId": 22,
      "bookId": 9,
      "arabic": "حَدَّثَنَا يَعْلَى ، حَدَّثَنَا إِسْمَاعِيل ، عَنْ عَامِرٍ ، قَالَ :\" إِنَّمَا كَانُوا يُوصُونَ بِالْخُمُسِ وَالرُّبُعِ، وَكَانَ الثُّلُثُ مُنْتَهَى الْجَامِحِ.\nقَالَ أَبُو مُحَمَّد : يَعْنِي بِالْجَامِحِ : الْفَرَسَ الْجَمُوحَ",
      "english": {
        "narrator": "",
        "text": ""
      }
    },
    {
      "id": 24,
      "chapterId": 22,
      "bookId": 9,
      "arabic": "حَدَّثَنَا سُلَيْمَانُ بْنُ حَرْبٍ ، حَدَّثَنَا حَمَّادُ بْنُ سَلَمَةَ ، عَنْ حُمَيْدٍ ، عَنْ بَكْرٍ ، قَالَ : \" أَوْصَيْتُ إِلَى حُمَيْدِ بْنِ عَبْدِ الرَّحْمَنِ ، فَقَالَ :مَا كُنْتُ لِأَقْبَلَ وَصِيَّةَ رَجُلٍ لَهُ وَلَدٌ يُوصِي بِالثُّلُثِ \"",
      "english": {
        "narrator": "",
        "text": ""
      }
    },
    {
      "id": 25,
      "chapterId": 22,
      "bookId": 9,
      "arabic": "حَدَّثَنَا قَبِيصَةُ ، أَخْبَرَنَا سُفْيَانُ ، عَنْ هِشَامٍ ، عَنْ مُحَمَّدِ بْنِ سِيرِينَ ، عَنْ شُرَيْحٍ ، قَالَ :\" الثُّلُثُ جَهْدٌ وَهُوَ جَائِزٌ \"",
      "english": {
        "narrator": "",
        "text": ""
      }
    },
    {
      "id": 26,
      "chapterId": 22,
      "bookId": 9,
      "arabic": "حَدَّثَنَا عُبَيْدُ اللَّهِ ، عَنْ إِسْرَائِيلَ ، عَنْ مَنْصُورٍ ، عَنْ إِبْرَاهِيمَ ، قَالَ :\" كَانَ السُّدُسُ أَحَبَّ إِلَيْهِمْ مِنْ الثُّلُثِ \"",
      "english": {
        "narrator": "",
        "text": ""
      }
    },
    {
      "id": 27,
      "chapterId": 22,
      "bookId": 9,
      "arabic": "حَدَّثَنَا أَبُو الْوَلِيدِ ، حَدَّثَنَا شَرِيكٌ ، عَنْ مُغِيرَةَ ، عَنْ إِبْرَاهِيمَ ، قَالَ :\" الْوَصِيُّ أَمِينٌ فِيمَا أُوصِيَ إِلَيْهِ بِهِ \"",
      "english": {
        "narrator": "",
        "text": ""
      }
    },
    {
      "id": 28,
      "chapterId": 22,
      "bookId": 9,
      "arabic": "حَدَّثَنَا مُحَمَّدُ بْنُ الْمُبَارَكِ ، حَدَّثَنَا يَحْيَى بْنُ حَمْزَةَ ، عَنْ أبي وَهْبٍ ، عَنْ مَكْحُولٍ ، قَالَ :\" أَمْرُ الْوَصِيِّ جَائِزٌ فِي كُلِّ شَيْءٍ، إِلَّا فِي الِابْتِيَاعِ، وَإِذَا بَاعَ بَيْعًا لَمْ يُقِلْ \"، وَهُوَ رَأْيُ يَحْيَى بْنِ حَمْزَةَ",
      "english": {
        "narrator": "",
        "text": ""
      }
    },
    {
      "id": 29,
      "chapterId": 22,
      "bookId": 9,
      "arabic": "حَدَّثَنَا مُحَمَّدُ بْنُ الْمُبَارَكِ ، حَدَّثَنَا الْوَلِيدُ ، عَنْ الْأَوْزَاعِيِّ ،  عَنْ يَحْيَى بْنِ أَبِي كَثِيرٍ ، قَالَ :\" الْوَصِيُّ أَمِينٌ فِي كُلِّ شَيْءٍ، إِلَّا فِي الْعِتْقِ، فَإِنَّ عَلَيْهِ أَنْ يُقِيمَ الْوَلَاءَ \"",
      "english": {
        "narrator": "",
        "text": ""
      }
    },
    {
      "id": 30,
      "chapterId": 22,
      "bookId": 9,
      "arabic": "حَدَّثَنَا عُبَيْدُ اللَّهِ ، عَنْ إِسْرَائِيلَ ، عَنْ مَنْصُورٍ ، عَنْ إِبْرَاهِيمَ  : \" فِي مَالِ الْيَتِيمِيَعْمَلُ بِهِ الْوَصِيُّ إِذَا أَوْصَى إِلَى الرَّجُلِ \"",
      "english": {
        "narrator": "",
        "text": ""
      }
    },
    {
      "id": 31,
      "chapterId": 22,
      "bookId": 9,
      "arabic": "حَدَّثَنَا مُحَمَّدُ بْنُ الصَّلْتِ  ، حَدَّثَنَا مُوسَى بْنُ مُحَمَّدٍ  ، عَنْ إِسْمَاعِيل  ، عَنْ الْحَسَنِ  ، قَالَ :\" وَصِيُّ الْيَتِيمِ يَأْخُذُ لَهُ بِالشُّفْعَةِ، وَالْغَائِبُ عَلَى شُفْعَتِهِ \"",
      "english": {
        "narrator": "",
        "text": ""
      }
    },
    {
      "id": 32,
      "chapterId": 22,
      "bookId": 9,
      "arabic": "أَخْبَرَنَا مُحَمَّدُ بْنُ الْمُبَارَكِ ، حَدَّثَنَا يَحْيَى بْنُ حَمْزَةَ ، عَنْ عِكْرِمَةَ شَيْخٍ مِنْ أَهْلِ دِمَشْقَ ، قَالَ : \" كُنْتُ عِنْدَ عُمَرَ بْنِ عَبْدِ الْعَزِيزِ، وَعِنْدَهُ سُلَيْمَانُ بْنُ حَبِيبٍ، وَأَبُو قِلَابَةَ ، إِذْ دَخَلَ غُلَامٌ، فَقَالَ :أَرْضُنَا بِمَكَانِ كَذَا وَكَذَا، بَاعَكُمْ الْوَصِيُّ وَنَحْنُ أَطْفَالٌ، فَالْتَفَتَ إِلَى سُلَيْمَانَ بْنِ حَبِيبٍ، فَقَالَ : مَا تَقُولُ؟ قَالَ : فَأَضْجَعَ فِي الْقَوْلِ، فَالْتَفَتَ إِلَى أَبِي قِلَابَةَ، فَقَالَ : مَا تَقُولُ؟ قَالَ : رُدَّ عَلَى الْغُلَامِ أَرْضَهُ، قَالَ : إِذًا يَهْلِكُ مَالُنَا؟ قَالَ : أَنْتَ أَهْلَكْتَهُ \"",
      "english": {
        "narrator": "",
        "text": ""
      }
    },
    {
      "id": 33,
      "chapterId": 22,
      "bookId": 9,
      "arabic": "أَخْبَرَنَا إِبْرَاهِيمُ بْنُ مُوسَى  ، عَنْ مُحَمَّدِ بْنِ عَبْدِ اللَّهِ  ، عَنْ أَشْعَثَ  ، عَنْ الْحَسَنِ   : \" فِي رَجُلٍ أَوْصَى لِرَجُلٍ بِنِصْفِ مَالِهِ، وَلِآخَرَ بِثُلُثِ مَالِهِ، قَالَ :يَضْرِبَانِ بِذَلِكَ فِي الثُّلُثِ : هَذَا بِالنِّصْفِ، وَهَذَا بِالثُّلُث \"",
      "english": {
        "narrator": "",
        "text": ""
      }
    },
    {
      "id": 34,
      "chapterId": 22,
      "bookId": 9,
      "arabic": "حَدَّثَنَا أَبُو الْوَلِيدِ الطَّيَالِسِيُّ ، حَدَّثَنَا زَائِدَةُ ، عَنْ الشَّيْبَانِيِّ ، عَنْ الشَّعْبِيِّ ، قَالَ :\" يُغَيِّرُ صَاحِبُ الْوَصِيَّةِ مِنْهَا مَا شَاءَ، غَيْرَ الْعَتَاقَةِ \"",
      "english": {
        "narrator": "",
        "text": ""
      }
    },
    {
      "id": 35,
      "chapterId": 22,
      "bookId": 9,
      "arabic": "حَدَّثَنَا أَبُو الْوَلِيدِ الطَّيَالِسِيُّ  ، حَدَّثَنَا هَمَّامٌ  ، حَدَّثَنَا قَتَادَةُ  ، عَنْ عَمْرِو بْنِ شُعَيْبٍ  ، عَنْ عَبْدِ اللَّهِ بْنِ أَبِي رَبِيعَةَ  : \" أَنَّ عُمَرَ بْنَ الْخَطَّابِ  ، قَالَ :\" يُحْدِثُ الرَّجُلُ فِي وَصِيَّتِهِ مَا شَاءَ، وَمِلَاكُ الْوَصِيَّةِ آخِرُهَا \"",
      "english": {
        "narrator": "",
        "text": ""
      }
    },
    {
      "id": 36,
      "chapterId": 22,
      "bookId": 9,
      "arabic": "حَدَّثَنَا سَهْلُ بْنُ حَمَّادٍ ، حَدَّثَنَا هَمَّامٌ ، قَالَ : حَدَّثَنِي قَتَادَةُ ، قَالَ : حَدَّثَنِي عَمْرُو بْنُ دِينَارٍ : \" أَنَّ أَبَاهُ أَعْتَقَ رَقِيقًا لَهُ فِي مَرَضِهِ، ثُمَّ بَدَا لَهُ أَنْ يَرُدَّهُمْ وَيُعْتِقَ غَيْرَهُمْ، قَالَ : فَخَاصَمُونِي إِلَى عَبْدِ الْمَلِكِ بْنِ مَرْوَانَ ،فَأَجَازَ عِتْقَ الْآخِرِينَ، وَأَبْطَلَ عِتْقَ الْأَوَّلِينَ \"",
      "english": {
        "narrator": "",
        "text": ""
      }
    },
    {
      "id": 37,
      "chapterId": 22,
      "bookId": 9,
      "arabic": "حَدَّثَنَا سَهْلُ بْنُ حَمَّادٍ  ، حَدَّثَنَا هَمَّامٌ  ، عَنْ عَمْرِو بْنِ شُعَيْبٍ  ، عَنْ عَبْدِ اللَّهِ بْنِ أَبِي رَبِيعَةَ  ، عَنْ الشَّرِيدِ بْنِ سُوَيْدٍ  ، قَالَ : قَالَ عُمَرُ   :\" يُحْدِثُ الرَّجُلُ فِي وَصِيَّتِهِ مَا شَاءَ، وَمِلَاكُ الْوَصِيَّةِ آخِرُهَا \".\nقَالَ أَبُو مُحَمَّد : هَمَّامٌ لَمْ يَسْمَعْ مِنْ عَمْرٍو، وَبَيْنَهُمَا قَتَادَةُ",
      "english": {
        "narrator": "",
        "text": ""
      }
    },
    {
      "id": 38,
      "chapterId": 22,
      "bookId": 9,
      "arabic": "حَدَّثَنَا سَعِيدُ بْنُ الْمُغِيرَةِ ، قَالَ : ابْنُ الْمُبَارَكِ حَدَّثَنَا، عَنْ مَعْمَرٍ ، عَنِ الزُّهْرِيِّ  : \" فِي الرَّجُلِ يُوصِي بِوَصِيَّةٍ ثُمَّ يُوصِي بِأُخْرَى، قَالَ :هُمَا جَائِزَتَانِ فِي مَالِهِ \"",
      "english": {
        "narrator": "",
        "text": ""
      }
    },
    {
      "id": 39,
      "chapterId": 22,
      "bookId": 9,
      "arabic": "حَدَّثَنَا سَعِيدٌ  ، عَنْ ابْنِ الْمُبَارَكِ  ، عَنْ مَعْمَرٍ  ، عَنْ قَتَادَةَ  ، قَالَ : قَالَ عُمَرُ بْنُ الْخَطَّابِ   :\" مِلَاكُ الْوَصِيَّةِ آخِرُهَا \"",
      "english": {
        "narrator": "",
        "text": ""
      }
    },
    {
      "id": 40,
      "chapterId": 22,
      "bookId": 9,
      "arabic": "أَخْبَرَنَا مُحَمَّدُ بْنُ الْمُبَارَكِ ، حَدَّثَنَا الْوَلِيدُ ، عَنْ الْأَوْزَاعِيِّ ،  عَنْ يَحْيَى ، قَالَ :\" إِذَا اتَّهَمَ الْقَاضِي الْوَصِيَّ لَمْ يَعْزِلْهُ، وَلَكِنْ يُوَكِّلُ مَعَهُ غَيْرَهُ \"وَهُوَ رَأْيُ الْأَوْزَاعِيِّ",
      "english": {
        "narrator": "",
        "text": ""
      }
    },
    {
      "id": 41,
      "chapterId": 22,
      "bookId": 9,
      "arabic": "حَدَّثَنَا أَبُو الْوَلِيدِ ، حَدَّثَنَا شَرِيكٌ ، عَنْ الشَّيْبَانِيِّ ، عَنْ عَامِرٍ ، قَالَ :\" يَجُوزُ بَيْعُ الْمَرِيضِ وَشِرَاؤُهُ وَنِكَاحُهُ، وَلَا يَكُونُ مِنَ الثُّلُثِ \"",
      "english": {
        "narrator": "",
        "text": ""
      }
    },
    {
      "id": 42,
      "chapterId": 22,
      "bookId": 9,
      "arabic": "حَدَّثَنَا أَبُو الْوَلِيدِ ، حَدَّثَنَا أَبُو عَوَانَةَ ، عَنْ مُطَرِّفٍ ، عَنْ الْحَارِثِ الْعُكْلِيِّ ، قَالَ :\" مَا حَابَى بِهِ الْمَرِيضُ فِي مَرَضِهِ مِنْ بَيْعٍ أَوْ شِرَاءٍ، فَهُوَ فِي ثُلُثِهِ قِيمَةُ عَدْلٍ \"",
      "english": {
        "narrator": "",
        "text": ""
      }
    },
    {
      "id": 43,
      "chapterId": 22,
      "bookId": 9,
      "arabic": "حَدَّثَنَا أَبُو النُّعْمَانِ ، حَدَّثَنَا حَمَّادُ بْنُ زَيْدٍ ، عَنْ يَحْيَى هُوَ ابْنُ سَعِيدٍ ، قَالَ : أَعْطَتِ امْرَأَةٌ مِنْ أَهْلِنَا وَهِيَ حَامِلٌ، فَسُئِلَ الْقَاسِمُ ، فَقَالَ : \" هُوَ مِنْ جَمِيعِ الْمَالِ، قَالَ يَحْيَى : وَنَحْنُ نَقُولُ :إِذَا ضَرَبَهَا الْمَخَاضُ فَمَا أَعْطَتْ، فَمِنْ الثُّلُثِ \"",
      "english": {
        "narrator": "",
        "text": ""
      }
    },
    {
      "id": 44,
      "chapterId": 22,
      "bookId": 9,
      "arabic": "حَدَّثَنَا أَحْمَدُ بْنُ عَبْدِ اللَّهِ  ، حَدَّثَنَا أَبُو شِهَابٍ  ، عَنْ عَمْرٍو  ، عَنْ الْحَسَنِ   : \" فِي رَجُلٍ قَالَ لِغُلَامِهِ : إِنْ دَخَلْتُ دَارَ فُلَانٍ، فَغُلَامِي حُرٌّ، ثُمَّ دَخَلَهَا وَهُوَ مَرِيضٌ، قَالَ :يُعْتَقُ مِنْ الثُّلُثِ، وَإِنْ دَخَلَ فِي صِحَّتِهِ، عُتِقَ مِنْ جَمِيعِ الْمَالِ \"",
      "english": {
        "narrator": "",
        "text": ""
      }
    },
    {
      "id": 45,
      "chapterId": 22,
      "bookId": 9,
      "arabic": "أخبرنا مَرْوَانُ بْنُ مُحَمَّدٍ ، حَدَّثَنَا يَحْيَى بْنُ حَمْزَةَ ، حَدَّثَنَا النُّعْمَانُ بْنُ الْمُنْذِرِ ، عَنْ مَكْحُولٍ ، قَالَ :\" إِذَا كَانَ الْوَرَثَةُ مَحَاوِيجَ، فَلَا أَرَى بَأْسًا أَنْ يُرَدَّ عَلَيْهِمْ مِنْ الثُّلُثِ \"، قَالَ يَحْيَى : فَذَكَرْتُ ذَلِكَ لِلْأَوْزَاعِيِّ  فَأَعْجَبَهُ",
      "english": {
        "narrator": "",
        "text": ""
      }
    },
    {
      "id": 46,
      "chapterId": 22,
      "bookId": 9,
      "arabic": "أخبرنا أَبُو النُّعْمَانِ ، حَدَّثَنَا هُشَيْمٌ ، حَدَّثَنَا يُونُسُ ، عَنْ الْحَسَنِ .\nح وأَخْبَرَنَا مُغِيرَةُ ، عَنْ إِبْرَاهِيمَ ، قَالَا :\" إِذَا شَهِدَ شَاهِدَانِ مِنْ الْوَرَثَةِ، جَازَ عَلَى جَمِيعِهِمْ، وَإِذَا شَهِدَ وَاحِدٌ، فَفِي نَصِيبِهِ بِحِصَّتِهِ \"",
      "english": {
        "narrator": "",
        "text": ""
      }
    },
    {
      "id": 47,
      "chapterId": 22,
      "bookId": 9,
      "arabic": "حَدَّثَنَا أَبُو النُّعْمَانِ ، حَدَّثَنَا هُشَيْمٌ ، حَدَّثَنَا مُطَرِّفٌ : أَنَّهُ سَمِعَ الشَّعْبِيَّ ، يَقُولُ :\" إِذَا شَهِدَ رَجُلٌ مِنْ الْوَرَثَةِ، فَفِي نَصِيبِهِ بِحِصَّتِهِ، ثُمَّ قَالَ : بَعْدَ ذَلِكَ فِي جَمِيعِ حِصَّتِهِ \"",
      "english": {
        "narrator": "",
        "text": ""
      }
    },
    {
      "id": 48,
      "chapterId": 22,
      "bookId": 9,
      "arabic": "حَدَّثَنَا أَبُو الْوَلِيدِ الطَّيَالِسِيُّ ، حَدَّثَنَا أَبُو شِهَابٍ عَبْدُ رَبِّهِ بْنُ نَافِعٍ ، عَنْ الْأَعْمَشِ ، عَنْ إِبْرَاهِيمَ ، قَالَ :\" إِذَا أَوْصَى الرَّجُلُ بِالثُّلُثِ، وَالرُّبُعِ، فَفِي الْعَيْنِ وَالدَّيْنِ، وَإِذَا أَوْصَى بِخَمْسِينَ أَوْ سِتِّينَ إِلَى الْمِائَةِ، فَفِي الْعَيْنِ حَتَّى يَبْلُغَ الثُّلُثَ \"",
      "english": {
        "narrator": "",
        "text": ""
      }
    },
    {
      "id": 49,
      "chapterId": 22,
      "bookId": 9,
      "arabic": "أَخْبَرَنَا مَرْوَانُ بْنُ مُحَمَّدٍ  ، حَدَّثَنَا سُلَيْمَانُ بْنُ بِلَالٍ  ، حَدَّثَنَا جَعْفَرُ بْنُ مُحَمَّدٍ  ، عَنْ يَزِيدَ بْنِ عَبْدِ اللَّهِ بْنِ قُسَيْطٍ  ، قَالَ : قَالَ رَسُولُ اللَّهِ صَلَّى اللَّهُ عَلَيْهِ وَسَلَّمَ :\" الْمَرْءُ أَحَقُّ بِثُلُثِ مَالِهِ، يَضَعُهُ فِي أَيِّ مَالِهِ شَاءَ \"",
      "english": {
        "narrator": "",
        "text": ""
      }
    },
    {
      "id": 50,
      "chapterId": 22,
      "bookId": 9,
      "arabic": "حَدَّثَنَا عَبْدُ الصَّمَدِ بْنُ عَبْدِ الْوَارِثِ  ، حَدَّثَنَا شُعْبَةُ  ، حَدَّثَنَا أَبُو إِسْحَاق  ، عَنْ أَبِي حَبِيبَةَ  ، قَالَ : سَأَلْتُ أَبَا الدَّرْدَاءِ عَنْ رَجُلٍ جَعَلَ دَرَاهِمَ فِي سَبِيلِ اللَّهِ، فَقَالَ أَبُو الدَّرْدَاءِ   : قَالَ رَسُولُ اللَّهِ صَلَّى اللَّهُ عَلَيْهِ وَسَلَّمَ :\" مَثَلُ الَّذِي يَتَصَدَّقُ عِنْدَ مَوْتِهِ أَوْ يُعْتِقُ، كَالَّذِي يُهْدِي بَعْدَ مَا شَبِعَ \"",
      "english": {
        "narrator": "",
        "text": ""
      }
    },
    {
      "id": 51,
      "chapterId": 22,
      "bookId": 9,
      "arabic": "حَدَّثَنَا الْمُعَلَّى بْنُ أَسَدٍ  ، حَدَّثَنَا وُهَيْبٌ  ، عَنْ يُونُسَ  ،  عَنْ الْحَسَنِ   : \" فِي الرَّجُلِ يُوصِي بِأَشْيَاءَ وَمِنْهَا الْعِتْقُ، فَيُجَاوِزُ الثُّلُثَ، قَالَ :يُبْدَأُ بِالْعِتْقِ \".\nحَدَّثَنَا الْمُعَلَّى بْنُ أَسَدٍ  ، حَدَّثَنَا وُهَيْبٌ  ، عَنْ أَيُّوبَ  ، عَنْ مُحَمَّدٍ  ، قَالَ : بِالْحِصَصِ",
      "english": {
        "narrator": "",
        "text": ""
      }
    },
    {
      "id": 52,
      "chapterId": 22,
      "bookId": 9,
      "arabic": "حَدَّثَنَا الْحَسَنُ بْنُ بِشْرٍ ، حَدَّثَنَا الْمُعَافَى ، عَنْ عُثْمَانَ بْنِ الْأَسْوَدِ ، عَنْ عَطَاءٍ ، قَالَ :\" مَنْ أَوْصَى أَوْ أَعْتَقَ، فَكَانَ فِي وَصِيَّتِهِ عَوْلٌ، دَخَلَ الْعَوْلُ عَلَى أَهْلِ الْعَتَاقَةِ، وَأَهْلِ الْوَصِيَّةِ \".\nقَالَ عَطَاءٌ : إِنَّ أَهْلَ الْمَدِينَةِ غَلَبُونَا، يَبْدَءُونَ بِالْعَتَاقَةِ قَبْلُ",
      "english": {
        "narrator": "",
        "text": ""
      }
    },
    {
      "id": 53,
      "chapterId": 22,
      "bookId": 9,
      "arabic": "حَدَّثَنَا أَبُو النُّعْمَانِ ، حَدَّثَنَا حَمَّادُ بْنُ زَيْدٍ ، قَالَ : قَالَ عَمْرُو بْنُ دِينَارٍ \" فِي الَّذِي يُوصِي بِعِتْقٍ، وَغَيْرِهِ فَيَزِيدُ عَلَى الثُّلُثِ، قَالَ : بِالْحِصَصِ \"",
      "english": {
        "narrator": "",
        "text": ""
      }
    },
    {
      "id": 54,
      "chapterId": 22,
      "bookId": 9,
      "arabic": "حَدَّثَنَا سُلَيْمَانُ بْنُ حَرْبٍ  ، حَدَّثَنَا حَمَّادُ بْنُ زَيْدٍ  ، عَنْ كَثِيرِ بْنِ شِنْظِيرٍ  ، عَنْ الْحَسَنِ   : \" فِي رَجُلٍ أَوْصَى بِأَكْثَرَ مِنْ الثُّلُثِ وَفِيهِ عِتْقٌ؟ قَالَ :يُبْدَأُ بِالْعِتْقِ \"",
      "english": {
        "narrator": "",
        "text": ""
      }
    },
    {
      "id": 55,
      "chapterId": 22,
      "bookId": 9,
      "arabic": "حَدَّثَنَا عُبَيْدُ اللَّهِ ، عَنْ إِسْرَائِيلَ ، عَنْ مَنْصُورٍ ، عَنْ إِبْرَاهِيمَ ، قَالَ :\" يُبْدَأُ بِالْعَتَاقَةِ قَبْلَ الْوَصِيَّةِ \"",
      "english": {
        "narrator": "",
        "text": ""
      }
    },
    {
      "id": 56,
      "chapterId": 22,
      "bookId": 9,
      "arabic": "أَخْبَرَنَا الْمُعَلَّى بْنُ أَسَدٍ  ، قَالَ : حَدَّثَنَا وُهَيْبٌ  ، عَنْ يُونُسَ  ، عَنْ الْحَسَنِ   : \" فِي الرَّجُلِ يُوصِي لِبَنِي فُلَانٍ، قَالَ :غَنِيُّهُمْ وَفَقِيرُهُمْ وَذَكَرُهُمْ وَأُنْثَاهُمْ سَوَاءٌ \"",
      "english": {
        "narrator": "",
        "text": ""
      }
    },
    {
      "id": 57,
      "chapterId": 22,
      "bookId": 9,
      "arabic": "حَدَّثَنَا أَحْمَدُ بْنُ عَبْدِ اللَّهِ  ، حَدَّثَنَا أَبُو شِهَابٍ  ، عَنْ عَمْرٍو  ، عَنْ الْحَسَنِ  ، قَالَ :\" إِذَا أَوْصَى لِبَنِي فُلَانٍ، فَالذَّكَرُ وَالْأُنْثَى فِيهِ سَوَاءٌ \"",
      "english": {
        "narrator": "",
        "text": ""
      }
    },
    {
      "id": 58,
      "chapterId": 22,
      "bookId": 9,
      "arabic": "حَدَّثَنَا أَبُو نُعَيْمٍ ، حَدَّثَنَا زَائِدَةُ بْنُ مُوسَى الْهَمْدَانِيُّ ، حَدَّثَنِي سَيَّارُ بْنُ أَبِي كَرِبٍ : \" أَنَّ آتِيًا أَتَى شُرَيْحًا ، فَسَأَلَهُ عَنْ رَجُلٍ أَوْصَى بِسَهْمٍ مِنْ مَالِهِ، قَالَ :تُحْسَبُ الْفَرِيضَةُ، فَمَا بَلَغَ سِهَامَهَا، أُعْطِيَ الْمُوصَى لَهُ سَهْمًا كَأَحَدِهَا \"",
      "english": {
        "narrator": "",
        "text": ""
      }
    },
    {
      "id": 59,
      "chapterId": 22,
      "bookId": 9,
      "arabic": "أَخْبَرَنَا مَرْوَانُ بْنُ مُحَمَّدٍ ، حَدَّثَنَا سَعِيدٌ ، عَنْ مَكْحُولٍ ، قَالَ :\" إِذَا تَصَدَّقَ الرَّجُلُ عَلَى بَعْضِ وَرَثَتِهِ وَهُوَ صَحِيحٌ بِأَكْثَرَ مِنْ النِّصْفِ، رُدَّ إِلَى الثُّلُثِ، وَإِذَا أَعْطَى النِّصْفَ، جَازَ لَهُ ذَلِكَ \".\nقَالَ سَعِيدٌ : وَكَانَ قُضَاةُ أَهْلِ دِمَشْقَ يَقْضُونَ بِذَلِكَ",
      "english": {
        "narrator": "",
        "text": ""
      }
    },
    {
      "id": 60,
      "chapterId": 22,
      "bookId": 9,
      "arabic": "حَدَّثَنَا عَبْدُ اللَّهِ بْنُ مُحَمَّدِ بْنِ أَبِي شَيْبَةَ ، حَدَّثَنَا حَفْصٌ ، عَنْ إِسْمَاعِيل بْنِ أَبِي خَالِدٍ ، عَنِ الْحَكَمِ ، عَنْ إِبْرَاهِيمَ ، قَالَ :\" الْكَفَنُ مِنْ جَمِيعِ الْمَالِ \"",
      "english": {
        "narrator": "",
        "text": ""
      }
    },
    {
      "id": 61,
      "chapterId": 22,
      "bookId": 9,
      "arabic": "حَدَّثَنَا إِبْرَاهِيمُ بْنُ مُوسَى  ، عَنْ مُعَاذٍ  ، عَنْ أَشْعَثَ  ، عَنْ الْحَسَنِ   : \" فِي رَجُلٍ مَاتَ وَتَرَكَ قِيمَةَ أَلْفَيْ دِرْهَمٍ، وَعَلَيْهِ مِثْلُهَا أَوْ أَكْثَرُ، قَالَ :يُكَفَّنُ مِنْهَا، وَلَا يُعْطَى دَيْنُهُ \"",
      "english": {
        "narrator": "",
        "text": ""
      }
    },
    {
      "id": 62,
      "chapterId": 22,
      "bookId": 9,
      "arabic": "حَدَّثَنَا قَبِيصَةُ ، حَدَّثَنَا سُفْيَانُ ، عَمَّنْ سَمِعَ إِبْرَاهِيمَ ، قَالَ :\" يُبْدَأُ بِالْكَفَنِ، ثُمَّ الدَّيْنِ، ثُمَّ الْوَصِيَّةِ \"",
      "english": {
        "narrator": "",
        "text": ""
      }
    },
    {
      "id": 63,
      "chapterId": 22,
      "bookId": 9,
      "arabic": "حَدَّثَنَا قَبِيصَةُ ، أنبأنا سُفْيَانُ ، عَنْ فِرَاسٍ ، عَنْ الشَّعْبِيِّ  : \" فِي الْمَرْأَةِ تَمُوتُ، قَالَ :\" تُكَفَّنُ مِنْ مَالِهَا، لَيْسَ عَلَى الزَّوْجِ شَيْءٌ \"",
      "english": {
        "narrator": "",
        "text": ""
      }
    },
    {
      "id": 64,
      "chapterId": 22,
      "bookId": 9,
      "arabic": "حَدَّثَنَا سَعِيدُ بْنُ الْمُغِيرَةِ ، عَنْ ابْنِ الْمُبَارَكِ ، عَنْ ابْنِ جُرَيْجٍ ،  عَنْ عَطَاءٍ ، قَالَ :\" الْحَنُوطُ، وَالْكَفَنُ مِنْ رَأْسِ الْمَالِ \"",
      "english": {
        "narrator": "",
        "text": ""
      }
    },
    {
      "id": 65,
      "chapterId": 22,
      "bookId": 9,
      "arabic": "حَدَّثَنَا مُحَمَّدُ بْنُ عُيَيْنَةَ ، عَنْ عَلِيِّ بْنِ مُسْهِرٍ ، عَنْ إِسْمَاعِيل ، عَنْ الْحَسَنِ ، قَالَ :\" الْكَفَنُ مِنْ وَسَطِ الْمَالِ، يكفن على قدر ما كان يلبس في حياته، ثم يخرج الدين، ثم الثلث \"",
      "english": {
        "narrator": "",
        "text": ""
      }
    }
  ]
}