{
  "page": 51,
  "perPage": 50,
  "totalPages": 69,
  "totalCount": 3406,
  "nextPage": 52,
  "prevPage": 50,
  "items": [
    {
      "id": 66,
      "chapterId": 22,
      "bookId": 9,
      "arabic": "حَدَّثَنَا أَبُو النُّعْمَانِ  ، حَدَّثَنَا هُشَيْمٌ  ، أَنْبَأَنَا مَنْصُورٌ  ، عَنِ الْحَسَنِ  ، أَنَّهُ كَانَ يَقُولُ :\" إِذَا أَوْصَى الرَّجُلُ إِلَى الرَّجُلِ وَهُوَ غَائِبٌ، فَلْيَقْبَلْ وَصِيَّتَهُ، وَإِنْ كَانَ حَاضِرًا، فَهُوَ بِالْخِيَارِ : إِنْ شَاءَ، قَبِلَ، وَإِنْ شَاء، َتَرَكَ \"",
      "english": {
        "narrator": "",
        "text": ""
      }
    },
    {
      "id": 67,
      "chapterId": 22,
      "bookId": 9,
      "arabic": "حَدَّثَنَا صَالِحُ بْنُ عَبْدِ اللَّهِ ، حَدَّثَنَا حَمَّادُ بْنُ زَيْدٍ ،  عَنْ أَيُّوبَ ، قَالَ : سَأَلْتُ الْحَسَنَ ، وَمُحَمَّدًا  عَنِ \" الرَّجُلِ يُوصِي إِلَى الرَّجُلِ، قَالَا :نَخْتَارُ أَنْ يَقْبَلَ \"",
      "english": {
        "narrator": "",
        "text": ""
      }
    },
    {
      "id": 68,
      "chapterId": 22,
      "bookId": 9,
      "arabic": "حَدَّثَنَا مُحَمَّدُ بْنُ أَسْعَدَ  ، حَدَّثَنَا أَبُو بَكْرٍ  ، عَنْ هِشَامٍ  ، عَنِ الْحَسَنِ  ، قَالَ :\" إِذَا أَوْصَى الرَّجُلُ إِلَى الرَّجُلِ وَهُوَ غَائِبٌ، فَإِذَا قَدِمَ فَإِنْ شَاءَ، قَبِلَ ، فَإِذَا قَبِلَ، لَمْ يَكُنْ لَهُ أَنْ يَرُدَّ \"",
      "english": {
        "narrator": "",
        "text": ""
      }
    },
    {
      "id": 69,
      "chapterId": 22,
      "bookId": 9,
      "arabic": "حَدَّثَنَا الْوَضَّاحُ بْنُ يَحْيَى  ، حَدَّثَنَا أَبُو بَكْرٍ  ، عَنْ هِشَامٍ  ، عَنْ الْحَسَنِ  ، قَالَ :\" إِذَا أَوْصَى الرَّجُلُ إِلَى الرَّجُلِ، فَعُرِضَتْ عَلَيْهِ الْوَصِيَّةُ، وَكَانَ غَائِبًا فَقَبِلَ، لَمْ يَكُنْ لَهُ أَنْ يَرْجِعَ \"",
      "english": {
        "narrator": "",
        "text": ""
      }
    },
    {
      "id": 70,
      "chapterId": 22,
      "bookId": 9,
      "arabic": "حَدَّثَنَا جَعْفَرُ بْنُ عَوْنٍ ، عَنْ شعبة ، عَنْ أَبِي مَعْشَرٍ ، عَنْ إِبْرَاهِيمَ ، قَالَ :\" إِذَا أَوْصَى الرَّجُلُ لِإِنْسَانٍ، وَهُوَ غَائِبٌ، وَكَانَ مَيِّتًا، وَهُوَ لَا يَدْرِي، فَهِيَ رَاجِعَةٌ \"",
      "english": {
        "narrator": "",
        "text": ""
      }
    },
    {
      "id": 71,
      "chapterId": 22,
      "bookId": 9,
      "arabic": "حَدَّثَنَا مُحَمَّدُ بْنُ عِيسَى  ، حَدَّثَنَا يَزِيدُ بْنُ زُرَيْعٍ  ، حَدَّثَنَا يُونُسُ  ، عَنْ الْحَسَنِ  ، قَالَ :\" إِذَا أَوْصَى لِعَبْدِهِ ثُلُثَ مَالِهِ، رُبُعَ مَالِهِ، خُمُسَ مَالِهِ، فَهُوَ مِنْ مَالِهِ دَخَلَتْهُ عَتَاقَةٌ \"",
      "english": {
        "narrator": "",
        "text": ""
      }
    },
    {
      "id": 72,
      "chapterId": 22,
      "bookId": 9,
      "arabic": "حَدَّثَنَا يَعْلَى ، عَنْ إِسْمَاعِيل ،  عَنْ قَيْسٍ ، قَالَ : كَانَ يُقَالُ :\" إِنَّ الرَّجُلَ لَيُحْرَمُ بَرَكَةَ مَالِهِ فِي حَيَاتِهِ، فَإِذَا كَانَ عِنْدَ الْمَوْتِ، تَزَوَّدَ بِفَجْرَةٍ \"",
      "english": {
        "narrator": "",
        "text": ""
      }
    },
    {
      "id": 73,
      "chapterId": 22,
      "bookId": 9,
      "arabic": "حَدَّثَنَا أَحْمَدُ بْنُ عَبْدِ اللَّهِ  ، حَدَّثَنَا أَبُو زُبَيْدٍ  ، حَدَّثَنَا حُصَيْنٌ  ، عَنْ إِبْرَاهِيمَ التَّيْمِيِّ  ، عَنْ أَبِيهِ  ، قَالَ : قَالَ عَبْدُ اللَّهِ   :\" الْمُرَّانِ : الْإِمْسَاكُ فِي الْحَيَاةِ، وَالتَّبْذِيرُ عِنْدَ الْمَوْتِ \".\nقَالَ أَبُو مُحَمَّد : يُقَالُ : مُرٌّ فِي الْحَيَاةِ، وَمُرٌّ عِنْدَ الْمَوْتِ",
      "english": {
        "narrator": "",
        "text": ""
      }
    },
    {
      "id": 74,
      "chapterId": 22,
      "bookId": 9,
      "arabic": "حَدَّثَنَا عُبَيْدُ اللَّهِ ، عَنْ إِسْرَائِيلَ ، عَنْ مَنْصُورٍ ،  عَنْ إِبْرَاهِيمَ ، قَالَ :\" إِذَا أَوْصَى الرَّجُلُ لِآخَرَ بِمِثْلِ نَصِيبِ ابْنِهِ، فَلَا يَتِمُّ لَهُ مِثْلُ نَصِيبِهِ، حَتَّى يَنْقُصَ مِنْهُ \"",
      "english": {
        "narrator": "",
        "text": ""
      }
    },
    {
      "id": 75,
      "chapterId": 22,
      "bookId": 9,
      "arabic": "حَدَّثَنَا سُلَيْمَانُ بْنُ حَرْبٍ ، حَدَّثَنَا حَمَّادُ بْنُ سَلَمَةَ ، عَنْ دَاوُدَ بْنِ أَبِي هِنْدٍ ، عَنْ الشَّعْبِيِّ  : \" فِي رَجُلٍ كَانَ لَهُ ثَلَاثَةُ بَنِينَ، فَأَوْصَى لِرَجُلٍ مِثْلَ نَصِيبِ أَحَدِهِمْ لَوْ كَانُوا أَرْبَعَةً، قَالَ الشَّعْبِيُّ :يُعْطَى الْخُمُسَ \"",
      "english": {
        "narrator": "",
        "text": ""
      }
    },
    {
      "id": 76,
      "chapterId": 22,
      "bookId": 9,
      "arabic": "حَدَّثَنَا مُحَمَّدُ بْنُ عِيسَى ، حَدَّثَنَا يَزِيدُ بْنُ زُرَيْعٍ ، حَدَّثَنَا دَاوُدُ بْنُ أَبِي هِنْدٍ ، قَالَ : \" سَأَلْنَا عَامِرًا  عَنْ رَجُلٍ تَرَكَ ابْنَيْنِ، وَأَوْصَى بِمِثْلِ نَصِيبِ أَحَدِهِمْ لَوْ كَانُوا ثَلَاثَةً، قَالَ :أَوْصَى بِالرُّبُعِ \"",
      "english": {
        "narrator": "",
        "text": ""
      }
    },
    {
      "id": 77,
      "chapterId": 22,
      "bookId": 9,
      "arabic": "حَدَّثَنَا أَبُو النُّعْمَانِ ، حَدَّثَنَا أَبُو عَوَانَةَ ، عَنْ مُغِيرَةَ ، عَنْ إِبْرَاهِيمَ ، قَالَ : \" فِي رَجُلٍ أَوْصَى بِمِثْلِ نَصِيبِ بَعْضِ الْوَرَثَةِ، قَالَ :لَا يَجُوزُ، وَإِنْ كَانَ أَقَلَّ مِنْ الثُّلُثِ \"، قَالَ أَبُو مُحَمَّد : هُوَ حَسَنٌ",
      "english": {
        "narrator": "",
        "text": ""
      }
    },
    {
      "id": 78,
      "chapterId": 22,
      "bookId": 9,
      "arabic": "حَدَّثَنَا قَبِيصَةُ ، أنبأنا سُفْيَانُ ، عَنْ ابْنِ أَبِي السَّفَرِ ، عَنْ الشَّعْبِيِّ  : \" فِي رَجُلٍ أَوْصَى فِي غَلَّةِ عَبْدِهِ بِدِرْهَمٍ، وَغَلَّتُهُ سِتَّةٌ، قَالَ :لَهُ سُدُسُهُ \"",
      "english": {
        "narrator": "",
        "text": ""
      }
    },
    {
      "id": 79,
      "chapterId": 22,
      "bookId": 9,
      "arabic": "أخبرنا قَبِيصَةُ ، قَالَ : سَمِعْتُ سُفْيَانَ ، يَقُولُ :\" إِذَا أَقَرَّ لِوَارِثٍ وَلِغَيْرِ وَارِثٍ بِمِائَةِ دِرْهَمٍ، قَالَ : أَرَى أَنْ أُبْطِلَهُمَا جَمِيعًا \"",
      "english": {
        "narrator": "",
        "text": ""
      }
    },
    {
      "id": 80,
      "chapterId": 22,
      "bookId": 9,
      "arabic": "حَدَّثَنَا مُسْلِمٌ ، حَدَّثَنَا هَمَّامٌ ، حَدَّثَنَا قَتَادَةُ ، عَنْ ابْنِ سِيرِينَ ، عَنْ شُرَيْحٍ ، قَالَ :\" لَا يَجُوزُ إِقْرَارٌ لِوَارِثٍ، قَالَ : وقال الْحَسَنُ  : أَحَقُّ مَا جَازَ عَلَيْهِ عِنْدَ مَوْتِهِ : أَوَّلَ يَوْمٍ مِنْ أَيَّامِ الْآخِرَةِ، وَآخِرَ يَوْمٍ مِنْ أَيَّامِ الدُّنْيَا \"",
      "english": {
        "narrator": "",
        "text": ""
      }
    },
    {
      "id": 81,
      "chapterId": 22,
      "bookId": 9,
      "arabic": "حَدَّثَنَا عَمْرُو بْنُ عَوْنٍ ، أنبأنا خَالِدٌ ، عَنْ خَالِدٍ ، عَنْ أَبِي قِلَابَةَ ، قَالَ :\" لَا يَجُوزُ لِوَارِثٍ وَصِيَّةٌ \"",
      "english": {
        "narrator": "",
        "text": ""
      }
    },
    {
      "id": 82,
      "chapterId": 22,
      "bookId": 9,
      "arabic": "حَدَّثَنَا سُلَيْمَانُ بْنُ حَرْبٍ ، حَدَّثَنَا حَمَّادُ بْنُ زَيْدٍ ، عَنْ حُمَيْدٍ  : \" أَنَّ رَجُلًا يُكْنَى أَبَا ثَابِتٍأَقَرَّ لِامْرَأَتِهِ عِنْدَ مَوْتِهِ أَنَّ لَهَا عَلَيْهِ أَرْبَعَ مِائَةِ دِرْهَمٍ مِنْ صَدَاقِهَا، فَأَجَازَهُ الْحَسَنُ  \"",
      "english": {
        "narrator": "",
        "text": ""
      }
    },
    {
      "id": 83,
      "chapterId": 22,
      "bookId": 9,
      "arabic": "حَدَّثَنَا مُسْلِمُ بْنُ إِبْرَاهِيمَ  ، حَدَّثَنَا هِشَامٌ الدَّسْتَوَائِيُّ  ، حَدَّثَنَا قَتَادَةُ  ، عَنْ شَهْرِ بْنِ حَوْشَبٍ  ، عَنْ عَبْدِ الرَّحْمَنِ بْنِ غَنْمٍ  ، عَنْ عَمْرِو بْنِ خَارِجَةَ  ، قَالَ : كُنْتُ تَحْتَ نَاقَةِ النَّبِيِّ صَلَّى اللَّهُ عَلَيْهِ وَسَلَّمَ وَهِيَ تَقْصَعُ بِجِرَّتِهَا، وَلُعَابُهَا يَنُوصُ بَيْنَ كَتِفَيَّ، سَمِعْتُهُ يَقُولُ :\" أَلَا إِنَّ اللَّهَ قَدْ أَعْطَى كُلَّ ذِي حَقٍّ حَقَّهُ، فَلَا يَجُوزُ وَصِيَّةٌ لِوَارِثٍ \"",
      "english": {
        "narrator": "",
        "text": ""
      }
    },
    {
      "id": 84,
      "chapterId": 22,
      "bookId": 9,
      "arabic": "أَخْبَرَنَا يَزِيدُ بْنُ هَارُونَ ، أنبأنا هَمَّامٌ ، عَنْ قَتَادَةَ ، قَال : # إِذَا حَضَرَ أَحَدَكُمُ الْمَوْتُ إِنْ تَرَكَ خَيْرًا الْوَصِيَّةُ لِلْوَالِدَيْنِ وَالأَقْرَبِينَ بِالْمَعْرُوفِ حَقًّا عَلَى الْمُتَّقِينَ سورة البقرة آية 180 #،فَأَمَرَ أَنْ يُوصِيَ لِوَالِدَيْهِ وَأَقَارِبِهِ، ثُمَّ نُسِخَ بَعْدَ ذَلِكَ فِي سُورَةِ النِّسَاءِ ، فَجَعَلَ لِلْوَالِدَيْنِ نَصِيبًا مَعْلُومًا، وَأَلْحَقَ لِكُلِّ ذِي مِيرَاثٍ نَصِيبَهُ مِنْهُ، وَلَيْسَتْ لَهُمْ وَصِيَّةٌ، فَصَارَتْ الْوَصِيَّةُ لِمَنْ لَا يَرِثُ مِنْ قَرِيبٍ وَغَيْرِهِ \"",
      "english": {
        "narrator": "",
        "text": ""
      }
    },
    {
      "id": 85,
      "chapterId": 22,
      "bookId": 9,
      "arabic": "حَدَّثَنَا مُحَمَّدُ بْنُ يُوسُفَ  ، حَدَّثَنَا وَرْقَاءُ  ، عَنْ ابْنِ أَبِي نَجِيحٍ  ، عَنْ عَطَاءٍ  ،  عَنْ ابْنِ عَبَّاسٍ  ، قَالَ :\" كَانَ الْمَالُ لِلْوَلَدِ، وَكَانَتْ الْوَصِيَّةُ لِلْوَالِدَيْنِ وَالْأَقْرَبِينَ، فَنَسَخَ اللَّهُ مِنْ ذَلِكَ مَا أَحَبَّ، فَجَعَلَ لِلذَّكَرِ مِثْلَ حَظِّ الْأُنْثَيَيْنِ، وَجَعَلَ لِلْأَبَوَيْنِ لِكُلِّ وَاحِدٍ مِنْهُمَا السُّدُسَ وَالثُّلُثَ، وَجَعَلَ لِلْمَرْأَةِ الثُّمُنَ وَالرُّبُعَ، وَلِلزَّوْجِ الشَّطْرَ وَالرُّبُعَ \"",
      "english": {
        "narrator": "",
        "text": ""
      }
    },
    {
      "id": 86,
      "chapterId": 22,
      "bookId": 9,
      "arabic": "حَدَّثَنَا أَحْمَدُ بْنُ إِسْمَاعِيل ، حَدَّثَنَا أَبُو تُمَيْلَةَ ، عَنْ الْحُسَيْنِ بْنِ وَاقِدٍ ، عَنْ يَزِيدَ ، عَنْ عِكْرِمَةَ ، وَالْحَسَنِ  :# إِنْ تَرَكَ خَيْرًا الْوَصِيَّةُ لِلْوَالِدَيْنِ وَالأَقْرَبِينَ سورة البقرة آية 180 #، فكانت الوصية كذلك، حتى نسختها آية الميراث \"",
      "english": {
        "narrator": "",
        "text": ""
      }
    },
    {
      "id": 87,
      "chapterId": 22,
      "bookId": 9,
      "arabic": "حَدَّثَنَا سُلَيْمَانُ بْنُ حَرْبٍ  ، حَدَّثَنَا حَمَّادُ بْنُ سَلَمَةَ  ، عَنْ حُمَيْدٍ  ، عَنْ الْحَسَنِ  ، \" سُئِلَ عَنْ رَجُلٍ أَوْصَى وَلَهُ أَخٌ مُوسِرٌ، أَيُوصِ لَهُ؟ قَالَ :نَعَمْ، وَإِنْ كَانَ رَبَّ عِشْرِينَ أَلْفًا، ثُمَّ قَالَ : وَإِنْ كَانَ رَبَّ مِائَةِ أَلْفٍ، فَإِنَّ غِنَاهُ لَا يَمْنَعُهُ الْحَقَّ \"",
      "english": {
        "narrator": "",
        "text": ""
      }
    },
    {
      "id": 88,
      "chapterId": 22,
      "bookId": 9,
      "arabic": "حَدَّثَنَا عَفَّانُ ، حَدَّثَنَا حَمَّادُ بْنُ سَلَمَةَ ، حَدَّثَنَا قَتَادَةُ ، عَنْ الْحَسَنِ ، وَسَعِيدُ بْنُ الْمُسَيِّبِ  : \" في رجل قَالَ : سَيْفِي لِفُلَانٍ، فَإِنْ مَاتَ فُلَانٌ، فَلِفُلَانٍ، فَإِنْ مَاتَ فُلَانٌ، فَمَرْجِعُهُ إِلَيَّ، قَالَا :هُوَ لِلْأَوَّلِ \".\nقَالَ : وَقَالَ حُمَيْدُ بْنُ عَبْدِ الرَّحْمَنِ  : يُمْضَى كَمَا قَالَ",
      "english": {
        "narrator": "",
        "text": ""
      }
    },
    {
      "id": 89,
      "chapterId": 22,
      "bookId": 9,
      "arabic": "حَدَّثَنَا عَفَّانُ ، حَدَّثَنَا حَمَّادُ بْنُ سَلَمَةَ ، حَدَّثَنَا هِشَامُ بْنُ عُرْوَةَ : أَنَّ عُرْوَةَ ، قَالَ : \" فِي الرَّجُلِ يُعْطِي الرَّجُلَ الْعَطَاءَ، فَيَقُولُ : هُوَ لَكَ، فَإِذَا مُتَّ، فَلِفُلَانٍ، فَإِذَا مَاتَ فُلَانٌ، فَلِفُلَانٍ، وَإِذَا مَاتَ فُلَانٌ، فَمَرْجِعُهُ إِلَيَّ.\nقَالَ :يُمْضَى كَمَا قَالَ، وَإِنْ كَانُوا مِائَةً \"",
      "english": {
        "narrator": "",
        "text": ""
      }
    },
    {
      "id": 90,
      "chapterId": 22,
      "bookId": 9,
      "arabic": "حَدَّثَنَا مُسْلِمُ بْنُ إِبْرَاهِيمَ ، حَدَّثَنَا حَمَّادُ بْنُ زَيْدٍ ، حَدَّثَنَا شَيْبَةُ بْنُ هِشَامٍ الرَّاسِبِيُّ ، وَكَثِيرُ بْنُ مَعْدَانَ ، قَالَا : سَأَلْنَا سَالِمَ بْنَ عَبْدِ اللَّهِ عَنْ \" الرَّجُلِ يُوصِي فِي غَيْرِ قَرَابَتِهِ، فَقَالَ سَالِمٌ  :هِيَ حَيْثُ جَعَلَهَا، قَالَ : فَقُلْنَا : إِنَّ الْحَسَنَ  يَقُولُ : يُرَدُّ عَلَى الْأَقْرَبِينَ، فَأَنْكَرَ ذَلِكَ، وَقَالَ قَوْلًا شَدِيدًا \"",
      "english": {
        "narrator": "",
        "text": ""
      }
    },
    {
      "id": 91,
      "chapterId": 22,
      "bookId": 9,
      "arabic": "حَدَّثَنَا أَحْمَدُ بْنُ عَبْدِ اللَّهِ  ، حَدَّثَنَا أَبُو شِهَابٍ  ، عَنْ عَمْرٍو  ، عَنْ الْحَسَنِ  ، قَالَ :\" إِذَا أَوْصَى الرَّجُلُ فِي قَرَابَتِهِ، فَهُوَ لِأَقْرَبِهِمْ بِبَطْنٍ : الذَّكَرُ وَالْأُنْثَى فِيهِ سَوَاءٌ \"",
      "english": {
        "narrator": "",
        "text": ""
      }
    },
    {
      "id": 92,
      "chapterId": 22,
      "bookId": 9,
      "arabic": "حَدَّثَنَا أَحْمَدُ بْنُ عَبْدِ اللَّهِ ، حَدَّثَنَا أَبُو بَكْرٍ ، عَنْ مُطَرِّفٍ ، عَنْ الشَّعْبِيِّ  : \" فِي رَجُلٍ قَالَ : أَحَدُ غُلَامَيَّ حُرٌّ ثُمَّ مَاتَ، وَلَمْ يُبَيِّنْ، قَالَ :الْوَرَثَةُ بِمَنْزِلَتِهِ يُعْتِقُونَ أَيَّهُمَا أَحَبُّوا \"",
      "english": {
        "narrator": "",
        "text": ""
      }
    },
    {
      "id": 93,
      "chapterId": 22,
      "bookId": 9,
      "arabic": "حَدَّثَنَا سُلَيْمَانُ بْنُ حَرْبٍ  ، حَدَّثَنَا حَمَّادُ بْنُ سَلَمَةَ  ، عَنْ يُونُسَ  ،  عَنْ الْحَسَنِ   : \" أَنَّ رَجُلًا قَالَ فِي مَرَضِهِ : لِفُلَانٍ كَذَا وَلِفُلَانٍ كَذَا، وَعَبْدِي فُلَانٌ حُرٌّ، وَلَمْ يَقُلْ : إِنْ حَدَثَ بِي حَدَثٌ، فَبَرَأَ، قَالَ :هُوَ مَمْلُوكٌ \"",
      "english": {
        "narrator": "",
        "text": ""
      }
    },
    {
      "id": 94,
      "chapterId": 22,
      "bookId": 9,
      "arabic": "حَدَّثَنَا أَحْمَدُ بْنُ عَبْدِ اللَّهِ ، حَدَّثَنَا أَبُو بَكْرٍ ، عَنْ مُطَرِّفٍ ، عَنْ الشَّعْبِيِّ  : \" فِي رَجُلٍ أَعْتَقَ غُلَامَهُ عِنْدَ الْمَوْتِ، وَلَيْسَ لَهُ غَيْرُهُ، وَعَلَيْهِ دَيْنٌ، قَالَ :يَسْعَى لِلْغُرَمَاءِ فِي ثَمَنِهِ \"",
      "english": {
        "narrator": "",
        "text": ""
      }
    },
    {
      "id": 95,
      "chapterId": 22,
      "bookId": 9,
      "arabic": "حَدَّثَنَا أَبُو الْوَلِيدِ  ، حَدَّثَنَا هَمَّامٌ  ، حَدَّثَنَا قَتَادَةُ  ، عَنْ الْحَسَنِ  : \" أَنَّ رَجُلًا اشْتَرَى عَبْدًا بِتِسْعِ مِائَةِ دِرْهَمٍ، فَأَعْتَقَهُ وَلَمْ يَقْضِ ثَمَنَ الْعَبْدِ، وَلَمْ يَتْرُكْ شَيْئًا، فَقَالَ عَلِيٌّ   :يَسْعَى الْعَبْدُ فِي ثَمَنِهِ \"",
      "english": {
        "narrator": "",
        "text": ""
      }
    },
    {
      "id": 96,
      "chapterId": 22,
      "bookId": 9,
      "arabic": "حَدَّثَنَا مَنْصُورُ بْنُ سَلَمَةَ  ، عَنْ شَرِيكٍ  ، عَنْ الْأَشْعَثِ  ، عَنْ نَافِعٍ  ، عَنْ ابْنِ عُمَرَ  ، قَالَ :\" الْمُدَبَّرُ مِنْ الثُّلُثِ \"",
      "english": {
        "narrator": "",
        "text": ""
      }
    },
    {
      "id": 97,
      "chapterId": 22,
      "bookId": 9,
      "arabic": "حَدَّثَنَا مَنْصُورُ بْنُ سَلَمَةَ ، عَنْ شَرِيكٍ ، عَنْ مَنْصُورٍ ، عَنْ إِبْرَاهِيمَ ، قَالَ :\" الْمُدَبَّرُ مِنْ الثُّلُثِ \"",
      "english": {
        "narrator": "",
        "text": ""
      }
    },
    {
      "id": 98,
      "chapterId": 22,
      "bookId": 9,
      "arabic": "حَدَّثَنَا سُلَيْمَانُ بْنُ حَرْبٍ  ، حَدَّثَنَا حَمَّادُ بْنُ زَيْدٍ  ، عَنْ كَثِيرٍ  ، عَنْ الْحَسَنِ  ، قَالَ :\" الْمُعْتَقُ عَنْ دُبُرٍ مِنَ الثُّلُثِ \"",
      "english": {
        "narrator": "",
        "text": ""
      }
    },
    {
      "id": 99,
      "chapterId": 22,
      "bookId": 9,
      "arabic": "حَدَّثَنَا سُلَيْمَانُ بْنُ حَرْبٍ  ، حَدَّثَنَا حَمَّادُ بْنُ سَلَمَةَ  ، عَنْ حُمَيْدٍ  ، عَنْ الْحَسَنِ  ، قَالَ :\" الْمُعْتَقَةُ عَنْ دُبُرٍ وَوَلَدُهَا مِنْ الثُّلُثِ \"",
      "english": {
        "narrator": "",
        "text": ""
      }
    },
    {
      "id": 100,
      "chapterId": 22,
      "bookId": 9,
      "arabic": "حَدَّثَنَا أَبُو الْوَلِيدِ ، حَدَّثَنَا شُعْبَةُ ، قَالَ : مَنْصُورٌ أَخْبَرَنِي، عَنْ إِبْرَاهِيمَ ، قَالَ :\" الْمُعْتَقُ عَنْ دُبُرٍ مِنَ الثُّلُثِ \"",
      "english": {
        "narrator": "",
        "text": ""
      }
    },
    {
      "id": 101,
      "chapterId": 22,
      "bookId": 9,
      "arabic": "حَدَّثَنَا أَبُو النُّعْمَانِ ، حَدَّثَنَا حَمَّادُ بْنُ زَيْدٍ ، عَنْ أَبِي عَبْدِ اللَّهِ الشَّقَرِيِّ ، وَأَبِي هَاشِمٍ ، عَنْ إِبْرَاهِيمَ ، قَالَ :\" الْمُدَبَّرُ مِنْ جَمِيعِ الْمَالِ \"",
      "english": {
        "narrator": "",
        "text": ""
      }
    },
    {
      "id": 102,
      "chapterId": 22,
      "bookId": 9,
      "arabic": "أَخْبَرَنَا الْحَكَمُ بْنُ الْمُبَارَكِ  ، أَنْبَأَنَا أَبُو عَوَانَةَ  ، عَنْ أَبِي بِشْرٍ  ، عَنْ سَعِيدِ بْنِ جُبَيْرٍ  ، قَالَ :\" الْمُعْتَقُ عَنْ دُبُرٍ مِنْ جَمِيعِ الْمَالِ \".\nسُئِلَ أَبُو مُحَمَّد : بِأَيِّهِمَا تَقُولُ؟ قَالَ : مِنَ الثُّلُثِ",
      "english": {
        "narrator": "",
        "text": ""
      }
    },
    {
      "id": 103,
      "chapterId": 22,
      "bookId": 9,
      "arabic": "أَخْبَرَنَا سَعِيدُ بْنُ الْمُغِيرَةِ  ، حَدَّثَنَا مَخْلَدٌ  ، عَنْ هِشَامٍ  ، عَنْ الْحَسَنِ  ، قَالَ :\" لَا تَشْهَدْ عَلَى وَصِيَّةٍ حَتَّى تُقْرَأَ عَلَيْكَ، وَلَا تَشْهَدْ عَلَى مَنْ لَا تَعْرِفُ \"",
      "english": {
        "narrator": "",
        "text": ""
      }
    },
    {
      "id": 104,
      "chapterId": 22,
      "bookId": 9,
      "arabic": "أَخْبَرَنَا سُلَيْمَانُ بْنُ حَرْبٍ  ، حَدَّثَنَا حَمَّادُ بْنُ سَلَمَةَ  ، عَنْ حُمَيْدٍ  ، عَنْ الْحَسَنِ  : أَنَّ عُمَرَ بْنَ الْخَطَّابِ  \" أَوْصَى لِأُمَّهَاتِ أَوْلَادِهِ بِأَرْبَعَةِ آلَافٍ، أَرْبَعَةِ آلَافٍ، لِكُلِّ امْرَأَةٍ مِنْهُنَّ \"",
      "english": {
        "narrator": "",
        "text": ""
      }
    },
    {
      "id": 105,
      "chapterId": 22,
      "bookId": 9,
      "arabic": "حَدَّثَنَا يَحْيَى بْنُ حَسَّانَ ، أنبأنا ابْنُ أَبِي الزِّنَادِ ، عَنْ أَبِيهِ ، عَنْ عُمَرَ بْنِ عَبْدِ الْعَزِيزِ  : أَنَّهُ\" أَجَازَ وَصِيَّةَ ابْنِ ثَلَاثَ عَشْرَةَ سَنَةً \"",
      "english": {
        "narrator": "",
        "text": ""
      }
    },
    {
      "id": 106,
      "chapterId": 22,
      "bookId": 9,
      "arabic": "حَدَّثَنَا أَبُو نُعَيْمٍ ، حَدَّثَنَا زُهَيْرٌ ، عَنْ أَبِي إِسْحَاق ، قَالَ : \" أَوْصَى غُلَامٌ مِنْ الْحَيِّ ابْنُ سَبْعِ سِنِينَ، فَقَالَ شُرَيْحٌ  :إِذَا أَصَابَ الْغُلَامُ فِي وَصِيَّتِهِ، جَازَتْ \".\nقَالَ أَبُو مُحَمَّد : يُعْجِبُنِي، وَالْقُضَاةُ لَا يُجِيزُونَ",
      "english": {
        "narrator": "",
        "text": ""
      }
    },
    {
      "id": 107,
      "chapterId": 22,
      "bookId": 9,
      "arabic": "حَدَّثَنَا جَعْفَرُ بْنُ عَوْنٍ ، أَخْبَرَنَا يُونُسُ ، حَدَّثَنَا أَبُو إِسْحَاق أَنَّهُ \" شَهِدَ شُرَيْحًا أَجَازَ وَصِيَّةَ عَبَّاسِ بْنِ إِسْمَاعِيل بْنِ مَرْثَدٍ لِظِئْرِهِ مِنْ أَهْلِ الْحِيرَةِ \"، وَعَبَّاسٌ صَبِيٌّ",
      "english": {
        "narrator": "",
        "text": ""
      }
    },
    {
      "id": 108,
      "chapterId": 22,
      "bookId": 9,
      "arabic": "حَدَّثَنَا جَعْفَرُ بْنُ عَوْنٍ ، أنبأنا يُونُسُ ، حَدَّثَنَا أَبُو إِسْحَاق ، قَالَ : قَالَ شُرَيْحٌ  :\" إِذَا اتَّقَى الصَّبِيُّ الرَّكِيَّةَ، جَازَتْ وَصِيَّتُهُ \"",
      "english": {
        "narrator": "",
        "text": ""
      }
    },
    {
      "id": 109,
      "chapterId": 22,
      "bookId": 9,
      "arabic": "حَدَّثَنَا قَبِيصَةُ ، حَدَّثَنَا سُفْيَانُ ، عَنْ أَبِي إِسْحَاق  : \" أَنَّ غُلَامًا مِنْهُمْ حِينَ ثُغِرَ يُقَالُ لَهُ مَرْثَدٌ :أَوْصَى لِظِئْرٍ لَهُ مِنْ أَهْلِ الْحِيرَةِ بِأَرْبَعِينَ دِرْهَمًا، فأجازه شريح ، وَقَالَ : مَنْ أَصَابَ الْحَقَّ، أَجَزْنَاهُ \"",
      "english": {
        "narrator": "",
        "text": ""
      }
    },
    {
      "id": 110,
      "chapterId": 22,
      "bookId": 9,
      "arabic": "حَدَّثَنَا يَزِيدُ بْنُ هَارُونَ  ، أَخْبَرَنَا يَحْيَى  : أَنَّ أَبَا بَكْرِ بْنَ مُحَمَّدِ بْنِ عَمْرِو بْنِ حَزْمٍ  أَخْبَرَهُ : \" أَنَّ غُلَامًا بِالْمَدِينَةِ حَضَرَهُ الْمَوْتُ وَوَرَثَتُهُ بِالشَّامِ ، وَأَنَّهُمْ ذَكَرُوا لِعُمَرَ أَنَّهُ يَمُوتُ، فَسَأَلُوهُ أَنْ يُوصِيَ، فَأَمَرَهُ عُمَرُ   أَنْ يُوصِيَ،فَأَوْصَى بِبِئْرٍ يُقَالُ لَهَا : بِئْرُ جُشَمَ، وَإِنَّ أَهْلَهَا بَاعُوهَا بِثَلَاثِينَ أَلْفًا، ذَكَرَ أَبُو بَكْرٍ أَنَّ الْغُلَامَ كَانَ ابْنَ عَشْرِ سِنِينَ، أَوْ ثِنْتَيْ عَشْرَةَ \"",
      "english": {
        "narrator": "",
        "text": ""
      }
    },
    {
      "id": 111,
      "chapterId": 22,
      "bookId": 9,
      "arabic": "حَدَّثَنَا يَزِيدُ ، عَنْ هِشَامٍ الدَّسْتَوَائِيِّ ، عَنْ حَمَّادٍ ، عَنْ إِبْرَاهِيمَ ، قَالَ :\" يَجُوزُ وَصِيَّةُ الصَّبِيِّ في ماله في الثلث، فما دونه، وإنما يمنعه وليه ذلك في الصحة رهبة الفاقة عليه، فأما عند الموت، فليس له أن يمنعه \"",
      "english": {
        "narrator": "",
        "text": ""
      }
    },
    {
      "id": 112,
      "chapterId": 22,
      "bookId": 9,
      "arabic": "حَدَّثَنَا قَبِيصَةُ ، حَدَّثَنَا سُفْيَانُ ، عَنْ خالد الحذاء ، وَأَيُّوبَ ، عَنْ ابْنِ سِيرِينَ ، عَنْ عَبْدِ اللَّهِ بْنِ عُتْبَةَ  : \" أَنَّهُ أُتِيَ فِي جَارِيَةٍ أَوْصَتْ، فَجَعَلُوا يُصَغِّرُونَهَا، فَقَالَ :مَنْ أَصَابَ الْحَقَّ، أَجَزْنَاهُ \"",
      "english": {
        "narrator": "",
        "text": ""
      }
    },
    {
      "id": 113,
      "chapterId": 22,
      "bookId": 9,
      "arabic": "حَدَّثَنَا قَبِيصَةُ  ، أَنْبَأَنَا سُفْيَانُ  ، عَنْ يَحْيَى بْنِ سَعِيدٍ  ، عَنْ أَبِي بَكْرٍ   : \" أَنَّ سُلَيْمًا الْغَسَّانِيَّ مَاتَ وَهُوَ ابْنُ عَشْرٍ، أَوْ ثِنْتَيْ عَشْرَةَ سَنَةً،فَأَوْصَى بِبِئْرٍ لَهُ قِيمَتُهَا ثَلاثُونَ أَلْفًا \"، فَأَجَازَهَا عُمَرُ بْنُ الْخَطَّابِ  ، قَالَ أَبُو مُحَمَّدٍ : النَّاسُ يَقُولُونَ : عَمْرُو بْنُ سُلَيْمٍ ، حَدَّثَنَا قَبِيصَةُ  ، حَدَّثَنَا سُفْيَانُ  ، عَنْ ابْنَيْهِ : عَبْدِ اللَّهِ  ، وَمُحَمَّدٍ  ابْنَيْ أَبِي بَكْرٍ، عَنْ أَبِيهِمَا   مِثْلَ ذَلِكَ، غَيْرَ أَنَّ أَحَدَهُمَا قَالَ : ابْنُ ثَلَاثَ عَشْرَةَ، وَقَالَ الْآخَرُ : قَبْلَ أَنْ يَحْتَلِمَ.\nقَالَ أَبُو مُحَمَّد : عَنْ ابْنَيْهِ، يَعْنِي : ابْنَيْ أَبِي بَكْرٍ",
      "english": {
        "narrator": "",
        "text": ""
      }
    },
    {
      "id": 114,
      "chapterId": 22,
      "bookId": 9,
      "arabic": "حَدَّثَنَا نَصْرُ بْنُ عَلِيٍّ ، حَدَّثَنَا عَبْدُ الْأَعْلَى ، عَنْ مَعْمَرٍ ، عَنْ الزُّهْرِيِّ ، أَنَّهُ كَانَ يَقُولُ :\" وَصِيَّتُهُ لَيْسَتْ بِجَائِزَةٍ إِلَّا مَا لَيْسَ بِذِي بَالٍ، يَعْنِي : الْغُلَامَ قَبْلَ أَنْ يَحْتَلِمَ \"",
      "english": {
        "narrator": "",
        "text": ""
      }
    },
    {
      "id": 115,
      "chapterId": 22,
      "bookId": 9,
      "arabic": "حَدَّثَنَا عَمْرُو بْنُ عَوْنٍ  ، أَنْبَأَنَا هُشَيْمٌ  ، عَنْ يُونُسَ  ، عَنِ الْحَسَنِ  ، قَالَ :\" لَا يَجُوزُ طَلَاقُ الْغُلَامِ وَلَا وَصِيَّتُهُ، وَلَا هِبَتُهُ، وَلَا صَدَقَتُهُ، وَلَا عَتَاقَتُهُ، حَتَّى يَحْتَلِمَ \"",
      "english": {
        "narrator": "",
        "text": ""
      }
    }
  ]
}