{
  "page": 52,
  "perPage": 50,
  "totalPages": 69,
  "totalCount": 3406,
  "nextPage": 53,
  "prevPage": 51,
  "items": [
    {
      "id": 116,
      "chapterId": 22,
      "bookId": 9,
      "arabic": "حَدَّثَنَا سَعِيدُ بْنُ الْمُغِيرَةِ  ، عَنْ حَفْصِ بْنِ غِيَاثٍ  ، عَنْ حَجَّاجٍ  ، عَنْ عَطَاءٍ  ، عَنْ ابْنِ عَبَّاسٍ  ، قَالَ :\" لَا يَجُوزُ طَلَاقُ الصَّبِيِّ، وَلَا عِتْقُهُ، وَلَا وَصِيَّتُهُ، وَلَا شِرَاؤُهُ، وَلَا بَيْعُهُ، وَلَا شَيْءٌ \"",
      "english": {
        "narrator": "",
        "text": ""
      }
    },
    {
      "id": 117,
      "chapterId": 22,
      "bookId": 9,
      "arabic": "حَدَّثَنَا أَبُو الْوَلِيدِ ، حَدَّثَنَا هَمَّامٌ ، عَنْ قَتَادَةَ ، عَنْ حُمَيْدِ بْنِ عَبْدِ الرَّحْمَنِ الْحِمْيَرِيِّ ، قَالَ :\" لَا يَجُوزُ طَلَاقٌ، وَلَا وَصِيَّةٌ، إِلَّا فِي عَقْلٍ، إِلَّا النَّشْوَانَ، يَعْنِي : السَّكْرَانَ، فَإِنَّهُ يَجُوزُ طَلَاقُهُ، وَيُضْرَبُ ظَهْرُهُ \"",
      "english": {
        "narrator": "",
        "text": ""
      }
    },
    {
      "id": 118,
      "chapterId": 22,
      "bookId": 9,
      "arabic": "حَدَّثَنَا عَمْرُو بْنُ عَوْنٍ ، عَنْ خَالِدِ بْنِ عَبْدِ اللَّهِ ، عَنْ يَحْيَى بْنِ أَبِي إِسْحَاق ، قَالَ : \" سَأَلْتُ الْقَاسِمَ بْنَ عَبْدِ الرَّحْمَنِ ، وَمُعَاوِيَةَ بْنَ قُرَّةَ  عَنْ رَجُلٍ قَالَ فِي وَصِيَّتِهِ : \" كُلُّ لِي حُرٌّ، وَلَهُ مَمْلُوكٌ آبِقٌ، فَقَالَا :هُوَ حُرٌّ \"، قَالَ الْحَسَنُ ، وَإِيَاسٌ ، وَبَكْرُ بْنُ عَبْدِ اللَّهِ  : ليس بحر",
      "english": {
        "narrator": "",
        "text": ""
      }
    },
    {
      "id": 119,
      "chapterId": 22,
      "bookId": 9,
      "arabic": "حَدَّثَنَا عَبْدُ اللَّهِ بْنُ مَسْلَمَةَ  ، حَدَّثَنَا عَبْدُ اللَّهِ الْعُمَرِيُّ  ، عَنْ نَافِعٍ  ، عَنْ ابْنِ عُمَرَ  : \" أَنَّ عُمَرَ  أَوْصَى إِلَى حَفْصَةَ أُمِّ الْمُؤْمِنِينَ \"",
      "english": {
        "narrator": "",
        "text": ""
      }
    },
    {
      "id": 120,
      "chapterId": 22,
      "bookId": 9,
      "arabic": "حَدَّثَنَا أَبُو نُعَيْمٍ  ، حَدَّثَنَا سُفْيَانُ  ، عَنْ لَيْثٍ  ، عَنْ نَافِعٍ  ، عَنْ ابْنِ عُمَرَ   : \" أَنَّ صَفِيَّةَأَوْصَتْ لِنَسِيبٍ لَهَا يَهُودِيٍّ \"",
      "english": {
        "narrator": "",
        "text": ""
      }
    },
    {
      "id": 121,
      "chapterId": 22,
      "bookId": 9,
      "arabic": "حَدَّثَنَا أَبُو نُعَيْمٍ ، حَدَّثَنَا زُهَيْرٌ ، عَنْ أَبِي إِسْحَاق ، قَالَ : \" أَوْصَى غُلَامٌ مِنَ الْحَيِّ، يُقَالُ لَهُ : عَبَّاسُ بْنُ مَرْثَدٍ ابْنُ سَبْعِ سِنِينَ لِظِئْرٍ لَهُ يَهُودِيَّةٍ مِنْ أَهْلِ الْحِيرَةِ بِأَرْبَعِينَ دِرْهَمًا، فَقَالَ شُرَيْحٌ  :إِذَا أَصَابَ الْغُلَامُ فِي وَصِيَّتِهِ، جَازَتْ وَإِنَّمَا أَوْصَى لِذِي حَقٍّ \"، قَالَ أَبُو مُحَمَّد : أَنَا أَقُولُ بِهِ",
      "english": {
        "narrator": "",
        "text": ""
      }
    },
    {
      "id": 122,
      "chapterId": 22,
      "bookId": 9,
      "arabic": "أَخْبَرَنَا عَبْدُ اللَّهِ بْنُ سَعِيدٍ ، حَدَّثَنَا أَبُو أُسَامَةَ ، عَنْ هِشَامٍ ، عَنْ أَبِيهِ : \" أَنَّ الزُّبَيْرَ جَعَلَ دُورَهُ صَدَقَةً عَلَى بَنِيهِ، لَا تُبَاعُ وَلَا تُوَرَّثُ، وَأَنَّ لِلْمَرْدُودَةِ مِنْ بَنَاتِهِ أَنْ تَسْكُنَ غَيْرَ مُضِرَّةٍ وَلَا مُضَارٍّ بِهَا، فَإِنْ هِيَ اسْتَغْنَتْ بِزَوْجٍ، فَلَا حَقَّ لَهَا \"",
      "english": {
        "narrator": "",
        "text": ""
      }
    },
    {
      "id": 123,
      "chapterId": 22,
      "bookId": 9,
      "arabic": "حَدَّثَنَا الْحَكَمُ بْنُ الْمُبَارَكِ ، أنبأنا الْوَلِيدُ ، عَنْ حَفْصٍ ، عَنْ مَكْحُولٍ  : \" فِي الرَّجُلِ يُوصِي لِلرَّجُلِ بِدَنَانِيرَ فِي سَبِيلِ اللَّهِ، فَيَمُوتُ الْمُوصَى لَهُ قَبْلَ أَنْ يَخْرُجَ بِهَا مِنْ أَهْلِهِ، قَالَ :هِيَ إِلَى أَوْلِيَاءِ الْمُتَوَفَّى الْمُوصِي، يُنْفِذُونَهَا فِي سَبِيلِ اللَّهِ \"",
      "english": {
        "narrator": "",
        "text": ""
      }
    },
    {
      "id": 124,
      "chapterId": 22,
      "bookId": 9,
      "arabic": "حَدَّثَنَا مُحَمَّدُ بْنُ عُيَيْنَةَ  ، عَنْ عَلِيِّ بْنِ مُسْهِرٍ  ، عَنْ أَشْعَثَ  ، عَنْ الْحَسَنِ   : \" فِي الرَّجُلِ يُوصِي لِلرَّجُلِ بِالْوَصِيَّةِ، فَيَمُوتُ الْمُوصَى لَهُ قَبْلَ الْمُوصِي، قَالَ :هِيَ جَائِزَةٌ لِوَرَثَةِ الْمُوصَى لَهُ.\nحَدَّثَنَا مُحَمَّدُ بْنُ عُيَيْنَةَ  ، عَنْ عَلِيِّ بْنِ مُسْهِرٍ  ، عَنْ أَشْعَثَ  ، عَنْ أَبِي إِسْحَاق السَّبِيعِيِّ  ، قَالَ : حُدِّثْتُ  أَنَّ عَلِيًّا   كَانَ يُجِيزُهَا مِثْلَ قَوْلِ الْحَسَنِ",
      "english": {
        "narrator": "",
        "text": ""
      }
    },
    {
      "id": 125,
      "chapterId": 22,
      "bookId": 9,
      "arabic": "حَدَّثَنَا الْحَكَمُ بْنُ الْمُبَارَكِ  ، أَنْبَأَنَا عَبْدُ الْعَزِيزِ هُوَ ابْنُ مُحَمَّدٍ  ، عَنْ مُوسَى هُوَ ابْنُ عُقْبَةَ  ،  عَنْ نَافِعٍ  : \" أَنَّ رَجُلًا جَاءَ إِلَى ابْنِ عُمَرَ فَقَالَ : إِنَّ رَجُلًا أَوْصَى إِلَيَّ وَجَعَلَ نَاقَةً فِي سَبِيلِ اللَّهِ، وَلَيْسَ هَذَا زَمَانًا يُخْرَجُ إِلَى الْغَزْوِ، فَأَحْمِلُ عَلَيْهَا فِي الْحَجِّ؟ فَقَالَ ابْنُ عُمَرَ   :الْحَجُّ وَالْعُمْرَةُ فِي سَبِيلِ اللَّهِ \"",
      "english": {
        "narrator": "",
        "text": ""
      }
    },
    {
      "id": 126,
      "chapterId": 22,
      "bookId": 9,
      "arabic": "أَخْبَرَنَا عُبَيْدُ اللَّهِ بْنُ مُوسَى  ، عَنْ مُوسَى بْنِ عُبَيْدَةَ  ، عَنْ وَاقِدِ بْنِ مُحَمَّدِ بْنِ زَيْدِ بْنِ عَبْدِ اللَّهِ بْنِ عُمَرَ  : \" أَنَّ رَجُلًا أَوْصَى بِمَالِهِ فِي سَبِيلِ اللَّهِ، فَسَأَلَ الْوَصِيُّ عَنْ ذَلِكَ عُمَرَ  ، فَقَالَ :أَعْطِهِ عُمَّالَ اللَّهِ، قَالَ : وَمَنْ عُمَّالُ اللَّهِ؟ قَالَ : حَاجُّ بَيْتِ اللَّهِ \"",
      "english": {
        "narrator": "",
        "text": ""
      }
    },
    {
      "id": 1,
      "chapterId": 23,
      "bookId": 9,
      "arabic": "حَدَّثَنَا عَمْرُو بْنُ زُرَارَةَ  ، حَدَّثَنَا جَرِيرٌ  ، عَنْ قَابُوسَ  ، عَنْ أَبِيهِ  ، عَنْ ابْنِ عَبَّاسٍ  ، قَالَ : قَالَ رَسُولُ اللَّهِ صَلَّى اللَّهُ عَلَيْهِ وَسَلَّمَ :\" إِنَّ الرَّجُلَ الَّذِي لَيْسَ فِي جَوْفِهِ مِنْ الْقُرْآنِ شَيْءٌ كَالْبَيْتِ الْخَرِبِ \"",
      "english": {
        "narrator": "",
        "text": ""
      }
    },
    {
      "id": 2,
      "chapterId": 23,
      "bookId": 9,
      "arabic": "أَخْبَرَنَا عَبْدُ اللَّهِ بْنُ خَالِدِ بْنِ حَازِمٍ  ، حَدَّثَنَا مُحَمَّدُ بْنُ مسْلَمَةَ  ، حَدَّثَنَا أَبُو سِنَانٍ  ، عَنْ أَبِي إِسْحَاق  ، عَنْ أَبِي الْأَحْوَصِ  ،  عَنْ عَبْدِ اللَّهِ  ، قَالَ :\" إِنَّ هَذَا الْقُرْآنَ مَأْدُبَةُ اللَّهِ، فَخُذُوا مِنْهُ مَا اسْتَطَعْتُمْ، فَإِنِّي لَا أَعْلَمُ شَيْئًا أَصْفَرَ مِنْ خَيْرٍ، مِنْ بَيْتٍ لَيْسَ فِيهِ مِنْ كِتَابِ اللَّهِ شَيْءٌ، وَإِنَّ الْقَلْبَ الَّذِي لَيْسَ فِيهِ مِنْ كِتَابِ اللَّهِ شَيْءٌ، خَرِبٌ كَخَرَابِ الْبَيْتِ الَّذِي لَا سَاكِنَ لَهُ \"",
      "english": {
        "narrator": "",
        "text": ""
      }
    },
    {
      "id": 3,
      "chapterId": 23,
      "bookId": 9,
      "arabic": "حَدَّثَنَا أَبُو عَامِرٍ قَبِيصَةُ  ، أَنْبَأَنَا سُفْيَانُ  ، عَنْ عَطَاءِ بْنِ السَّائِبِ  ، عَنْ أَبِي الْأَحْوَصِ  ، عَنْ عَبْدِ اللَّهِ  ، قَالَ :\" تَعَلَّمُوا هَذَا الْقُرْآنَ، فَإِنَّكُمْ تُؤْجَرُونَ بِتِلَاوَتِهِ بِكُلِّ حَرْفٍ عَشْرَ حَسَنَاتٍ، أَمَا إِنِّي لَا أَقُولُ بِ ( الم )، وَلَكِنْ بِأَلِفٍ، وَلَامٍ، وَمِيمٍ، بِكُلِّ حَرْفٍ عَشْرُ حَسَنَاتٍ \"",
      "english": {
        "narrator": "",
        "text": ""
      }
    },
    {
      "id": 4,
      "chapterId": 23,
      "bookId": 9,
      "arabic": "حَدَّثَنَا مُعَاذُ بْنُ هَانِئٍ  ، حَدَّثَنَا حَرْبُ بْنُ شَدَّادٍ  ، حَدَّثَنَا يَحْيَى هُوَ ابْنُ أَبِي كَثِيرٍ  ، حَدَّثَنِي حَفْصُ بْنُ عِنَانٍ الْحَنَفِيُّ  : أَنَّ أَبَا هُرَيْرَةَ   كَانَ يَقُولُ :\" إِنَّ الْبَيْتَ لَيَتَّسِعُ عَلَى أَهْلِهِ وَتَحْضُرُهُ الْمَلَائِكَةُ وَتَهْجُرُهُ الشَّيَاطِينُ، وَيَكْثُرُ خَيْرُهُ أَنْ يُقْرَأَ فِيهِ الْقُرْآنُ، وَإِنَّ الْبَيْتَ لَيَضِيقُ عَلَى أَهْلِهِ وَتَهْجُرُهُ الْمَلَائِكَةُ، وَتَحْضُرُهُ الشَّيَاطِينُ، وَيَقِلُّ خَيْرُهُ، أَنْ لَا يُقْرَأَ فِيهِ الْقُرْآنُ \"",
      "english": {
        "narrator": "",
        "text": ""
      }
    },
    {
      "id": 5,
      "chapterId": 23,
      "bookId": 9,
      "arabic": "حَدَّثَنَا عَبْدُ اللَّهِ بْنُ يَزِيدَ  ، حَدَّثَنَا ابْنُ لَهِيعَةَ  ، عَنْ مِشْرَحِ بْنِ هَاعَانَ  ، قَالَ : سَمِعْتُ عُقْبَةَ بْنَ عَامِرٍ  ، يَقُولُ : سَمِعْتُ رَسُولَ اللَّهِ صَلَّى اللَّهُ عَلَيْهِ وَسَلَّمَ، يَقُولُ :\" لَوْ جُعِلَ الْقُرْآنُ فِي إِهَابٍ، ثُمَّ أُلْقِيَ فِي النَّارِ، مَا احْتَرَقَ \"",
      "english": {
        "narrator": "",
        "text": ""
      }
    },
    {
      "id": 6,
      "chapterId": 23,
      "bookId": 9,
      "arabic": "حَدَّثَنَا عَبْدُ اللَّهِ بْنُ جَعْفَرٍ الرَّقِّيُّ  ، عَنْ عُبَيْدِ اللَّهِ بْنِ عَمْرٍو  ، عَنْ زَيْدِ بْنِ أَبِي أُنَيْسَةَ  ، عَنْ عَاصِمٍ  ، عَنْ أَبِي صَالِحٍ  ، قَالَ : سَمِعْتُ أَبَا هُرَيْرَةَ  ، يَقُولُ :\" اقْرَءُوا الْقُرْآنَ، فَإِنَّهُ نِعْمَ الشَّفِيعُ يَوْمَ الْقِيَامَةِ \"، إِنَّهُ يَقُولُ يَوْمَ الْقِيَامَةِ : يَا رَبِّ، حَلِّهِ حِلْيَةَ الْكَرَامَةِ، فَيُحَلَّى حِلْيَةَ الْكَرَامَةِ، يَا رَبِّ، اكْسُهُ كِسْوَةَ الْكَرَامَةِ، فَيُكْسَى كِسْوَةَ الْكَرَامَةِ، يَا رَبِّ، أَلْبِسْهُ تَاجَ الْكَرَامَةِ، يَا رَبِّ، ارْضَ عَنْهُ، فَلَيْسَ بَعْدَ رِضَاكَ شَيْءٌ \"",
      "english": {
        "narrator": "",
        "text": ""
      }
    },
    {
      "id": 7,
      "chapterId": 23,
      "bookId": 9,
      "arabic": "حَدَّثَنَا مُوسَى بْنُ خَالِدٍ  ، حَدَّثَنَا إِبْرَاهِيمُ بْنُ مُحَمَّدٍ الْفَزَارِيُّ  ، عَنْ سُفْيَانَ  ، عَنْ عَاصِمٍ  ، عَنْ مُجَاهِدٍ  ، عَنْ ابْنِ عُمَرَ  ، قَالَ :\" يَجِيءُ الْقُرْآنُ يَشْفَعُ لِصَاحِبِهِ، يَقُولُ : يَا رَبِّ لِكُلِّ عَامِلٍ عُمَالَةٌ مِنْ عَمَلِهِ، وَإِنِّي كُنْتُ أَمْنَعُهُ اللَّذَّةَ وَالنَّوْمَ، فَأَكْرِمْهُ، فَيُقَالُ : ابْسُطْ يَمِينَكَ، فَتُمْلَأُ مِنْ رِضْوَانِ اللَّهِ، ثُمَّ يُقَالُ : ابْسُطْ شِمَالَكَ، فَتُمْلَأُ مِنْ رِضْوَانِ اللَّهِ، وَيُكْسَى كِسْوَةَ الْكَرَامَةِ، وَيُحَلَّى بِحِلْيَةِ الْكَرَامَةِ، وَيُلْبَسُ تَاجَ الْكَرَامَةِ \"",
      "english": {
        "narrator": "",
        "text": ""
      }
    },
    {
      "id": 8,
      "chapterId": 23,
      "bookId": 9,
      "arabic": "أَخْبَرَنَا مُوسَى بْنُ خَالِدٍ  ، حَدَّثَنَا إِبْرَاهِيمُ بْنُ مُحَمَّدٍ الْفَزَارِيُّ  ، عَنْ الْحَسَنِ بْنِ عُبَيْدِ اللَّهِ  ، عَنْ الْمُسَيَّبِ بْنِ رَافِعٍ  ، عَنْ أَبِي صَالِحٍ  ، قَالَ :\" الْقُرْآنُ يَشْفَعُ لِصَاحِبِهِ، فَيُكْسَى حُلَّةَ الْكَرَامَةِ، ثُمَّ يَقُولُ : رَبِّ زِدْهُ، فَيُكْسَى تَاجَ الْكَرَامَةِ، قَالَ : فَيَقُولُ : رَبِّ زِدْهُ، فَآتِهِ، وَآتِهِ.\n..\nقَالَ : يَقُولُ : رِضَائِي \".\n قَالَ أَبُو مُحَمَّد : قَالَ وُهَيْبُ بْنُ الْوَرْدِ : اجْعَلْ قِرَاءَتَكَ الْقُرْآنَ عِلْمًا، وَلَا تَجْعَلْهُ عَمَلًا",
      "english": {
        "narrator": "",
        "text": ""
      }
    },
    {
      "id": 9,
      "chapterId": 23,
      "bookId": 9,
      "arabic": "حَدَّثَنَا مُوسَى بْنُ خَالِدٍ  ، حَدَّثَنَا إِبْرَاهِيمُ الْفَزَارِيُّ  ، عَنْ الْأَعْمَشِ  ، عَنْ أَبِي صَالِحٍ  ، عَنْ أَبِي هُرَيْرَةَ  ، قَالَ : قَالَ رَسُولُ اللَّهِ صَلَّى اللَّهُ عَلَيْهِ وَسَلَّمَ :\" أَيُحِبُّ أَحَدُكُمْ إِذَا أَتَى أَهْلَهُ أَنْ يَجِدَ ثَلَاثَ خَلِفَاتٍ سِمَانٍ، قَالُوا : نَعَمْ يَا رَسُولَ اللَّهِ، قَالَ : \" فَثَلَاثُ آيَاتٍ يَقْرَؤُهُنَّ أَحَدُكُمْ، خَيْرٌ لَهُ مِنْهُنَّ \"",
      "english": {
        "narrator": "",
        "text": ""
      }
    },
    {
      "id": 10,
      "chapterId": 23,
      "bookId": 9,
      "arabic": "حَدَّثَنَا جَعْفَرُ بْنُ عَوْنٍ  ، حَدَّثَنَا إِبْرَاهِيمُ هُوَ الْهَجَرِيُّ  ، عَنْ أَبِي الْأَحْوَصِ  ، عَنْ عَبْدِ اللَّهِ  ، قَالَ :\" إِنَّ هَذَا الْقُرْآنَ مَأْدُبَةُ اللَّهِ، فَتَعَلَّمُوا مِنْ مَأْدُبَتِهِ مَا اسْتَطَعْتُمْ، إِنَّ هَذَا الْقُرْآنَ حَبْلُ اللَّهِ، وَالنُّورُ الْمُبِينُ، وَالشِّفَاءُ النَّافِعُ، عِصْمَةٌ لِمَنْ تَمَسَّكَ بِهِ، وَنَجَاةٌ لِمَنْ اتَّبَعَهُ، لَا يَزِيغُ فَيَسْتَعْتِبُ، وَلَا يَعْوَجُّ فَيُقَوَّمُ، وَلَا تَنْقَضِي عَجَائِبُهُ، وَلَا يَخْلَقُ عَنْ كَثْرَةِ الرَّدِّ، فَاتْلُوهُ، فَإِنَّ اللَّهَ يَأْجُرُكُمْ عَلَى تِلَاوَتِهِ بِكُلِّ حَرْفٍ عَشْرَ حَسَنَاتٍ، أَمَا إِنِّي لَا أَقُولُ ( الم ) وَلَكِنْ بِأَلِفٍ، وَلَامٍ، وَمِيمٍ \"",
      "english": {
        "narrator": "",
        "text": ""
      }
    },
    {
      "id": 11,
      "chapterId": 23,
      "bookId": 9,
      "arabic": "حَدَّثَنَا جَعْفَرُ بْنُ عَوْنٍ  ، حَدَّثَنَا أَبُو حَيَّانَ  ، عَنْ يَزِيدَ بْنِ حَيَّانَ  ، عَنْ زَيْدِ بْنِ أَرْقَمَ  ، قَالَ : قَامَ رَسُولُ اللَّهِ صَلَّى اللَّهُ عَلَيْهِ وَسَلَّمَ يَوْمًا خَطِيبًا فَحَمِدَ، اللَّهَ وَأَثْنَى عَلَيْهِ، ثُمَّ قَالَ : \" يَا أَيُّهَا النَّاسُ،إِنَّمَا أَنَا بَشَرٌ يُوشِكُ أَنْ يَأْتِيَنِي رَسُولُ رَبِّي، فَأُجِيبَهُ، وَإِنِّي تَارِكٌ فِيكُمْ الثَّقَلَيْنِ : أَوَّلُهُمَا كِتَابُ اللَّهِ فِيهِ الْهُدَى وَالنُّورُ، فَتَمَسَّكُوا بِكِتَابِ اللَّهِ، وَخُذُوا بِهِ \" فَحَثَّ عَلَيْهِ وَرَغَّبَ فِيهِ، ثُمَّ قَالَ : \" وَأَهْلَ بَيْتِي، أُذَكِّرُكُمْ اللَّهَ فِي أَهْلِ بَيْتِي، ثَلَاثَ مَرَّاتٍ \"",
      "english": {
        "narrator": "",
        "text": ""
      }
    },
    {
      "id": 12,
      "chapterId": 23,
      "bookId": 9,
      "arabic": "حَدَّثَنَا جَعْفَرُ بْنُ عَوْنٍ  ، أَنْبَأَنَا الْأَعْمَشُ  ، عَنْ أَبِي وَائِلٍ  ، قَالَ : قَالَ عَبْدُ اللَّهِ   :\" إِنَّ هَذَا الصِّرَاطَ مُحْتَضَرٌ، تَحْضُرُهُ الشَّيَاطِينُ يُنَادُونَ : يَا عِبَادَ اللَّهِ، هَذَا الطَّرِيقُ، فَاعْتَصِمُوا بِحَبْلِ اللَّهِ، فَإِنَّ حَبْلَ اللَّهِ الْقُرْآنُ \"",
      "english": {
        "narrator": "",
        "text": ""
      }
    },
    {
      "id": 13,
      "chapterId": 23,
      "bookId": 9,
      "arabic": "أَخْبَرَنَا أَبُو الْمُغِيرَةِ  ، حَدَّثَتْنَا عَبْدَةُ  ، عَنْ خَالِدِ بْنِ مَعْدَانَ  ، قَالَ :\" إِنَّ قَارِئَ الْقُرْآنِ وَالْمُتَعَلِّمَ تُصَلِّي عَلَيْهِمْ الْمَلَائِكَةُ حَتَّى يَخْتِمُوا السُّورَةَ، فَإِذَا أَقْرَأَ أَحَدُكُمْ السُّورَةَ، فَلْيُؤَخِّرْ مِنْهَا آيَتَيْنِ حَتَّى يَخْتِمَهَا مِنْ آخِرِ النَّهَارِ كَيْ مَا تُصَلِّي الْمَلَائِكَةُ عَلَى الْقَارِئِ وَالْمُقْرِئِ مِنْ أَوَّلِ النَّهَارِ إِلَى آخِرِهِ \"",
      "english": {
        "narrator": "",
        "text": ""
      }
    },
    {
      "id": 14,
      "chapterId": 23,
      "bookId": 9,
      "arabic": "أَخْبَرَنَا الْحَكَمُ بْنُ نَافِعٍ  ، أَنْبَأَنَا حَرِيزٌ  ، عَنْ شُرَحْبِيلَ بْنِ مُسْلِمٍ الْخَوْلَانِيِّ  ، عَنْ أَبِي أُمَامَةَ   : أَنَّهُ كَانَ يَقُولُ :\" اقْرَءُوا الْقُرْآنَ، وَلَا يَغُرَّنَّكُمْ هَذِهِ الْمَصَاحِفُ الْمُعَلَّقَةُ، فَإِنَّ اللَّهَ لَنْ يُعَذِّبَ قَلْبًا وَعَى الْقُرْآنَ \"",
      "english": {
        "narrator": "",
        "text": ""
      }
    },
    {
      "id": 15,
      "chapterId": 23,
      "bookId": 9,
      "arabic": "حَدَّثَنَا عَبْدُ اللَّهِ بْنُ صَالِحٍ  ، حَدَّثَنِي مُعَاوِيَةُ بْنُ صَالِحٍ  ، عَنْ سُلَيْمِ بْنِ عَامِرٍ  ، عَنْ أَبِي أُمَامَةَ الْبَاهِلِيِّ  ، قَالَ :\" : اقْرَءُوا الْقُرْآنَ، وَلَا يَغُرَّنَّكُمْ هَذِهِ الْمَصَاحِفُ الْمُعَلَّقَةُ، فَإِنَّ اللَّهَ لَا يُعَذِّبُ قَلْبًا وَعَى الْقُرْآنَ \"",
      "english": {
        "narrator": "",
        "text": ""
      }
    },
    {
      "id": 16,
      "chapterId": 23,
      "bookId": 9,
      "arabic": "أَخْبَرَنَا مُحَمَّدُ بْنُ يُوسُفَ  ، حَدَّثَنَا مِسْعَرٌ  ، عَنْ مَعْنِ بْنِ عَبْدِ الرَّحْمَنِ  ، عَنْ ابْنِ مَسْعُودٍ  ، قَالَ :\" لَيْسَ مِنْ مُؤَدِّبٍ إِلَّا وَهُوَ يُحِبُّ أَنْ يُؤْتَى أَدَبُهُ، وَإِنَّ أَدَبَ اللَّهِ الْقُرْآنُ \"",
      "english": {
        "narrator": "",
        "text": ""
      }
    },
    {
      "id": 17,
      "chapterId": 23,
      "bookId": 9,
      "arabic": "حَدَّثَنَا سَهْلُ بْنُ حَمَّادٍ  ، حَدَّثَنَا شُعْبَةُ  ، عَنْ عَبْدِ الْمَلِكِ بْنِ مَيْسَرَةَ  ، عَنْ أَبِي الْأَحْوَصِ  ، قَالَ : كَانَ عَبْدُ اللَّهِ  ، يَقُولُ :\" إِنَّ هَذَا الْقُرْآنَ مَأْدُبَةُ اللَّهِ، فَمَنْ دَخَلَ فِيهِ، فَهُوَ آمِنٌ \"",
      "english": {
        "narrator": "",
        "text": ""
      }
    },
    {
      "id": 18,
      "chapterId": 23,
      "bookId": 9,
      "arabic": "أَخْبَرَنَا يَحْيَى بْنُ حَمَّادٍ  ، حَدَّثَنَا أَبُو عَوَانَةَ  ، عَنْ الْأَعْمَشِ  ، عَنْ إِبْرَاهِيمَ  ، عَنْ عَبْدِ الرَّحْمَنِ بْنِ يَزِيدَ  ،  عَنْ عَبْدِ اللَّهِ  ، قَالَ :\" مَنْ أَحَبَّ الْقُرْآنَ، فَلْيُبْشِرْ \"",
      "english": {
        "narrator": "",
        "text": ""
      }
    },
    {
      "id": 19,
      "chapterId": 23,
      "bookId": 9,
      "arabic": "حَدَّثَنَا يَعْلَى  ، حَدَّثَنَا الْأَعْمَشُ  ، عَنْ إِبْرَاهِيمَ  ، عَنْ عَبْدِ الرَّحْمَنِ بْنِ يَزِيدَ  ، عَنْ عَبْدِ اللَّهِ  ، قَالَ :\" مَنْ أَحَبَّ الْقُرْآنَ، فَلْيُبْشِرْ \"",
      "english": {
        "narrator": "",
        "text": ""
      }
    },
    {
      "id": 20,
      "chapterId": 23,
      "bookId": 9,
      "arabic": "حَدَّثَنَا يَزِيدُ بْنُ هَارُونَ  ، أَنْبَأَنَا هَمَّامٌ  ، عَنْ عَاصِمِ بْنِ أَبِي النُّجُودِ  ، عَنِ الشَّعْبِيِّ  : أَنَّ ابْنَ مَسْعُودٍ   كَانَ يَقُولُ :\" يَجِيءُ الْقُرْآنُ يَوْمَ الْقِيَامَةِ فَيَشْفَعُ لِصَاحِبِهِ، فَيَكُونُ لَهُ قَائِدًا إِلَى الْجَنَّةِ، وَيَشْهَدُ عَلَيْهِ، وَيَكُونُ لَهُ سَائِقًا إِلَى النَّارِ \"",
      "english": {
        "narrator": "",
        "text": ""
      }
    },
    {
      "id": 21,
      "chapterId": 23,
      "bookId": 9,
      "arabic": "حَدَّثَنَا مُسْلِمُ بْنُ إِبْرَاهِيمَ  ، حَدَّثَنَا الْحَسَنُ بْنُ أَبِي جَعْفَرٍ  ، حَدَّثَنَا بُدَيْلٌ  ، عَنْ أَنَسٍ  ، قَالَ : قَالَ رَسُولُ اللَّهِ صَلَّى اللَّهُ عَلَيْهِ وَسَلَّمَ :\" إِنَّ لِلَّهِ أَهْلِينَ مِنَ النَّاسِ، قِيلَ : يَا رَسُولَ اللَّهِ، مَنْ هُمْ؟ قَالَ : أَهْلُ الْقُرْآنِ \"",
      "english": {
        "narrator": "",
        "text": ""
      }
    },
    {
      "id": 22,
      "chapterId": 23,
      "bookId": 9,
      "arabic": "حَدَّثَنَا عَمْرُو بْنُ عَاصِمٍ  ، حَدَّثَنَا حَمَّادُ بْنُ سَلَمَةَ  ، عَنْ عَاصِمِ بْنِ بَهْدَلَةَ  ، عَنْ مُغِيثٍ  ، عَنْ كَعْبٍ  ، قَالَ :\" عَلَيْكُمْ بِالْقُرْآنِ، فَإِنَّهُ فَهْمُ الْعَقْلِ، وَنُورُ الْحِكْمَةِ، وَيَنَابِيعُ الْعِلْمِ، وَأَحْدَثُ الْكُتُبِ بِالرَّحْمَنِ عَهْدًا، وَقَالَ فِي التَّوْرَاةِ : يَا مُحَمَّدُ ، إِنِّي مُنَزِّلٌ عَلَيْكَ تَوْرَاةً حَدِيثَةً، تَفْتَحُ فِيهَا أَعْيُنًا عُمْيًا، وَآذَانًا صُمًّا، وَقُلُوبًا غُلْفًا \"",
      "english": {
        "narrator": "",
        "text": ""
      }
    },
    {
      "id": 23,
      "chapterId": 23,
      "bookId": 9,
      "arabic": "حَدَّثَنَا سَهْلُ بْنُ حَمَّادٍ  ، حَدَّثَنَا شُعْبَةُ  ، حَدَّثَنَا زِيَادُ بْنُ مِخْرَاقٍ  ، عَنْ أَبِي إِيَاسٍ  ، عَنْ أَبِي كِنَانَةَ  ، عَنْ أَبِي مُوسَى  ، أَنَّهُ قَالَ :\" إِنَّ هَذَا الْقُرْآنَ كَائِنٌ لَكُمْ أَجْرًا، وَكَائِنٌ لَكُمْ ذِكْرًا، وَكَائِنٌ بِكُمْ نُورًا، وَكَائِنٌ عَلَيْكُمْ وِزْرًا، اتَّبِعُوا الْقُرْآنَ، وَلَا يَتَّبِعْكُمْ الْقُرْآنُ، فَإِنَّهُ مَنْ يَتَّبِعْ الْقُرْآنَ، يَهْبِطْ بِهِ فِي رِيَاضِ الْجَنَّةِ، وَمَنْ اتَّبَعَهُ الْقُرْآنُ يَزُخُّ فِي قَفَاهُ، فَيَقْذِفُهُ فِي جَهَنَّمَ \".\nقَالَ أَبُو مُحَمَّد : يَزُخُّ : يَدْفَعُ",
      "english": {
        "narrator": "",
        "text": ""
      }
    },
    {
      "id": 24,
      "chapterId": 23,
      "bookId": 9,
      "arabic": "حَدَّثَنَا عَبْدُ اللَّهِ بْنُ يَزِيدَ  ، حَدَّثَنَا مُوسَى بْنُ أَيُّوبَ  ، قَالَ سَمِعْتُ عَمِّي إِيَاسَ بْنَ عَامِرٍ  ، يَقُولُ : أَخَذَ عَلِيُّ بْنُ أَبِي طَالِبٍ   بِيَدِي، ثُمَّ قَالَ :\" إِنَّكَ إِنْ بَقِيتَ، سَيَقْرَأُ الْقُرْآنَ ثَلَاثَةُ أَصْنَافٍ : فَصِنْفٌ لِلَّهِ، وَصِنْفٌ لِلْجِدَالِ، وَصِنْفٌ لِلدُّنْيَا، وَمَنْ طَلَبَ بِهِ أَدْرَكَ \"",
      "english": {
        "narrator": "",
        "text": ""
      }
    },
    {
      "id": 25,
      "chapterId": 23,
      "bookId": 9,
      "arabic": "حَدَّثَنَا سُلَيْمَانُ بْنُ حَرْبٍ  ، عَنْ حَمَّادِ بْنِ زَيْدٍ  ، عَنْ أَيُّوبَ  ، عَنْ أَبِي قِلَابَةَ  : أَنَّ رَجُلًا قَالَ لِأَبِي الدَّرْدَاءِ   : \" إِنَّ إِخْوَانَكَ مِنْ أَهْلِ الْكُوفَةِ ، مِنْ أَهْلِ الذِّكْرِ، يُقْرِئُونَكَ السَّلَامَ.\nفَقَالَ : وَعَلَيْهِمْ السَّلَامُ، وَمُرْهُمْفَلْيُعْطُوا الْقُرْآنَ بِخَزَائِمِهِمْ، فَإِنَّهُ يَحْمِلُهُمْ عَلَى الْقَصْدِ وَالسُّهُولَةِ، وَيُجَنِّبُهُمْ الْجَوْرَ وَالْحُزُونَةَ \"",
      "english": {
        "narrator": "",
        "text": ""
      }
    },
    {
      "id": 26,
      "chapterId": 23,
      "bookId": 9,
      "arabic": "أَخْبَرَنَا مُحَمَّدُ بْنُ يَزِيدَ الرِّفَاعِيُّ  ، حَدَّثَنَا الْحُسَيْنُ الْجُعْفِيُّ  ، عَنْ حَمْزَةَ الزَّيَّاتِ  ، عَنْ أَبِي الْمُخْتَارِ الطَّائِيِّ  ، عَنْ ابْنِ أَخِي الْحَارِثِ  ، عَنْ الْحَارِثِ  ، قَالَ : دَخَلْتُ الْمَسْجِدَ، فَإِذَا أُنَاسٌ يَخُوضُونَ فِي أَحَادِيثَ، فَدَخَلْتُ عَلَى عَلِيٍّ  ، فَقُلْتُ : أَلَا تَرَى أَنَّ أُنَاسًا يَخُوضُونَ فِي الْأَحَادِيثِ فِي الْمَسْجِدِ؟ فَقَالَ : قَدْ فَعَلُوهَا؟ قُلْتُ : نَعَمْ، قَالَ : أَمَا إِنِّي سَمِعْتُ رَسُولَ اللَّهِ صَلَّى اللَّهُ عَلَيْهِ وَسَلَّمَ، يَقُولُ :\" سَتَكُونُ فِتَنٌ \"، قُلْتُ : وَمَا الْمَخْرَجُ مِنْهَا؟ قَالَ : كِتَابُ اللَّهِ، كِتَابُ اللَّهِ فِيهِ نَبَأُ مَا قَبْلَكُمْ، وَخَبَرُ مَا بَعْدَكُمْ، وَحُكْمُ مَا بَيْنَكُمْ، هُوَ الْفَصْلُ لَيْسَ بِالْهَزْلِ، هُوَ الَّذِي مَنْ تَرَكَهُ مِنْ جَبَّارٍ، قَصَمَهُ اللَّهُ، وَمَنْ ابْتَغَى الْهُدَى فِي غَيْرِهِ، أَضَلَّهُ اللَّهُ، فَهُوَ حَبْلُ اللَّهِ الْمَتِينُ، وَهُوَ الذِّكْرُ الْحَكِيمُ، وَهُوَ الصِّرَاطُ الْمُسْتَقِيمُ، وَهُوَ الَّذِي لَا تَزِيغُ بِهِ الْأَهْوَاءُ، وَلَا تَلْتَبِسُ بِهِ الْأَلْسِنَةُ، وَلَا يَشْبَعُ مِنْهُ الْعُلَمَاءُ، وَلَا يَخْلَقُ عَنْ كَثْرَةِ الرَّدِّ، وَلَا تَنْقَضِي عَجَائِبُهُ، وَهُوَ الَّذِي لَمْ يَنْتَهِ الْجِنُّ إِذْ سَمِعَتْهُ أَنْ قَالُوا : # إِنَّا سَمِعْنَا قُرْءَانًا عَجَبًا سورة الجن آية 1 #، هُوَ الَّذِي مَنْ قَالَ بِهِ صَدَقَ، وَمَنْ حَكَمَ بِهِ عَدَلَ، وَمَنْ عَمِلَ بِهِ أُجِرَ، وَمَنْ دَعَا إِلَيْهِ هُدِيَ إِلَى صِرَاطٍ مُسْتَقِيمٍ \"خُذْهَا إِلَيْكَ يَا أَعْوَرُ",
      "english": {
        "narrator": "",
        "text": ""
      }
    },
    {
      "id": 27,
      "chapterId": 23,
      "bookId": 9,
      "arabic": "حَدَّثَنَا مُحَمَّدُ بْنُ الْعَلَاءِ  ، حَدَّثَنَا زَكَرِيَّا بْنُ عَدِيٍّ  ، حَدَّثَنَا مُحَمَّدُ بْنُ سَلَمَةَ  ، عَنْ ابْنِ سِنَانٍ  ، عَنْ عَمْرِو بْنِ مُرَّةَ  ، عَنْ أَبِي الْبَخْتَرِيِّ  ، عَنِ الْحَارِثِ  ، عَنْ عَلِيٍّ  ، قَالَ : قِيلَ : يَا رَسُولَ اللَّهِ، إِنَّ أُمَّتَكَ سَتُفْتَتَنُ مِنْ بَعْدِكَ، قَالَ : فَسَأَلَ رَسُولَ اللَّهِ صَلَّى اللَّهُ عَلَيْهِ وَسَلَّمَ أَوْ سُئِلَ : مَا الْمَخْرَجُ مِنْهَا؟ قَالَ :\" الْكِتَابُ الْعَزِيزُ الَّذِي # لا يَأْتِيهِ الْبَاطِلُ مِنْ بَيْنِ يَدَيْهِ وَلا مِنْ خَلْفِهِ تَنْزِيلٌ مِنْ حَكِيمٍ حَمِيدٍ سورة فصلت آية 42 # مَنِ ابْتَغَى الْهُدَى فِي غَيْرِهِ، فَقَدْ أَضَلَّهُ اللَّهُ، وَمَنْ وَلِيَ هَذَا الْأَمْرَ مِنْ جَبَّارٍ فَحَكَمَ بِغَيْرِهِ، قَصَمَهُ اللَّهُ، هُوَ الذِّكْرُ الْحَكِيمُ، وَالنُّورُ الْمُبِينُ، وَالصِّرَاطُ الْمُسْتَقِيمُ، فِيهِ خَبَرُ مَنْ قَبْلَكُمْ، وَنَبَأُ مَا بَعْدَكُمْ، وَحُكْمُ مَا بَيْنَكُمْ، وَهُوَ الْفَصْلُ لَيْسَ بِالْهَزْلِ، وَهُوَ الَّذِي سَمِعَتْهُ الْجِنُّ فَلَمْ تَتَنَاهَ أَنْ قَالُوا : # إِنَّا سَمِعْنَا قُرْءَانًا عَجَبًا سورة الجن آية 1 #، وَلَا يَخْلَقُ عَنْ كَثْرَةِ الرَّدِّ، وَلَا تَنْقَضِي عِبَرُهُ، وَلَا تَفْنَى عَجَائِبُهُ \"، ثُمَّ قَالَ عَلِيٌّ لِلْحَارِثِ : خُذْهَا إِلَيْكَ يَا أَعْوَرُ",
      "english": {
        "narrator": "",
        "text": ""
      }
    },
    {
      "id": 28,
      "chapterId": 23,
      "bookId": 9,
      "arabic": "أَخْبَرَنَا مُحَمَّدُ بْنُ يُوسُفَ ، حَدَّثَنَا سُفْيَانُ ، عَنْ أَبِي حمزة ، عَنْ إِبْرَاهِيمَ  : # وَمَنْ يُؤْتَ الْحِكْمَةَ فَقَدْ أُوتِيَ خَيْرًا كَثِيرًا سورة البقرة آية 269 #، قَالَ :\" الْفَهْمَ بِالْقُرْآنِ \"",
      "english": {
        "narrator": "",
        "text": ""
      }
    },
    {
      "id": 29,
      "chapterId": 23,
      "bookId": 9,
      "arabic": "أَخْبَرَنَا مُحَمَّدُ بْنُ يُوسُفَ ، عَنْ وَرْقَاءَ ، عَنْ ابْنِ أَبِي نَجِيحٍ ، عَنْ مُجَاهِدٍ  : # يُؤْتِي الْحِكْمَةَ مَنْ يَشَاءُ سورة البقرة آية 269 #، قَالَ :\" الْكِتَابَ يُؤْتِي إِصَابَتَهُ مَنْ يَشَاءُ \"",
      "english": {
        "narrator": "",
        "text": ""
      }
    },
    {
      "id": 30,
      "chapterId": 23,
      "bookId": 9,
      "arabic": "أَخْبَرَنَا مُحَمَّدُ بْنُ يَزِيدَ ، حَدَّثَنَا أَبُو بَكْرٍ ، عَنْ الْأَعْمَشِ ، عَنْ خَيْثَمَةَ ، قَالَ : قَالَ لِامْرَأَتِهِ :\" إِيَّاكِ أَنْ تُدْخِلِي بَيْتِي مَنْ يَشْرَبُ الْخَمْرَ، بَعْدَ أَنْ كَانَ يُقْرَأُ فِيهِ الْقُرْآنُ كُلَّ ثَلَاثٍ \"",
      "english": {
        "narrator": "",
        "text": ""
      }
    },
    {
      "id": 31,
      "chapterId": 23,
      "bookId": 9,
      "arabic": "حَدَّثَنَا أَبُو نُعَيْمٍ  ، حَدَّثَنَا فِطْرٌ  ، عَنْ الْحَكَمِ  ، عَنْ مِقْسَمٍ  ، عَنْ ابْنِ عَبَّاسٍ  ، قَالَ :\" مَا يَمْنَعُ أَحَدَكُمْ إِذَا رَجَعَ مِنْ سُوقِهِ، أَوْ مِنْ حَاجَتِهِ، فَاتَّكَأَ عَلَى فِرَاشِهِ، أَنْ يَقْرَأَ ثَلَاثَ آيَاتٍ مِنْ الْقُرْآنِ؟ ! \"",
      "english": {
        "narrator": "",
        "text": ""
      }
    },
    {
      "id": 32,
      "chapterId": 23,
      "bookId": 9,
      "arabic": "أَخْبَرَنَا مُسْلِمُ بْنُ إِبْرَاهِيمَ  ، حَدَّثَنَا عَبْدُ الْوَاحِدِ  ، حَدَّثَنَا عَبْدُ الرَّحْمَنِ بْنُ إِسْحَاق  ، حَدَّثَنَا النُّعْمَانُ بْنُ سَعْدٍ  ، عَنْ عَلِيٍّ  ، قَالَ : قَالَ رَسُولُ اللَّهِ صَلَّى اللَّهُ عَلَيْهِ وَسَلَّمَ :\" خَيْرُكُمْ مَنْ تَعَلَّمَ الْقُرْآنَ وَعَلَّمَهُ \"",
      "english": {
        "narrator": "",
        "text": ""
      }
    },
    {
      "id": 33,
      "chapterId": 23,
      "bookId": 9,
      "arabic": "حَدَّثَنَا الْحَجَّاجُ بْنُ مِنْهَالٍ  ، حَدَّثَنَا شُعْبَةُ  ، أَخْبَرَنِي عَلْقَمَةُ بْنُ مَرْثَدٍ  ، قَالَ : سَمِعْتُ سَعْدَ بْنَ عُبَيْدَةَ  ، عَنْ أَبِي عَبْدِ الرَّحْمَنِ السُّلَمِيِّ  ،  عَنْ عُثْمَانَ  ، عَنِ النَّبِيِّ صَلَّى اللَّهُ عَلَيْهِ وَسَلَّمَ، قَالَ :\" إِنَّ خَيْرَكُمْ مَنْ عَلَّمَ الْقُرْآنَ، أَوْ تَعَلَّمَهُ \".\nقَالَ : أَقْرَأَ أَبُو عَبْدِ الرَّحْمَنِ فِي إِمْرَةِ عُثْمَانَ حَتَّى كَانَ الْحَجَّاجُ، قَالَ : ذَاكَ أَقْعَدَنِي مَقْعَدِي هَذَا",
      "english": {
        "narrator": "",
        "text": ""
      }
    },
    {
      "id": 34,
      "chapterId": 23,
      "bookId": 9,
      "arabic": "حَدَّثَنَا الْمُعَلَّى بْنُ أَسَدٍ  ، حَدَّثَنَا الْحَارِثُ بْنُ نَبْهَانَ  ، حَدَّثَنَا عَاصِمُ بْنُ بَهْدَلَةَ  ، عَنْ مُصْعَبِ بْنِ سَعْدٍ  ، عَنْ أَبِيهِ  ، قَالَ : قَالَ رَسُولُ اللَّهِ صَلَّى اللَّهُ عَلَيْهِ وَسَلَّمَ :\" خِيَارُكُمْ مَنْ تَعَلَّمَ الْقُرْآنَ، وَعَلَّمَ الْقُرْآنَ \"، قَالَ : فَأَخَذَ بِيَدِي، فَأَقْعَدَنِي هَذَا الْمَقْعَدَ أُقْرِئُ",
      "english": {
        "narrator": "",
        "text": ""
      }
    },
    {
      "id": 35,
      "chapterId": 23,
      "bookId": 9,
      "arabic": "حَدَّثَنَا سَعِيدُ بْنُ عَامِرٍ  ، عَنْ شُعْبَةَ  ، عَنْ يَزِيدَ بْنِ أَبِي زِيَادٍ  ، عَنْ عِيسَى  ، عَنْ رَجُلٍ  ، عَنْ سَعْدِ بْنِ عُبَادَةَ  ، أَنّ رَسُولَ اللَّهِ صَلَّى اللَّهُ عَلَيْهِ وَسَلَّمَ، قَالَ :\" مَا مِنْ رَجُلٍ يَتَعَلَّمُ الْقُرْآنَ ثُمَّ يَنْسَاهُ، إِلَّا لَقِيَ اللَّهَ يَوْمَ الْقِيَامَةِ وَهُوَ أَجْذَمُ \"، قَالَ أَبُو مُحَمَّد : عِيسَى وهُوَ ابْنُ فَائِدٍ",
      "english": {
        "narrator": "",
        "text": ""
      }
    },
    {
      "id": 36,
      "chapterId": 23,
      "bookId": 9,
      "arabic": "حَدَّثَنَا جَعْفَرُ بْنُ عَوْنٍ  ، حَدَّثَنَا مُوسَى بْنُ عُبَيْدَةَ  ، عَنْ صَفْوَانَ بْنِ سُلَيْمٍ  ، عَنْ نَاجِيَةَ بْنِ عَبْدِ اللَّهِ بْنِ عُتْبَةَ L7835 ، عَنْ أَبِيهِ  ، عَنْ عَبْدِ اللَّهِ  ، قَالَ :\" أَكْثِرُوا تِلَاوَةَ الْقُرْآنِ قَبْلَ أَنْ يُرْفَعَ، قَالُوا : هَذِهِ الْمَصَاحِفُ تُرْفَعُ، فَكَيْفَ بِمَا فِي صُدُورِ الرِّجَالِ؟ قَالَ : يُسْرَى عَلَيْهِ لَيْلًا فَيُصْبِحُونَ مِنْهُ فُقَرَاءَ، وَيَنْسَوْنَ قَوْلَ : لَا إِلَهَ إِلَّا اللَّهُ، وَيَقَعُونَ فِي قَوْلِ الْجَاهِلِيَّةِ وَأَشْعَارِهِمْ، وَذَلِكَ حِينَ يَقَعُ عَلَيْهِمْ الْقَوْلُ \"",
      "english": {
        "narrator": "",
        "text": ""
      }
    },
    {
      "id": 37,
      "chapterId": 23,
      "bookId": 9,
      "arabic": "حَدَّثَنَا الْمُعَلَّى بْنُ أَسَدٍ ، حَدَّثَنَا سَلَّامٌ يَعْنِي ابْنَ أَبِي مُطِيعٍ ، قَالَ : كَانَ قَتَادَةُ ، يَقُولُ :\" اعْمُرُوا بِهِ قُلُوبَكُمْ، وَاعْمُرُوا بِهِ بُيُوتَكُمْ \"، قَالَ : أُرَاهُ يَعْنِي : الْقُرْآنَ",
      "english": {
        "narrator": "",
        "text": ""
      }
    },
    {
      "id": 38,
      "chapterId": 23,
      "bookId": 9,
      "arabic": "حَدَّثَنَا عَمْرُو بْنُ عَاصِمٍ  ، حَدَّثَنَا حَمَّادُ بْنُ سَلَمَةَ  ، عَنْ عَاصِمٍ  ، عَنْ زِرٍّ  ، عَنْ ابْنِ مَسْعُودٍ  ، قَالَ :\" لَيُسْرَيَنَّ عَلَى الْقُرْآنِ ذَاتَ لَيْلَةٍ، فَلَا يُتْرَكُ آيَةٌ فِي مُصْحَفٍ، وَلَا فِي قَلْبِ أَحَدٍ، إِلَّا رُفِعَتْ \"",
      "english": {
        "narrator": "",
        "text": ""
      }
    },
    {
      "id": 39,
      "chapterId": 23,
      "bookId": 9,
      "arabic": "حَدَّثَنَا مُحَمَّدُ بْنُ كَثِيرٍ ، عَنْ عَبْدِ اللَّهِ بْنِ وَاقِدٍ ، عَنْ قَتَادَةَ ، قَالَ :\" مَا جَالَسَ الْقُرْآنَ أَحَدٌ فَقَامَ عَنْهُ، إِلَّا بِزِيَادَةٍ أَوْ نُقْصَانٍ، ثُمَّ قَرَأَ : # وَنُنَزِّلُ مِنَ الْقُرْءَانِ مَا هُوَ شِفَاءٌ وَرَحْمَةٌ لِلْمُؤْمِنِينَ وَلا يَزِيدُ الظَّالِمِينَ إِلا خَسَارًا سورة الإسراء آية 82 #",
      "english": {
        "narrator": "",
        "text": ""
      }
    }
  ]
}