{
  "page": 54,
  "perPage": 50,
  "totalPages": 69,
  "totalCount": 3406,
  "nextPage": 55,
  "prevPage": 53,
  "items": [
    {
      "id": 90,
      "chapterId": 23,
      "bookId": 9,
      "arabic": "حَدَّثَنَا أَبُو نُعَيْمٍ  ، حَدَّثَنَا إِسْرَائِيلُ  ، عَنْ أَبِي إِسْحَاق  ، عَنْ سُلَيْمِ بْنِ حَنْظَلَةَ الْبَكْرِيِّ  ، قَالَ : قَالَ عَبْدُ اللَّهِ بْنُ مَسْعُودٍ   :\" مَنْ قَرَأَ آلَ عِمْرَانَ ، فَهُوَ غَنِيٌّ، وَالنِّسَاءُ مُحَبِّرَةٌ\".\nقَالَ أَبُو مُحَمَّد : مُحَبِّرَةٌ : مُزَيِّنَةٌ",
      "english": {
        "narrator": "",
        "text": ""
      }
    },
    {
      "id": 91,
      "chapterId": 23,
      "bookId": 9,
      "arabic": "حَدَّثَنَا إِسْحَاق بْنُ عِيسَى  ، عَنْ ابْنِ لَهِيعَةَ  ، عَنْ يَزِيدَ بْنِ أَبِي حَبِيبٍ  ، عَنْ أَبِي الْخَيْرِ  ، عَنْ عُثْمَانَ بْنِ عَفَّانَ  ، قَالَ :\" مَنْ قَرَأَ آخِرَ آلِ عِمْرَانَ فِي لَيْلَةٍ، كُتِبَ لَهُ قِيَامُ لَيْلَةٍ \"",
      "english": {
        "narrator": "",
        "text": ""
      }
    },
    {
      "id": 92,
      "chapterId": 23,
      "bookId": 9,
      "arabic": "حَدَّثَنَا مُحَمَّدُ بْنُ الْمُبَارَكِ  ، حَدَّثَنَا صَدَقَةُ بْنُ خَالِدٍ  ، عَنْ يَحْيَى بْنِ الْحَارِثِ  ، عَنْ مَكْحُولٍ  ، قَالَ :\" مَنْ قَرَأَ سُورَةَ آلِ عِمْرَانَ يَوْمَ الْجُمُعَةِ، صَلَّتْ عَلَيْهِ الْمَلَائِكَةُ إِلَى اللَّيْلِ \"",
      "english": {
        "narrator": "",
        "text": ""
      }
    },
    {
      "id": 93,
      "chapterId": 23,
      "bookId": 9,
      "arabic": "حَدَّثَنَا الْقَاسِمُ بْنُ سَلَّامٍ أَبُو عُبَيْدٍ  ، قَالَ : حَدَّثَنِي عُبَيْدُ اللَّهِ الْأَشْجَعِيُّ  ، حَدَّثَنِي مِسْعَرٌ  ، قَالَ : حَدَّثَنِي جَابِرٌ  ، قَبْلَ أَنْ يَقَعَ فِيمَا وَقَعَ فِيهِ ، عَنْ الشَّعْبِيِّ  ، قَالَ : قَالَ عَبْدُ اللَّهِ   :\" نِعْمَ كَنْزُ الصُّعْلُوكِ سُورَةُ آلِ عِمْرَانَ ، يَقُومُ بِهَا فِي آخِرِ اللَّيْلِ \"",
      "english": {
        "narrator": "",
        "text": ""
      }
    },
    {
      "id": 94,
      "chapterId": 23,
      "bookId": 9,
      "arabic": "حَدَّثَنَا مُحَمَّدُ بْنُ سَعِيدٍ ، حَدَّثَنَا عَبْدُ السَّلَامِ ، عَنِ الْجُرَيْرِيِّ ،  عَنْ أَبِي السَّلِيلِ ، قَالَ : أَصَابَ رَجُلٌ دَمًا، قَالَ : فَأَوَى إِلَى وَادِي مَجَنَّةٍ : وَادٍ لَا يُمْسِي فِيهِ أَحَدٌ إِلَّا أَصَابَتْهُ حَيَّةٌ : وَعَلَى شَفِيرِ الْوَادِي رَاهِبَانِ، قَالَ أَحَدُهُمَا لِصَاحِبِهِ : هَلَكَ وَاللَّهِ الرَّجُلُ، قَالَ :فَافْتَتَحَ سُورَةَ آلِ عِمْرَانَ ، قَالَا : فَقَرَأَ سُورَةً طَيِّبَةً لَعَلَّهُ سَيَنْجُو، قَالَ : فَأَصْبَحَ سَلِيمًا \".\nقَالَ أَبُو مُحَمَّد : أَبُو السَّلِيلِ : ضُرَيْبُ بْنُ نُقَيْرٍ، ويقال : ابن نفير",
      "english": {
        "narrator": "",
        "text": ""
      }
    },
    {
      "id": 95,
      "chapterId": 23,
      "bookId": 9,
      "arabic": "حَدَّثَنَا مُعَاذُ بْنُ هَانِئٍ  ، حَدَّثَنَا إِبْرَاهِيمُ بْنُ طَهْمَانَ  ، حَدَّثَنَا عَاصِمٌ  ، عَنْ الْمُسَيَّبِ بْنِ رَافِعٍ  ، قَالَ : قَالَ عَبْدُ اللَّهِ   :\" السَّبْعُ الطُّوَلُ مِثْلُ التَّوْرَاةِ، وَالْمِئِينَ مِثْلُ الْإِنْجِيلِ، وَالْمَثَانِي مِثْلُ الزَّبُورِ، وَسَائِرُ الْقُرْآنِ بَعْدُ فَضْلٌ \"",
      "english": {
        "narrator": "",
        "text": ""
      }
    },
    {
      "id": 96,
      "chapterId": 23,
      "bookId": 9,
      "arabic": "حَدَّثَنَا أَبُو نُعَيْمٍ  ، حَدَّثَنَا زُهَيْرٌ  ، عَنْ أَبِي إِسْحَاق  ، عَنْ عَبْدِ اللَّهِ بْنِ خَلِيفَةَ  ، عَنْ عُمَرَ  ، قَالَ :\" الْأَنْعَامُ مِنْ نَوَاجِبِ الْقُرْآنِ \"",
      "english": {
        "narrator": "",
        "text": ""
      }
    },
    {
      "id": 97,
      "chapterId": 23,
      "bookId": 9,
      "arabic": "حَدَّثَنَا مُسْلِمُ بْنُ إِبْرَاهِيمَ  ، حَدَّثَنَا هَمَّامٌ  .\nعَنْ أَبِي عِمْرَانَ الْجَوْنِيِّ  ، عَنْ عَبْدِ اللَّهِ بْنِ رَبَاحٍ  ، قَالَ : سَمِعْتُ كَعْبًا  ، قَالَ :\" فَاتِحَةُ التَّوْرَاةِ الْأَنْعَامُ ، وَخَاتِمَتُهَا هُودٌ \"",
      "english": {
        "narrator": "",
        "text": ""
      }
    },
    {
      "id": 98,
      "chapterId": 23,
      "bookId": 9,
      "arabic": "أَخْبَرَنَا يَزِيدُ بْنُ هَارُونَ  ، أَنْبَأَنَا هَمَّامٌ  ، عَنْ أَبِي عِمْرَانَ الْجَوْنِيِّ  ، عَنْ عَبْدِ اللَّهِ بْنِ رَبَاحٍ  ، عَنْ كَعْبٍ   : أَنّ النَّبِيَّ صَلَّى اللَّهُ عَلَيْهِ وَسَلَّمَ، قَالَ :\" اقْرَءُوا سُورَةَ هُودٍ يَوْمَ الْجُمُعَةِ \"",
      "english": {
        "narrator": "",
        "text": ""
      }
    },
    {
      "id": 99,
      "chapterId": 23,
      "bookId": 9,
      "arabic": "حَدَّثَنَا مُسْلِمُ بْنُ إِبْرَاهِيمَ  ، حَدَّثَنَا هَمَّامٌ  ، حَدَّثَنَا أَبُو عِمْرَانَ الْجَوْنِيُّ  ، عَنْ عَبْدِ اللَّهِ بْنِ رَبَاحٍ  ، عَنْ كَعْبٍ  ، قَالَ : قَالَ رَسُولُ اللَّهِ صَلَّى اللَّهُ عَلَيْهِ وَسَلَّمَ :\" اقْرَءُوا سُورَةَ هُودٍ يَوْمَ الْجُمُعَةِ \"",
      "english": {
        "narrator": "",
        "text": ""
      }
    },
    {
      "id": 100,
      "chapterId": 23,
      "bookId": 9,
      "arabic": "حَدَّثَنَا أَبُو الْمُغِيرَةِ  ، حَدَّثَتْنَا عَبْدَةُ  ، عَنْ خَالِدِ بْنِ مَعْدَانَ  ، قَالَ :\" مَنْ قَرَأَ عَشْرَ آيَاتٍ مِنْ الْكَهْفِ ، لَمْ يَخَفْ الدَّجَّالَ \"",
      "english": {
        "narrator": "",
        "text": ""
      }
    },
    {
      "id": 101,
      "chapterId": 23,
      "bookId": 9,
      "arabic": "حَدَّثَنَا مُحَمَّدُ بْنُ كَثِيرٍ  ، عَنْ الْأَوْزَاعِيِّ  ، عَنْ عَبْدَةَ  ، عَنْ زِرِّ بْنِ حُبَيْشٍ  ، قَالَ :\" مَنْ قَرَأَ آخِرَ سُورَةِ الْكَهْفِ لِسَاعَةٍ، يُرِيدُ يَقُومُ مِنْ اللَّيْلِ، قَامَهَا \"، قَالَ عَبْدَةُ : فَجَرَّبْنَاهُ، فَوَجَدْنَاهُ كَذَلِكَ",
      "english": {
        "narrator": "",
        "text": ""
      }
    },
    {
      "id": 102,
      "chapterId": 23,
      "bookId": 9,
      "arabic": "حَدَّثَنَا أَبُو النُّعْمَانِ  ، حَدَّثَنَا هُشَيْمٌ  ، حَدَّثَنَا أَبُو هَاشِمٍ  ، عَنْ أَبِي مِجْلَزٍ  ، عَنْ قَيْسِ بْنِ عُبَادٍ  ، عَنْ أَبِي سَعِيدٍ الْخُدْرِيِّ  ، قَالَ :\" مَنْ قَرَأَ سُورَةَ الْكَهْفِ لَيْلَةَ الْجُمُعَةِ، أَضَاءَ لَهُ مِنْ النُّورِ فِيمَا بَيْنَهُ وَبَيْنَ الْبَيْتِ الْعَتِيقِ \"",
      "english": {
        "narrator": "",
        "text": ""
      }
    },
    {
      "id": 103,
      "chapterId": 23,
      "bookId": 9,
      "arabic": "أَخْبَرَنَا أَبُو الْمُغِيرَةِ  ، حَدَّثَتْنَا عَبْدَةُ  ، عَنْ خَالِدِ بْنِ مَعْدَانَ  ، قَالَ :\" اقْرَءُوا الْمُنَجِّيَةَ، وَهِيَ : ( الم تَنْزِيلُ )، فَإِنَّهُ بَلَغَنِي أَنَّ رَجُلًا كَانَ يَقْرَؤُهَا مَا يَقْرَأُ شَيْئًا غَيْرَهَا، وَكَانَ كَثِيرَ الْخَطَايَا، فَنَشَرَتْ جَنَاحَهَا عَلَيْهِ، وَقَالَتْ : رَبِّ اغْفِرْ لَهُ، فَإِنَّهُ كَانَ يُكْثِرُ قِرَاءَتِي، فَشَفَّعَهَا الرَّبُّ فِيهِ، وَقَالَ : اكْتُبُوا لَهُ بِكُلِّ خَطِيئَةٍ حَسَنَةً، وَارْفَعُوا لَهُ دَرَجَةً \"",
      "english": {
        "narrator": "",
        "text": ""
      }
    },
    {
      "id": 104,
      "chapterId": 23,
      "bookId": 9,
      "arabic": "حَدَّثَنَا عَفَّانُ  ، حَدَّثَنَا حَمَّادُ بْنُ سَلَمَةَ  ، أنبأنَا أَبُو الزُّبَيْرِ  ، عَنْ عَبْدِ اللَّهِ بْنِ ضَمْرَةَ  ، عَنْ كَعْبٍ   قَالَ :\" مَنْ قَرَأَ ( ألم تَنْزِيلُ ) السَّجْدَةَ ، وَتَبَارَكَ الَّذِي بِيَدِهِ الْمُلْكُ، كُتِبَ لَهُ سَبْعُونَ حَسَنَةً، وَحُطَّ عَنْهُ بِهَا سَبْعُونَ سَيِّئَةً، وَرُفِعَ لَهُ بِهَا سَبْعُونَ دَرَجَةً \"",
      "english": {
        "narrator": "",
        "text": ""
      }
    },
    {
      "id": 105,
      "chapterId": 23,
      "bookId": 9,
      "arabic": "حَدَّثَنَا عَبْدُ اللَّهِ بْنُ صَالِحٍ  ، حَدَّثَنِي مُعَاوِيَةُ بْنُ صَالِحٍ  : أَنَّهُ سَمِعَ أَبَا خَالِدٍ عَامِرَ بْنَ جَشِيبٍ  ، وَبَحِيرَ بْنَ سَعْدٍ  ، يُحَدِّثَانِ : أَنَّ خَالِدَ بْنَ مَعْدَانَ  ، قَالَ :\" إِنَّ # الم { 1 } تَنْزِيلُ الْكِتَابِ لا رَيْبَ فِيهِ مِنْ رَبِّ الْعَالَمِينَ { 2 } سورة السجدة آية 1-2 # تُجَادِلُ عَنْ صَاحِبِهَا فِي الْقَبْرِ، تَقُولُ : اللَّهُمَّ إِنْ كُنْتُ مِنْ كِتَابِكَ، فَشَفِّعْنِي فِيهِ، وَإِنْ لَمْ أَكُنْ مِنْ كِتَابِكَ، فَامْحُنِي عَنْهُ، وَإِنَّهَا تَكُونُ كَالطَّيْرِ تَجْعَلُ جَنَاحَهَا عَلَيْهِ، فَيُشْفَعُ لَهُ، فَتَمْنَعُهُ مِنْ عَذَابِ الْقَبْرِ، وَفِي ( تَبَارَكَ ) مِثْلَهُ\"، فَكَانَ خَالِدٌ لَا يَبِيتُ حَتَّى يَقْرَأَ بِهِمَا",
      "english": {
        "narrator": "",
        "text": ""
      }
    },
    {
      "id": 106,
      "chapterId": 23,
      "bookId": 9,
      "arabic": "أَخْبَرَنَا أَبُو نُعَيْمٍ  ، حَدَّثَنَا سُفْيَانُ  ، عَنْ لَيْثٍ  ، عَنْ أَبِي الزُّبَيْرِ  ، عَنْ جَابِرٍ  ، قَالَ : كَانَ النَّبِيُّ صَلَّى اللَّهُ عَلَيْهِ وَسَلَّمَ\" لَا يَنَامُ حَتَّى يَقْرَأَ : ( تَنْزِيلُ ) السَّجْدَةَ ، ( وَتَبَارَكَ ) \"",
      "english": {
        "narrator": "",
        "text": ""
      }
    },
    {
      "id": 107,
      "chapterId": 23,
      "bookId": 9,
      "arabic": "حَدَّثَنَا مُوسَى بْنُ خَالِدٍ ، حَدَّثَنَا مُعْتَمِرٌ ، عَنْ لَيْثٍ ، عَنْ طَاوُسٍ ، قَالَ :\" فُضِّلَتَا عَلَى كُلِّ سُورَةٍ فِي الْقُرْآنِ بِسِتِّينَ حَسَنَةً \"",
      "english": {
        "narrator": "",
        "text": ""
      }
    },
    {
      "id": 108,
      "chapterId": 23,
      "bookId": 9,
      "arabic": "أَخْبَرَنَا حَجَّاجُ بْنُ مِنْهَالٍ ، حَدَّثَنَا شُعْبَةُ ، حَدَّثَنِي عَمْرُو بْنُ مُرَّةَ ، قَالَ : سَمِعْتُ مُرَّةَ ، يَقُولُ :\" أُتِيَ رَجُلٌ فِي قَبْرِهِ، فَأُتِيَ جَانِبُ قَبْرِهِ، فَجَعَلَتْ سُورَةٌ مِنْ الْقُرْآنِ ثَلَاثُونَ آيَةً تُجَادِلُ عَنْهُ، حَتَّى قَالَ : فَنَظَرْنَا أَنَا وَمَسْرُوقٌ، فَلَمْ نَجِدْ فِي الْقُرْآنِ سُورَةً ثَلَاثِينَ آيَةً إِلَّا تَبَارَكَ \"",
      "english": {
        "narrator": "",
        "text": ""
      }
    },
    {
      "id": 109,
      "chapterId": 23,
      "bookId": 9,
      "arabic": "حَدَّثَنَا إِبْرَاهِيمُ بْنُ الْمُنْذِرِ  ، حَدَّثَنَا إِبْرَاهِيمُ بْنُ الْمُهَاجِرِ بْنِ الْمِسْمَارِ  ، عَنْ عُمَرَ بْنِ حَفْصِ بْنِ ذَكْوَانَ  ، عَنْ مَوْلَى الْحُرَقَةِ  ، عَنْ أَبِي هُرَيْرَةَ  ، قَالَ : قَالَ رَسُولُ اللَّهِ صَلَّى اللَّهُ عَلَيْهِ وَسَلَّمَ :\" إِنَّ اللَّهَ تَبَارَكَ وَتَعَالَى قَرَأَ طه ، وَيس قَبْلَ أَنْ يَخْلُقَ السَّمَوَاتِ وَالْأَرْضَ بِأَلْفِ عَامٍ، فَلَمَّا سَمِعَتْ الْمَلَائِكَةُ الْقُرْآنَ، قَالَتْ : طُوبَى لِأُمَّةٍ يَنْزِلُ هَذَا عَلَيْهَا، وَطُوبَى لِأَجْوَافٍ تَحْمِلُ هَذَا، وَطُوبَى لِأَلْسِنَةٍ تَتَكَلَّمُ بِهَذَا \"",
      "english": {
        "narrator": "",
        "text": ""
      }
    },
    {
      "id": 110,
      "chapterId": 23,
      "bookId": 9,
      "arabic": "حَدَّثَنَا أَبُو الْوَلِيدِ مُوسَى بْنُ خَالِدٍ  ، حَدَّثَنَا مُعْتَمِرٌ  ، عَنْ أَبِيهِ  ، قَالَ : بَلَغَنِي عَنْ الْحَسَنِ  ، قَالَ :\" مَنْ قَرَأَ ( يس ) فِي لَيْلَةٍ، ابْتِغَاءَ وَجْهِ اللَّهِ أَوْ مَرْضَاةِ اللَّهِ، غُفِرَ لَهُ، وَقَالَ : بَلَغَنِي أَنَّهَا تَعْدِلُ الْقُرْآنَ كُلَّهُ \"",
      "english": {
        "narrator": "",
        "text": ""
      }
    },
    {
      "id": 111,
      "chapterId": 23,
      "bookId": 9,
      "arabic": "حَدَّثَنَا مُحَمَّدُ بْنُ سَعِيدٍ  ، حَدَّثَنَا حُمَيْدُ بْنُ عَبْدِ الرَّحْمَنِ  ، عَنْ الْحَسَنِ بْنِ صَالِحٍ  ، عَنْ هَارُونَ أَبِي مُحَمَّدٍ  ، عَنْ مُقَاتِلِ بْنِ حَيَّانَ  ، عَنْ قَتَادَةَ  ، عَنْ أَنَسٍ  ، قَالَ : قَالَ رَسُولُ اللَّهِ صَلَّى اللَّهُ عَلَيْهِ وَسَلَّمَ :\" إِنَّ لِكُلِّ شَيْءٍ قَلْبًا، وَإِنَّ قَلْبَ الْقُرْآنِ يس، مَنْ قَرَأَهَا فَكَأَنَّمَا قَرَأَ الْقُرْآنَ عَشْرَ مِرارٍ \"",
      "english": {
        "narrator": "",
        "text": ""
      }
    },
    {
      "id": 112,
      "chapterId": 23,
      "bookId": 9,
      "arabic": "حَدَّثَنَا الْوَلِيدُ بْنُ شُجَاعٍ  ، حَدَّثَنِي أَبِي  ، حَدَّثَنِي زِيَادُ بْنُ خَيْثَمَةَ  ، عَنْ مُحَمَّدِ بْنِ جُحَادَةَ  ، عَنْ الْحَسَنِ  ، عَنْ أَبِي هُرَيْرَةَ  ، قَالَ : قَالَ رَسُولُ اللَّهِ صَلَّى اللَّهُ عَلَيْهِ وَسَلَّمَ :\" مَنْ قَرَأَ يس فِي لَيْلَةٍ ابْتِغَاءَ وَجْهِ اللَّهِ، غُفِرَ لَهُ فِي تِلْكَ اللَّيْلَةِ \"",
      "english": {
        "narrator": "",
        "text": ""
      }
    },
    {
      "id": 113,
      "chapterId": 23,
      "bookId": 9,
      "arabic": "حَدَّثَنَا الْوَلِيدُ بْنُ شُجَاعٍ  ، حَدَّثَنِي أَبِي  ، حَدَّثَنِي زِيَادُ بْنُ خَيْثَمَةَ  ، عَنْ مُحَمَّدِ بْنِ جُحَادَةَ  ، عَنْ عَطَاءِ بْنِ أَبِي رَبَاحٍ  ، قَالَ : بَلَغَنِي أَنَّ رَسُولَ اللَّهِ صَلَّى اللَّهُ عَلَيْهِ وَسَلَّمَ، قَالَ :\" مَنْ قَرَأَ يس فِي صَدْرِ النَّهَارِ، قُضِيَتْ حَوَائِجُهُ \"",
      "english": {
        "narrator": "",
        "text": ""
      }
    },
    {
      "id": 114,
      "chapterId": 23,
      "bookId": 9,
      "arabic": "حَدَّثَنَا عَمْرُو بْنُ زُرَارَةَ  ، حَدَّثَنَا عَبْدُ الْوَهَّابِ  ، حَدَّثَنَا رَاشِدٌ أَبُو مُحَمَّدٍ الْحِمَّانِيُّ  ، عَنْ شَهْرِ بْنِ حَوْشَبٍ  ، قَالَ : قَالَ ابْنُ عَبَّاسٍ   :\" مَنْ قَرَأَ ( يس ) حِينَ يُصْبِحُ، أُعْطِيَ يُسْرَ يَوْمِهِ حَتَّى يُمْسِيَ، وَمَنْ قَرَأَهَا فِي صَدْرِ لَيْلِهِ، أُعْطِيَ يُسْرَ لَيْلَتِهِ حَتَّى يُصْبِحَ \"",
      "english": {
        "narrator": "",
        "text": ""
      }
    },
    {
      "id": 115,
      "chapterId": 23,
      "bookId": 9,
      "arabic": "حَدَّثَنَا يَعْلَى ، حَدَّثَنَا إِسْمَاعِيل ،  عَنْ عَبْدِ اللَّهِ بْنِ عِيسَى ، قَالَ : أُخْبِرْتُ أَنَّهُ\" مَنْ قَرَأَ ( حم ) الدُّخَانَ لَيْلَةَ الْجُمُعَةِ إِيمَانًا وَتَصْدِيقًا بِهَا، أَصْبَحَ مَغْفُورًا لَهُ \"",
      "english": {
        "narrator": "",
        "text": ""
      }
    },
    {
      "id": 116,
      "chapterId": 23,
      "bookId": 9,
      "arabic": "حَدَّثَنَا مُحَمَّدُ بْنُ الْمُبَارَكِ  ، حَدَّثَنَا صَدَقَةُ بْنُ خَالِدٍ  ، عَنْ يَحْيَى بْنِ الْحَارِثِ  ، عَنْ أَبِي رَافِعٍ  ، قَالَ :\" مَنْ قَرَأَ ( حم ) الدُّخَانَ فِي لَيْلَةِ الْجُمُعَةِ، أَصْبَحَ مَغْفُورًا لَهُ، وَزُوِّجَ مِنْ الْحُورِ الْعِينِ \"",
      "english": {
        "narrator": "",
        "text": ""
      }
    },
    {
      "id": 117,
      "chapterId": 23,
      "bookId": 9,
      "arabic": "حَدَّثَنَا جَعْفَرُ بْنُ عَوْنٍ ، عَنْ مِسْعَرٍ ، عَنْ سَعْدِ بْنِ إِبْرَاهِيمَ ، قَالَ :\" كُنَّ ! الْحَوَامِيمُ يُسَمَّيْنَ الْعَرَائِسَ \"",
      "english": {
        "narrator": "",
        "text": ""
      }
    },
    {
      "id": 118,
      "chapterId": 23,
      "bookId": 9,
      "arabic": "حَدَّثَنَا سَعِيدُ بْنُ عَامِرٍ  ، عَنْ هِشَامٍ  ، عَنْ الْحَسَنِ  ، قَالَ :\" مَنْ قَرَأَ ثَلَاثَ آيَاتٍ مِنْ آخِرِ سُورَةِ الْحَشْرِ إِذَا أَصْبَحَ، فَمَاتَ مِنْ يَوْمِهِ ذَلِكَ، طُبِعَ بِطَابَعِ الشُّهَدَاءِ، وَإِنْ قَرَأَ إِذَا أَمْسَى، فَمَاتَ مِنْ لَيْلَتِهِ، طُبِعَ بِطَابَعِ الشُّهَدَاءِ \"",
      "english": {
        "narrator": "",
        "text": ""
      }
    },
    {
      "id": 119,
      "chapterId": 23,
      "bookId": 9,
      "arabic": "حَدَّثَنَا إِسْحَاق بْنُ عِيسَى  ، عَنْ مَعْنٍ  ، عَنْ مُعَاوِيَةَ بْنِ صَالِحٍ  ، عَنْ بَحِيرِ بْنِ سَعْدٍ  ، عَنْ خَالِدِ بْنِ مَعْدَانَ  ، عَنِ النَّبِيِّ صَلَّى اللَّهُ عَلَيْهِ وَسَلَّمَ : أَنَّهُ كَانَ \" يَقْرَأُ الْمُسَبِّحَاتِ عِنْدَ النَّوْمِ، وَيَقُولُ :\" إِنَّ فِيهِنَّ آيَةً تَعْدِلُ أَلْفَ آيَةٍ \"",
      "english": {
        "narrator": "",
        "text": ""
      }
    },
    {
      "id": 120,
      "chapterId": 23,
      "bookId": 9,
      "arabic": "حَدَّثَنَا مُحَمَّدُ بْنُ الْفَرَجِ الْبَغْدَادِيُّ  ، حَدَّثَنَا مُحَمَّدُ بْنُ عَبْدِ اللَّهِ بْنِ الزُّبَيْرِ  ، حَدَّثَنَا خَالِدُ بْنُ طَهْمَانَ أَبُو الْعَلَاءِ الْخَفَّافُ  ، حَدَّثَنِي نَافِعُ بْنُ أَبِي نَافِعٍ  ، عَنْ مَعْقِلِ بْنِ يَسَارٍ  ، عَنِ النَّبِيِّ صَلَّى اللَّهُ عَلَيْهِ وَسَلَّمَ، قَالَ :\" مَنْ قَالَ حِينَ يُصْبِحُ : أَعُوذُ بِاللَّهِ السَّمِيعِ الْعَلِيمِ مِنْ الشَّيْطَانِ الرَّجِيمِ، وَثَلَاثَ آيَاتٍ مِنْ آخِرِ سُورَةِ الْحَشْرِ، وَكَّلَ اللَّهُ بِهِ سَبْعِينَ أَلْفَ مَلَكٍ يُصَلُّونَ عَلَيْهِ حَتَّى يُمْسِيَ، وَإِنْ قَالَهَا مَسَاءً، فَمِثْلُ ذَلِكَ حَتَّى يُصْبِحَ \"",
      "english": {
        "narrator": "",
        "text": ""
      }
    },
    {
      "id": 121,
      "chapterId": 23,
      "bookId": 9,
      "arabic": "حَدَّثَنَا أَبُو زَيْدٍ سَعِيدُ بْنُ الرَّبِيعِ  ، حَدَّثَنَا شُعْبَةُ  ، عَنْ أَبِي الْحَسَنِ  مُهَاجِرٍ، قَالَ : \" جَاءَ رَجُل   زَمَنَ زِيَادٍ إِلَى الْكُوفَةِ ، فَسَمِعْتُهُ يُحَدِّثُ أَنَّهُ كَانَ مَعَ رَسُولِ اللَّهِ صَلَّى اللَّهُ عَلَيْهِ وَسَلَّمَ فِي مَسِيرٍ لَهُ، قَالَ : وَرُكْبَتِي تُصِيبُ أَوْ تَمَسُّ رُكْبَتَهُ، فَسَمِعَ رَجُلًا يَقْرَأُ : قُلْ يَا أَيُّهَا الْكَافِرُونَ ، قَالَ :\" بَرِئَ مِنَ الشِّرْكِ \"، وَسَمِعَ رَجُلًا يَقْرَأُ : قُلْ هُوَ اللَّهُ أَحَدٌ ، قَالَ : غُفِرَ لَهُ \"",
      "english": {
        "narrator": "",
        "text": ""
      }
    },
    {
      "id": 122,
      "chapterId": 23,
      "bookId": 9,
      "arabic": "حَدَّثَنَا أَبُو نُعَيْمٍ  ، حَدَّثَنَا زُهَيْرٌ  ، عَنْ أَبِي إِسْحَاق  ، عَنْ فَرْوَةَ بْنِ نَوْفَلٍ  ، عَنْ أَبِيهِ   : أَنّ رَسُولَ اللَّهِ صَلَّى اللَّهُ عَلَيْهِ وَسَلَّمَ، قَالَ : \" مَجِيءٌ مَا جَاءَ بِكَ \"، قَالَ : جِئْتُ لِتُعَلِّمَنِي شَيْئًا أَقُولُهُ عِنْدَ مَنَامِي، قَالَ :\" فَإِذَا أَخَذْتَ مَضْجَعَكَ، فَاقْرَأْ : قُلْ يَا أَيُّهَا الْكَافِرُونَ ، ثُمَّ نَمْ عَلَى خَاتِمَتِهَا، فَإِنَّهَا بَرَاءَةٌ مِنْ الشِّرْكِ \"",
      "english": {
        "narrator": "",
        "text": ""
      }
    },
    {
      "id": 123,
      "chapterId": 23,
      "bookId": 9,
      "arabic": "حَدَّثَنَا أَبُو الْمُغِيرَةِ ، حَدَّثَنَا صَفْوَانُ ، حَدَّثَنَا إِيَاسٌ الْبِكَالِيُّ ، عَنْ نَوْفٍ الْبِكَالِيِّ ، قَالَ :\" إِنَّ اللَّهَ جَزَّأَ الْقُرْآنَ عَلَى ثَلَاثَةِ أَجْزَاءٍ، فَجَعَلَ ( قُلْ هُوَ اللَّهُ أَحَدٌ ) ثُلُثَ الْقُرْآنِ \"",
      "english": {
        "narrator": "",
        "text": ""
      }
    },
    {
      "id": 124,
      "chapterId": 23,
      "bookId": 9,
      "arabic": "حَدَّثَنَا عَبْدُ اللَّهِ بْنُ يَزِيدَ  ، حَدَّثَنَا حَيْوَةُ  ، قَالَ : أَخْبَرَنِي أَبُو عَقِيلٍ  ، أَنَّهُ سَمِعَ سَعِيدَ بْنَ الْمُسَيِّبِ  ، يَقُولُ : إِنَّ نَبِيَّ اللَّهِ صَلَّى اللَّهُ عَلَيْهِ وَسَلَّمَ، قَال :\" مَنْ قَرَأَ قُلْ هُوَ اللَّهُ أَحَدٌ عَشْرَ مَرَّاتٍ، بُنِيَ لَهُ بِهَا قَصْرٌ فِي الْجَنَّةِ، وَمَنْ قَرَأَ عِشْرِينَ مَرَّةً، بُنِيَ لَهُ بِهَا قَصْرَانِ فِي الْجَنَّةِ، وَمَنْ قَرَأَهَا ثَلَاثِينَ مَرَّةً، بُنِيَ لَهُ بِهَا ثَلَاثَةُ قُصُورٍ فِي الْجَنَّةِ \"، فَقَالَ عُمَرُ بْنُ الْخَطَّابِ : وَاللَّهِ يَا رَسُولَ اللَّهِ، إِذَنْ لَتَكَّثُرَنَّ قُصُورُنَا، فَقَالَ رَسُولُ اللَّهِ صَلَّى اللَّهُ عَلَيْهِ وَسَلَّمَ : \" اللَّهُ أَوْسَعُ مِنْ ذَلِكَ \".\nقَالَ أَبُو مُحَمَّد : أَبُو عَقِيلٍ زُهْرَةُ بْنُ مَعْبَدٍ، وَزَعَمُوا أَنَّهُ كَانَ مِنْ الْأَبْدَالِ",
      "english": {
        "narrator": "",
        "text": ""
      }
    },
    {
      "id": 125,
      "chapterId": 23,
      "bookId": 9,
      "arabic": "أَخْبَرَنَا أَبُو الْمُغِيرَةِ ، عَنْ عُتْبَةَ بْنِ ضَمْرَةَ بْنِ حَبِيبٍ ، عَنْ أَبِيهِ  : أَنَّهُ كَانَ\" إِذَا قَرَأَ سُورَةً فَخَتَمَهَا، أَتْبَعَهَا بِ : قُلْ هُوَ اللَّهُ أَحَدٌ \"",
      "english": {
        "narrator": "",
        "text": ""
      }
    },
    {
      "id": 126,
      "chapterId": 23,
      "bookId": 9,
      "arabic": "حَدَّثَنَا مُسْلِمُ بْنُ إِبْرَاهِيمَ  ، عَنْ أَبَانَ بْنِ يَزِيدَ الْعَطَّارِ  ، حَدَّثَنَا قَتَادَةُ  ، عَنْ سَالِمِ بْنِ أَبِي الْجَعْدِ  ، عَنْ مَعْدَانَ بْنِ أَبِي طَلْحَةَ  ،  عَنْ أَبِي الدَّرْدَاءِ  ، قَالَ : قَالَ رَسُولُ اللَّهِ صَلَّى اللَّهُ عَلَيْهِ وَسَلَّمَ :\" أَيَعْجِزُ أَحَدُكُمْ أَنْ يَقْرَأَ فِي لَيْلَةٍ ثُلُثَ الْقُرْآنِ؟ قَالُوا : نَحْنُ أَعْجَزُ وَأَضْعَفُ مِنْ ذَلِكَ، فَقَالَ : إِنَّ اللَّهَ جَزَّأَ الْقُرْآنَ ثَلَاثَةَ أَجْزَاءٍ، فَجَعَلَ قُلْ هُوَ اللَّهُ أَحَدٌ ثُلُثَ الْقُرْآنِ \"",
      "english": {
        "narrator": "",
        "text": ""
      }
    },
    {
      "id": 127,
      "chapterId": 23,
      "bookId": 9,
      "arabic": "حَدَّثَنَا أَبُو نُعَيْمٍ  ، عَنْ إِبْرَاهِيمَ بْنِ إِسْمَاعِيل بْنِ مُجَمِّعٍ  ، قَالَ : أَخْبَرَنِي ابْنُ شِهَابٍ  : أَنَّ حُمَيْدَ بْنَ عَبْدِ الرَّحْمَنِ  حَدَّثَهُ، أَنَّ أَبَا هُرَيْرَةَ   كَانَ يَقُولُ :( قُلْ هُوَ اللَّهُ أَحَدٌ ) تَعْدِلُ ثُلُثَ الْقُرْآنِ \"",
      "english": {
        "narrator": "",
        "text": ""
      }
    },
    {
      "id": 128,
      "chapterId": 23,
      "bookId": 9,
      "arabic": "أَخْبَرَنَا الْمُعَلَّى بْنُ أَسَدٍ  ، عَنْ سَلَّامِ بْنِ أَبِي مُطِيعٍ  ، عَنْ عَاصِمٍ  ، عَنْ زِرٍّ  ، عَنْ عَبْدِ اللَّهِ  ، قَالَ :\" ( قُلْ هُوَ اللَّهُ أَحَدٌ ) تَعْدِلُ ثُلُثَ الْقُرْآنِ :، حَدَّثَنَا عَمْرُو بْنُ عَاصِمٍ  ، عَنْ حَمَّادِ بْنِ سَلَمَةَ  ، عَنْ عَاصِمٍ  ، عَنْ زِرٍّ  ، عَنْ عَبْدِ اللَّهِ  ، مِثْلَهُ",
      "english": {
        "narrator": "",
        "text": ""
      }
    },
    {
      "id": 129,
      "chapterId": 23,
      "bookId": 9,
      "arabic": "حَدَّثَنَا يَزِيدُ بْنُ هَارُونَ  ، أَنْبَأَنَا مُبَارَكُ بْنُ فَضَالَةَ  ، حَدَّثَنَا ثَابِتٌ  ، عَنْ أَنَسٍ   : أَنَّ رَجُلًا، قَالَ : وَاللَّهِ إِنِّي لَأُحِبُّ هَذِهِ السُّورَةَ : ( قُلْ هُوَ اللَّهُ أَحَدٌ ) ، فَقَالَ رَسُولُ اللَّهِ صَلَّى اللَّهُ عَلَيْهِ وَسَلَّمَ :\" حُبُّكَ إِيَّاهَا أَدْخَلَكَ الْجَنَّةَ \"",
      "english": {
        "narrator": "",
        "text": ""
      }
    },
    {
      "id": 130,
      "chapterId": 23,
      "bookId": 9,
      "arabic": "حَدَّثَنَا عَبْدُ اللَّهِ بْنُ مَسْلَمَةَ  ، حَدَّثَنَا مُحَمَّدُ بْنُ عَبْدِ اللَّهِ بْنِ مُسْلِمٍ  ، عَنْ مُحَمَّدِ بْنِ شِهَابٍ  ، عَنْ حُمَيْدِ بْنِ عَبْدِ الرَّحْمَنِ  ، عَنْ أُمِّهِ   : أَنَّ رَسُولَ اللَّهِ صَلَّى اللَّهُ عَلَيْهِ وَسَلَّمَ سُئِلَ عَنْ قُلْ هُوَ اللَّهُ أَحَدٌ ، فَقَالَ :\" ثُلُثُ الْقُرْآنِ، أَوْ تَعْدِلُهُ \"",
      "english": {
        "narrator": "",
        "text": ""
      }
    },
    {
      "id": 131,
      "chapterId": 23,
      "bookId": 9,
      "arabic": "حَدَّثَنَا عُبَيْدُ اللَّهِ بْنُ مُوسَى  ، عَنْ إِسْرَائِيلَ  ، عَنْ مَنْصُورٍ  ، عَنْ هِلَالٍ  ، عَنْ الرَّبِيعِ بْنِ خُثَيْمٍ  ، عَنْ عَمْرِو بْنِ مَيْمُونٍ  ، عَنْ عَبْدِ الرَّحْمَنِ بْنِ أَبِي لَيْلَى  ، عَنْ امْرَأَةٍ  مِنْ الْأَنْصَارِ، عَنْ أَبِي أَيُّوبَ  ، قَالَ : أَتَاهَا فَقَالَ : أَلَا تَرَيْنَ إِلَى مَا جَاءَ بِهِ رَسُولُ اللَّهِ صَلَّى اللَّهُ عَلَيْهِ وَسَلَّمَ، قَالَتْ : رُبَّ خَيْرٍ قَدْ أَتَانَا بِهِ رَسُولُ اللَّهِ صَلَّى اللَّهُ عَلَيْهِ وَسَلَّمَ، فَمَا هُوَ؟ قَالَ : قَالَ لَنَا :\" أَيَعْجِزُ أَحَدُكُمْ أَنْ يَقْرَأَ ثُلُثَ الْقُرْآنِ فِي لَيْلَةٍ \"؟ قَالَ : فَأَشْفَقْنَا أَنْ يُرِيدَنَا عَلَى أَمْرٍ نَعْجِزُ عَنْهُ، فَلَمْ نَرْجِعْ إِلَيْهِ شَيْئًا حَتَّى قَالَهَا ثَلَاثَ مَرَّاتٍ، ثُمَّ قَالَ : \" أَمَا يَسْتَطِيعُ أَحَدُكُمْ أَنْ يَقْرَأَ ( قُلْ هُوَ اللَّهُ أَحَد، اللَّهُ الصَّمَدُ )؟ \"",
      "english": {
        "narrator": "",
        "text": ""
      }
    },
    {
      "id": 132,
      "chapterId": 23,
      "bookId": 9,
      "arabic": "حَدَّثَنَا نَصْرُ بْنُ عَلِيٍّ  ، عَنْ نُوحِ بْنِ قَيْسٍ  ، عَنْ مُحَمَّدٍ أَبِي رَجَاءٍ  ، عَنْ أُمِّ كَثِيرٍ الْأَنْصَارِيَّةِ  ، عَنْ أَنَسِ بْنِ مَالِكٍ  ، قَالَ : قَالَ رَسُولُ اللَّهِ صَلَّى اللَّهُ عَلَيْهِ وَسَلَّمَ :\" مَنْ قَرَأَ قُلْ هُوَ اللَّهُ أَحَدٌ خَمْسِينَ مَرَّةً، غَفَرَ اللَّهُ لَهُ ذُنُوبَ خَمْسِينَ سَنَةً \"",
      "english": {
        "narrator": "",
        "text": ""
      }
    },
    {
      "id": 133,
      "chapterId": 23,
      "bookId": 9,
      "arabic": "حَدَّثَنَا عَبْدُ اللَّهِ بْنُ يَزِيدَ  ، حَدَّثَنَا حَيْوَةُ  ، وَابْنُ لَهِيعَةَ  ، قَالا : سَمِعْنَا يَزِيدَ بْنَ أَبِي حَبِيبٍ  ، يَقُولُ : حَدَّثَنِي أَبُو عِمْرَانَ  ، أَنَّهُ سَمِعَ عُقْبَةَ بْنَ عَامِرٍ  ، يَقُولُ : تَعَلَّقْتُ بِقَدَمِ رَسُولِ اللَّهِ صَلَّى اللَّهُ عَلَيْهِ وَسَلَّمَ، فَقُلْتُ لَهُ : يَا رَسُولَ اللَّهِ، أَقْرِئْنِي سُورَةَ هُود ، وَسُورَةَ يُوسُفَ ، فَقَالَ لِي رَسُولُ اللَّهِ صَلَّى اللَّهُ عَلَيْهِ وَسَلَّمَ : \" يَا عُقْبَةُ،إِنَّكَ لَنْ تَقْرَأَ مِنْ الْقُرْآنِ سُورَةً أَحَبَّ إِلَى اللَّهِ وَلَا أَبْلَغَ عِنْدَهُ مِن قُلْ أَعُوذُ بِرَبِّ الْفَلَقِ \"، قَالَ يَزِيدُ : فَلَمْ يَكُنْ أَبُو عِمْرَانَ يَدَعُهَا، كَانَ لَا يَزَالُ يَقْرَؤُهَا فِي صَلَاةِ الْمَغْرِبِ",
      "english": {
        "narrator": "",
        "text": ""
      }
    },
    {
      "id": 134,
      "chapterId": 23,
      "bookId": 9,
      "arabic": "حَدَّثَنَا أَحْمَدُ بْنُ عَبْدِ اللَّهِ  ، حَدَّثَنَا لَيْثٌ  ، عَنْ ابْنِ عَجْلَانَ  ، عَنْ سَعِيدِ بْنِ أَبِي سَعِيدٍ الْمَقْبُرِيِّ  ، أَنَّ عُقْبَةَ بْنَ عَامِرٍ  ، قَالَ : \" مَشَيْتُ مَعَ النَّبِيِّ صَلَّى اللَّهُ عَلَيْهِ وَسَلَّمَ، فَقَالَ لِي : \" قُلْ يَا عُقْبَةُ \"، فَقُلْتُ : أَيَّ شَيْءٍ أَقُولُ؟ قَالَ : فَسَكَتَ عَنِّي، ثُمَّ قَالَ : \" يَا عُقْبَةُ : قُلْ، فَقُلْتُ : أَيَّ شَيْءٍ أَقُولُ؟ قَالَ :\" قُلْ أَعُوذُ بِرَبِّ الْفَلَقِ ، فَقَرَأْتُهَا حَتَّى جِئْتُ عَلَى آخِرِهَا، فَقَالَ رَسُولُ اللَّهِ صَلَّى اللَّهُ عَلَيْهِ وَسَلَّمَ عِنْدَ ذَلِكَ : \" مَا سَأَلَ سَائِلٌ، وَلَا اسْتَعَاذَ مُسْتَعِيذٌ بِمِثْلِهَا \"",
      "english": {
        "narrator": "",
        "text": ""
      }
    },
    {
      "id": 135,
      "chapterId": 23,
      "bookId": 9,
      "arabic": "حَدَّثَنَا يَعْلَى  ، حَدَّثَنَا إِسْمَاعِيل هُوَ ابْنُ أَبِي خَالِدٍ  ، عَنْ قَيْسٍ  ، عَنْ عُقْبَةَ بْنِ عَامِرٍ  ، قَالَ : قَالَ رَسُولُ اللَّهِ صَلَّى اللَّهُ عَلَيْهِ وَسَلَّمَ :\" لَقَدْ أُنْزِلَ عَلَيَّ آيَاتٌ لَمْ أَرَ أَوْ لَمْ يُرَ مِثْلَهُنَّ، يَعْنِي : الْمُعَوِّذَتَيْنِ \"",
      "english": {
        "narrator": "",
        "text": ""
      }
    },
    {
      "id": 136,
      "chapterId": 23,
      "bookId": 9,
      "arabic": "حَدَّثَنَا يَحْيَى بْنُ بِسْطَامَ  ، عَنْ يَحْيَى بْنِ حَمْزَةَ  ، حَدَّثَنِي يَحْيَى بْنُ الْحَارِثِ  ، عَنْ الْقَاسِمِ أَبِي عَبْدِ الرَّحْمَنِ  ، عَنْ تَمِيمٍ الدَّارِيِّ  .\nح وَحَدَّثَنِي عُثْمَانُ بْنُ مُسْلِمٍ  ، عَنْ الْعَبَّاسِ بْنِ مَيْمُونٍ  ، عَنْ تَمِيمٍ الدَّارِيِّ  ، قَالَ :\" مَنْ قَرَأَ عَشْرَ آيَاتٍ فِي لَيْلَةٍ، لَمْ يُكْتَبْ مِنْ الْغَافِلِينَ \"",
      "english": {
        "narrator": "",
        "text": ""
      }
    },
    {
      "id": 137,
      "chapterId": 23,
      "bookId": 9,
      "arabic": "حَدَّثَنَا يَحْيَى بْنُ بِسْطَامَ  ، عَنْ يَحْيَى بْنِ حَمْزَةَ  ، حَدَّثَنِي يَحْيَى بْنُ الْحَارِثِ  ، عَنْ الْقَاسِمِ أَبِي عَبْدِ الرَّحْمَنِ  ، عَنْ تَمِيمٍ الدَّارِيِّ  ، وَفَضَالَةَ بْنِ عُبَيْدٍ   ، قَالَا :\" مَنْ قَرَأَ بِعَشْرِ آيَاتٍ فِي لَيْلَةٍ، كُتِبَ مِنْ الْمُصَلِّينَ \"",
      "english": {
        "narrator": "",
        "text": ""
      }
    },
    {
      "id": 138,
      "chapterId": 23,
      "bookId": 9,
      "arabic": "حَدَّثَنَا إِسْمَاعِيل بْنُ أَبَانَ  ، حَدَّثَنَا أَبُو أُوَيْسٍ  ، عَنْ مُوسَى بْنِ عُقْبَةَ  ، عَنْ مُحَمَّدِ بْنِ كَعْبٍ الْقُرَظِيِّ  ، عَنْ ابْنِ عُمَرَ  ، قَالَ :\" مَنْ قَرَأَ فِي لَيْلَةٍ بِعَشْرِ آيَاتٍ، لَمْ يُكْتَبْ مِنْ الْغَافِلِينَ \"",
      "english": {
        "narrator": "",
        "text": ""
      }
    },
    {
      "id": 139,
      "chapterId": 23,
      "bookId": 9,
      "arabic": "حَدَّثَنَا مَالِكُ بْنُ إِسْمَاعِيلَ  ، حَدَّثَنَا إِسْرَائِيلُ  ، عَنْ أَبِي إِسْحَاق  ، عَنْ الْمُغِيرَةِ بْنِ عَبْدِ اللَّهِ الْجَدَلِيِّ  ، عَنْ ابْنِ عُمَرَ  ، قَالَ :\" مَنْ قَرَأَ فِي لَيْلَةٍ بِعَشْرِ آيَاتٍ، لَمْ يُكْتَبْ مِنْ الْغَافِلِينَ \"",
      "english": {
        "narrator": "",
        "text": ""
      }
    }
  ]
}