{
  "page": 55,
  "perPage": 50,
  "totalPages": 69,
  "totalCount": 3406,
  "nextPage": 56,
  "prevPage": 54,
  "items": [
    {
      "id": 140,
      "chapterId": 23,
      "bookId": 9,
      "arabic": "حَدَّثَنَا أَبُو نُعَيْمٍ  ، حَدَّثَنَا فِطْرٌ  ، عَنْ أَبِي إِسْحَاق  ، عَنْ أَبِي الْأَحْوَصِ  ،  عَنْ عَبْدِ اللَّهِ  ، قَالَ :\" مَنْ قَرَأَ فِي لَيْلَةٍ بِخَمْسِينَ آيَةً، لَمْ يُكْتَبْ مِنْ الْغَافِلِينَ \"",
      "english": {
        "narrator": "",
        "text": ""
      }
    },
    {
      "id": 141,
      "chapterId": 23,
      "bookId": 9,
      "arabic": "حَدَّثَنَا يَحْيَى بْنُ بِسْطَامَ  ، حَدَّثَنَا يَحْيَى بْنُ حَمْزَةَ  ، عَنْ يَحْيَى بْنِ الْحَارِثِ  ، عَنْ الْقَاسِمِ أَبِي عَبْدِ الرَّحْمَنِ  ، عَنْ تَمِيمٍ الدَّارِيِّ  ، وَفَضَالَةَ بْنِ عُبَيْدٍ   ، قَالَا :\" مَنْ قَرَأَ بِخَمْسِينَ آيَةً فِي لَيْلَةٍ، كُتِبَ مِنْ الْحَافِظِينَ \"",
      "english": {
        "narrator": "",
        "text": ""
      }
    },
    {
      "id": 142,
      "chapterId": 23,
      "bookId": 9,
      "arabic": "حَدَّثَنَا مُحَمَّدُ بْنُ الْقَاسِمِ  ، حَدَّثَنَا مُوسَى بْنُ عُبَيْدَةَ  ، عَنْ مُحَمَّدِ بْنِ إِبْرَاهِيمَ  ، عَنْ يُحَنَّسَ  مَوْلَى الزُّبَيْرِ، عَنْ سَالِمٍ  أَخِي أُمِّ الدَّرْدَاءِ فِي اللَّهِ، عَنْ أُمِّ الدَّرْدَاءِ  ، عَنْ أَبِي الدَّرْدَاءِ  ، عَنِ النَّبِيِّ صَلَّى اللَّهُ عَلَيْهِ وَسَلَّمَ، قَالَ :\" مَنْ قَرَأَ بِمِائَةِ آيَةٍ فِي لَيْلَةٍ، لَمْ يُكْتَبْ مِنْ الْغَافِلِينَ \".\nقَالَ أَبُو مُحَمَّد : مِنْهُمْ مَنْ يَقُولُ مَكَانَ سَالِمٍ : رَاشِدُ بْنُ سَعْدٍ",
      "english": {
        "narrator": "",
        "text": ""
      }
    },
    {
      "id": 143,
      "chapterId": 23,
      "bookId": 9,
      "arabic": "حَدَّثَنَا إِسْمَاعِيل بْنُ أَبَانَ  ، حَدَّثَنَا أَبُو أُوَيْسٍ  ، عَنْ مُوسَى بْنِ عُقْبَةَ  ، عَنْ مُحَمَّدِ بْنِ كَعْبٍ الْقُرَظِيِّ  ، عَنْ ابْنِ عُمَرَ  ، قَالَ :\" مَنْ قَرَأَ فِي لَيْلَةٍ بِمِائَةِ آيَةٍ، كُتِبَ مِنْ الْقَانِتِينَ \"",
      "english": {
        "narrator": "",
        "text": ""
      }
    },
    {
      "id": 144,
      "chapterId": 23,
      "bookId": 9,
      "arabic": "حَدَّثَنَا يَحْيَى بْنُ بِسْطَامَ  ، حَدَّثَنَا يَحْيَى بْنُ حَمْزَةَ  ، حَدَّثَنِي زَيْدُ بْنُ وَاقِدٍ  ، عَنْ سُلَيْمَانَ بْنِ مُوسَى  ، عَنْ كَثِيرِ بْنِ مُرَّةَ  ، عَنْ تَمِيمٍ الدَّارِيِّ   : أَنّ رَسُولَ اللَّهِ صَلَّى اللَّهُ عَلَيْهِ وَسَلَّمَ، قَالَ :\" مَنْ قَرَأَ بِمِائَةِ آيَةٍ فِي لَيْلَةٍ، كُتِبَ لَهُ قُنُوتُ لَيْلَةٍ \"",
      "english": {
        "narrator": "",
        "text": ""
      }
    },
    {
      "id": 145,
      "chapterId": 23,
      "bookId": 9,
      "arabic": "حَدَّثَنَا جَعْفَرُ بْنُ عَوْنٍ ، عَنْ الْأَعْمَشِ ، عَنْ أَبِي صَالِحٍ ، قَالَ : قَالَ كَعْبٌ  :\" مَنْ قَرَأَ مِائَةَ آيَةٍ، كُتِبَ مِنْ الْقَانِتِينَ \"",
      "english": {
        "narrator": "",
        "text": ""
      }
    },
    {
      "id": 146,
      "chapterId": 23,
      "bookId": 9,
      "arabic": "حَدَّثَنَا يَحْيَى بْنُ بِسْطَامَ  ، حَدَّثَنَا يَحْيَى بْنُ حَمْزَةَ  ، حَدَّثَنِي يَحْيَى بْنُ الْحَارِثِ  ، عَنْ الْقَاسِمِ أَبِي عَبْدِ الرَّحْمَنِ  ، عَنْ تَمِيمٍ الدَّارِيِّ  ، وَفَضَالَةَ بْنِ عُبَيْدٍ   ، قَالَا :\" مَنْ قَرَأَ بِمِائَةِ آيَةٍ فِي لَيْلَةٍ، كُتِبَ مِنْ الْقَانِتِينَ \"",
      "english": {
        "narrator": "",
        "text": ""
      }
    },
    {
      "id": 147,
      "chapterId": 23,
      "bookId": 9,
      "arabic": "حَدَّثَنَا أَبُو نُعَيْمٍ  ، حَدَّثَنَا فِطْرٌ  ، عَنْ أَبِي إِسْحَاق  ، عَنْ أَبِي الْأَحْوَصِ  ، عَنْ عَبْدِ اللَّهِ  ، قَالَ :\" مَنْ قَرَأَ فِي لَيْلَةٍ بِمِائَةِ آيَةٍ، كُتِبَ مِنْ الْقَانِتِينَ \"",
      "english": {
        "narrator": "",
        "text": ""
      }
    },
    {
      "id": 148,
      "chapterId": 23,
      "bookId": 9,
      "arabic": "حَدَّثَنَا الْحَكَمُ بْنُ نَافِعٍ  ، أَنْبَأَنَا حَرِيزُ بْنُ عُثْمَانَ  ، عَنْ حَبِيبِ بْنِ عُبَيْدٍ  ، قَالَ : سَمِعْتُ أَبَا أُمَامَةَ  ، يَقُولُ :\" مَنْ قَرَأَ بِمِائَةِ آيَةٍ، لَمْ يُكْتَبْ مِنْ الْغَافِلِينَ \"",
      "english": {
        "narrator": "",
        "text": ""
      }
    },
    {
      "id": 149,
      "chapterId": 23,
      "bookId": 9,
      "arabic": "حَدَّثَنَا الْحَكَمُ بْنُ نَافِعٍ  ، أَخْبَرَنَا حَرِيزٌ  ، عَنْ حَبِيبِ بْنِ عُبَيْدٍ  ، قَالَ : سَمِعْتُ أَبَا أُمَامَةَ  ، يَقُولُ :\" مَنْ قَرَأَ مِائَتَيْ آيَةٍ، كُتِبَ مِنْ الْقَانِتِينَ \"",
      "english": {
        "narrator": "",
        "text": ""
      }
    },
    {
      "id": 150,
      "chapterId": 23,
      "bookId": 9,
      "arabic": "حَدَّثَنَا مُحَمَّدُ بْنُ الْقَاسِمِ  ، حَدَّثَنَا مُوسَى بْنُ عُبَيْدَةَ  ، عَنْ مُحَمَّدِ بْنِ إِبْرَاهِيمَ  ، عَنْ يُحَنَّسَ  مَوْلَى الزُّبَيْرِ، عَنْ سَالِمٍ  أَخِي أُمِّ الدَّرْدَاءِ فِي اللَّهِ، عَنْ أُمِّ الدَّرْدَاءِ  ، عَنْ أَبِي الدَّرْدَاءِ  ، عَنِ النَّبِيِّ صَلَّى اللَّهُ عَلَيْهِ وَسَلَّمَ، قَالَ :\" مَنْ قَرَأَ مِائَتَيْ آيَةٍ فِي لَيْلَةٍ، كُتِبَ مِنْ الْقَانِتِينَ \"",
      "english": {
        "narrator": "",
        "text": ""
      }
    },
    {
      "id": 151,
      "chapterId": 23,
      "bookId": 9,
      "arabic": "حَدَّثَنَا أَبُو غَسَّانَ  ، حَدَّثَنَا إِسْرَائِيلُ  ، عَنْ أَبِي إِسْحَاق  ، عَنْ الْمُغِيرَةِ بْنِ عَبْدِ اللَّهِ الْجَدَلِيِّ  ، عَنْ ابْنِ عُمَرَ  ، قَالَ :\" مَنْ قَرَأَ فِي لَيْلَةٍ عَشْرَ آيَاتٍ، لَمْ يُكْتَبْ مِنْ الْغَافِلِينَ، وَمَنْ قَرَأَ فِي لَيْلَةٍ بِمِائَةِ آيَةٍ، كُتِبَ مِنْ الْقَانِتِينَ، وَمَنْ قَرَأَ بِمِائَتَيْ آيَةٍ، كُتِبَ مِنْ الْفَائِزِينَ \"",
      "english": {
        "narrator": "",
        "text": ""
      }
    },
    {
      "id": 152,
      "chapterId": 23,
      "bookId": 9,
      "arabic": "حَدَّثَنَا أَبُو النُّعْمَانِ  ، حَدَّثَنَا حَمَّادُ بْنُ زَيْدٍ  ، عَنْ سَعِيدٍ الْجُرَيْرِيِّ  ، عَنْ أَبِي نَضْرَةَ  ، عَنْ أَبِي سَعِيدٍ الْخُدْرِيِّ  ، قَالَ :\" مَنْ قَرَأَ فِي لَيْلَةٍ عَشْرَ آيَاتٍ، كُتِبَ مِنْ الذَّاكِرِينَ، وَمَنْ قَرَأَ بِمِائَةِ آيَةٍ، كُتِبَ مِنْ الْقَانِتِينَ، وَمَنْ قَرَأَ بِخَمْسِ مِائَةِ آيَةٍ إِلَى الْأَلْفِ، أَصْبَحَ وَلَهُ قِنْطَارٌ مِنْ الْأَجْرِ، قِيلَ : وَمَا الْقِنْطَارُ؟ قَالَ : مِلْءُ مَسْكِ الثَّوْرِ ذَهَبًا \"",
      "english": {
        "narrator": "",
        "text": ""
      }
    },
    {
      "id": 153,
      "chapterId": 23,
      "bookId": 9,
      "arabic": "حَدَّثَنَا أَبُو النُّعْمَانِ  ، حَدَّثَنَا وُهَيْبٌ  ، عَنْ يُونُسَ  ، عَنْ الْحَسَنِ   : أَنَّ نَبِيَّ اللَّهِ صَلَّى اللَّهُ عَلَيْهِ وَسَلَّمَ، قَالَ :\" مَنْ قَرَأَ فِي لَيْلَةٍ مِائَةَ آيَةٍ، لَمْ يُحَاجَّهُ الْقُرْآنُ تِلْكَ اللَّيْلَةَ، وَمَنْ قَرَأَ فِي لَيْلَةٍ مِائَتَيْ آيَةٍ، كُتِبَ لَهُ قُنُوتُ لَيْلَةٍ، وَمَنْ قَرَأَ فِي لَيْلَةٍ خَمْسَ مِائَةِ آيَةٍ إِلَى الْأَلْفِ، أَصْبَحَ وَلَهُ قِنْطَارٌ فِي الْآخِرَةِ \"، قَالُوا : وَمَا الْقِنْطَارُ؟ قَالَ : اثْنَا عَشَرَ أَلْفًا \"",
      "english": {
        "narrator": "",
        "text": ""
      }
    },
    {
      "id": 154,
      "chapterId": 23,
      "bookId": 9,
      "arabic": "حَدَّثَنَا أَبُو نُعَيْمٍ  ، حَدَّثَنَا فِطْرٌ  ، عَنْ أَبِي إِسْحَاق  ، عَنْ أَبِي الْأَحْوَصِ  ،  عَنْ عَبْدِ اللَّهِ  ، قَالَ :\" مَنْ قَرَأَ فِي لَيْلَةٍ ثَلَاثَ مِائَةِ آيَةٍ، كُتِبَ لَهُ قِنْطَارٌ، وَمَنْ قَرَأَ سَبْعَ مِائَةِ آيَةٍ \"، لَا أَدْرِي أَيَّ شَيْءٍ قَالَ فِيهَا أَبُو نُعَيْمٍ بِقَوْلِهِ",
      "english": {
        "narrator": "",
        "text": ""
      }
    },
    {
      "id": 155,
      "chapterId": 23,
      "bookId": 9,
      "arabic": "أَخْبَرَنَا الْحَكَمُ بْنُ نَافِعٍ  ، أَنْبَأَنَا حَرِيزٌ  ، عَنْ حَبِيبِ بْنِ عُبَيْدٍ  ، قَالَ : سَمِعْتُ أَبَا أُمَامَةَ  ، يَقُولُ :\" مَنْ قَرَأَ أَلْفَ آيَةٍ، كُتِبَ لَهُ قِنْطَارٌ مِنْ الْأَجْرِ.\nوَالْقِيرَاطُ مِنْ ذَلِكَ الْقِنْطَارِ لَا تَفِي بِهِ دُنْيَاكُمْ، يَقُولُ : لَا يَعْدِلُهُ دُنْيَاكُمْ \"",
      "english": {
        "narrator": "",
        "text": ""
      }
    },
    {
      "id": 156,
      "chapterId": 23,
      "bookId": 9,
      "arabic": "حَدَّثَنَا يَحْيَى بْنُ بِسْطَامَ  ، حَدَّثَنَا يَحْيَى بْنُ حَمْزَةَ  ، عَنْ يَحْيَى بْنِ الْحَارِثِ  ، عَنْ الْقَاسِمِ أَبِي عَبْدِ الرَّحْمَنِ  ، عَنْ تَمِيمٍ الدَّارِيِّ  ، وَفَضَالَةَ بْنِ عُبَيْدٍ   ، قَالَا :\" مَنْ قَرَأَ أَلْفَ آيَةٍ فِي لَيْلَةٍ، كُتِبَ لَهُ قِنْطَارٌ، وَالْقِيرَاطُ مِنْ الْقِنْطَارِ خَيْرٌ مِنْ الدُّنْيَا وَمَا فِيهَا، وَاكْتَنَزَ مِنْ الْأَجْرِ مَا شَاءَ اللَّهُ \"",
      "english": {
        "narrator": "",
        "text": ""
      }
    },
    {
      "id": 157,
      "chapterId": 23,
      "bookId": 9,
      "arabic": "حَدَّثَنَا مُحَمَّدُ بْنُ الْقَاسِمِ  ، حَدَّثَنَا مُوسَى بْنُ عُبَيْدَةَ  ، عَنْ مُحَمَّدِ بْنِ إِبْرَاهِيمَ  ، عَنْ يُحَنَّسَ  مَوْلَى الزُّبَيْرِ، عَنْ سَالِمٍ  أَخِي أُمِّ الدَّرْدَاءِ ، عَنْ أُمِّ الدَّرْدَاءِ  ، عَنْ أَبِي الدَّرْدَاءِ  ، عَنِ النَّبِيِّ صَلَّى اللَّهُ عَلَيْهِ وَسَلَّمَ، قَالَ :\" مَنْ قَرَأَ أَلْفَ آيَةٍ، إِلَى خَمْسِ مِائَةٍ كُتِبَ لَهُ قِنْطَارٌ مِنْ الْأَجْرِ، الْقِيرَاطُ مِنْهُ مِثْلُ التَّلِّ الْعَظِيمِ \"",
      "english": {
        "narrator": "",
        "text": ""
      }
    },
    {
      "id": 158,
      "chapterId": 23,
      "bookId": 9,
      "arabic": "حَدَّثَنَا عَبْدُ الصَّمَدِ بْنُ عَبْدِ الْوَارِثِ  ، حَدَّثَنَا، أَبَانُ الْعَطَّارُ  ، وَحَمَّادُ بْنُ سَلَمَةَ  ، عَنْ عَاصِمٍ  ، عَنْ أَبِي صَالِحٍ  ، عَنْ أَبِي هُرَيْرَةَ  ، قَالَ :\" الْقِنْطَارُ : اثْنَا عَشَرَ أَلْفًا \"",
      "english": {
        "narrator": "",
        "text": ""
      }
    },
    {
      "id": 159,
      "chapterId": 23,
      "bookId": 9,
      "arabic": "حَدَّثَنَا إِسْحَاق بْنُ عِيسَى ، عَنْ أَبِي الْأَشْهَبِ ، عَنْ أَبِي نَضْرَةَ الْعَبْدِيِّ ، قَالَ :\" الْقِنْطَارُ : مِلْءُ مَسْكِ ثَوْرٍ ذَهَبًا \"",
      "english": {
        "narrator": "",
        "text": ""
      }
    },
    {
      "id": 160,
      "chapterId": 23,
      "bookId": 9,
      "arabic": "حَدَّثَنَا إِسْحَاق ، عَنْ هُشَيْمٍ ، عَنْ عَلِيِّ بْنِ زَيْدٍ ، عَنْ سَعِيدِ بْنِ الْمُسَيِّبِ ، قَالَ :\" الْقِنْطَارُ : أَرْبَعُونَ أَلْفًا \"",
      "english": {
        "narrator": "",
        "text": ""
      }
    },
    {
      "id": 161,
      "chapterId": 23,
      "bookId": 9,
      "arabic": "حَدَّثَنَا إِسْحَاق  ، عَنْ مُبَارَكٍ  ، عَنْ الْحَسَنِ  ، قَالَ :\" الْقِنْطَارُ دِيَةُ أَحَدِكُمْ اثْنَا عَشَرَ أَلْفًا \"",
      "english": {
        "narrator": "",
        "text": ""
      }
    },
    {
      "id": 162,
      "chapterId": 23,
      "bookId": 9,
      "arabic": "حَدَّثَنَا إِسْحَاق ، عَنْ مُسْلِمٍ هُوَ الزَّنْجِيُّ  ، عَنْ ابْنِ أَبِي نَجِيحٍ  ، عَنْ مُجَاهِدٍ  ، قَالَ :\" الْقِنْطَارُ : سَبْعُونَ أَلْفَ دِينَارٍ \"",
      "english": {
        "narrator": "",
        "text": ""
      }
    },
    {
      "id": 163,
      "chapterId": 23,
      "bookId": 9,
      "arabic": "حَدَّثَنَا إِسْحَاق  ، عَنْ أَبِي بَكْرٍ  ، عَنْ أَبِي حَصِينٍ  ، عَنْ سَالِمِ بْنِ أَبِي الْجَعْدِ  ، عَنْ مُعَاذِ بْنِ جَبَلٍ  ، قَالَ :\" الْقِنْطَارُ : أَلْفُ أُوقِيَّةٍ وَمِائَتَا أُوقِيَّةٍ \"",
      "english": {
        "narrator": "",
        "text": ""
      }
    },
    {
      "id": 164,
      "chapterId": 23,
      "bookId": 9,
      "arabic": "حَدَّثَنَا أَبُو نُعَيْمٍ ، حَدَّثَنَا شَرِيكٌ ، عَنْ لَيْثٍ ، عَنْ مُجَاهِدٍ ، قَالَ :\" الْقِنْطَارُ : سَبْعُونَ أَلْفَ مِثْقَالٍ \"",
      "english": {
        "narrator": "",
        "text": ""
      }
    },
    {
      "id": 165,
      "chapterId": 23,
      "bookId": 9,
      "arabic": "حَدَّثَنَا سُلَيْمَانُ بْنُ حَرْبٍ  ، حَدَّثَنَا صَالِحٌ الْمُرِّيُّ  ، عَنْ أَيُّوبَ  ، عَنْ أَبِي قِلَابَةَ  ، رَفَعَهُ قَالَ :\" مَنْ شَهِدَ الْقُرْآنَ حِينَ يُفْتَحُ، فَكَأَنَّمَا شَهِدَ فَتْحًا فِي سَبِيلِ اللَّهِ، وَمَنْ شَهِدَ خَتْمَهُ حِينَ يُخْتَمُ، فَكَأَنَّمَا شَهِدَ الْغَنَائِمَ حِينَ تُقْسَمُ \"",
      "english": {
        "narrator": "",
        "text": ""
      }
    },
    {
      "id": 166,
      "chapterId": 23,
      "bookId": 9,
      "arabic": "حَدَّثَنَا سُلَيْمَانُ بْنُ حَرْبٍ  ، حَدَّثَنَا صَالِحٌ الْمُرِّيُّ  ، عَنْ قَتَادَةَ  ، قَالَ :\" كَانَ رَجُلٌ يَقْرَأُ فِي مَسْجِدِ الْمَدِينَةِ ، وَكَانَ ابْنُ عَبَّاسٍ   قَدْ وَضَعَ عَلَيْهِ الرَّصَدَ، فَإِذَا كَانَ يَوْمُ خَتْمِهِ، قَامَ فَتَحَوَّلَ إِلَيْهِ \"",
      "english": {
        "narrator": "",
        "text": ""
      }
    },
    {
      "id": 167,
      "chapterId": 23,
      "bookId": 9,
      "arabic": "حَدَّثَنَا سُلَيْمَانُ بْنُ حَرْبٍ  ، حَدَّثَنَا صَالِحٌ  ، عَنْ ثَابِتٍ الْبُنَانِيِّ  ، قَالَ : كَانَ أَنَسُ بْنُ مَالِكٍ  إِذَا أَشْفَى عَلَى خَتْمِ الْقُرْآنِ، بِاللَّيْلِ بَقَّى مِنْهُ شَيْئًا حَتَّى يُصْبِحَ فَيَجْمَعَ أَهْلَهُ، فَيَخْتِمَهُ مَعَهُمْ \"",
      "english": {
        "narrator": "",
        "text": ""
      }
    },
    {
      "id": 168,
      "chapterId": 23,
      "bookId": 9,
      "arabic": "حَدَّثَنَا عَفَّانُ  ، حَدَّثَنَا جَعْفَرُ بْنُ سُلَيْمَانَ  ، حَدَّثَنَا ثَابِتٌ  ، قَالَ :\" كَانَ أَنَسٌ   إِذَا خَتَمَ الْقُرْآنَ، جَمَعَ وَلَدَهُ وَأَهْلَ بَيْتِهِ، فَدَعَا لَهُمْ \"",
      "english": {
        "narrator": "",
        "text": ""
      }
    },
    {
      "id": 169,
      "chapterId": 23,
      "bookId": 9,
      "arabic": "حَدَّثَنَا أَبُو الْمُغِيرَةِ ، حَدَّثَنَا الْأَوْزَاعِيُّ ، عَنْ عَبْدَةَ ، قَالَ :\" إِذَا خَتَمَ الرَّجُلُ الْقُرْآنَ بِنَهَارٍ، صَلَّتْ عَلَيْهِ الْمَلَائِكَةُ حَتَّى يُمْسِيَ، وَإِنْ فَرَغَ مِنْهُ لَيْلًا، صَلَّتْ عَلَيْهِ الْمَلَائِكَةُ حَتَّى يُصْبِحَ \"",
      "english": {
        "narrator": "",
        "text": ""
      }
    },
    {
      "id": 170,
      "chapterId": 23,
      "bookId": 9,
      "arabic": "حَدَّثَنَا إِسْحَاق بْنُ عِيسَى  ، عَنْ صَالِحٍ الْمُرِّيِّ  ، عَنْ قَتَادَةَ  ،  عَنْ زُرَارَةَ بْنِ أَوْفَى   : أَنّ النَّبِيَّ صَلَّى اللَّهُ عَلَيْهِ وَسَلَّمَ سُئِلَ : أَيُّ الْعَمَلِ أَفْضَلُ؟ قَالَ :الْحَالُّ الْمُرْتَحِلُ \"، قِيلَ : وَمَا الْحَالُّ الْمُرْتَحِلُ؟ قَالَ : صَاحِبُ الْقُرْآنِ يَضْرِبُ مِنْ أَوَّلِ الْقُرْآنِ إِلَى آخِرِهِ، وَمِنْ آخِرِهِ إِلَى أَوَّلِهِ، كُلَّمَا حَلَّ، ارْتَحَلَ \"",
      "english": {
        "narrator": "",
        "text": ""
      }
    },
    {
      "id": 171,
      "chapterId": 23,
      "bookId": 9,
      "arabic": "حَدَّثَنَا إِبْرَاهِيمُ بْنُ مُوسَى ، عَنْ جَرِيرٍ ، عَنْ الْأَعْمَشِ ، عَنْ إِبْرَاهِيمَ ، قَالَ :\" إِذَا قَرَأَ الرَّجُلُ الْقُرْآنَ نَهَارًا، صَلَّتْ عَلَيْهِ الْمَلَائِكَةُ حَتَّى يُمْسِيَ، وَإِنْ قَرَأَهُ لَيْلًا، صَلَّتْ عَلَيْهِ الْمَلَائِكَةُ حَتَّى يُصْبِحَ \".\nقَالَ سُلَيْمَانُ : فَرَأَيْتُ أَصْحَابَنَا يُعْجِبُهُمْ أَنْ يَخْتِمُوهُ أَوَّلَ النَّهَارِ، وَأَوَّلَ اللَّيْلِ.\n حَدَّثَنَا مُحَمَّدُ بْنُ يُوسُفَ الْفِرْيَابِيُّ ، عَنْ سُفْيَانَ ، عَنْ الْأَعْمَشِ ، عَنْ إِبْرَاهِيمَ ، مِثْلَهُ، إِلَّا أَنَّهُ لَيْسَ فِيهِ قَوْلُ سُلَيْمَانَ",
      "english": {
        "narrator": "",
        "text": ""
      }
    },
    {
      "id": 172,
      "chapterId": 23,
      "bookId": 9,
      "arabic": "حَدَّثَنَا فَرْوَةُ بْنُ أَبِي الْمَغْرَاءِ ، عَنْ الْقَاسِمِ بْنِ مَالِكٍ الْمُزَنِيِّ ، عَنْ عَبْدِ الرَّحْمَنِ بْنِ إِسْحَاق ، عَنْ مُحَارِبِ بْنِ دِثَارٍ ، قَالَ :\" مَنْ قَرَأَ الْقُرْآنَ عَنْ ظَهْرِ قَلْبِهِ، كَانَتْ لَهُ دَعْوَةٌ فِي الدُّنْيَا، أَوْ فِي الْآخِرَةِ \"",
      "english": {
        "narrator": "",
        "text": ""
      }
    },
    {
      "id": 173,
      "chapterId": 23,
      "bookId": 9,
      "arabic": "حَدَّثَنَا مُحَمَّدُ بْنُ سَعِيدٍ  ، حَدَّثَنَا عَبْدُ السَّلَامِ  ، عَنْ يَزِيدَ بْنِ عَبْدِ الرَّحْمَنِ  ، عَنْ طَلْحَةَ  ، وَعَبْدِ الرَّحْمَنِ بْنِ الْأَسْوَدِ   ، قَالَا :\" مَنْ قَرَأَ الْقُرْآنَ لَيْلًا أَوْ نَهَارًا، صَلَّتْ عَلَيْهِ الْمَلَائِكَةُ إِلَى اللَّيْلِ \"، وَقَالَ الْآخَرُ : \" غُفِرَ لَهُ \"",
      "english": {
        "narrator": "",
        "text": ""
      }
    },
    {
      "id": 174,
      "chapterId": 23,
      "bookId": 9,
      "arabic": "حَدَّثَنَا عَمْرُو بْنُ حَمَّادٍ ، حَدَّثَنَا قَزَعَةُ بْنُ سُوَيْدٍ ، عَنْ حُمَيْدٍ الْأَعْرَجِ ، قَالَ :\" مَنْ قَرَأَ الْقُرْآنَ ثُمَّ دَعَا، أَمَّنَ عَلَى دُعَائِهِ أَرْبَعَةُ آلَافِ مَلَكٍ \"",
      "english": {
        "narrator": "",
        "text": ""
      }
    },
    {
      "id": 175,
      "chapterId": 23,
      "bookId": 9,
      "arabic": "حَدَّثَنَا سَعِيدُ بْنُ الرَّبِيعِ ، حَدَّثَنَا شُعْبَةُ ، عَنْ الْحَكَمِ ، عَنْ مُجَاهِدٍ ، قَالَ : بَعَثَ إِلَيَّ مجاهدٌ، قَالَ :إِنَّمَا دَعَوْنَاكَ أَنَّا أَرَدْنَا أَنْ نَخْتِمَ الْقُرْآنَ، وَإِنَّهُ بَلَغَنَا أَنَّ الدُّعَاءَ يُسْتَجَابُ عِنْدَ خَتْمِ الْقُرْآنِ، قَالَ : فَدَعَوْا بِدَعَوَاتٍ \"",
      "english": {
        "narrator": "",
        "text": ""
      }
    },
    {
      "id": 176,
      "chapterId": 23,
      "bookId": 9,
      "arabic": "حَدَّثَنَا مُحَمَّدُ بْنُ حُمَيْدٍ  ، حَدَّثَنَا هَارُونُ  ، عَنْ عَنْبسة  ، عَنْ لَيْثٍ  ، عَنْ طَلْحَةَ بْنِ مُصَرِّفٍ  ، عَنْ مُصْعَبِ بْنِ سَعْدٍ  ، عَنْ سَعْدٍ  ، قَالَ :\" إِذَا وَافَقَ خَتْمُ الْقُرْآنِ أَوَّلَ اللَّيْلِ، صَلَّتْ عَلَيْهِ الْمَلَائِكَةُ حَتَّى يُصْبِحَ، وَإِنْ وَافَقَ خَتْمُهُ آخِرَ اللَّيْلِ، صَلَّتْ عَلَيْهِ الْمَلَائِكَةُ حَتَّى يُمْسِيَ، فَرُبَّمَا بَقِيَ عَلَى أَحَدِنَا الشَّيْءُ، فَيُؤَخِّرَهُ حَتَّى يُمْسِيَ أَوْ يُصْبِحَ \".\n قَالَ أَبُو مُحَمَّد : هَذَا حَسَنٌ عَنْ سَعْدٍ",
      "english": {
        "narrator": "",
        "text": ""
      }
    },
    {
      "id": 177,
      "chapterId": 23,
      "bookId": 9,
      "arabic": "حَدَّثَنَا مُجَاهِدُ بْنُ مُوسَى  ، حَدَّثَنَا مَعْنٌ  ، حَدَّثَنَا إِبْرَاهِيمُ بْنُ مُهَاجِرِ بْنِ مِسْمَارٍ  ابْنِ أَخِي بُكَيْرِ بْنِ مِسْمَارٍ، حَدَّثَنِي صَفْوَانُ بْنُ سُلَيْمٍ  ، عَنْ عَطَاءِ بْنِ يَسَارٍ  ، قَالَ :\" حَمَلَةُ الْقُرْآنِ عُرَفَاءُ أَهْلِ الْجَنَّةِ \"",
      "english": {
        "narrator": "",
        "text": ""
      }
    },
    {
      "id": 178,
      "chapterId": 23,
      "bookId": 9,
      "arabic": "حَدَّثَنَا يَزِيدُ بْنُ هَارُونَ ، أنبأنا عَبْدُ الْمَلِكِ ، عَنْ سَعِيدِ بْنِ جُبَيْرٍ  : أَنَّهُ كَانَ\" يَخْتِمُ الْقُرْآنَ كُلَّ لَيْلَتَيْنِ \"",
      "english": {
        "narrator": "",
        "text": ""
      }
    },
    {
      "id": 179,
      "chapterId": 23,
      "bookId": 9,
      "arabic": "حَدَّثَنَا عُثْمَانُ بْنُ مُحَمَّدٍ  ، حَدَّثَنَا جَرِيرٌ  ، عَنْ مُطَرِّفٍ  ، عَنْ أَبِي إِسْحَاق  ، عَنْ أَبِي بُرْدَةَ  ، عَنْ عَبْدِ اللَّهِ بْنِ عَمْرٍو  ، قَالَ : قُلْتُ : يَا رَسُولَ اللَّهِ، فِي كَمْ أَخْتِمُ الْقُرْآنَ؟ قَالَ :\" اخْتِمْهُ فِي شَهْرٍ \"، قُلْتُ : يَا رَسُولَ اللَّهِ، أنا أُطِيقُ، قَالَ : \" اخْتِمْهُ فِي خَمْسة وَعِشْرِينَ \"، قُلْتُ : إِنِّي أُطِيقُ، قَالَ : \" اخْتِمْهُ فِي عِشْرِينَ \"، قُلْتُ : إِنِّي أُطِيقُ، قَالَ : \" اخْتِمْهُ فِي خَمْسَ عَشْرَةَ \"، قُلْتُ : إِنِّي أُطِيقُ، قَالَ : \" اخْتِمْهُ فِي عَشْرٍ \"، قُلْتُ : إِنِّي أُطِيقُ، قَالَ : \" اخْتِمْهُ فِي خَمْسٍ \"، قُلْتُ : إِنِّي أُطِيقُ، قَالَ : \" لَا \"",
      "english": {
        "narrator": "",
        "text": ""
      }
    },
    {
      "id": 180,
      "chapterId": 23,
      "bookId": 9,
      "arabic": "حَدَّثَنَا عَبْدُ اللَّهِ بْنُ سَعِيدٍ  ، حَدَّثَنَا عُقْبَةُ بْنُ خَالِدٍ  ، عَنْ عَبْدِ الرَّحْمَنِ بْنِ زِيَادٍ  ، حَدَّثَنِي عَبْدُ الرَّحْمَنِ بْنُ رَافِعٍ  ، عَنْ عَبْدِ اللَّهِ بْنِ عَمْرٍو  ، قَالَ : \" أَمَرَنِي رَسُولُ اللَّهِ صَلَّى اللَّهُ عَلَيْهِ وَسَلَّمَ أَنْلَا أَقْرَأَ الْقُرْآنَ فِي أَقَلَّ مِنْ ثَلَاثٍ \"",
      "english": {
        "narrator": "",
        "text": ""
      }
    },
    {
      "id": 181,
      "chapterId": 23,
      "bookId": 9,
      "arabic": "حَدَّثَنَا أَبُو الْوَلِيدِ الطَّيَالِسِيُّ  ، حَدَّثَنَا لَيْثُ بْنُ سَعْدٍ  ، حَدَّثَنَا ابْنُ أَبِي مُلَيْكَةَ  ، عَنْ ابْنِ أَبِي نَهِيكٍ  ، عَنْ سَعْدِ بْنِ أَبِي وَقَّاصٍ   : أَنَّ رَسُولَ اللَّهِ صَلَّى اللَّهُ عَلَيْهِ وَسَلَّمَ، قَالَ :\" لَيْسَ مِنَّا مَنْ لَمْ يَتَغَنَّ بِالْقُرْآنِ \".\nقَالَ ابْنُ عُيَيْنَةَ : يَسْتَغْنِي، قَالَ أَبُو مُحَمَّد : النَّاسُ يَقُولُونَ : عُبَيْدُ اللَّهِ بْنُ أَبِي نَهِيكٍ",
      "english": {
        "narrator": "",
        "text": ""
      }
    },
    {
      "id": 182,
      "chapterId": 23,
      "bookId": 9,
      "arabic": "حَدَّثَنَا جَعْفَرُ بْنُ عَوْنٍ  ، أَنْبَأَنَا مِسْعَرٌ  ، عَنْ عَبْدِ الْكَرِيمِ  ، عَنْ طَاوُسٍ  ، قَالَ : سُئِلَ النَّبِيُّ صَلَّى اللَّهُ عَلَيْهِ وَسَلَّمَ : أَيُّ النَّاسِ أَحْسَنُ صَوْتًا لِلْقُرْآنِ، وَأَحْسَنُ قِرَاءَةً؟ قَالَ :\" مَنْ إِذَا سَمِعْتَهُ يَقْرَأُ، أُرِيتَ أَنَّهُ يَخْشَى اللَّهَ \"، قَالَ طَاوُسٌ : وَكَانَ طَلْقٌ كَذَلِكَ",
      "english": {
        "narrator": "",
        "text": ""
      }
    },
    {
      "id": 183,
      "chapterId": 23,
      "bookId": 9,
      "arabic": "حَدَّثَنَا عَبْدُ اللَّهِ بْنُ صَالِحٍ  ، حَدَّثَنِي اللَّيْثُ  ، حَدَّثَنِي عُقَيْلٌ  ، عَنْ ابْنِ شِهَابٍ  ، حَدَّثَنِي أَبُو سَلَمَةَ  ،  عَنْ أَبِي هُرَيْرَةَ  ، أَنَّهُ كَانَ يَقُولُ : قَالَ رَسُولُ اللَّهِ صَلَّى اللَّهُ عَلَيْهِ وَسَلَّمَ :\" لَمْ يَأْذَنْ اللَّهُ لِشَيْءٍ، مَا أَذِنَ لِنَبِيٍّ يَتَغَنَّى بِالْقُرْآنِ \"، قَالَ صَاحِبٌ لَهُ : أَرَادَ : يَجْهَرُ بِهِ",
      "english": {
        "narrator": "",
        "text": ""
      }
    },
    {
      "id": 184,
      "chapterId": 23,
      "bookId": 9,
      "arabic": "حَدَّثَنَا عَبْدُ اللَّهِ بْنُ صَالِحٍ  ، حَدَّثَنَا اللَّيْثُ  ، حَدَّثَنِي يُونُسُ  ، عَنْ ابْنِ شِهَابٍ  ، قَالَ : أَخْبَرَنِي أَبُو سَلَمَةَ  ، أَنَّ أَبَا هُرَيْرَةَ  ، قَالَ :\" مَا أَذِنَ اللَّهُ لِشَيْءٍ، كَمَا أَذِنَ لِنَبِيٍّ يَتَغَنَّى بِالْقُرْآنِ \"",
      "english": {
        "narrator": "",
        "text": ""
      }
    },
    {
      "id": 185,
      "chapterId": 23,
      "bookId": 9,
      "arabic": "حَدَّثَنَا عَبْدُ اللَّهِ بْنُ صَالِحٍ  ، حَدَّثَنِي اللَّيْثُ  ، حَدَّثَنِي يُونُسُ  ، عَنْ ابْنِ شِهَابٍ  ، قَالَ : أَخْبَرَنِي أَبُو سَلَمَةَ بْنُ عَبْدِ الرَّحْمَنِ   : أَنَّ رَسُولَ اللَّهِ صَلَّى اللَّهُ عَلَيْهِ وَسَلَّمَ كَانَ يَقُولُ لِأَبِي مُوسَى وَكَانَ حَسَنَ الصَّوْتِ بِالْقُرْآنِ :\" لَقَدْ أُوتِيَ هَذَا مِنْ مَزَامِيرِ آلِ دَاوُدَ \"",
      "english": {
        "narrator": "",
        "text": ""
      }
    },
    {
      "id": 186,
      "chapterId": 23,
      "bookId": 9,
      "arabic": "حَدَّثَنَا عَبْدُ اللَّهِ بْنُ صَالِحٍ  ، حَدَّثَنِي اللَّيْثُ  ، حَدَّثَنِي يُونُسُ  ، عَنْ ابْنِ شِهَابٍ  ، قَالَ : حَدَّثَنِي أَبُو سَلَمَةَ  أَيْضًا : أَنَّ عُمَرَ بْنَ الْخَطَّابِ   كَانَ إِذَا رَأَى أَبَا مُوسَى، قَالَ :\" ذَكِّرْنَا رَبَّنَا يَا أَبَا مُوسَى، فَيَقْرَأُ عِنْدَهُ \"",
      "english": {
        "narrator": "",
        "text": ""
      }
    },
    {
      "id": 187,
      "chapterId": 23,
      "bookId": 9,
      "arabic": "حَدَّثَنَا جَعْفَرُ بْنُ عَوْنٍ  ، حَدَّثَنَا إِبْرَاهِيمُ الْهَجَرِيُّ  ، عَنْ أَبِي الْأَحْوَصِ  ، عَنْ عَبْدِ اللَّهِ  ، قَالَ :\" لَا أُلْفِيَنَّ أَحَدَكُمْ يَضَعُ إِحْدَى رِجْلَيْهِ عَلَى الْأُخْرَى يَتَغَنَّى وَيَدَعُ أَنْ يَقْرَأَ سُورَةَ الْبَقَرَةِ ، فَإِنَّ الشَّيْطَانَ يَفِرُّ مِنْ الْبَيْتِ يُقْرَأُ فِيهِ سُورَةُ الْبَقَرَةِ ، وَإِنَّ أَصْفَرَ الْبُيُوتِ الْجَوْفُ، يَصْفَرُ مِنْ كِتَابِ اللَّهِ \"",
      "english": {
        "narrator": "",
        "text": ""
      }
    },
    {
      "id": 188,
      "chapterId": 23,
      "bookId": 9,
      "arabic": "أَخْبَرَنَا سُلَيْمَانُ بْنُ حَرْبٍ ، حَدَّثَنَا حَمَّادُ بْنُ زَيْدٍ ، عَنْ أَيُّوبَ ، قَالَ : حَدَّثَنِي بَعْضُ  آلِ سَالِمِ بْنِ عَبْدِ اللَّهِ، قَالَ :\" قَدِمَ سَلَمَةُ الْبَيْذَقُ الْمَدِينَةَ ، فَقَامَ يُصَلِّي بِهِمْ، فَقِيلَ لِسَالِمٍ  : لَوْ جِئْتَ فَسَمِعْتَ قِرَاءَتَهُ، فَلَمَّا كَانَ بِبَابِ الْمَسْجِدِ، سَمِعَ قِرَاءَتَهُ، رَجَعَ فَقَالَ : غِنَاءٌ غِنَاءٌ \"",
      "english": {
        "narrator": "",
        "text": ""
      }
    },
    {
      "id": 189,
      "chapterId": 23,
      "bookId": 9,
      "arabic": "حَدَّثَنَا أَبُو عَاصِمٍ  ، عَنْ ابْنِ جُرَيْجٍ  ، عَنْ ابْنِ شِهَابٍ  ، عَنْ أَبِي سَلَمَةَ  : \" أَنَّ أَبَا مُوسَى كَانَ يَأْتِي عُمَرَ  ، فَيَقُولُ لَهُ عُمَرُ :ذَكِّرْنَا رَبَّنَا، فَيَقْرَأُ عِنْدَهُ \"",
      "english": {
        "narrator": "",
        "text": ""
      }
    }
  ]
}