{
  "page": 58,
  "perPage": 50,
  "totalPages": 69,
  "totalCount": 3406,
  "nextPage": 59,
  "prevPage": 57,
  "items": [
    {
      "id": 94,
      "chapterId": 0,
      "bookId": 9,
      "arabic": "حَدَّثَنَا عَبْدُ اللَّهِ بْنُ صَالِحٍ  ، حَدَّثَنِي اللَّيْثُ  ، حَدَّثَنِي خَالِدٌ هُوَ ابْنُ يَزِيدَ  ، عَنْ سَعِيدٍ هُوَ ابْنُ أَبِي هِلَالٍ  ، عَنْ نُبَيْهِ بْنِ وَهْبٍ  ، أَنَّ كَعْبًا   دَخَلَ عَلَى عَائِشَةَ ، فَذَكَرُوا رَسُولَ اللَّهِ صَلَّى اللَّهُ عَلَيْهِ وَسَلَّمَ، فَقَالَ كَعْبٌ :\" مَا مِنْ يَوْمٍ يَطْلُعُ إِلَّا نَزَلَ سَبْعُونَ أَلْفًا مِنْ الْمَلَائِكَةِ، حَتَّى يَحُفُّوا بِقَبْرِ النَّبِيِّ صَلَّى اللَّهُ عَلَيْهِ وَسَلَّمَ يَضْرِبُونَ بِأَجْنِحَتِهِمْ، وَيُصَلُّونَ عَلَى رَسُولِ اللَّهِ صَلَّى اللَّهُ عَلَيْهِ وَسَلَّمَ حَتَّى إِذَا أَمْسَوْا، عَرَجُوا وَهَبَطَ مِثْلُهُمْ، فَصَنَعُوا مِثْلَ ذَلِكَ حَتَّى إِذَا انْشَقَّتْ عَنْهُ الْأَرْضُ، خَرَجَ فِي سَبْعِينَ أَلْفًا مِنْ الْمَلَائِكَةِ يَزِفُّونَهُ \"",
      "english": {
        "narrator": "",
        "text": ""
      }
    },
    {
      "id": 95,
      "chapterId": 0,
      "bookId": 9,
      "arabic": "أَخْبَرَنَا أَبُو عَاصِمٍ  ، أَخْبَرَنَا ثَوْرُ بْنُ يَزِيدَ  ، حَدَّثَنِي خَالِدُ بْنُ مَعْدَانَ  ، عَنْ عَبْدِ الرَّحْمَنِ بْنِ عَمْرٍو  ،  عَنْ عِرْبَاضِ بْنِ سَارِيَةَ   رَضِيَ اللهُ عَنْهُ، قَالَ : صَلَّى لَنَا رَسُولُ اللَّهِ صَلَّى اللَّهُ عَلَيْهِ وَسَلَّمَ صَلَاةَ الْفَجْرِ، ثُمَّ وَعَظَنَا مَوْعِظَةً بَلِيغَةً ذَرَفَتْ مِنْهَا الْعُيُونُ، وَوَجِلَتْ مِنْهَا الْقُلُوبُ، فَقَالَ قَائِلٌ : يَا رَسُولَ اللَّهِ، كَأَنَّهَا مَوْعِظَةُ مُوَدِّعٍ؟ فَأَوْصِنَا، فَقَالَ :\" أُوصِيكُمْ بِتَقْوَى اللَّهِ وَالسَّمْعِ وَالطَّاعَةِ وَإِنْ كَانَ عَبْدًا حَبَشِيًّا، فَإِنَّهُ مَنْ يَعِشْ مِنْكُمْ بَعْدِي فَسَيَرَى اخْتِلَافًا كَثِيرًا، فَعَلَيْكُمْ بِسُنَّتِي وَسَنَّةِ الْخُلَفَاءِ الرَّاشِدِينَ الْمَهْدِيِّينَ، عَضُّوا عَلَيْهَا بِالنَّوَاجِذِ وَإِيَّاكُمْ وَالْمُحْدَثَاتِ، فَإِنَّ كُلَّ مُحْدَثَةٍ بِدْعَةٌ \"، وقَالَ أَبُو عَاصِمٍ مَرَّةً : \" وَإِيَّاكُمْ وَمُحْدَثَاتِ الْأُمُورِ، فَإِنَّ كُلَّ بِدْعَةٍ ضَلَالَةٌ \"",
      "english": {
        "narrator": "",
        "text": ""
      }
    },
    {
      "id": 96,
      "chapterId": 0,
      "bookId": 9,
      "arabic": "أَخْبَرَنَا أَبُو الْمُغِيرَةِ  ، حَدَّثَنَا الْأَوْزَاعِيُّ  ، عَنْ يُونُسَ بْنِ يَزِيدَ  ، عَنْ الزُّهْرِيِّ  ، قَالَ : كَانَ مَنْ مَضَى مِنْ عُلَمَائِنَا يَقُولُونَ :\" الِاعْتِصَامُ بِالسُّنَّةِ نَجَاةٌ، وَالْعِلْمُ يُقْبَضُ قَبْضًا سَرِيعًا، فَنَعْشُ الْعِلْمِ ثَبَاتُ الدِّينِ وَالدُّنْيَا، وَفِي ذَهَابِ الْعِلْمِ ذَهَابُ ذَلِكَ كُلِّهِ \"",
      "english": {
        "narrator": "",
        "text": ""
      }
    },
    {
      "id": 97,
      "chapterId": 0,
      "bookId": 9,
      "arabic": "أَخْبَرَنَا أَبُو الْمُغِيرَةِ  ، حَدَّثَنَا الْأَوْزَاعِيُّ  ، عَنْ يَحْيَى بْنِ أَبِي عَمْرٍو السَّيْبَانِيِّ  ، عَنْ عَبْدِ اللَّهِ بْنِ الدَّيْلَمِيِّ  ، قَالَ :\" بَلَغَنِي أَنَّ أَوَّلَ ذَهَابِ الدِّينِ تَرْكُ السُّنَّةُ، يَذْهَبُ الدِّينُ سُنَّةً سُنَّةً، كَمَا يَذْهَبُ الْحَبْلُ قُوَّةً قُوَّةً \"",
      "english": {
        "narrator": "",
        "text": ""
      }
    },
    {
      "id": 98,
      "chapterId": 0,
      "bookId": 9,
      "arabic": "أَخْبَرَنَا أَبُو الْمُغِيرَةِ  ، حَدَّثَنَا الْأَوْزَاعِيُّ  ، عَنْ حَسَّانَ  ، قَالَ :\" مَا ابْتَدَعَ قَوْمٌ بِدْعَةً فِي دِينِهِمْ إِلَّا نَزَعَ اللَّهُ مِنْ سُنَّتِهِمْ مِثْلَهَا، ثُمَّ لَا يُعِيدُهَا إِلَيْهِمْ إِلَى يَوْمِ الْقِيَامَةِ \"",
      "english": {
        "narrator": "",
        "text": ""
      }
    },
    {
      "id": 99,
      "chapterId": 0,
      "bookId": 9,
      "arabic": "أَخْبَرَنَا مُسْلِمُ بْنُ إِبْرَاهِيمَ ، حَدَّثَنَا وُهَيْبٌ ، حَدَّثَنَا أَيُّوبُ ، عَنْ أَبِي قِلَابَةَ ، قَالَ :\" مَا ابْتَدَعَ رَجُلٌ بِدْعَةً إِلَّا اسْتَحَلَّ السَّيْفَ \"",
      "english": {
        "narrator": "",
        "text": ""
      }
    },
    {
      "id": 100,
      "chapterId": 0,
      "bookId": 9,
      "arabic": "أَخْبَرَنَا سُلَيْمَانُ بْنُ حَرْبٍ ، حَدَّثَنَا حَمَّادُ بْنُ زَيْدٍ ، عَنْ أَيُّوبَ ، عَنْ أَبِي قِلَابَةَ ، قَالَ :\" إِنَّ أَهْلَ الْأَهْوَاءِ أَهْلُ الضَّلَالَةِ، وَلَا أَرَى مَصِيرَهُمْ إِلَّا إِلَي النَّارَ، فَجَرِّبْهُمْ فَلَيْسَ أَحَدٌ مِنْهُمْ يَنْتَحِلُ قَوْلًا أَوْ قَالَ : حَدِيثًا فَيَتَنَاهَى بِهِ الْأَمْرُ دُونَ السَّيْفِ، وَإِنَّ النِّفَاقَ كَانَ ضُرُوبًا، ثُمَّ تَلَا : # وَمِنْهُمْ مَنْ عَاهَدَ اللَّهَ لَئِنْ آتَانَا مِنْ فَضْلِهِ لَنَصَّدَّقَنَّ وَلَنَكُونَنَّ مِنَ الصَّالِحِينَ سورة التوبة آية 75 #، # وَمِنْهُمْ مَنْ يَلْمِزُكَ فِي الصَّدَقَاتِ فَإِنْ أُعْطُوا مِنْهَا رَضُوا وَإِنْ لَمْ يُعْطَوْا مِنْهَا إِذَا هُمْ يَسْخَطُونَ سورة التوبة آية 58 #، # وَمِنْهُمُ الَّذِينَ يُؤْذُونَ النَّبِيَّ وَيِقُولُونَ هُوَ أُذُنٌ قُلْ أُذُنُ خَيْرٍ لَكُمْ سورة التوبة آية 61 # فَاخْتَلَفَ قَوْلُهُمْ وَاجْتَمَعُوا، فِي الشَّكِّ وَالتَّكْذِيبِ، وَإِنَّ هَؤُلَاءِ اخْتَلَفَ قَوْلُهُمْ وَاجْتَمَعُوا فِي السَّيْفِ، وَلَا أَرَى مَصِيرَهُمْ إِلَّا إِلَي النَّارَ \"، قَالَ حَمَّادٌ : ثُمَّ قَالَ أَيُّوبُ عِنْدَ ذَا الْحَدِيثِ أَوْ عِنْدَ الْأَوَّلِ : وَكَانَ وَاللَّهِ مِنْ الْفُقَهَاءِ ذَوِي الْأَلْبَابِ : يَعْنِي أَبَا قِلَابَةَ",
      "english": {
        "narrator": "",
        "text": ""
      }
    },
    {
      "id": 101,
      "chapterId": 0,
      "bookId": 9,
      "arabic": "أَخْبَرَنَا عَمْرُو بْنُ عَوْنٍ  ، عَنْ خَالِدِ بْنِ عَبْدِ اللَّهِ  ، عَنْ عَطَاءٍ  ، عَنْ عَامِرٍ  ،  عَنْ ابْنِ مَسْعُودٍ  ، وَحُذَيْفَةَ   رَضِيَ اللَّهُ عَنْهُمَا، أَنَّهُمَا كَانَا جَالِسَيْنِ فَجَاءَ رَجُلٌ فَسَأَلَهُمَا عَنْ شَيْءٍ، فَقَالَ ابْنُ مَسْعُودٍ لِحُذَيْفَةَ :\" لِأَيِّ شَيْءٍ تَرَى يَسْأَلُونِي عَنْ هَذَا؟، قَالَ : يَعْلَمُونَهُ ثُمَّ يَتْرُكُونَهُ، فَأَقْبَلَ إِلَيْهِ ابْنُ مَسْعُودٍ، فَقَالَ : مَا سَأَلْتُمُونَا عَنْ شَيْءٍ مِنْ كِتَابِ اللَّهِ تَعَالَى نَعْلَمُهُ، أَخْبَرْنَاكُمْ بِهِ، أَوْ سُنَّةٍ مِنْ نَبِيِّ اللَّهِ صَلَّى اللَّهُ عَلَيْهِ وَسَلَّمَ أَخْبَرْنَاكُمْ بِهِ، وَلَا طَاقَةَ لَنَا بِمَا أَحْدَثْتُمْ \"",
      "english": {
        "narrator": "",
        "text": ""
      }
    },
    {
      "id": 102,
      "chapterId": 0,
      "bookId": 9,
      "arabic": "أَخْبَرَنَا أَبُو نُعَيْمٍ  ، حَدَّثَنَا الْمَسْعُودِيُّ  ، عَنْ عَبْدِ الْمَلِكِ بْنِ مَيْسَرَةَ  ، عَنْ النَّزَّالِ بْنِ سَبْرَةَ  ، قَالَ :\" مَا خَطَبَ عَبْدُ اللَّهِ   خُطْبَةً بِالْكُوفَةِ إِلَّا شَهِدْتُهَا، فَسَمِعْتُهُ يَوْمًا، وَسُئِلَ عَنْ رَجُلٍ يُطَلِّقُ امْرَأَتَهُ ثَمَانِيَةً وَأَشْبَاهِ ذَلِكَ، قَالَ : هُوَ كَمَا، قَالَ، ثُمَّ قَالَ : إِنَّ اللَّهَ أَنْزَلَ كِتَابَهُ وَبَيَّنَ بَيَانَهُ، فَمَنْ أَتَى الْأَمْرَ مِنْ قِبَلِ وَجْهِهِ فَقَدْ بُيِّنَ لَهُ، وَمَنْ خَالَفَ فَوَاللَّهِ مَا نُطِيقُ خِلَافَكُمْ \"",
      "english": {
        "narrator": "",
        "text": ""
      }
    },
    {
      "id": 103,
      "chapterId": 0,
      "bookId": 9,
      "arabic": "أَخْبَرَنَا أَبُو الْوَلِيدِ الطَّيَالِسِيُّ  ، حَدَّثَنَا شُعْبَةُ  ، أَخْبَرَنِي عَبْدُ الْمَلِكِ بْنُ مَيْسَرَةَ  ، قَالَ : سَمِعْتُ النَّزَّالَ بْنَ سَبْرَةَ  ، قَالَ :\" شَهِدْتُ عَبْدَ اللَّهِ   وَأَتَاهُ رَجُلٌ وَامْرَأَةٌ فِي تَحْرِيمٍ، فَقَالَ : إِنَّ اللَّهَ قَدْ بَيَّنَ، فَمَنْ أَتَى الْأَمْرَ مِنْ قِبَلِ وَجْهِهِ، فَقَدْ بُيِّنَ، وَمَنْ خَالَفَ، فَوَاللَّهِ مَا نُطِيقُ خِلَافَكُمْ \"",
      "english": {
        "narrator": "",
        "text": ""
      }
    },
    {
      "id": 104,
      "chapterId": 0,
      "bookId": 9,
      "arabic": "أَخْبَرَنَا عَبْدُ اللَّهِ بْنُ سَعِيدٍ  ، حَدَّثَنَا حَفْصٌ  ، عَنْ أَشْعَثَ  ، عَنْ ابْنِ سِيرِينَ   :\" أَنَّهُ كَانَ لَا يَقُولُ بِرَأْيِهِ إِلَّا شَيْئًا سَمِعَهُ \"",
      "english": {
        "narrator": "",
        "text": ""
      }
    },
    {
      "id": 105,
      "chapterId": 0,
      "bookId": 9,
      "arabic": "أَخْبَرَنَا عَبْدُ اللَّهِ بْنُ سَعِيدٍ  ، حَدَّثَنَا عَثَّامٌ  وَالِدُ عَلِيِّ بْنِ عَثَّامٍ، عَنْ الْأَعْمَشِ  ، قَالَ :\" مَا سَمِعْتُ إِبْرَاهِيمَ يَقُولُ بِرَأْيِهِ فِي شَيْءٍ قَطُّ \"",
      "english": {
        "narrator": "",
        "text": ""
      }
    },
    {
      "id": 106,
      "chapterId": 0,
      "bookId": 9,
      "arabic": "أَخْبَرَنَا أَبُو النُّعْمَانِ  ، حَدَّثَنَا أَبُو عَوَانَةَ  ، عَنْ قَتَادَةَ  ، قَالَ :\" مَا قُلْتُ بِرَأْيِي مُنْذُ ثَلَاثُونَ سَنَةً \"، قَالَ أَبُو هِلَالٍ : \" مُنْذُ أَرْبَعِينَ سَنَةً \"",
      "english": {
        "narrator": "",
        "text": ""
      }
    },
    {
      "id": 107,
      "chapterId": 0,
      "bookId": 9,
      "arabic": "حَدَّثَنَا مَخْلَدُ بْنُ مَالِكٍ  ، حَدَّثَنَا حَكَّامُ بْنُ سَلْمٍ  ، عَنْ أَبِي خَيْثَمَةَ  ، عَنْ عَبْدِ الْعَزِيزِ بْنِ رُفَيْعٍ  ، قَالَ : سُئِلَ عَطَاءٌ   عَنْ شَيْءٍ، قَالَ : لَا أَدْرِي، قَالَ : قِيلَ لَهُ : أَلَا تَقُولُ فِيهَا بِرَأْيِكَ؟، قَالَ :\" إِنِّي أَسْتَحْيِي مِنْ اللَّهِ G أَنْ يُدَانَ فِي الْأَرْضِ بِرَأْيِي \"",
      "english": {
        "narrator": "",
        "text": ""
      }
    },
    {
      "id": 108,
      "chapterId": 0,
      "bookId": 9,
      "arabic": "أَخْبَرَنَا إِسْمَاعِيل بْنُ أَبَانَ  ، أَخْبَرَنِي حَاتِمٌ هُوَ ابْنُ إِسْمَاعِيل  ، عَنْ عِيسَى  ، عَنْ الشَّعْبِيِّ  ، قَالَ : جَاءَهُ رَجُلٌ يَسْأَلُهُ عَنْ شَيْءٍ، فَقَالَ :\" كَانَ ابْنُ مَسْعُودٍ   يَقُولُ فِيهِ كَذَا وَكَذَا، قَالَ : أَخْبِرْنِي أَنْتَ بِرَأْيِكَ، فَقَالَ : أَلَا تَعْجَبُونَ مِنْ هَذَا؟ أَخْبَرْتُهُ عَنْ ابْنِ مَسْعُودٍ، وَيَسْأَلُنِي عَنْ رَأْيِي، وَدِينِي عِنْدِي آثَرُ مِنْ ذَلِكَ، وَاللَّهِ لَأَنْ أَتَغَنَّى أُغْنِيَّةً أَحَبُّ إِلَيَّ مِنْ أَنْ أُخْبِرَكَ بِرَأْيِي \"",
      "english": {
        "narrator": "",
        "text": ""
      }
    },
    {
      "id": 109,
      "chapterId": 0,
      "bookId": 9,
      "arabic": "أَخْبَرَنَا إِسْمَاعِيل بْنُ أَبَانَ ، حَدَّثَنَا حَاتِمٌ هُوَ ابْنُ إِسْمَاعِيل ، عَنْ عِيسَى ، عَنْ الشَّعْبِيِّ ، قَالَ :\" إِيَّاكُمْ وَالْمُقَايَسَةَ، وَالَّذِي نَفْسِي بِيَدِهِ لَئِنْ أَخَذْتُمْ بِالْمُقَايَسَةِ لَتُحِلُّنَّ الْحَرَامَ وَلَتُحَرِّمُنَّ الْحَلَالَ، وَلَكِنْ مَا بَلَغَكُمْ عَمَّنْ حَفِظَ مِنْ أَصْحَابِ مُحَمَّدٍ صَلَّى اللَّهُ عَلَيْهِ وَسَلَّمَ فَاعْمَلُوا بِهِ \"",
      "english": {
        "narrator": "",
        "text": ""
      }
    },
    {
      "id": 110,
      "chapterId": 0,
      "bookId": 9,
      "arabic": "أَخْبَرَنَا سَعِيدُ بْنُ عَامِرٍ  ، عَنْ ابْنِ عَوْنٍ  ، عَنْ مُحَمَّدِ بْنِ سِيرِينَ  ، عَنْ عَلْقَمَةَ  ، قَالَ : جَاءَ رَجُلٌ إِلَى عَبْدِ اللَّهِ، فَقَالَ : إِنَّهُ طَلَّقَ امْرَأَتَهُ الْبَارِحَةَ ثَمَانِيًا، قَالَ : بِكَلَامٍ وَاحِدٍ؟، قَالَ : بِكَلَامٍ وَاحِدٍ، قَالَ : فَيُرِيدُونَ أَنْ يُبِينُوا مِنْكَ امْرَأَتَكَ؟ قَالَ : نَعَمْ، قَالَ : وَجَاءَهُ رَجُلٌ، فَقَالَ : إِنَّهُ طَلَّقَ امْرَأَتَهُ مِائَةَ طَلْقَةٍ قَالَ : بِكَلَامٍ وَاحِدٍ؟، قَالَ : بِكَلَامٍ وَاحِدٍ، قَالَ : فَيُرِيدُونَ أَنْ يُبِينُوا مِنْكَ امْرَأَتَكَ؟، قَالَ : نَعَمْ، فَقَالَ عَبْدُ اللَّهِ   :\" مَنْ طَلَّقَ كَمَا أَمَرَهُ اللَّهُ، فَقَدْ بَيَّنَ اللَّهُ الطَّلَاقَ وَمَنْ لَبَّسَ عَلَى نَفْسِهِ، وَكَّلْنَا بِهِ لَبْسَهُ وَاللَّهِ لَا تُلَبِّسُونَ عَلَى أَنْفُسِكُمْ وَنَتَحَمَّلُهُ نَحْنُ، هُوَ كَمَا تَقُولُونَ \"",
      "english": {
        "narrator": "",
        "text": ""
      }
    },
    {
      "id": 111,
      "chapterId": 0,
      "bookId": 9,
      "arabic": "أَخْبَرَنَا سُلَيْمَانُ بْنُ حَرْبٍ  ، حَدَّثَنَا حَمَّادُ بْنُ زَيْدٍ  ، عَنْ يَحْيَى بْنِ سَعِيدٍ  ،  عَنْ الْقَاسِمِ  ، قَالَ :\" لَأَنْ يَعِيشَ الرَّجُلُ جَاهِلًا بَعْدَ أَنْ يَعْلَمَ حَقَّ اللَّهِ عَلَيْهِ خَيْرٌ لَهُ مِنْ أَنْ يَقُولَ مَا لَا يَعْلَمُ \"",
      "english": {
        "narrator": "",
        "text": ""
      }
    },
    {
      "id": 112,
      "chapterId": 0,
      "bookId": 9,
      "arabic": "أَخْبَرَنَا سُلَيْمَانُ بْنُ حَرْبٍ  ، حَدَّثَنَا حَمَّادُ بْنُ زَيْدٍ  ، عَنْ أَيُّوبَ  ، قَالَ : سَمِعْتُ الْقَاسِمَ   سُئْلُ، قَالَ :\" إِنَّا وَاللَّهِ مَا نَعْلَمُ كُلَّ مَا تَسْأَلُونَ عَنْهُ، وَلَوْ عَلِمْنَا مَا كَتَمْنَاكُمْ، وَلَا حَلَّ لَنَا أَنْ نَكْتُمَكُمْ \"",
      "english": {
        "narrator": "",
        "text": ""
      }
    },
    {
      "id": 113,
      "chapterId": 0,
      "bookId": 9,
      "arabic": "أَخْبَرَنَا سَعِيدُ بْنُ عَامِرٍ ، عَنْ ابْنِ عَوْنٍ ، قَالَ : سُئِلَ الْقَاسِمُ  عَنْ شَيْءٍ قَدْ سَمَّاهُ، فَقَالَ :\" مَا أَضْطَرُّ إِلَى مَشُورَةٍ، وَمَا أَنَا مِنْ ذَي فِي شَيْءٍ \"",
      "english": {
        "narrator": "",
        "text": ""
      }
    },
    {
      "id": 114,
      "chapterId": 0,
      "bookId": 9,
      "arabic": "أَخْبَرَنَا مُحَمَّدُ بْنُ كَثِيرٍ  ، عَنْ سُفْيَانَ بْنِ عُيَيْنَةَ  ،  عَنْ يَحْيَى  ، قَالَ : قُلْتُ لِلْقَاسِمِ   : مَا أَشَدَّ عَلَيَّ أَنْ تُسْأَلَ عَنْ الشَّيْءِ لَا يَكُونُ عِنْدَكَ وَقَدْ كَانَ أَبُوكَ إِمَامًا، قَالَ :\" إِنَّ أَشَدَّ مِنْ ذَلِكَ عِنْدَ اللَّهِ وَعِنْدَ مَنِ عَقَلَ عَنْ اللَّهِ أَنْ أُفْتِيَ بِغَيْرِ عِلْمٍ، أَوْ أَرْوِيَ عَنْ غَيْرِ ثِقَةٍ \"",
      "english": {
        "narrator": "",
        "text": ""
      }
    },
    {
      "id": 115,
      "chapterId": 0,
      "bookId": 9,
      "arabic": "أَخْبَرَنَا عَمْرُو بْنُ عَوْنٍ ، أَخْبَرَنَا هُشَيْمٌ ، عَنْ الْعَوَّامِ ، عَنْ الْمُسَيَّبِ بْنِ رَافِعٍ ، قَالَ :\" كَانُوا إِذَا نَزَلَتْ بِهِمْ قَضِيَّةٌ لَيْسَ فِيهَا مِنْ رَسُولِ اللَّهِ صَلَّى اللَّهُ عَلَيْهِ وَسَلَّمَ أَثَرٌ، اجْتَمَعُوا لَهَا وَأَجْمَعُوا، فَالْحَقُّ فِيمَا رَأَوْا، فَالْحَقُّ فِيمَا رَأَوْا \"، أَخْبَرَنَا عَبْدُ اللَّهِ ، أَخْبَرَنَا يَزِيدُ ، عَنْ الْعَوَّامِ بِهَذَا",
      "english": {
        "narrator": "",
        "text": ""
      }
    },
    {
      "id": 116,
      "chapterId": 0,
      "bookId": 9,
      "arabic": "أَخْبَرَنَا يَحْيَى بْنُ حَسَّانَ  ، وَمُحَمَّدُ بْنُ الْمُبَارَكِ  ، قَالَا : حَدَّثَنَا يَحْيَى بْنُ حَمْزَةَ  ، حَدَّثَنَا أَبُو سَلَمَةَ الْحِمْصِيُّ  ، أَنَّ وَهْبَ بْنَ عَمْرٍو الْجُمَحِيَّ   حَدَّثَهُ، أَنَّ النَّبِيَّ صَلَّى اللَّهُ عَلَيْهِ وَسَلَّمَ قَالَ :\" لَا تَعْجَلُوا بِالْبَلِيَّةِ قَبْلَ نُزُولِهَا، فَإِنَّكُمْ إِنْ لَا تَعْجَلُوهَا قَبْلَ نُزُولِهَا، لَا يَنْفَكُّ الْمُسْلِمُونَ وَفِيهِمْ إِذَا هِيَ نَزَلَتْ مَنْ إِذَا قَالَ، وُفِّقَ وَسُدِّدَ، وَإِنَّكُمْ إِنْ تَعْجَلُوهَا، تَخْتَلِفْ بِكُمْ الْأَهْوَاءُ، فَتَأْخُذُوا هَكَذَا وَهَكَذَا، وَأَشَارَ بَيْنَ يَدَيْهِ وَعَنْ يَمِينِهِ وَعَنْ شِمَالِهِ \"",
      "english": {
        "narrator": "",
        "text": ""
      }
    },
    {
      "id": 117,
      "chapterId": 0,
      "bookId": 9,
      "arabic": "أَخْبَرَنَا مُحَمَّدُ بْنُ الْمُبَارَكِ  ، حَدَّثَنَا يَحْيَى بْنُ حَمْزَةَ  ، حَدَّثَنِي أَبُو سَلَمَةَ  ، أَنّ النَّبِيَّ صَلَّى اللَّهُ عَلَيْهِ وَسَلَّمَ سُئِلَ عَنْ الْأَمْرِ يَحْدُثُ لَيْسَ فِي كِتَابٍ وَلَا سُنَّةٍ، فَقَالَ :\" يَنْظُرُ فِيهِ الْعَابِدُونَ مِنْ الْمُؤْمِنِينَ \"",
      "english": {
        "narrator": "",
        "text": ""
      }
    },
    {
      "id": 118,
      "chapterId": 0,
      "bookId": 9,
      "arabic": "أَخْبَرَنَا أَحْمَدُ بْنُ عَبْدِ اللَّهِ ، حَدَّثَنَا مُعَاذُ بْنُ مُعَاذٍ ، عَنْ ابْنِ عَوْنٍ ، قَالَ : قَالَ الْقَاسِمُ  :\" إِنَّكُمْ لَتَسْأَلُونَ عَنْ أَشْيَاءَ مَا كُنَّا نَسْأَلُ عَنْهَا، وَتُنَقِّرُونَ عَنْ أَشْيَاءَ مَا كُنَّا نُنَقِّرُ عَنْهَا، وَتَسْأَلُونَ عَنْ أَشْيَاءَ مَا أَدْرِي مَا هِيَ، وَلَوْ عَلِمْنَاهَا مَا حَلَّ لَنَا أَنْ نَكْتُمُكُمُوهَا \"",
      "english": {
        "narrator": "",
        "text": ""
      }
    },
    {
      "id": 119,
      "chapterId": 0,
      "bookId": 9,
      "arabic": "أَخْبَرَنَا عَبْدُ اللَّهِ بْنُ صَالِحٍ  ، حَدَّثَنِي اللَّيْثُ  ، حَدَّثَنِي يَزِيدُ ابْنُ أَبِي حَبِيبٍ  ، عَنْ عُمَرَ بْنِ الْأَشَجِّ  ، أَنَّ عُمَرَ بْنَ الْخَطَّابِ   رَضِيَ اللهُ عَنْهُ، قَالَ :\" إِنَّهُ سَيَأْتِي نَاسٌ يُجَادِلُونَكُمْ بِشُبُهَاتِ الْقُرْآنِ، فَخُذُوهُمْ بِالسُّنَنِ، فَإِنَّ أَصْحَابَ السُّنَنِ أَعْلَمُ بِكِتَابِ اللَّهِ G \"",
      "english": {
        "narrator": "",
        "text": ""
      }
    },
    {
      "id": 120,
      "chapterId": 0,
      "bookId": 9,
      "arabic": "أَخْبَرَنَا مُحَمَّدُ بْنُ عُيَيْنَةَ  ، حَدَّثَنَا عَلِيٌّ هُوَ ابْنُ مُسْهِرٍ  ، عَنْ هِشَامٍ هُوَ ابْنُ عُرْوَةَ  ، عَنْ مُحَمَّدِ بْنِ عَبْدِ الرَّحْمَنِ بْنِ نَوْفَلٍ  ، عَنْ عُرْوَةَ بْنِ الزُّبَيْرِ  ، قَالَ :\" مَا زَالَ أَمْرُ بَنِي إِسْرَائِيلَ مُعْتَدِلًا لَيْسَ فِيهِ شَيْءٌ حَتَّى نَشَأَ فِيهِمْ الْمُوَلَّدُونَ، أَبْنَاءُ سَبَايَا الْأُمَمِ، أَبْنَاءُ النِّسَاءِ الَّتِي سَبَتْ بَنُو إِسْرَائِيلَ مِنْ غَيْرِهِمْ، فَقَالُوا فِيهِمْ : بِالرَّأْيِ فَأَضَلُّوهُمْ \"",
      "english": {
        "narrator": "",
        "text": ""
      }
    },
    {
      "id": 121,
      "chapterId": 0,
      "bookId": 9,
      "arabic": "أَخْبَرَنَا مُسْلِمُ بْنُ إِبْرَاهِيمَ  ، حَدَّثَنَا حَمَّادُ بْنُ يَزِيدَ الْمِنْقَرِيُّ  ، حَدَّثَنِي أَبِي  ، قَالَ : جَاءَ رَجُلٌ يَوْمًا إِلَى ابْنِ عُمَرَ   رَضِيَ اللهُ عَنْهُمَا، فَسَأَلَهُ عَنْ شَيْءٍ لَا أَدْرِي مَا هُوَ، فَقَالَ لَهُ ابْنُ عُمَرَ :\" لَا تَسْأَلْ عَمَّا لَمْ يَكُنْ، فَإِنِّي سَمِعْتُ عُمَرَ بْنَ الْخَطَّابِ   رَضِيَ اللهُ عَنْهُ يَلْعَنُ مَنْ سَأَلَ عَمَّا لَمْ يَكُنْ \"",
      "english": {
        "narrator": "",
        "text": ""
      }
    },
    {
      "id": 122,
      "chapterId": 0,
      "bookId": 9,
      "arabic": "أَخْبَرَنَا الْحَكَمُ بْنُ نَافِعٍ  ، أَخْبَرَنَا شُعَيْبٌ  ، عَنْ الزُّهْرِيِّ  ، قَالَ : بَلَغَنَا أَنَّ زَيْدَ بْنَ ثَابِتٍ الْأَنْصَارِيَّ   رِضْوَانُ اللَّهِ عَلَيْهِ كَانَ يَقُولُ إِذَا سُئِلَ عَنْ الْأَمْرِ :\" أَكَانَ هَذَا؟ فَإِنْ قَالُوا : نَعَمْ، قَدْ كَانَ، حَدَّثَ فِيهِ بِالَّذِي يَعْلَمُ وَالَّذِي يَرَى، وَإِنْ قَالُوا : لَمْ يَكُنْ، قَالَ : فَذَرُوهُ حَتَّى يَكُونَ \"",
      "english": {
        "narrator": "",
        "text": ""
      }
    },
    {
      "id": 123,
      "chapterId": 0,
      "bookId": 9,
      "arabic": "أَخْبَرَنَا إِسْحَاق بْنُ إِبْرَاهِيمَ  ، أَخْبَرَنَا أَبُو هِشَامٍ الْمَخْزُومِيُّ  ، حَدَّثَنَا وُهَيْبٌ  ، حَدَّثَنَا دَاوُدُ  ، عَنْ عَامِرٍ  ، قَالَ : سُئِلَ عَمَّارُ بْنُ يَاسِرٍ   رَضِيَ اللهُ عَنْ مَسْأَلَةٍ، فَقَالَ :\" هَلْ كَانَ هَذَا بَعْدُ؟، قَالُوا : لَا، قَالَ : دَعُونَا حَتَّى تَكُونَ، فَإِذَا كَانَ، تَجَشَّمْنَاهَا لَكُمْ \"",
      "english": {
        "narrator": "",
        "text": ""
      }
    },
    {
      "id": 124,
      "chapterId": 0,
      "bookId": 9,
      "arabic": "أَخْبَرَنَا مُحَمَّدُ بْنُ أَحْمَدَ  ، حَدَّثَنَا سُفْيَانُ  ، عَنْ عَمْرٍو  ، عَنْ طَاوُسٍ  ، قَالَ : قَالَ عُمَرُ   رَضِيَ اللهُ عَنْهُ عَلَى الْمِنْبَرِ :\" أُحَرِّجُ بِاللَّهِ عَلَى رَجُلٍ سَأَلَ عَمَّا لَمْ يَكُنْ، فَإِنَّ اللَّهَ قَدْ بَيَّنَ مَا هُوَ كَائِنٌ \"",
      "english": {
        "narrator": "",
        "text": ""
      }
    },
    {
      "id": 125,
      "chapterId": 0,
      "bookId": 9,
      "arabic": "أَخْبَرَنَا عَبْدُ اللَّهِ بْنُ مُحَمَّدِ بْنِ أَبِي شَيْبَةَ،  ، حَدَّثَنَا ابْنُ فُضَيْلٍ  ، عَنْ عَطَاءٍ  ، عَنْ سَعِيدٍ  ، عَنْ ابْنِ عَبَّاسٍ   رَضِيَ اللهُ عَنْهُمَا، قَالَ :\" مَا رَأَيْتُ قَوْمًا كَانُوا خَيْرًا مِنْ أَصْحَابِ رَسُولِ اللَّهِ صَلَّى اللَّهُ عَلَيْهِ وَسَلَّمَ، مَا سَأَلُوهُ إِلَّا عَنْ ثَلَاثَ عَشْرَةَ مَسْأَلَةً حَتَّى قُبِضَ، كُلُّهُنَّ، فِي الْقُرْآنِ مِنْهُنَّ، # يَسْأَلُونَكَ عَنِ الشَّهْرِ الْحَرَامِ سورة البقرة آية 217 #، وَ # وَيَسْأَلُونَكَ عَنِ الْمَحِيضِ سورة البقرة آية 222 #، قَالَ : مَا كَانُوا يَسْأَلُونَ إِلَّا عَمَّا يَنْفَعُهُمْ \"",
      "english": {
        "narrator": "",
        "text": ""
      }
    },
    {
      "id": 126,
      "chapterId": 0,
      "bookId": 9,
      "arabic": "حَدَّثَنَا عُثْمَانُ بْنُ عُمَرَ  ، أَخْبَرَنَا ابْنُ عَوْنٍ  ، عَنْ عُمَيْرِ بْنِ إِسْحَاق  ، قَالَ :\" لَمَنْ أَدْرَكْتُ مِنْ أَصْحَابِ رَسُولِ اللَّهِ صَلَّى اللَّهُ عَلَيْهِ وَسَلَّمَ أَكْثَرُ مِمَّنْ سَبَقَنِي مِنْهُمْ، فَمَا رَأَيْتُ قَوْمًا أَيْسَرَ سِيرَةً، وَلَا أَقَلَّ تَشْدِيدًا مِنْهُمْ \"",
      "english": {
        "narrator": "",
        "text": ""
      }
    },
    {
      "id": 127,
      "chapterId": 0,
      "bookId": 9,
      "arabic": "أَخْبَرَنِي الْعَبَّاسُ بْنُ سُفْيَانَ L1504 ، عَنْ زَيْدِ بْنِ حُبَابٍ  ، أَخْبَرَنِي رَجَاءُ بْنُ حَيْوَةَ  ، قَالَ : سَمِعْتُ عُبَادَةَ بْنَ نُسَيٍّ الْكِنْدِيَّ  ، وَسُئِلَ عَنْ امْرَأَةٍ مَاتَتْ مَعَ قَوْمٍ لَيْسَ لَهَا وَلِيٌّ، فَقَالَ :\" أَدْرَكْتُ أَقْوَامًا مَا كَانُوا يُشَدِّدُونَ تَشْدِيدَكُمْ، وَلَا يَسْأَلُونَ مَسَائِلَكُمْ \"",
      "english": {
        "narrator": "",
        "text": ""
      }
    },
    {
      "id": 128,
      "chapterId": 0,
      "bookId": 9,
      "arabic": "أَخْبَرَنَا الْعَبَّاسُ بْنُ سُفْيَانَ ، أَخْبَرَنَا زَيْدُ بْنُ حُبَابٍ ، أَخْبَرَنِي رَجَاءُ بْنُ أَبِي سَلَمَةَ ، قَالَ : حَدَّثَنِي خَالِدُ بْنُ حَازِمٍ ، عَنْ هِشَامِ بْنِ مُسْلِمٍ الْقُرَشِيِّ ، قَالَ : كُنْتُ مَعَ ابْنِ مُحَيْرِيزٍ، بِمَرْجِ الدِّيبَاجِ فَرَأَيْتُ مِنْهُ خَلْوَةً، فَسَأَلْتُهُ عَنْ مَسْأَلَةٍ، فَقَالَ لِي : مَا تَصْنَعُ بِالْمَسَائِلِ؟، قُلْتُ : \" لَوْلَا الْمَسَائِلُ، لَذَهَبَ الْعِلْمُ، قَالَ :\" لَا تَقُلْ ذَهَبَ الْعِلْمُ، إِنَّهُ لَا يَذْهَبُ الْعِلْمُ مَا قُرِئَ الْقُرْآنُ، وَلَكِنْ لَوْ قُلْتَ : يَذْهَبُ الْفِقْهُ \"",
      "english": {
        "narrator": "",
        "text": ""
      }
    },
    {
      "id": 129,
      "chapterId": 0,
      "bookId": 9,
      "arabic": "أَخْبَرَنَا سُلَيْمَانُ بْنُ حَرْبٍ  ، حَدَّثَنَا حَمَّادُ بْنُ سَلَمَةَ  ، عَنْ دَاوُدَ  ، عَنْ الشَّعْبِيِّ  ، أَنَّ عُمَرَ   رَضِيَ اللهُ عَنْهُ، قَالَ : يَا أَيُّهَا النَّاسُ، إِنَّا لَا نَدْرِي،\" لَعَلَّنَا نَأْمُرُكُمْ بِأَشْيَاءَ لَا تَحِلُّ لَكُمْ، وَلَعَلَّنَا نُحَرِّمُ عَلَيْكُمْ أَشْيَاءَ هِيَ لَكُمْ حَلَالٌ، إِنَّ آخِرَ مَا نَزَلَ مِنْ الْقُرْآنِ آيَةُ الرِّبَا، وَإِنَّ رَسُولَ اللَّهِ صَلَّى اللَّهُ عَلَيْهِ وَسَلَّمَ لَمْ يُبَيِّنْهَا لَنَا حَتَّى مَاتَ، فَدَعُوا مَا يَرِيبُكُمْ إِلَى مَا لَا يَرِيبُكُمْ \"",
      "english": {
        "narrator": "",
        "text": ""
      }
    },
    {
      "id": 130,
      "chapterId": 0,
      "bookId": 9,
      "arabic": "أَخْبَرَنَا سَلْمُ بْنُ جُنَادَةَ  ، حَدَّثَنَا ابْنُ إِدْرِيسَ  ، عَنْ عَمِّهِ  ، قَالَ :\" خَرَجْتُ مِنْ عِنْدِ إِبْرَاهِيمَ  ، فَاسْتَقْبَلَنِي حَمَّادٌ، فَحَمَّلَنِي ثَمَانِيَةَ أَبْوَابٍ، مَسَائِلَ، فَسَأَلْتُهُ، فَأَجَابَنِي عَنْ أَرْبَعٍ وَتَرَكَ أَرْبَعًا \"",
      "english": {
        "narrator": "",
        "text": ""
      }
    },
    {
      "id": 131,
      "chapterId": 0,
      "bookId": 9,
      "arabic": "أَخْبَرَنَا قَبِيصَةُ  ، أَخْبَرَنَا سُفْيَانُ  ، عَنْ عَبْدِ الْمَلِكِ بْنِ أَبْجَرَ  ، عَنْ زُبَيْدٍ  ، قَالَ :\" مَا سَأَلْتُ إِبْرَاهِيمَ  ، عَنْ شَيْءٍ إِلَّا عَرَفْتُ الْكَرَاهِيَةَ فِي وَجْهِهِ \"",
      "english": {
        "narrator": "",
        "text": ""
      }
    },
    {
      "id": 132,
      "chapterId": 0,
      "bookId": 9,
      "arabic": "أَخْبَرَنَا مُحَمَّدُ بْنُ أَحْمَدَ  ، حَدَّثَنَا إِسْحَاق بْنُ مَنْصُورٍ  ، عَنْ عُمَرَ بْنِ أَبِي زَائِدَةَ  ، قَالَ :\" مَا رَأَيْتُ أَحَدًا أَكْثَرَ أَنْ يَقُولَ إِذَا سُئِلَ عَنْ شَيْءٍ : لَا عِلْمَ لِي بِهِ مِنْ الشَّعْبِيِّ   \"",
      "english": {
        "narrator": "",
        "text": ""
      }
    },
    {
      "id": 133,
      "chapterId": 0,
      "bookId": 9,
      "arabic": "أَخْبَرَنَا أَبُو عَاصِمٍ  ، عَنْ ابْنِ عَوْنٍ  ، قَالَ : سَمِعْتُهُ يَذْكُرُ ، قَالَ : كَانَ الشَّعْبِيُّ  إِذَا جَاءَهُ شَيْءٌ اتَّقَى، وَكَانَ إِبْرَاهِيمُ   يَقُولُ، وَيَقُولُ، وَيَقُولُ، قَالَ أَبُو عَاصِمٍ :\" كَانَ الشَّعْبِيُّ فِي هَذَا أَحْسَنَ حَالًا عِنْدَ ابْنِ عَوْنٍ مِنْ إِبْرَاهِيمَ \"",
      "english": {
        "narrator": "",
        "text": ""
      }
    },
    {
      "id": 134,
      "chapterId": 0,
      "bookId": 9,
      "arabic": "أَخْبَرَنَا عَبْدُ اللَّهِ بْنُ سَعِيدٍ  ، أَخْبَرَنَا أَحْمَدُ بْنُ بَشِيرٍ  ، حَدَّثَنَا شُعْبَةُ  ، عَنْ جَعْفَرِ بْنِ إِيَاسٍ  ، قَالَ : قُلْتُ لِسَعِيدِ بْنِ جُبَيْرٍ   : مَا لَكَ لَا تَقُولُ فِي الطَّلَاقِ شَيْئًا؟، قَالَ :\" مَا مِنْهُ شَيْءٌ إِلَّا قَدْ سَأَلْتُ عَنْهُ، وَلَكِنِّي أَكْرَهُ أَنْ أُحِلَّ حَرَامًا، أَوْ أُحَرِّمَ حَلَالًا \"",
      "english": {
        "narrator": "",
        "text": ""
      }
    },
    {
      "id": 135,
      "chapterId": 0,
      "bookId": 9,
      "arabic": "أَخْبَرَنَا أَبُو نُعَيْمٍ  ، حَدَّثَنَا سُفْيَانُ  ، عَنْ عَطَاءِ بْنِ السَّائِبِ  ، قَالَ : سَمِعْتُ عَبْدَ الرَّحْمَنِ بْنَ أَبِي لَيْلَى  ، يَقُولُ :\" لَقَدْ أَدْرَكْتُ فِي هَذَا الْمَسْجِدِ عِشْرِينَ وَمِائَةً مِنْ الْأَنْصَارِ، وَمَا مِنْهُمْ مِنْ أَحَدٍ يُحَدِّثُ بِحَدِيثٍ إِلَّا وَدَّ أَنَّ أَخَاهُ كَفَاهُ الْحَدِيثَ، وَلَا يُسْأَلُ عَنْ فُتْيَا إِلَّا وَدَّ أَنَّ أَخَاهُ كَفَاهُ الْفُتْيَا \"",
      "english": {
        "narrator": "",
        "text": ""
      }
    },
    {
      "id": 136,
      "chapterId": 0,
      "bookId": 9,
      "arabic": "حَدَّثَنَا يُوسُفُ بْنُ يَعْقُوبَ الصَّفَّارُ  ، حَدَّثَنَا أَبُو بَكْرٍ  ، عَنْ دَاوُدَ  ، قَالَ : سَأَلْتُ الشَّعْبِيَّ  ، كَيْفَ كُنْتُمْ تَصْنَعُونَ إِذَا سُئِلْتُمْ؟، قَالَ :\" عَلَى الْخَبِيرِ وَقَعْتَ، كَانَ إِذَا سُئِلَ الرَّجُلُ، قَالَ لِصَاحِبِهِ : أَفْتِهِمْ، فَلَا يَزَالُ حَتَّى يَرْجِعَ إِلَى الْأَوَّلِ \"",
      "english": {
        "narrator": "",
        "text": ""
      }
    },
    {
      "id": 137,
      "chapterId": 0,
      "bookId": 9,
      "arabic": "أَخْبَرَنَا أَحْمَدُ بْنُ الْحَجَّاجِ  ، قَالَ : سَمِعْتُ سُفْيَانَ  ، عَنْ ابْنِ الْمُنْكَدِرِ  ، قَالَ :\" إِنَّ الْعَالِمَ يَدْخُلُ فِيمَا بَيْنَ اللَّهِ وَبَيْنَ عِبَادِهِ، فَلْيَطْلُبْ لِنَفْسِهِ الْمَخْرَجَ \"",
      "english": {
        "narrator": "",
        "text": ""
      }
    },
    {
      "id": 138,
      "chapterId": 0,
      "bookId": 9,
      "arabic": "أَخْبَرَنَا مُحَمَّدُ بْنُ قُدَامَةَ  ، حَدَّثَنَا أَبُو أُسَامَةَ  ،  عَنْ مِسْعَرٍ  ، قَالَ : أَخْرَجَ إِلَيَّ مَعْنُ بْنُ عَبْدِ الرَّحْمَنِ  كِتَابًا، فَحَلَفَ لِي بِاللَّهِ أَنَّهُ خَطُّ أَبِيه  ، فَإِذَا فِيهِ : قَال عَبْدُ اللَّهِ   :\" وَالَّذِي لَا إِلَهَ إِلَّا هُوَ مَا رَأَيْتُ أَحَدًا كَانَ أَشَدَّ عَلَى الْمُتَنَطِّعِينَ مِنْ رَسُولِ اللَّهِ صَلَّى اللَّهُ عَلَيْهِ وَسَلَّمَ، وَمَا رَأَيْتُ أَحَدًا كَانَ أَشَدَّ عَلَيْهِمْ مِنْ أَبِي بَكْرٍ رَضِيَ اللهُ عَنْهُ، وَإِنِّي لَأَرَى عُمَرَ رَضِيَ اللهُ عَنْهُ كَانَ أَشَدَّ خَوْفًا عَلَيْهِمْ أَوْ لَهُمْ \"",
      "english": {
        "narrator": "",
        "text": ""
      }
    },
    {
      "id": 139,
      "chapterId": 0,
      "bookId": 9,
      "arabic": "أَخْبَرَنَا أَبُو نُعَيْمٍ  ، حَدَّثَنَا زَمْعَةُ بْنُ صَالِحٍ  ، عَنْ عُثْمَانَ بْنِ حَاضِرٍ الْأَزْدِيِّ  ، قَالَ : دَخَلْتُ عَلَى ابْنِ عَبَّاسٍ   رَضِيَ اللهُ عَنْهُ، فَقُلْتُ : أَوْصِنِي، فَقَالَ : نَعَمْ،\" عَلَيْكَ بِتَقْوَى اللَّهِ، وَالِاسْتِقَامَةِ، اتَّبِعْ وَلَا تَبْتَدِعْ \"",
      "english": {
        "narrator": "",
        "text": ""
      }
    },
    {
      "id": 140,
      "chapterId": 0,
      "bookId": 9,
      "arabic": "أَخْبَرَنَا مَخْلَدُ بْنُ مَالِكٍ بن جابر ، أَخْبَرَنَا النَّضْرُ بْنُ شُمَيْلٍ ، عَنْ ابْنِ عَوْنٍ ، عَنْ ابْنِ سِيرِينَ ، قَالَ :\" كَانُوا يَرَوْنَ أَنَّهُ عَلَى الطَّرِيقِ مَا كَانَ عَلَى الْأَثَرِ \"",
      "english": {
        "narrator": "",
        "text": ""
      }
    },
    {
      "id": 141,
      "chapterId": 0,
      "bookId": 9,
      "arabic": "أَخْبَرَنَا يُوسُفُ بْنُ مُوسَى ، حَدَّثَنَا أَزْهَرُ ، عَنْ ابْنِ عَوْنٍ ، عَنْ ابْنِ سِيرِينَ ، قَالَ :\" مَا دَامَ عَلَى الْأَثَرِ، فَهُوَ عَلَى الطَّرِيقِ \"",
      "english": {
        "narrator": "",
        "text": ""
      }
    },
    {
      "id": 142,
      "chapterId": 0,
      "bookId": 9,
      "arabic": "أَخْبَرَنَا أَبُو الْمُغِيرَةِ  ، حَدَّثَنَا الْأَوْزَاعِيُّ  ، عَنْ يَحْيَى بْنِ أَبِي كَثِيرٍ  ، عَنْ أَبِي قِلَابَةَ  ، قَالَ : قَالَ عَبْدُ اللَّهِ بْنُ مَسْعُودٍ   رَضِيَ اللهُ عَنْهُ :\" تَعَلَّمُوا الْعِلْمَ قَبْلَ أَنْ يُقْبَضَ، وَقَبْضُهُ أَنْ يَذْهَبَ أَهْلُهُ، أَلَا وَإِيَّاكُمْ، وَالتَّنَطُّعَ، وَالتَّعَمُّقَ، وَالْبِدَعَ، وَعَلَيْكُمْ بِالْعَتِيقِ \"",
      "english": {
        "narrator": "",
        "text": ""
      }
    },
    {
      "id": 143,
      "chapterId": 0,
      "bookId": 9,
      "arabic": "حَدَّثَنَا سُلَيْمَانُ بْنُ حَرْبٍ  ، وَأَبُو النُّعْمَانِ  ، عَنْ حَمَّادِ بْنِ زَيْدٍ  ، عَنْ أَيُّوبَ  ، عَنْ أَبِي قِلَابَةَ  ، قَالَ : قَالَ ابْنُ مَسْعُودٍ   رَضِيَ اللهُ عَنْهُ :\" عَلَيْكُمْ بِالْعِلْمِ قَبْلَ أَنْ يُقْبَضَ، وَقَبْضُهُ أَنْ يُذْهَبَ بِأَصْحَابِهِ، عَلَيْكُمْ بِالْعِلْمِ، فَإِنَّ أَحَدَكُمْ لَا يَدْرِي مَتَى يُفْتَقَرُ إِلَيْهِ أَوْ يُفْتَقَرُ إِلَى مَا عِنْدَهُ، إِنَّكُمْ سَتَجِدُونَ أَقْوَامًا يَزْعُمُونَ أَنَّهُمْ يَدْعُونَكُمْ إِلَى كِتَابِ اللَّهِ وَقَدْ نَبَذُوهُ وَرَاءَ ظُهُورِهِمْ، فَعَلَيْكُمْ بِالْعِلْمِ، وَإِيَّاكُمْ وَالتَّبَدُّعَ، وَإِيَّاكُمْ وَالتَّنَطُّعَ، وَإِيَّاكُمْ وَالتَّعَمُّقَ، وَعَلَيْكُمْ بِالْعَتِيقِ \"",
      "english": {
        "narrator": "",
        "text": ""
      }
    }
  ]
}