{
  "page": 6,
  "perPage": 50,
  "totalPages": 69,
  "totalCount": 3406,
  "nextPage": 7,
  "prevPage": 5,
  "items": [
    {
      "id": 251,
      "chapterId": 1,
      "bookId": 9,
      "arabic": "أَخْبَرَنَا خَلِيفَةُ بْنُ خَيَّاطٍ ، حَدَّثَنَا غُنْدَرٌ ، حَدَّثَنَا شُعْبَةُ ، عَنْ قَتَادَةَ ، عَنْ عِكْرِمَةَ ، قَالَ :\" الْمُسْتَحَاضَةُ وَالَّتِي لَا يَسْتَقِيمُ لَهَا حَيْضٌ فَتَحِيضُ فِي شَهْرٍ مَرَّةً وَفِي الشَّهْرِ مَرَّتَيْنِ، عِدَّتُهَا ثَلَاثَةُ أَشْهُرٍ \"",
      "english": {
        "narrator": "",
        "text": ""
      }
    },
    {
      "id": 252,
      "chapterId": 1,
      "bookId": 9,
      "arabic": "أَخْبَرَنَا خَلِيفَةُ بْنُ خَيَّاطٍ ، حَدَّثَنَا أَبُو دَاوُدَ ، عَنْ هِشَامٍ ، عَنْ حَمَّادٍ ، قَالَ :\" تَعْتَدُّ بِالْأَقْرَاءِ \"",
      "english": {
        "narrator": "",
        "text": ""
      }
    },
    {
      "id": 253,
      "chapterId": 1,
      "bookId": 9,
      "arabic": "حَدَّثَنَا خَالِدُ بْنُ مَخْلَدٍ ، حَدَّثَنَا مَالِكٌ ، عَنْ ابْنِ شِهَابٍ ، عَنْ سَعِيدِ بْنِ الْمُسَيِّبِ ، قَالَ :\" عِدَّةُ الْمُسْتَحَاضَةِ سَنَةٌ \"",
      "english": {
        "narrator": "",
        "text": ""
      }
    },
    {
      "id": 254,
      "chapterId": 1,
      "bookId": 9,
      "arabic": "أَخْبَرَنَا إِسْحَاق بْنُ عِيسَى ، أَخْبَرَنَا هُشَيْمٌ ، عَنْ يُونُسَ ، عَنْ الْحَسَنِ ، قَالَ :\" الْمُسْتَحَاضَةُ تَعْتَدُّ بِالْأَقْرَاءِ \"",
      "english": {
        "narrator": "",
        "text": ""
      }
    },
    {
      "id": 255,
      "chapterId": 1,
      "bookId": 9,
      "arabic": "أَخْبَرَنَا خَلِيفَةُ ، حَدَّثَنَا عَبْدُ الْأَعْلَى ، عَنْ مَعْمَرٍ ، عَنْ الزُّهْرِيِّ ، قَالَ :\" بِالْأَقْرَاءِ \"، قَالَ أَبُو مُحَمَّد : أَهْلُ الْحِجَازِ ، يَقُولُونَ : \" الْأَقْرَاءُ : الْأَطْهَارُ \"، وَقَالَ أَهْلُ الْعِرَاقِ : هُوَ الْحَيْضُ ، قَالَ عَبْد اللَّهِ : وَأَنَا أَقُولُ : \" هُوَ الْحَيْضُ \"",
      "english": {
        "narrator": "",
        "text": ""
      }
    },
    {
      "id": 256,
      "chapterId": 1,
      "bookId": 9,
      "arabic": "أَخْبَرَنَا أَبُو النُّعْمَانِ ، حَدَّثَنَا وُهَيْبٌ ، حَدَّثَنَا يُونُسُ ، عَنْ الْحَسَنِ ، قَالَ :\" الْمُسْتَحَاضَةُ تَعْتَدُّ بِالْأَقْرَاءِ \"",
      "english": {
        "narrator": "",
        "text": ""
      }
    },
    {
      "id": 257,
      "chapterId": 1,
      "bookId": 9,
      "arabic": "حَدَّثَنَا مُوسَى بْنُ خَالِدٍ ، عَنْ الْهِقْلِ بْنِ زِيَادٍ ، عَنْ الْأَوْزَاعِيِّ ، قَالَ : سَأَلْتُ الزُّهْرِيَّ  عَنْ رَجُلٍ طَلَّقَ امْرَأَتَهُ وَهِيَ شَابَّةٌ تَحِيضُ، فَانْقَطَعَ عَنْهَا الْمَحِيضُ حِينَ طَلَّقَهَا، فَلَمْ تَرَ دَمًا، كَمْ تَعْتَدُّ؟، قَالَ :\" ثَلَاثَةَ أَشْهُرٍ \"، قَالَ : وَسَأَلْتُ الزُّهْرِيَّ عَنْ رَجُلٍ طَلَّقَ امْرَأَتَهُ فَحَاضَتْ حَيْضَتَيْنِ ثُمَّ ارْتَفَعَتْ حَيْضَتُهَا، كَمْ تَرَبَّصُ؟، قَالَ : \" عِدَّتُهَا سَنَةٌ \"، قَالَ : وَسَأَلْتُ الزُّهْرِيَّ عَنْ رَجُلٍ طَلَّقَ امْرَأَتَهُ وَهِيَ تَحِيضُ، تَمْكُثُ ثَلَاثَةَ أَشْهُرٍ، ثُمَّ تَحِيضُ حَيْضَةً، ثُمَّ يَتَأَخَّرُ عَنْهَا الْحَيْضُ، ثُمَّ تَمْكُثُ السَّبْعَةَ الْأَشْهُرَ وَالثَّمَانِيَةَ، ثُمَّ تَحِيضُ أُخْرَى تَسْتَعْجِلُ إِلَيْهَا مَرَّةً وَتَسْتَأْخِرُ أُخْرَى، كَيْفَ تَعْتَدُّ؟، قَالَ : \" إِذَا اخْتَلَفَتْ حِيضَتُهَا عَنْ أَقْرَائِهَا فَعِدَّتُهَا سَنَةٌ \"، قُلْتُ : وَكَيْفَ إِنْ كَانَ طَلَّقَ وَهِيَ تَحِيضُ فِي كُلِّ سَنَةٍ مَرَّةً كَمْ تَعْتَدُّ؟، قَالَ : \" إِنْ كَانَتْ تَحِيضُ أَقْرَاؤُهَا مَعْلُومَةٌ هِيَ أَقْرَاؤُهَا، فَإِنَّا نُرَى أَنْ تَعْتَدَّ أَقْرَاءَهَا \"",
      "english": {
        "narrator": "",
        "text": ""
      }
    },
    {
      "id": 258,
      "chapterId": 1,
      "bookId": 9,
      "arabic": "أَخْبَرَنَا مُحَمَّدُ بْنُ الْمُبَارَكِ ، حَدَّثَنَا عُمَرُ بْنُ عَبْدِ الْوَاحِدِ ، عَنْ الْأَوْزَاعِيِّ ، قَالَ : سَأَلْتُ الزُّهْرِيَّ  عَنْ الرَّجُلِ يَبْتَاعُ الْجَارِيَةَ لَمْ تَبْلُغْ الْمَحِيضَ وَلَا تَحْمِلُ مِثْلُهَا، بِكَمْ يَسْتَبْرِئُهَا؟، قَالَ :\" بِثَلَاثَةِ أَشْهُرٍ \"، وَقَالَ يَحْيَى بْنُ أَبِي كَثِيرٍ  : \" بِخَمْسَةٍ وَأَرْبَعِينَ يَوْمًا \"",
      "english": {
        "narrator": "",
        "text": ""
      }
    },
    {
      "id": 259,
      "chapterId": 1,
      "bookId": 9,
      "arabic": "أَخْبَرَنَا يَزِيدُ بْنُ هَارُونَ  ، عَنْ هِشَامٍ الدَّسْتَوَائِيِّ  ، عَنْ حَمَّادٍ  ، عَنْ سَعِيدِ بْنِ جُبَيْرٍ  ، عَنْ ابْنِ عَبَّاسٍ   رَضِيَ اللهُ عَنْهُمَا، أَنَّهُ كَانَ يَقُولُ فِي الْمُسْتَحَاضَةِ :\" تَغْتَسِلُ عِنْدَ كُلِّ صَلَاةٍ وَتُصَلِّي \"، وَقَالَ حَمَّادٌ : \" لَوْ أَنَّ مُسْتَحَاضَةً جَهِلَتْ فَتَرَكَتْ الصَّلَاةَ أَشْهُرًا، فَإِنَّهَا تَقْضِي تِلْكَ الصَّلَوَاتِ، قِيلَ لَهُ : وَكَيْفَ تَقْضِيهَا؟، قَالَ : تَقْضِيهَا فِي يَوْمٍ وَاحِدٍ إِنْ اسْتَطَاعَتْ \"، قِيلَ لِعَبْدِ اللَّهِ : تَقُولُ بِهِ؟، قَالَ : إِي وَاللَّهِ",
      "english": {
        "narrator": "",
        "text": ""
      }
    },
    {
      "id": 260,
      "chapterId": 1,
      "bookId": 9,
      "arabic": "أَخْبَرَنَا خَالِدُ بْنُ مَخْلَدٍ  ، حَدَّثَنَا مَالِكُ بْنُ أَنَسٍ  ، قَالَ : سَأَلْتُ الزُّهْرِيَّ   عَنْ الْحَامِلِ تَرَى الدَّمَ، فَقَالَ :\" تَدَعُ الصَّلَاةَ \"",
      "english": {
        "narrator": "",
        "text": ""
      }
    },
    {
      "id": 261,
      "chapterId": 1,
      "bookId": 9,
      "arabic": "أَخْبَرَنَا عُبَيْدُ اللَّهِ بْنُ مُوسَى ، عَنْ عُثْمَانَ بْنِ الْأَسْوَدِ ، قَالَ : سَأَلْتُ، مُجَاهِدًا  عَنْ امْرَأَتِي رَأَتْ دَمًا، وَأَنَا أُرَاهَا حَامِلًا، قَالَ :\" ذَلِكَ غَيْضُ الْأَرْحَامِ # اللَّهُ يَعْلَمُ مَا تَحْمِلُ كُلُّ أُنْثَى وَمَا تَغِيضُ الأَرْحَامُ وَمَا تَزْدَادُ سورة الرعد آية 8 #، فَمَا غَاضَتْ مِنْ شَيْءٍ رَأَتْ مِثْلَهُ فِي الْحَمْلِ \"",
      "english": {
        "narrator": "",
        "text": ""
      }
    },
    {
      "id": 262,
      "chapterId": 1,
      "bookId": 9,
      "arabic": "أَخْبَرَنَا حَجَّاجٌ ، حَدَّثَنَا حَمَّادُ بْنُ سَلَمَةَ ، عَنْ عَاصِمٍ الْأَحْوَلِ ، عَنْ عِكْرِمَةَ  فِي هَذِهِ الْآيَةِ : # اللَّهُ يَعْلَمُ مَا تَحْمِلُ كُلُّ أُنْثَى وَمَا تَغِيضُ الأَرْحَامُ وَمَا تَزْدَادُ وَكُلُّ شَيْءٍ عِنْدَهُ بِمِقْدَارٍ سورة الرعد آية 8 #، قَالَ :\" ذَلِكَ الْحَيْضُ عَلَى الْحَبَلِ، لَا تَحِيضُ يَوْمًا فِي الْحَبَلِ إِلَّا زَادَتْهُ طَاهِرًا فِي حَبَلِهَا \"",
      "english": {
        "narrator": "",
        "text": ""
      }
    },
    {
      "id": 263,
      "chapterId": 1,
      "bookId": 9,
      "arabic": "أَخْبَرَنَا أَبُو النُّعْمَانِ  ، حَدَّثَنَا حَمَّادُ بْنُ زَيْدٍ  ، عَنْ يَحْيَى بْنِ سَعِيدٍ  ، قَالَ : أَمْرٌ لَا يُخْتَلَفُ فِيهِ عِنْدَنَا، عَنْ عَائِشَةَ   رَضِيَ اللهُ عَنْهَا\" الْمَرْأَةُ الْحُبْلَى إِذَا رَأَتْ الدَّمَ أَنَّهَا لَا تُصَلِّي حَتَّى تَطْهُرَ \"",
      "english": {
        "narrator": "",
        "text": ""
      }
    },
    {
      "id": 264,
      "chapterId": 1,
      "bookId": 9,
      "arabic": "أَخْبَرَنَا أَبُو النُّعْمَانِ ، حَدَّثَنَا ثَابِتُ بْنُ يَزِيدَ ، حَدَّثَنَا عَاصِمٌ ، عَنْ عِكْرِمَةَ  : # وَمَا تَغِيضُ الأَرْحَامُ سورة الرعد آية 8 #، قَالَ :\" هُوَ الْحَيْضُ عَلَى الْحَبَلِ # وَمَا تَزْدَادُ سورة الرعد آية 8 #، قَالَ : فَلَهَا بِكُلِّ يَوْمٍ حَاضَتْ فِي حَمْلِهَا يَوْمًا تَزْدَادُ فِي طُهْرِهَا حَتَّى تَسْتَكْمِلَ تِسْعَةَ أَشْهُرٍ طَاهِرًا \"",
      "english": {
        "narrator": "",
        "text": ""
      }
    },
    {
      "id": 265,
      "chapterId": 1,
      "bookId": 9,
      "arabic": "أَخْبَرَنَا أَبُو النُّعْمَانِ ، حَدَّثَنَا أَبُو عَوَانَةَ ، عَنْ أَبِي بِشْرٍ ، عَنْ مُجَاهِدٍ  : # وَمَا تَغِيضُ الأَرْحَامُ سورة الرعد آية 8 #، قَالَ :\" إِذَا حَاضَتْ الْمَرْأَةُ وَهِيَ حَامِلٌ، قَالَ : يَكُونُ ذَلِكَ نُقْصَانًا مِنْ الْوَلَدِ، فَإِذَا زَادَتْ عَلَى تِسْعَةِ أَشْهُرٍ، كَانَ تَمَامًا لِمَا نَقَصَ مِنْ وَلَدِهَا \"",
      "english": {
        "narrator": "",
        "text": ""
      }
    },
    {
      "id": 266,
      "chapterId": 1,
      "bookId": 9,
      "arabic": "أَخْبَرَنَا حَجَّاجٌ ، حَدَّثَنَا حَمَّادُ بْنُ سَلَمَةَ ، عَنْ حُمَيْدٍ ،  عَنْ بَكْرِ بْنِ عَبْدِ اللَّهِ الْمُزَنِيِّ ، أَنَّهُ قَالَ :\" امْرَأَتِي تَحِيضُ وَهِيَ حُبْلَى \"، قَالَ أَبُو مُحَمَّد : سَمِعْتُ سُلَيْمَانَ بْنَ حَرْبٍ، يَقُولُ : امْرَأَتِي تَحِيضُ وَهِيَ حُبْلَى",
      "english": {
        "narrator": "",
        "text": ""
      }
    },
    {
      "id": 267,
      "chapterId": 1,
      "bookId": 9,
      "arabic": "أَخْبَرَنَا حَجَّاجٌ  ، حَدَّثَنَا حَمَّادٌ  ، عَنْ يَحْيَى بْنِ سَعِيدٍ  ، عَنْ عَائِشَةَ   رَضِيَ اللهُ عَنْهَا، أَنَّهَا قَالَتْ :\" إِذَا رَأَتْ الْحُبْلَى الدَّمَ، فَلْتُمْسِكْ عَنْ الصَّلَاةِ فَإِنَّهُ حَيْضٌ \"، أَخْبَرَنَا عَبْدُ اللَّهِ بْنُ مَسْلَمَةَ  ، حَدَّثَنَا مَالِكٌ  أَنَّهُ بَلَغَهُ، عَن عَائِشَةَ   رَضِيَ اللهُ عَنْهَا، مِثْلُ ذَلِكَ",
      "english": {
        "narrator": "",
        "text": ""
      }
    },
    {
      "id": 268,
      "chapterId": 1,
      "bookId": 9,
      "arabic": "أَخْبَرَنَا إِسْمَاعِيل بْنُ أَبَانَ ، حَدَّثَنَا ابْنُ إِدْرِيسَ ، عَنْ لَيْثٍ ، عَنْ الشَّعْبِيِّ  فِي الْحَامِلِ تَرَى الدَّمَ\" إِنْ كَانَ الدَّمُ عَبِيطًا، اغْتَسَلَتْ وَصَلَّتْ، وَإِنْ كَانَتْ تَرِيَّةً، تَوَضَّأَتْ وَصَلَّتْ \"، أَخْبَرَنَا أَبُو الْمُغِيرَةِ ، عَنْ الْأَوْزَاعِيِّ ، مِثْلَهُ",
      "english": {
        "narrator": "",
        "text": ""
      }
    },
    {
      "id": 269,
      "chapterId": 1,
      "bookId": 9,
      "arabic": "أَخْبَرَنَا عَبْدُ اللَّهِ بْنُ مُحَمَّدٍ ، حَدَّثَنَا عَبَّادُ هُوَ ابْنُ الْعَوَّامِ ، عَنْ هِشَامٍ ، عَنْ الْحَسَنِ ، قَالَ :\" إِنْ كَانَتْ تَرَاهُ كَمَا كَانَتْ تَرَاهُ قَبْلَ ذَلِكَ فِي أَقْرَائِهَا تَرَكَتْ الصَّلَاةَ، وَإِنْ كَانَ إِنَّمَا هُوَ فِي الْيَوْمِ أَوْ الْيَوْمَيْنِ، لَمْ تَدَعْ الصَّلَاةَ \"",
      "english": {
        "narrator": "",
        "text": ""
      }
    },
    {
      "id": 270,
      "chapterId": 1,
      "bookId": 9,
      "arabic": "أَخْبَرَنَا عَبْدُ اللَّهِ بْنُ مُحَمَّدٍ هُوَ ابْنُ أَبِي شَيْبَةَ  ، حَدَّثَنَا خَالِدُ بْنُ الْحَارِثِ  ، وَعَبْدَةُ بْنُ سُلَيْمَانَ  ، عَنْ سَعِيدٍ  ، عَنْ مَطَرٍ  ، عَنْ عَطَاءٍ  ،  عَنْ عَائِشَةَ   رَضِيَ اللهُ عَنْهَا فِي الْحَامِلِ تَرَى الدَّمَ، قَالَتْ :\" لَا يَمْنَعُهَا ذَلِكَ مِنْ صَلَاةٍ \"",
      "english": {
        "narrator": "",
        "text": ""
      }
    },
    {
      "id": 271,
      "chapterId": 1,
      "bookId": 9,
      "arabic": "أَخْبَرَنَا يَزِيدُ بْنُ هَارُونَ  ، حَدَّثَنَا هَمَّامٌ  ، عَنْ مَطَرٍ  ، عَنْ عَطَاءٍ  ، عَنْ عَائِشَةَ   فِي الْحَامِلِ تَرَى الدَّمَ، قَالَتْ :\" تَغْتَسِلُ وَتُصَلِّي \"، قَالَ يَزِيدُ : \" لَا تَغْتَسِلُ \"، قَالَ عَبْد اللَّهِ : أَقُولُ بِقَوْلِ يَزِيدَ",
      "english": {
        "narrator": "",
        "text": ""
      }
    },
    {
      "id": 272,
      "chapterId": 1,
      "bookId": 9,
      "arabic": "أَخْبَرَنَا مُحَمَّدُ بْنُ عِيسَى ، حَدَّثَنَا يَزِيدُ بْنُ زُرَيْعٍ ، عَنْ يُونُسَ ، عَنْ الْحَسَنِ  فِي الْحَامِلِ تَرَى الدَّمَ، قَالَ :\" هِيَ بِمَنْزِلَةِ الْمُسْتَحَاضَةِ، غَيْرَ أَنَّهَا لَا تَدَعُ الصَّلَاةَ \"",
      "english": {
        "narrator": "",
        "text": ""
      }
    },
    {
      "id": 273,
      "chapterId": 1,
      "bookId": 9,
      "arabic": "أَخْبَرَنَا مُحَمَّدُ بْنُ عِيسَى ، حَدَّثَنَا أَبُو عَوَانَةَ ، عَنْ مُغِيرَةَ ، عَنْ إِبْرَاهِيمَ  فِي الْحَامِلِ تَرَى الدَّمَ، قَالَ :\" تَغْسِلُ عَنْهَا الدَّمَ، وَتَتَوَضَّأُ، وَتُصَلِّي \"",
      "english": {
        "narrator": "",
        "text": ""
      }
    },
    {
      "id": 274,
      "chapterId": 1,
      "bookId": 9,
      "arabic": "أَخْبَرَنَا مُحَمَّدُ بْنُ عِيسَى ، حَدَّثَنَا هُشَيْمٌ ، حَدَّثَنَا حَجَّاجٌ ،  عَنْ عَطَاءٍ ، وَالْحَكَمِ ، قَالَا :\" إِذَا رَأَتْ الْحَامِلُ الدَّمَ، تَوَضَّأَتْ وَصَلَّتْ \"",
      "english": {
        "narrator": "",
        "text": ""
      }
    },
    {
      "id": 275,
      "chapterId": 1,
      "bookId": 9,
      "arabic": "أَخْبَرَنَا مُحَمَّدُ بْنُ يُوسُفَ ، حَدَّثَنَا سُفْيَانُ ، عَنْ جَامِعٍ هُوَ ابْنُ أَبِي رَاشِدٍ ، عَنْ عَطَاءٍ  فِي الْحَامِلِ تَرَى الدَّمَ، قَالَ :\" تَوَضَّأُ وَتُصَلِّي \"",
      "english": {
        "narrator": "",
        "text": ""
      }
    },
    {
      "id": 276,
      "chapterId": 1,
      "bookId": 9,
      "arabic": "أَخْبَرَنَا مُحَمَّدُ بْنُ يُوسُفَ ، حَدَّثَنَا سُفْيَانُ ، عَنْ يُونُسَ ، عَنْ الْحَسَنِ ، قَالَ :\" هِيَ بِمَنْزِلَةِ الْمُسْتَحَاضَةِ \"",
      "english": {
        "narrator": "",
        "text": ""
      }
    },
    {
      "id": 277,
      "chapterId": 1,
      "bookId": 9,
      "arabic": "حَدَّثَنَا أَبُو الْوَلِيدِ الطَّيَالِسِيُّ ، عَنْ جَرِيرٍ ، عَنْ مُغِيرَةَ ، عَنْ إِبْرَاهِيمَ ، قَالَ :\" لَا يَكُونُ حَيْضٌ عَلَى حَمْلٍ \"",
      "english": {
        "narrator": "",
        "text": ""
      }
    },
    {
      "id": 278,
      "chapterId": 1,
      "bookId": 9,
      "arabic": "أَخْبَرَنَا سَعِيدُ بْنُ عَامِرٍ ، عَنْ هِشَامٍ ، عَنْ الْحَسَنِ  فِي الْحَامِلِ تَرَى الدَّمَ، قَالَ :\" هِيَ بِمَنْزِلَةِ الْمُسْتَحَاضَةِ \"",
      "english": {
        "narrator": "",
        "text": ""
      }
    },
    {
      "id": 279,
      "chapterId": 1,
      "bookId": 9,
      "arabic": "أَخْبَرَنَا أَبُو الْوَلِيدِ ، حَدَّثَنَا أَبُو عَوَانَةَ ، عَنْ مُغِيرَةَ ، عَنْ إِبْرَاهِيمَ \" إِذَا رَأَتْ الْحَامِلُ الدَّمَ لَمْ تَدَعْ الصَّلَاةَ \"",
      "english": {
        "narrator": "",
        "text": ""
      }
    },
    {
      "id": 280,
      "chapterId": 1,
      "bookId": 9,
      "arabic": "أَخْبَرَنَا حَجَّاجٌ ، حَدَّثَنَا حَمَّادُ بْنُ سَلَمَةَ ، عَنْ الْحَجَّاجِ ،  عَنْ عَطَاءٍ ، وَالْحَكَمِ بْنِ عُتَيْبَةَ ، أنهما قَالَا فِي الْحُبْلَى :\" وَالَّتِي قَعَدَتْ عَنْ الْمَحِيضِ إِذَا رَأَتْ الدَّمَ، تَوَضَّأَتَا وَصَلَّتَا، وَلَا تَغْتَسِلَانِ \"",
      "english": {
        "narrator": "",
        "text": ""
      }
    },
    {
      "id": 281,
      "chapterId": 1,
      "bookId": 9,
      "arabic": "أَخْبَرَنَا حَجَّاجٌ ، عَنْ حَمَّادٍ ، عَنْ مَطَرٍ ، عَنْ عَطَاءٍ ، قَالَ :\" تَغْتَسِلَانِ وَتُصَلِّيَانِ \"",
      "english": {
        "narrator": "",
        "text": ""
      }
    },
    {
      "id": 282,
      "chapterId": 1,
      "bookId": 9,
      "arabic": "أَخْبَرَنَا زَيْدُ بْنُ يَحْيَى الدِّمَشْقِيُّ  ، عَنْ مُحَمَّدِ بْنِ رَاشِدٍ  ، عَنْ سُلَيْمَانَ بْنِ مُوسَى  ، عَنْ عَطَاءِ بْنِ أَبِي رَبَاحٍ  ، عَنْ عَائِشَةَ   رَضِيَ اللهُ عَنْهَا، قَالَتْ :\" إِنَّ الْحُبْلَى لَا تَحِيضُ، فَإِذَا رَأَتْ الدَّمَ، فَلْتَغْتَسِلْ، وَلْتُصَلِّي \"",
      "english": {
        "narrator": "",
        "text": ""
      }
    },
    {
      "id": 283,
      "chapterId": 1,
      "bookId": 9,
      "arabic": "أَخْبَرَنَا يَحْيَى بْنُ حَسَّانَ ، حَدَّثَنَا مُحَمَّدُ بْنُ الْفُضَيْلِ ، عَنْ الْحَسَنِ بْنِ الْحَكَمِ ، عَنْ الْحَكَمِ ، عَنْ إِبْرَاهِيمَ  فِي الْمَرْأَةِ إِذَا رَأَتْ الدَّمَ وَهِيَ تَمَخَّضُ، قَالَ :\" هُوَ حَيْضٌ تَتْرُكُ الصَّلَاةَ \"",
      "english": {
        "narrator": "",
        "text": ""
      }
    },
    {
      "id": 284,
      "chapterId": 1,
      "bookId": 9,
      "arabic": "أَخْبَرَنَا يَحْيَى بْنُ حَسَّانَ ، حَدَّثَنَا هُشَيْمٌ ، حَدَّثَنَا يُونُسُ ، عَنْ الْحَسَنِ  فِي الْمَرْأَةِ الْحَامِلِ\" إِذَا ضَرَبَهَا الطَّلْقُ، وَرَأَتْ الدَّمَ عَلَى الْوَلَدِ، فَلْتُمْسِكْ عَنْ الصَّلَاةِ \"، وقَالَ عَبْد اللَّهِ : تُصَلِّي مَا لَمْ تَضَعْ",
      "english": {
        "narrator": "",
        "text": ""
      }
    },
    {
      "id": 285,
      "chapterId": 1,
      "bookId": 9,
      "arabic": "أَخْبَرَنَا مُحَمَّدُ بْنُ عِيسَى ، حَدَّثَنَا أَبُو سُفْيَانَ ، عَنْ مَعْمَرٍ ، عَنْ قَتَادَةَ  فِي النُّفَسَاءِ\" كَطُهْرِ امْرَأَةٍ مِنْ نِسَائِهَا \"",
      "english": {
        "narrator": "",
        "text": ""
      }
    },
    {
      "id": 286,
      "chapterId": 1,
      "bookId": 9,
      "arabic": "أَخْبَرَنَا مُحَمَّدُ بْنُ عِيسَى ، حَدَّثَنَا هُشَيْمٌ ، حَدَّثَنَا يُونُسُ ، عَنْ الْحَسَنِ  فِي النُّفَسَاءِ\" تُمْسِكُ عَنْ الصَّلَاةِ أَرْبَعِينَ يَوْمًا، فَإِنْ رَأَتْ الطُّهْرَ فَذَاكَ، وَإِنْ لَمْ تَرَ الطُّهْرَ، أَمْسَكَتْ عَنْ الصَّلَاةِ أَيَّامًا خَمْسًا، سِتًّا، فَإِنْ طَهُرَتْ فَذَاكَ، وَإِلَّا أَمْسَكَتْ عَنْ الصَّلَاةِ مَا بَيْنَهَا وَبَيْنَ الْخَمْسِينَ، فَإِنْ طَهُرَتْ فَذَاكَ، وَإِلَّا فَهِيَ مُسْتَحَاضَةٌ \"",
      "english": {
        "narrator": "",
        "text": ""
      }
    },
    {
      "id": 287,
      "chapterId": 1,
      "bookId": 9,
      "arabic": "أَخْبَرَنَا مُحَمَّدُ بْنُ يُوسُفَ ، حَدَّثَنَا سُفْيَانُ ، عَنْ يُونُسَ بْنِ عُبَيْدٍ ، عَنْ الْحَسَنِ ، عَنْ عُثْمَانَ بْنِ أَبِي الْعَاصِ  أَنَّهُ كَانَ\" لَا يَقْرَبُ النُّفَسَاءَ أَرْبَعِينَ يَوْمًا \"، وقَالَ الْحَسَنُ : \" النُّفَسَاءُ خَمْسَةٌ وَأَرْبَعُونَ إِلَى خَمْسِينَ، فَمَا زَادَ فَهِيَ مُسْتَحَاضَةٌ \"",
      "english": {
        "narrator": "",
        "text": ""
      }
    },
    {
      "id": 288,
      "chapterId": 1,
      "bookId": 9,
      "arabic": "أَخْبَرَنَا جَعْفَرُ بْنُ عَوْنٍ ، أَخْبَرَنَا إِسْمَاعِيل بْنُ مُسْلِمٍ ، عَنْ الْحَسَنِ ، عَنْ عُثْمَانَ بْنِ أَبِي الْعَاصِ ، قَالَ :\" وَقْتُ النُّفَسَاءِ أَرْبَعِينَ يَوْمًا، فَإِنْ طَهُرَتْ، وَإِلَّا فَلَا تُجَاوِزْهُ حَتَّى تُصَلِّيَ \"",
      "english": {
        "narrator": "",
        "text": ""
      }
    },
    {
      "id": 289,
      "chapterId": 1,
      "bookId": 9,
      "arabic": "أَخْبَرَنَا مُحَمَّدُ بْنُ يُوسُفَ ، حَدَّثَنَا سُفْيَانُ ، عَنْ أَشْعَثَ ، عَنْ عَطَاءٍ ، قَالَ :\" إِنْ كَانَ لِلنُّفَسَاءِ عَادَةٌ، وَإِلَّا جَلَسَتْ أَرْبَعِينَ لَيْلَةً \"",
      "english": {
        "narrator": "",
        "text": ""
      }
    },
    {
      "id": 290,
      "chapterId": 1,
      "bookId": 9,
      "arabic": "أَخْبَرَنَا مُحَمَّدُ بْنُ يُوسُفَ ، حَدَّثَنَا سُفْيَانُ ، عَنْ ابْنِ جُرَيْجٍ ، عَنْ عَطَاءٍ ، قَالَ :\" النِّفَاسُ حَيْضٌ \"",
      "english": {
        "narrator": "",
        "text": ""
      }
    },
    {
      "id": 291,
      "chapterId": 1,
      "bookId": 9,
      "arabic": "أَخْبَرَنَا أَبُو الْوَلِيدِ الطَّيَالِسِيُّ  ، حَدَّثَنَا أَبُو عَوَانَةَ  ، عَنْ أَبِي بِشْرٍ  ، عَنْ يُوسُفَ بْنِ مَاهَكَ  ، عَنْ ابْنِ عَبَّاسٍ   رَضِيَ اللهُ عَنْهُمَا، قَالَ :\" تَنْتَظِرُ النُّفَسَاءُ أَرْبَعِينَ يَوْمًا أَوْ نَحْوَهَا \"",
      "english": {
        "narrator": "",
        "text": ""
      }
    },
    {
      "id": 292,
      "chapterId": 1,
      "bookId": 9,
      "arabic": "أَخْبَرَنَا أَبُو الْوَلِيدِ  ، حَدَّثَنَا أَبُو خَيْثَمَةَ  ، حَدَّثَنَا عَلِيُّ بْنُ عَبْدِ الْأَعْلَى  ، عَنْ أَبِي سَهْلٍ الْبَصْرِيِّ  ، عَنْ مُسَّةَ  ، عَنْ أُمِّ سَلَمَةَ   رَضِيَ اللهُ عَنْهَا، قَالَتْ :\" كَانَتْ النُّفَسَاءُ \" تَجْلِسُ عَلَى عَهْدِ رَسُولِ اللَّهِ صَلَّى اللَّهُ عَلَيْهِ وَسَلَّمَ أَرْبَعِينَ يَوْمًا، أَوْ أَرْبَعِينَ لَيْلَةً، وَكَانَتْ إِحْدَانَا تَطْلِي الْوَرْسَ عَلَى وَجْهِهَا مِنْ الْكَلَفِ \"",
      "english": {
        "narrator": "",
        "text": ""
      }
    },
    {
      "id": 293,
      "chapterId": 1,
      "bookId": 9,
      "arabic": "أَخْبَرَنَا سَعِيدُ بْنُ عَامِرٍ ، عَنْ هِشَامٍ ، عَنْ جَلْدٍ ، عَنْ مُعَاوِيَةَ بْنِ قُرَّةَ : أَنَّ امْرَأَةً لِعَائِذِ بْنِ عَمْرٍو  نُفِسَتْ فَجَاءَتْ بَعْدَمَا مَضَتْ عِشْرُونَ لَيْلَةً فَدَخَلَتْ فِي لِحَافِهِ، فَقَالَ : مَنْ هَذِهِ؟، قَالَتْ : أَنَا فُلَانَةُ، إِنِّي قَدْ تَطَهَّرْتُ فَرَكَضَهَا بِرِجْلِهِ، فَقَالَ :\" لَا تُغَرِّنِي عَنْ دِينِي حَتَّى تَمْضِيَ أَرْبَعُونَ لَيْلَةً \"",
      "english": {
        "narrator": "",
        "text": ""
      }
    },
    {
      "id": 294,
      "chapterId": 1,
      "bookId": 9,
      "arabic": "أَخْبَرَنَا أَبُو نُعَيْمٍ  ، حَدَّثَنَا أَبُو عَوَانَةَ  ، عَنْ أَبِي بِشْرٍ  ، عَنْ يُوسُفَ بْنِ مَاهَكَ  ، عَنْ ابْنِ عَبَّاسٍ   رَضِيَ اللهُ عَنْهُمَا، قَالَ :\" النُّفَسَاءُ تَجْلِسُ نَحْوًا مِنْ أَرْبَعِينَ يَوْمًا \"",
      "english": {
        "narrator": "",
        "text": ""
      }
    },
    {
      "id": 295,
      "chapterId": 1,
      "bookId": 9,
      "arabic": "أَخْبَرَنَا عَمْرُو بْنُ عَوْنٍ  ، أَخْبَرَنَا أَبُو عَوَانَةَ  ، عَنْ أَبِي بِشْرٍ  ، عَنْ يُوسُفَ بْنِ مَاهَكَ  ، عَنْ ابْنِ عَبَّاسٍ   رَضِيَ اللهُ عَنْهُمَا، قَالَ :\" النُّفَسَاءُ تَنْتَظِرُ نَحْوًا مِنْ أَرْبَعِينَ يَوْمًا \"",
      "english": {
        "narrator": "",
        "text": ""
      }
    },
    {
      "id": 296,
      "chapterId": 1,
      "bookId": 9,
      "arabic": "أَخْبَرَنَا مُوسَى بْنُ خَالِدٍ ، حَدَّثَنَا مُعْتَمِرٌ ، عَنْ أَبِيهِ ، أَنَّ الْحَسَنَ ، قَالَ فِي النُّفَسَاءِ الَّتِي تَرَى الدَّمَ :\" تَرَبَّصُ أَرْبَعِينَ لَيْلَةً، ثُمَّ تُصَلِّي \"، وَقَالَ الشَّعْبِيُّ  : \" شَهْرَيْنِ ثُمَّ هِيَ بِمَنْزِلَةِ الْمُسْتَحَاضَةِ \"",
      "english": {
        "narrator": "",
        "text": ""
      }
    },
    {
      "id": 297,
      "chapterId": 1,
      "bookId": 9,
      "arabic": "أَخْبَرَنَا مَرْوَانُ بْنُ مُحَمَّدٍ ، حَدَّثَنَا مُحَمَّدُ بْنُ شُعَيْبٍ ، حَدَّثَنَا إِبْرَاهِيمُ بْنُ سُلَيْمَانَ الْأَفْطَسُ ، قَالَ : سَمِعْتُ الْعَلَاءَ بْنَ الْحَارِثِ ، عَنْ مَكْحُولٍ ، قَالَ :\" الْمَرْأَةُ تَنْتَظِرُ مِنْ الْغُلَامِ ثَلَاثِينَ يَوْمًا، وَمِنْ الْجَارِيَةِ أَرْبَعِينَ يَوْمًا \"، يَعْنِي : النُّفَسَاءَ، قَالَ مَرْوَانُ : هُوَ قَوْلُ سَعِيدِ بْنِ عَبْدِ الْعَزِيزِ، وقَالَ الْأَوْزَاعِيُّ : هُمَا سَوَاءٌ",
      "english": {
        "narrator": "",
        "text": ""
      }
    },
    {
      "id": 298,
      "chapterId": 1,
      "bookId": 9,
      "arabic": "أَخْبَرَنَا مُحَمَّدُ بْنُ عَبْدِ اللَّهِ الرَّقَاشِيُّ ، حَدَّثَنَا وُهَيْبٌ ، حَدَّثَنِي يُونُسُ ، عَنْ الْحَسَنِ ، قَالَ :\" إِذَا رَأَتْ الدَّمَ عِنْدَ الطَّلْقِ يَوْمًا أَوْ يَوْمَيْنِ، فَهُوَ مِنْ النِّفَاسِ \"",
      "english": {
        "narrator": "",
        "text": ""
      }
    },
    {
      "id": 299,
      "chapterId": 1,
      "bookId": 9,
      "arabic": "أَخْبَرَنَا عَبْدُ اللَّهِ بْنُ مُحَمَّدٍ ، حَدَّثَنَا عَبْدُ اللَّهِ بْنُ الْمُبَارَكِ ، عَنْ ابْنِ جُرَيْجٍ ، عَنْ عَطَاءٍ  فِي الْحَامِلِ تَرَى الدَّمَ وَهِيَ تَطْلُقُ، قَالَ :\" تَصْنَعُ مَا تَصْنَعُ الْمُسْتَحَاضَةُ \"",
      "english": {
        "narrator": "",
        "text": ""
      }
    },
    {
      "id": 300,
      "chapterId": 1,
      "bookId": 9,
      "arabic": "أَخْبَرَنَا مُحَمَّدُ بْنُ يُوسُفَ ، حَدَّثَنَا سُفْيَانُ ، عَنْ مُغِيرَةَ ، عَنْ إِبْرَاهِيمَ  فِي الْمَرْأَةِ تُجْنِبُ، ثُمَّ تَحِيضُ، قَالَ :\" تَغْتَسِلُ \"، أَخْبَرَنَا مُحَمَّدُ بْنُ يُوسُفَ ، حَدَّثَنَا سُفْيَانُ ، عَنْ هِشَامٍ ، عَنْ الْحَسَنِ ، مِثْلَهُ",
      "english": {
        "narrator": "",
        "text": ""
      }
    }
  ]
}