{
  "page": 61,
  "perPage": 50,
  "totalPages": 69,
  "totalCount": 3406,
  "nextPage": 62,
  "prevPage": 60,
  "items": [
    {
      "id": 244,
      "chapterId": 0,
      "bookId": 9,
      "arabic": "أَخْبَرَنَا مَالِكُ بْنُ إِسْمَاعِيل  ، حَدَّثَنَا مَسْعُودُ بْنُ سَعْدٍ الْجُعْفِيُّ  ، عَنْ عَطَاءِ بْنِ السَّائِبِ  ، عَنْ عَبْدِ اللَّهِ بْنِ رُبَيِّعَةَ  ، عَنْ سَلْمَانَ   رَضِيَ اللهُ عَنْهُ، قَالَ :\" لَا يَزَالُ النَّاسُ بِخَيْرٍ مَا بَقِيَ الْأَوَّلُ حَتَّى يَتَعَلَّمَ أَوْ يُعَلِّمَ الْآخِرَ، فَإِنْ هَلَكَ الْأَوَّلُ قَبْلَ أَنْ يُعَلِّمَ أَوْ يَتَعَلَّمَ الْآخِرُ، هَلَكَ النَّاسُ \"",
      "english": {
        "narrator": "",
        "text": ""
      }
    },
    {
      "id": 245,
      "chapterId": 0,
      "bookId": 9,
      "arabic": "أَخْبَرَنَا مُحَمَّدُ بْنُ الصَّلْتِ  ، حَدَّثَنَا أَبُو كُدَيْنَةَ  ، عَنْ قَابُوسَ  ، عَنْ أَبِيهِ  ، عَنْ ابْنِ عَبَّاسٍ   رَضِيَ اللهُ عَنْهُ، قَالَ :\" هَلْ تَدْرُونَ مَا ذَهَابُ الْعِلْمِ؟، قُلْنَا : لَا، قَالَ : ذَهَابُ الْعُلَمَاءِ \"",
      "english": {
        "narrator": "",
        "text": ""
      }
    },
    {
      "id": 246,
      "chapterId": 0,
      "bookId": 9,
      "arabic": "أَخْبَرَنَا مُحَمَّدُ بْنُ أَسْعَدَ  ، حَدَّثَنَا أَبُو بَكْرٍ  ، عَنْ عَاصِمٍ  ، عَنْ أَبِي وَائِلٍ  ، قَالَ : قَالَ حُذَيْفَةُ   رَضِيَ اللهُ عَنْهُ : أَتَدْرِي كَيْفَ يُنْقَصُ الْعِلْمُ؟، قَالَ : قُلْتُ : كَمَا يُنْفَضُ الثَّوْبُ، وَكَمَا يَقْسُو الدِّرْهَمُ، قَالَ :\" لَا، وَإِنَّ ذَلِكَ لَمِنْهُ، قَبْضُ الْعِلْمِ : قَبْضُ الْعُلَمَاءِ \"",
      "english": {
        "narrator": "",
        "text": ""
      }
    },
    {
      "id": 247,
      "chapterId": 0,
      "bookId": 9,
      "arabic": "أَخْبَرَنَا مُحَمَّدُ بْنُ الصَّلْتِ  ، عَنْ مَنْصُورِ بْنِ أَبِي الْأَسْوَدِ  ، عَنْ حُصَيْنٍ  ، عَنْ سَالِمِ بْنِ أَبِي الْجَعْدِ  ،  عَنْ أَبِي الدَّرْدَاءِ   رَضِيَ اللهُ عَنْهُ، قَالَ :\" مَا لِي أَرَى عُلَمَاءَكُمْ يَذْهَبُونَ وَجُهَّالَكُمْ لَا يَتَعَلَّمُونَ؟ ! فَتَعَلَّمُوا قَبْلَ أَنْ يُرْفَعَ الْعِلْمُ، فَإِنَّ رَفْعَ الْعِلْمِ ذَهَابُ الْعُلَمَاءِ \"",
      "english": {
        "narrator": "",
        "text": ""
      }
    },
    {
      "id": 248,
      "chapterId": 0,
      "bookId": 9,
      "arabic": "أَخْبَرَنَا أَحْمَدُ بْنُ أَسَدٍ أَبُو عَاصِمٍ  ، حَدَّثَنَا عَبْثَرٌ  ، عَنْ بُرْد  ، عَنْ سُلَيْمَانَ بْنِ مُوسَى  ، عَنْ أَبِي الدَّرْدَاءِ   رَضِيَ اللهُ عَنْهُ، قَالَ :\" النَّاسُ عَالِمٌ وَمُتَعَلِّمٌ، وَلَا خَيْرَ فِيمَا بَعْدَ ذَلِكَ \"",
      "english": {
        "narrator": "",
        "text": ""
      }
    },
    {
      "id": 249,
      "chapterId": 0,
      "bookId": 9,
      "arabic": "أَخْبَرَنَا أَحْمَدُ بْنُ أَسَدٍ أَبُو عَاصِمٍ  ، حَدَّثَنَا عَبْثَرٌ  ، عَنْ الْأَعْمَشِ  ، عَنْ سَالِمٍ  ، عَنْ أَبِي الدَّرْدَاءِ   رَضِيَ اللهُ عَنْهُ، قَالَ :\" مُعَلِّمُ الْخَيْرِ، وَالْمُتَعَلِّمُ فِي الْأَجْرِ سَوَاءٌ، وَلَيْسَ لِسَائِرِ النَّاسِ بَعْدُ خَيْرٌ \"",
      "english": {
        "narrator": "",
        "text": ""
      }
    },
    {
      "id": 250,
      "chapterId": 0,
      "bookId": 9,
      "arabic": "أَخْبَرَنَا قَبِيصَةُ  ، أَخْبَرَنَا سُفْيَانُ  ، عَنْ عَطَاءِ بْنِ السَّائِبِ  ، عَنْ الْحَسَنِ  ، عَنْ عَبْدِ اللَّهِ بْنِ مَسْعُودٍ   رَضِيَ اللهُ عَنْهُ، قَالَ :\" اغْدُ عَالِمًا أَوْ مُتَعَلِّمًا أَوْ مُسْتَمِعًا، وَلَا تَكُنِ الرَّابِعَ فَتَهْلِكَ \"",
      "english": {
        "narrator": "",
        "text": ""
      }
    },
    {
      "id": 251,
      "chapterId": 0,
      "bookId": 9,
      "arabic": "أَخْبَرَنَا عَمْرُو بْنُ عَوْنٍ  ، أَخْبَرَنَا خَالِدٌ  ، عَنْ عَطَاءِ بْنِ السَّائِبِ  ، عَنْ عَبْدِ اللَّهِ بْنِ رُبَيِّعَةَ  ، قَالَ : قَالَ سَلْمَانُ   رَضِيَ اللهُ عَنْهُ :\" لَا يَزَالُ النَّاسُ بِخَيْرٍ مَا بَقِيَ الْأَوَّلُ حَتَّى يَتَعَلَّمَ الْآخِرُ، فَإِذَا هَلَكَ الْأَوَّلُ قَبْلَ أَنْ يَتَعَلَّمَ الْآخِرُ، هَلَكَ النَّاسُ \"",
      "english": {
        "narrator": "",
        "text": ""
      }
    },
    {
      "id": 252,
      "chapterId": 0,
      "bookId": 9,
      "arabic": "أَخْبَرَنَا وَهْبُ بْنُ جَرِيرٍ  ، وَعُثْمَانُ بْنُ عُمَرَ  ، قَالَا : أَخْبَرَنَا ابْنُ عَوْنٍ  ، عَنْ مُحَمَّدٍ  ، عَنْ الْأَحْنَفِ  ، قَالَ : قَالَ عُمَرُ   :\" تَفَقَّهُوا قَبْلَ أَنْ تُسَوَّدُوا \"",
      "english": {
        "narrator": "",
        "text": ""
      }
    },
    {
      "id": 253,
      "chapterId": 0,
      "bookId": 9,
      "arabic": "أَخْبَرَنَا يَزِيدُ بْنُ هَارُونَ  ، أَخْبَرَنَا بَقِيَّةُ  ، حَدَّثَنِي صَفْوَانُ بْنُ رُسْتُمَ  ، عَنْ عَبْدِ الرَّحْمَنِ بْنِ مَيْسَرَةَ  ، عَنْ تَمِيمٍ الدَّارِيِّ  ، رَضِيَ اللهُ عَنْهُ، قَالَ : تَطَاوَلَ النَّاسُ فِي الْبِنَاءِ فِي زَمَنِ عُمَرَ رَضِيَ اللهُ عَنْهُ، فَقَالَ عُمَرُ   : \" يَا مَعْشَرَ الْعُرَيْبِ،الْأَرْضَ الْأَرْضَ، إِنَّهُ لَا إِسْلَامَ إِلَّا بِجَمَاعَةٍ، وَلَا جَمَاعَةَ إِلَّا بِإِمَارَةٍ، وَلَا إِمَارَةَ إِلَّا بِطَاعَةٍ، فَمَنْ سَوَّدَهُ قَوْمُهُ عَلَى الْفِقْهِ، كَانَ حَيَاةً لَهُ وَلَهُمْ، وَمَنْ سَوَّدَهُ قَوْمُهُ عَلَى غَيْرِ فِقْهٍ، كَانَ هَلَاكًا لَهُ وَلَهُمْ \"",
      "english": {
        "narrator": "",
        "text": ""
      }
    },
    {
      "id": 254,
      "chapterId": 0,
      "bookId": 9,
      "arabic": "أَخْبَرَنَا مُحَمَّدُ بْنُ الْمُبَارَكِ  ، أَخْبَرَنَا بَقِيَّةُ  ، حَدَّثَنَا صَدَقَةُ بْنُ عَبْدِ اللَّهِ بْنِ صُهَيْبٍ  ، أَنَّ الْمُهَاصِرَ بْنَ حَبِيبٍ  ، قَالَ : قَالَ رَسُولُ اللَّهِ صَلَّى اللَّهُ عَلَيْهِ وَسَلَّمَ : قَالَ اللَّهُ تَعَالَى :\" إِنِّي لَسْتُ كُلَّ كَلَامِ الْحَكِيمِ أَتَقَبَّلُ، وَلَكِنِّي أَتَقَبَّلُ هَمَّهُ وَهَوَاهُ، فَإِنْ كَانَ هَمُّهُ وَهَوَاهُ فِي طَاعَتِي، جَعَلْتُ صَمْتَهُ حَمْدًا لِي وَوَقَارًا، وَإِنْ لَمْ يَتَكَلَّمْ \"",
      "english": {
        "narrator": "",
        "text": ""
      }
    },
    {
      "id": 255,
      "chapterId": 0,
      "bookId": 9,
      "arabic": "أَخْبَرَنَا مَخْلَدُ بْنُ مَالِكٍ  ، عَنْ حَجَّاجِ بْنِ مُحَمَّدٍ  ، عَنْ لَيْثِ بْنِ سَعْدٍ  ، عَنْ مُعَاوِيَةَ بْنِ صَالِحٍ  ، عَنْ أَبِي الزَّاهِرِيَّةِ  ، يَرْفَعُ الْحَدِيثَ، أَنَّ اللَّهَ قَالَ :\" أَبُثُّ الْعِلْمَ فِي آخِرِ الزَّمَانِ حَتَّى يَعْلَمَهُ الرَّجُلُ وَالْمَرْأَةُ، وَالْعَبْدُ وَالْحُرُّ، وَالصَّغِيرُ وَالْكَبِيرُ، فَإِذَا فَعَلْتُ ذَلِكَ بِهِمْ، أَخَذْتُهُمْ بِحَقِّي عَلَيْهِمْ \"",
      "english": {
        "narrator": "",
        "text": ""
      }
    },
    {
      "id": 256,
      "chapterId": 0,
      "bookId": 9,
      "arabic": "أَخْبَرَنَا مَخْلَدُ بْنُ مَالِكٍ  ، حَدَّثَنَا مَخْلَدُ بْنُ حُسَيْنٍ  ، عَنْ هِشَامٍ  ، عَنْ الْحَسَنِ  ، قَالَ :\" مَنْ طَلَبَ شَيْئًا مِنْ هَذَا الْعِلْمِ، فَأَرَادَ بِهِ مَا عِنْدَ اللَّهِ، يُدْرِكْ إِنْ شَاءَ اللَّهُ، وَمَنْ أَرَادَ بِهِ الدُّنْيَا، فَذَاكَ وَاللَّهِ حَظُّهُ مِنْهُ \"",
      "english": {
        "narrator": "",
        "text": ""
      }
    },
    {
      "id": 257,
      "chapterId": 0,
      "bookId": 9,
      "arabic": "أَخْبَرَنَا يَعْلَى  ، حَدَّثَنَا مُحَمَّدُ بْنُ عَوْنٍ  ، عَنْ إِبْرَاهِيمَ بْنِ عِيسَى  ، قَالَ : قَالَ ابْنُ مَسْعُودٍ   :\" لَا تَعَلَّمُوا الْعِلْمَ لِثَلَاثٍ : لِتُمَارُوا بِهِ السُّفَهَاءَ، وَتُجَادِلُوا بِهِ الْعُلَمَاءَ، وَلِتَصْرِفُوا بِهِ وُجُوهَ النَّاسِ إِلَيْكُمْ، وَابْتَغُوا بِقَوْلِكُمْ مَا عِنْدَ اللَّهِ، فَإِنَّهُ يَدُومُ وَيَبْقَى، وَيَنْفَدُ مَا سِوَاهُ \"",
      "english": {
        "narrator": "",
        "text": ""
      }
    },
    {
      "id": 258,
      "chapterId": 0,
      "bookId": 9,
      "arabic": "وَبِهَذَا الْإِسْنَادِ، قَالَ :\" كُونُوا يَنَابِيعَ الْعِلْمِ، مَصَابِيحَ الْهُدَى، أَحْلَاسَ الْبُيُوتِ، سُرُجَ اللَّيْلِ، جُدُدَ الْقُلُوبِ، خُلْقَانَ الثِّيَابِ، تُعْرَفُونَ فِي أَهْلِ السَّمَاءِ، وَتَخْفَوْنَ عَلَى أَهْلِ الْأَرْضِ \"",
      "english": {
        "narrator": "",
        "text": ""
      }
    },
    {
      "id": 259,
      "chapterId": 0,
      "bookId": 9,
      "arabic": "أَخْبَرَنَا أَبُو عَاصِمٍ  ، حَدَّثَنَا مُحَمَّدُ بْنُ عُمَارَةَ بْنِ حَزْمٍ  ، حَدَّثَنِي عَبْدُ اللَّهِ بْنُ عَبْدِ الرَّحْمَنِ  ، قَالَ : قَالَ رَسُولُ اللَّهِ صَلَّى اللَّهُ عَلَيْهِ وَسَلَّمَ :\" لَا يَطْلُبُ هَذَا الْعِلْمَ أَحَدٌ لَا يُرِيدُ بِهِ إِلَّا الدُّنْيَا، إِلَّا حَرَّمَ اللَّهُ عَلَيْهِ عَرْفَ الْجَنَّةِ يَوْمَ الْقِيَامَةِ \"",
      "english": {
        "narrator": "",
        "text": ""
      }
    },
    {
      "id": 260,
      "chapterId": 0,
      "bookId": 9,
      "arabic": "أَخْبَرَنَا مُجَاهِدُ بْنُ مُوسَى ، حَدَّثَنَا عَبْدُ اللَّهِ بْنُ نُمَيْرٍ ، عَنْ مَالِكِ بْنِ مِغْوَلٍ ، قَالَ : قَالَ رَجُلٌ لِلشَّعْبِيِّ  : أَفْتِنِي أَيُّهَا الْعَالِمُ، فَقَالَ :\" الْعَالِمُ مَنْ يَخَافُ اللَّهَ G \"",
      "english": {
        "narrator": "",
        "text": ""
      }
    },
    {
      "id": 261,
      "chapterId": 0,
      "bookId": 9,
      "arabic": "أَخْبَرَنَا عُثْمَانُ بْنُ عُمَرَ  ، حَدَّثَنَا عُمَرُ بْنُ مَزْيَدٍ L6008 ، عَنْ أَوْفَى بْنِ دَلْهَمٍ  أَنَّهُ بَلَغَهُ،  عَنْ عَلِيٍّ   رَضِيَ اللهُ عَنْهُ، قَالَ :\" تَعَلَّمُوا الْعِلْمَ، تُعْرَفُوا بِهِ، وَاعْمَلُوا بِهِ، تَكُونُوا مِنْ أَهْلِهِ، فَإِنَّهُ سَيَأْتِي بَعْدَ هَذَا زَمَانٌ لَا يَعْرِفُ فِيهِ تِسْعَةُ عُشَرَائِهِمْ الْمَعْرُوفَ، وَلَا يَنْجُو مِنْهُ إِلَّا كُلُّ نُؤْمَةٍ، فَأُولَئِكَ أَئِمَّةُ الْهُدَى وَمَصَابِيحُ الْعِلْمِ، لَيْسُوا بِالْمَسَايِيحِ، وَلَا الْمَذَايِيعِ الْبُذُرِ \"، قَالَ أَبُو مُحَمَّد : نُؤَمَةٌ : غَافِلٌ عَنْ الشَّرِّ، الْمَذَايِيعُ : كَثِيرُ الْكَلَامِ، وَالْبُذْرِ : النَّمَّامُونَ",
      "english": {
        "narrator": "",
        "text": ""
      }
    },
    {
      "id": 262,
      "chapterId": 0,
      "bookId": 9,
      "arabic": "أَخْبَرَنَا مَرْوَانُ بْنُ مُحَمَّدٍ  ، حَدَّثَنَا سَعِيدُ بْنُ عَبْدِ الْعَزِيزِ  ، عَنْ يَزِيدَ بْنِ جَابِرٍ  ، قَالَ : قَالَ مُعَاذُ بْنُ جَبَلٍ   رَضِيَ اللهُ عَنْهُ :\" اعْمَلُوا مَا شِئْتُمْ بَعْدَ أَنْ تَعْلَمُوا، فَلَنْ يَأْجُرَكُمْ اللَّهُ تَعَاليَ بِالْعِلْمِ حَتَّى تَعْمَلُوا \"",
      "english": {
        "narrator": "",
        "text": ""
      }
    },
    {
      "id": 263,
      "chapterId": 0,
      "bookId": 9,
      "arabic": "أَخْبَرَنَا عَبْدُ اللَّهِ بْنُ خَالِدِ بْنِ حَازِمٍ ، حَدَّثَنَا الْوَلِيدُ بْنُ مَزْيَدٍ ، قَالَ : سَمِعْتُ عَبْدَ الرَّحْمَنِ بْنَ يَزِيدَ بْنِ جَابِرٍ يُحَدِّثُ، عَنْ سَعْدٍ ، أَنَّهُ أَتَى ابْنَ مُنَبِّهٍ  فَسَأَلَهُ عَنْ الْحَسَنِ، وَقَالَ لَهُ : كَيْفَ عَقْلُهُ؟ فَأَخْبَرَهُ، ثُمَّ قَالَ : إِنَّا لَنَتَحَدَّثُ، أَوْ نَجِدُ فِي الْكُتُبِ أَنَّهُ :\" مَا آتَى اللَّهُ سًبْحَانَه عَبْدًا عِلْمًا فَعَمِلَ بِهِ عَلَى سَبِيلِ الْهُدَى، فَيَسْلُبَهُ عَقْلَهُ حَتَّى يَقْبِضَهُ اللَّهُ إِلَيْهِ \"",
      "english": {
        "narrator": "",
        "text": ""
      }
    },
    {
      "id": 264,
      "chapterId": 0,
      "bookId": 9,
      "arabic": "أَخْبَرَنَا إِسْمَاعِيل بْنُ أَبَانَ  ، عَنْ ابْنِ الْقَاسِمِ بْنِ قَيْسٍ  ، قَالَ : حَدَّثَنِي يُونُسُ بْنُ سَيْفٍ الْحِمْصِيُّ  ، قَالَ : حَدَّثَنِي أَبُو كَبْشَةَ السَّلُولِيُّ  ، قَالَ : سَمِعْتُ أَبَا الدَّرْدَاءِ   رَضِيَ اللهُ عَنْهُ، يَقُولُ :\" إِنَّ مِنْ أَشَرِّ النَّاسِ عِنْدَ اللَّهِ مَنْزِلَةً يَوْمَ الْقِيَامَةِ، عَالِمًا لَا يَنْتَفِعُ بِعِلْمِهِ \"",
      "english": {
        "narrator": "",
        "text": ""
      }
    },
    {
      "id": 265,
      "chapterId": 0,
      "bookId": 9,
      "arabic": "أَخْبَرَنَا عَمْرُو بْنُ عَوْنٍ  ، أَخْبَرَنَا أَبُو قُدَامَةَ  ، عَنْ مَالِكِ بْنِ دِينَارٍ  ، قَالَ : قَالَ أَبُو الدَّرْدَاءِ   : \" مَنْ يَزْدَدْ عِلْمًا، يَزْدَدْ وَجَعًا \"، أخْبَرَنَا وَقَالَ أَبُو الدَّرْدَاءِ :\" مَا أَخَافُ عَلَى نَفْسِي أَنْ يُقَالَ لِي : مَا عَلِمْتَ، وَلَكِنْ أَخَافُ أَنْ يُقَالَ لِي : مَاذَا عَمِلْتَ \"",
      "english": {
        "narrator": "",
        "text": ""
      }
    },
    {
      "id": 266,
      "chapterId": 0,
      "bookId": 9,
      "arabic": "أَخْبَرَنَا هَارُونُ بْنُ مُعَاوِيَةَ  ، عَنْ حَفْصِ بْنِ غِيَاثٍ  ، قَالَ : سَمِعْتُ ابْنَ جُرَيْجٍ  يَذْكُرُ عَمَّنْ  حَدَّثَهُ، عَنْ ابْنِ عَبَّاسٍ   رَضِيَ اللهُ عَنْهُ، قَالَ :\" تَدَارُسُ الْعِلْمِ سَاعَةً مِنْ اللَّيْلِ، خَيْرٌ مِنْ إِحْيَائِهَا \"",
      "english": {
        "narrator": "",
        "text": ""
      }
    },
    {
      "id": 267,
      "chapterId": 0,
      "bookId": 9,
      "arabic": "أَخْبَرَنَا وقَالَ أَبُو هُرَيْرَةَ   رَضِيَ اللهُ عَنْهُ :\" إِنِّي لَأُجَزِّئُ اللَّيْلَ ثَلَاثَةَ أَجْزَاءٍ : فَثُلُثٌ أَنَامُ، وَثُلُثٌ أَقُومُ، وَثُلُثٌ أَتَذَكَّرُ أَحَادِيثَ رَسُولِ اللَّهِ صَلَّى اللَّهُ عَلَيْهِ وَسَلَّمَ \"",
      "english": {
        "narrator": "",
        "text": ""
      }
    },
    {
      "id": 268,
      "chapterId": 0,
      "bookId": 9,
      "arabic": "أَخْبَرَنَا الْحَسَنُ بْنُ عَرَفَةَ ، حَدَّثَنَا جَرِيرٌ ، عَنْ الْحَسَنِ بْنِ عَمْرٍو ، عَنْ إِبْرَاهِيمَ ، قَالَ :\" مَنْ ابْتَغَى شَيْئًا مِنْ الْعِلْمِ يَبْتَغِي بِهِ وَجْهَ اللَّهِ سُبْحَانَهُ، آتَاهُ اللَّهُ مِنْهُ مَا يَكْفِيهِ \"",
      "english": {
        "narrator": "",
        "text": ""
      }
    },
    {
      "id": 269,
      "chapterId": 0,
      "bookId": 9,
      "arabic": "أَخْبَرَنَا أَبُو النُّعْمَانِ  ، حَدَّثَنَا ثَابِتُ بْنُ يَزِيدَ  ، حَدَّثَنَا عَاصِمٌ  ، قَالَ : سَأَلْتُ الشَّعْبِيَّ   عَنْ حَدِيثٍ، فَحَدَّثَنِيهِ، فَقُلْتُ : إِنَّهُ يُرْفَعُ إِلَى النَّبِيِّ صَلَّى اللَّهُ عَلَيْهِ وَسَلَّمَ، فَقَالَ :\" لَا، عَلَى مَنْ دُونَ النَّبِيِّ صَلَّى اللَّهُ عَلَيْهِ وَسَلَّمَ أَحَبُّ إِلَيْنَا، فَإِنْ كَانَ فِيهِ زِيَادَةٌ أَوْ نُقْصَانٌ، كَانَ عَلَى مَنْ دُونَ النَّبِيِّ صَلَّى اللَّهُ عَلَيْهِ وَسَلَّمَ \"",
      "english": {
        "narrator": "",
        "text": ""
      }
    },
    {
      "id": 270,
      "chapterId": 0,
      "bookId": 9,
      "arabic": "أَخْبَرَنَا إِسْحَاق بْنُ عِيسَى  ، حَدَّثَنَا حَمَّادُ بْنُ زَيْدٍ  ، عَنْ أَبِي هَاشِمٍ  ، عَنْ إِبْرَاهِيمَ  ، قَالَ : \" نَهَى رَسُولُ اللَّهِ صَلَّى اللَّهُ عَلَيْهِ وَسَلَّمَعَنْ الْمُحَاقَلَةِ وَالْمُزَابَنَةِ \"، فَقِيلَ لَهُ : أَمَا تَحْفَظُ عَنْ رَسُولِ اللَّهِ صَلَّى اللَّهُ عَلَيْهِ وَسَلَّمَ حَدِيثًا غَيْرَ هَذَا؟، قَالَ : بَلَى، وَلَكِنْ أَقُولُ : قَالَ عَبْدُ اللَّهِ : قَالَ عَلْقَمَةُ، أَحَبُّ إِلَيَّ",
      "english": {
        "narrator": "",
        "text": ""
      }
    },
    {
      "id": 271,
      "chapterId": 0,
      "bookId": 9,
      "arabic": "أَخْبَرَنَا مُحَمَّدُ بْنُ كَثِيرٍ  ، عَنْ الْأَوْزَاعِيِّ  ، عَنْ إِسْمَاعِيل بْنِ عُبَيْدِ اللَّهِ  ، قَالَ : كَانَ أَبُو الدَّرْدَاءِ   رَضِيَ اللهُ عَنْهُ، إِذَا حَدَّثَ بِحَدِيثٍ عَنْ رَسُولِ اللَّهِ صَلَّى اللَّهُ عَلَيْهِ وَسَلَّمَ، قَالَ :\" هَذَا أَوْ نَحْوَهُ، أَوْ شِبْهَهُ، أَوْ شَكْلَهُ \"",
      "english": {
        "narrator": "",
        "text": ""
      }
    },
    {
      "id": 272,
      "chapterId": 0,
      "bookId": 9,
      "arabic": "أَخْبَرَنَا أَسَدُ بْنُ مُوسَى  ، حَدَّثَنَا مُعَاوِيَةُ  ، عَنْ رَبِيعَةَ بْنِ يَزِيدَ  ، قَالَ : كَانَ أَبُو الدَّرْدَاءِ   رَضِيَ اللهُ عَنْهُ، إِذَا حَدَّثَ حَدِيثًا، قَالَ :\" اللَّهُمَّ إِلَّا هَكَذَا، أَوْ كَشَكْلِهِ \"",
      "english": {
        "narrator": "",
        "text": ""
      }
    },
    {
      "id": 273,
      "chapterId": 0,
      "bookId": 9,
      "arabic": "حَدَّثَنَا عُثْمَانُ بْنُ عُمَرَ  ، أَخْبَرَنَا ابْنُ عَوْنٍ  ، عَنْ مُسْلِمٍ أَبِي عَبْدِ اللَّهِ  ، عَنْ إِبْرَاهِيمَ التَّيْمِيِّ  ، عَنْ أَبِيهِ  ، عَنْ عَمْرِو بْنِ مَيْمُونٍ  ، قَالَ : \" كُنْتُ لَا تَفُوتُنِي عَشِيَّةُ خَمِيسٍ إِلَّا وَآتِي فِيهَا عَبْدَ اللَّهِ بْنَ مَسْعُودٍ   رَضِيَ اللهُ عَنْهُ،فَمَا سَمِعْتُهُ يَقُولُ لِشَيْءٍ، قَطُّ : قَالَ رَسُولُ اللَّهِ، حَتَّى كَانَتْ ذَاتَ عَشِيَّةٍ، فَقَالَ : قَالَ رَسُولُ اللَّهِ صَلَّى اللَّهُ عَلَيْهِ وَسَلَّمَ، قَالَ : فَاغْرَوْرَقَتَا عَيْنَاهُ وَانْتَفَخَتْ أَوْدَاجُه، فَأَنَا رَأَيْتُهُ مَحْلُولَةً أَزْرَارُهُ، وَقَالَ : أَوْ مِثْلُهُ، أَوْ نَحْوُهُ، أَوْ شَبِيهٌ بِهِ \"",
      "english": {
        "narrator": "",
        "text": ""
      }
    },
    {
      "id": 274,
      "chapterId": 0,
      "bookId": 9,
      "arabic": "أَخْبَرَنَا يَزِيدُ بْنُ هَارُونَ  ، أَخْبَرَنَا أَشْعَثُ  ، عَنْ الشَّعْبِيِّ  ، وَابْنِ سِيرِينَ  ، أَنَّ ابْنَ مَسْعُودٍ   رَضِيَ اللَّهُ عَنْهُ، كَانَ إِذَا حَدَّثَ عَنْ رَسُولِ اللَّهِ صَلَّى اللَّهُ عَلَيْهِ وَسَلَّمَ فِي الْأَيَّامِ، تَرَبَّدَ وَجْهُهُ، وَقَالَ :\" هَكَذَا أَوْ نَحْوَهُ، هَكَذَا أَوْ نَحْوَهُ \"",
      "english": {
        "narrator": "",
        "text": ""
      }
    },
    {
      "id": 275,
      "chapterId": 0,
      "bookId": 9,
      "arabic": "أَخْبَرَنَا سَهْلُ بْنُ حَمَّادٍ  ، حَدَّثَنَا شُعْبَةُ  ، حَدَّثَنَا تَوْبَةُ الْعَنْبَرِيُّ  ، قَالَ : قَالَ لِي الشَّعْبِيُّ   :\" أَرَأَيْتَ فُلَانًا الَّذِي يَقُولُ : قَالَ رَسُولُ اللَّهِ، قَالَ رَسُولُ اللَّهِ؟ قَعَدْتُ مَعَ ابْنِ عُمَرَ   سَنَتَيْنِ، أَوْ سَنَةً وَنِصْفًا، فَمَا سَمِعْتُهُ يُحَدِّثُ عَنْ رَسُولِ اللَّهِ صَلَّى اللَّهُ عَلَيْهِ وَسَلَّمَ شَيْئًا، إِلَّا هَذَا الْحَدِيثَ \"",
      "english": {
        "narrator": "",
        "text": ""
      }
    },
    {
      "id": 276,
      "chapterId": 0,
      "bookId": 9,
      "arabic": "أَخْبَرَنَا أَسَدُ بْنُ مُوسَى  ، حَدَّثَنَا شُعْبَةُ  ، حَدَّثَنَا عَبْدُ اللَّهِ بْنُ أَبِي السَّفَرِ  ، عَنْ الشَّعْبِيِّ  ، قَالَ :\" جَالَسْتُ ابْنَ عُمَرَ   سَنَةً، فَلَمْ أَسْمَعْهُ يَذْكُرُ حَدِيثًا عَنْ رَسُولِ اللَّهِ صَلَّى اللَّهُ عَلَيْهِ وَسَلَّمَ \"",
      "english": {
        "narrator": "",
        "text": ""
      }
    },
    {
      "id": 277,
      "chapterId": 0,
      "bookId": 9,
      "arabic": "أَخْبَرَنَا عَاصِمُ بْنُ يُوسُفَ  ، حَدَّثَنَا أَبُو بَكْرٍ  ، عَنْ أَبِي حَصِينٍ  ، عَنْ الشَّعْبِيِّ  ، عَنْ ثَابِتِ بْنِ قُطْبَةَ الْأَنْصَارِيِّ  ، قَالَ : كَانَ عَبْدُ اللَّهِ   رَضِيَ اللهُ عَنْهُ،\" يُحَدِّثُنَا فِي الشَّهْرِ بِالْحَدِيثَيْنِ، أَوْ الثَّلَاثَةِ \"",
      "english": {
        "narrator": "",
        "text": ""
      }
    },
    {
      "id": 278,
      "chapterId": 0,
      "bookId": 9,
      "arabic": "أَخْبَرَنَا عُثْمَانُ بْنُ عُمَرَ  ، أَخْبَرَنَا يُونُسُ  ، عَنْ عَبْدِ الْمَلِكِ بْنِ عُبَيْدٍ  ، قَالَ : مَرَّ بِنَا أَنَسُ بْنُ مَالِكٍ  ، فَقُلْنَا حَدِّثْنَا بِبَعْضِ مَا سَمِعْتَ مِنْ رَسُولِ اللَّهِ صَلَّى اللَّهُ عَلَيْهِ وَسَلَّمَ؟، فَقَالَ :\" وَأَتَحَلَّلُ \"",
      "english": {
        "narrator": "",
        "text": ""
      }
    },
    {
      "id": 279,
      "chapterId": 0,
      "bookId": 9,
      "arabic": "أَخْبَرَنَا سُلَيْمَانُ بْنُ حَرْبٍ  ، قَالَ : حَدَّثَنَا حَمَّادُ بْنُ زَيْدٍ  ، عَنْ ابْنِ عَوْنٍ  ، عَنْ مُحَمَّدٍ  ، قَالَ : كَانَ أَنَسٌ   رَضِيَ اللَّهُ عَنْهُ، عَنْ رَسُولِ اللَّهِ صَلَّى اللَّهُ عَلَيْهِ وَسَلَّمَ، وَكَانَ إِذَا حَدَّثَ عَنْ رَسُولِ اللَّهِ صَلَّى اللَّهُ عَلَيْهِ وَسَلَّمَ، قَالَ :\" أَوْ كَمَا قَالَ رَسُولُ اللَّهِ صَلَّى اللَّهُ عَلَيْهِ وَسَلَّمَ \"",
      "english": {
        "narrator": "",
        "text": ""
      }
    },
    {
      "id": 280,
      "chapterId": 0,
      "bookId": 9,
      "arabic": "أَخْبَرَنَا عُثْمَانُ بْنُ مُحَمَّدٍ  ، حَدَّثَنَا إِسْمَاعِيل  ، عَنْ أَيُّوبَ  ، عَنْ مُحَمَّدٍ  ، قَالَ : كَانَ أَنَسٌ   رَضِيَ اللَّهُ عَنْهُ، عَنْ رَسُولِ اللَّهِ صَلَّى اللَّهُ عَلَيْهِ وَسَلَّمَ حَدِيثًا، قَالَ :\" أَوْ كَمَا قَالَ رَسُولُ اللَّهِ صَلَّى اللَّهُ عَلَيْهِ وَسَلَّمَ \"",
      "english": {
        "narrator": "",
        "text": ""
      }
    },
    {
      "id": 281,
      "chapterId": 0,
      "bookId": 9,
      "arabic": "حَدَّثَنَا سُلَيْمَانُ بْنُ حَرْبٍ  ، حَدَّثَنَا حَمَّادُ بْنُ زَيْدٍ  ، عَنْ يَحْيَى بْنِ سَعِيدٍ  ، قَالَ : حَدَّثَنِي السَّائِبُ بْنُ يَزِيدَ  ، قَالَ : خَرَجْتُ مَعَ سَعْدٍ   رَضِيَ اللهُ عَنْهُ، إِلَى مَكَّةَ ،\" فَمَا سَمِعْتُهُ يُحَدِّثُ حَدِيثًا عَنْ رَسُولِ اللَّهِ صَلَّى اللَّهُ عَلَيْهِ وَسَلَّمَ، حَتَّى رَجَعْنَا إِلَى الْمَدِينَةِ \"",
      "english": {
        "narrator": "",
        "text": ""
      }
    },
    {
      "id": 282,
      "chapterId": 0,
      "bookId": 9,
      "arabic": "أَخْبَرَنَا سَهْلُ بْنُ حَمَّادٍ  ، حَدَّثَنَا شُعْبَةُ  ، حَدَّثَنَا بَيَانٌ  ، عَنْ الشَّعْبِيِّ  ، عَنْ قَرَظَةَ بْنِ كَعْبٍ  : أَنَّ عُمَرَ   رَضِيَ اللهُ عَنْهُ، شَيَّعَ الْأَنْصَارَ حِينَ خَرَجُوا مِنْ الْمَدِينَةِ ، فَقَالَ :\" أَتَدْرُونَ لِمَ شَيَّعْتُكُمْ؟ قُلْنَا : لِحَقِّ الْأَنْصَارِ، قَالَ : إِنَّكُمْ تَأْتُونَ قَوْمًا تَهْتَزُّ أَلْسِنَتُهُمْ بِالْقُرْآنِ اهْتِزَازَ النَّخْلِ، فَلَا تَصُدُّوهُمْ بِالْحَدِيثِ عَنْ رَسُولِ اللَّهِ صَلَّى اللَّهُ عَلَيْهِ وَسَلَّمَ، وَأَنَا شَرِيكُكُمْ \"، قَالَ : فَمَا حَدَّثْتُ بِشَيْءٍ، وَقَدْ سَمِعْتُ كَمَا سَمِعَ أَصْحَابِي",
      "english": {
        "narrator": "",
        "text": ""
      }
    },
    {
      "id": 283,
      "chapterId": 0,
      "bookId": 9,
      "arabic": "أَخْبَرَنَا يَزِيدُ بْنُ هَارُونَ  ، أَخْبَرَنَا أَشْعَثُ بْنُ سَوَّارٍ  ، عَنْ الشَّعْبِيِّ  ، عَنْ قُرَظَةَ بْنِ كَعْبٍ  ، قَالَ : بَعَثَ عُمَرُ بْنُ الْخَطَّابِ   رَضِيَ اللهُ عَنْهُ، رَهْطًا مِنْ الْأَنْصَارِ إِلَى الْكُوفَةِ ، فَبَعَثَنِي مَعَهُمْ، فَجَعَلَ يَمْشِي مَعَنَا حَتَّى أَتَى صِرَارًا وَصِرَارٌ : مَاءٌ فِي طَرِيقِ الْمَدِينَةِ فَجَعَلَ يَنْفُضُ الْغُبَارَ عَنْ رِجْلَيْهِ، ثُمّ قَالَ :\" إِنَّكُمْ تَأْتُونَ الْكُوفَةَ ، فَتَأْتُونَ قَوْمًا لَهُمْ أَزِيزٌ بِالْقُرْآنِ فَيَأْتُونَكُمْ، فَيَقُولُونَ : قَدِمَ أَصْحَابُ مُحَمَّدٍ ! قَدِمَ أَصْحَابُ مُحَمَّدٍ ! فَيَأْتُونَكُمْ فَيَسْأَلُونَكُمْ عَنْ الْحَدِيثِ، فَاعْلَمُوا أَنَّ أَسْبَغَ الْوُضُوءِ ثَلَاثٌ، وَثِنْتَانِ تُجْزِيَانِ، ثُمَّ قَالَ : إِنَّكُمْ تَأْتُونَ الْكُوفَةَ ، فَتَأْتُونَ قَوْمًا لَهُمْ أَزِيزٌ بِالْقُرْآنِ، فَيَقُولُونَ : قَدِمَ أَصْحَابُ مُحَمَّدٍ ! قَدِمَ أَصْحَابُ مُحَمَّدٍ ! فَيَأْتُونَكُمْ فَيَسْأَلُونَكُمْ عَنْ الْحَدِيثِ، فَأَقِلُّوا الرِّوَايَةَ عَنْ رَسُولِ اللَّهِ صَلَّى اللَّهُ عَلَيْهِ وَسَلَّمَ، وَأَنَا شَرِيكُكُمْ فِيهِ \"، قَالَ قَرَظَةُ : وَإِنْ كُنْتُ لَأَجْلِسُ فِي الْقَوْمِ، فَيَذْكُرُونَ الْحَدِيثَ عَنْ رَسُولِ اللَّهِ صَلَّى اللَّهُ عَلَيْهِ وَسَلَّمَ، وَإِنِّي لَمِنْ أَحْفَظِهِمْ لَهُ، فَإِذَا ذَكَرْتُ وَصِيَّةَ عُمَرَ رَضِيَ اللهُ عَنْهُ، سَكَتُّ، قَالَ أَبُو مُحَمَّد : مَعْنَاهُ عِنْدِي : الْحَدِيثُ عَنْ أَيَّامِ رَسُولِ اللَّهِ صَلَّى اللَّهُ عَلَيْهِ وَسَلَّمَ، لَيْسَ السُّنَنَ وَالْفَرَائِضَ",
      "english": {
        "narrator": "",
        "text": ""
      }
    },
    {
      "id": 284,
      "chapterId": 0,
      "bookId": 9,
      "arabic": "أَخْبَرَنَا مُجَاهِدُ بْنُ مُوسَى  ، حَدَّثَنَا ابْنُ نُمَيْرٍ  ، عَنْ مَالِكِ بْنِ مِغْوَلٍ  ، عَنْ الشَّعْبِيِّ  ، عَنْ عَلْقَمَةَ  ، قَالَ : قَالَ عَبْدُ اللَّهِ   رَضِيَ اللهُ عَنْهُ :\" قَالَ رَسُولُ اللَّهِ صَلَّى اللَّهُ عَلَيْهِ وَسَلَّمَ، ثُمَّ ارْتَعَدَ، ثُمَّ قَالَ : نَحْوَ ذَلِكَ أَوْ فَوْقَ ذَاكَ \"",
      "english": {
        "narrator": "",
        "text": ""
      }
    },
    {
      "id": 285,
      "chapterId": 0,
      "bookId": 9,
      "arabic": "أَخْبَرَنَا بِشْرُ بْنُ الْحَكَمِ  ، حَدَّثَنَا سُفْيَانُ  ، عَنْ ابْنِ أَبِي نَجِيحٍ  ، عَنْ مُجَاهِدٍ  ، قَالَ : صَحِبْتُ ابْنَ عُمَرَ   رَضِيَ اللهُ عَنْهُ إِلَى الْمَدِينَةِ ، فَلَمْ أَسْمَعْهُ يُحَدِّثُ عَنْ رَسُولِ اللَّهِ صَلَّى اللَّهُ عَلَيْهِ وَسَلَّمَ بِحَدِيثٍ، إِلَّا أَنَّهُ قَالَ : كُنْتُ مَعَ النَّبِيِّ صَلَّى اللَّهُ عَلَيْهِ وَسَلَّمَ فَأُتِيَ بِجُمَّارٍ، فَقَالَ :\" إِنَّ مِنْ الشَّجَرِ شَجَرًا مِثْلَ الرَّجُلِ الْمُسْلِمِ \"، فَأَرَدْتُ أَنْ أَقُولَ : هِيَ النَّخْلَةُ، فَنَظَرْتُ فَإِذَا أَنَا أَصْغَرُ الْقَوْمِ، فَسَكَتُّ، قَالَ عُمَرُ رَضِيَ اللهُ عَنْهُ : وَدِدْتُ أَنَّكَ قُلْتَ، وَعَلَيَّ كَذَا",
      "english": {
        "narrator": "",
        "text": ""
      }
    },
    {
      "id": 286,
      "chapterId": 0,
      "bookId": 9,
      "arabic": "أَخْبَرَنَا بِشْرُ بْنُ الْحَكَمِ  ، حَدَّثَنَا خَالِدُ بْنُ يَزِيدَ الْهَدَادِيُّ  ، حَدَّثَنَا صَالِحٌ الدَّهَّانُ L3858 ، قَالَ :مَا سَمِعْتُ جَابِرَ بْنَ زَيْدٍ   يَقُولُ قَطُّ : \" قَالَ رَسُولُ اللَّهِ صَلَّى اللَّهُ عَلَيْهِ وَسَلَّمَ، إِعْظَامًا وَاتِّقَاءً أَنْ يَكْذِبَ عَلَيْهِ \"",
      "english": {
        "narrator": "",
        "text": ""
      }
    },
    {
      "id": 287,
      "chapterId": 0,
      "bookId": 9,
      "arabic": "أَخْبَرَنَا مُحَمَّدُ بْنُ عَبْدِ اللَّهِ  ، أَخْبَرَنَا رَوْحٌ  ، عَنْ كَهْمَسِ بْنِ الْحَسَنِ  ، عَنْ عَبْدِ اللَّهِ بْنِ شَقِيقٍ  ، قَالَ : جَاءَ أَبُو هُرَيْرَةَ  رَضِيَ اللَّهُ عَنْهُ إِلَى كَعْبٍ يَسْأَلُ عَنْهُ، وَكَعْبٌ فِي الْقَوْمِ، فَقَالَ كَعْبٌ : مَا تُرِيدُ مِنْهُ؟ فَقَالَ : أَمَا إِنِّي لَا أَعْرِفُ لِأَحَدٍ مِنْ أَصْحَابِ رَسُولِ اللَّهِ صَلَّى اللَّهُ عَلَيْهِ وَسَلَّمَ أَنْ يَكُونَ أَحْفَظَ لِحَدِيثِهِ مِنِّي، فَقَالَ كَعْبٌ   :\" أَمَا إِنَّكَ لَنْ تَجِدَ طَالِبَ شَيْءٍ إِلَّا سَيَشْبَعُ مِنْهُ يَوْمًا مِنْ الدَّهْرِ، إِلَّا طَالِبَ عِلْمٍ أَوْ طَالِبَ دُنْيَا \"، فَقَالَ : أَنْتَ كَعْبٌ؟، قَالَ : نَعَمْ، قَالَ : لِمِثْلِ هَذَا جِئْتُ",
      "english": {
        "narrator": "",
        "text": ""
      }
    },
    {
      "id": 288,
      "chapterId": 0,
      "bookId": 9,
      "arabic": "أَخْبَرَنَا يَعْقُوبُ بْنُ إِبْرَاهِيمَ  ، حَدَّثَنَا يَحْيَى بْنُ أَبِي بُكَيْرٍ  ، حَدَّثَنَا شِبْلٌ  ، عَنْ عَمْرِو بْنِ دِينَارٍ  ، عَنْ طَاوُسٍ  ، قَالَ : قِيلَ : يَا رَسُولَ اللَّهِ، أَيُّ النَّاسِ أَعْلَمُ؟، قَالَ :\" مَنْ جَمَعَ عِلْمَ النَّاسِ إِلَى عِلْمِهِ، وَكُلُّ طَالِبِ عِلْمٍ غَرْثَانُ إِلَى عِلْمٍ \"",
      "english": {
        "narrator": "",
        "text": ""
      }
    },
    {
      "id": 289,
      "chapterId": 0,
      "bookId": 9,
      "arabic": "أَخْبَرَنَا سَعِيدُ بْنُ عَامِرٍ ، عَنْ الْخَلِيلِ بْنِ مُرَّةَ ، عَنْ مُعَاوِيَةَ بْنِ قُرَّةَ ، قَالَ :\" كُنْتُ فِي حَلْقَةٍ فِيهَا الْمَشْيَخَةُ وَهُمْ يَتَرَاجَعُونَ، فِيهِمْ عَابِدُ بْنُ عَمْرٍو، فَقَالَ شَابٌّ فِي نَاحِيَةِ الْقَوْمِ : أَفِيضُوا فِي ذِكْرِ اللَّهِ، بَارَكَ اللَّهُ فِيكُمْ، فَنَظَرَ الْقَوْمُ بَعْضُهُمْ إِلَى بَعْضٍ، فِي أَيِّ شَيْءٍ رَآنَا؟ ثُمَّ قَالَ بَعْضُهُمْ : مَنْ أَمَرَكَ بِهَذَا؟ فَمُرَّ، لَئِنْ عُدْتَ، لَنَفْعَلَنَّ وَلَنَفْعَلَنَّ \"",
      "english": {
        "narrator": "",
        "text": ""
      }
    },
    {
      "id": 290,
      "chapterId": 0,
      "bookId": 9,
      "arabic": "أَخْبَرَنَا يُوسُفُ بْنُ مُوسَى  ، أَخْبَرَنَا أَبُو عَامِرٍ  ، أَنْبَأَنَا قُرَّةُ بْنُ خَالِدٍ  ، عَنْ عَوْنِ بْنِ عَبْدِ اللَّهِ  ، قَالَ : قَالَ عَبْدُ اللَّه   :\" نِعْمَ الْمَجْلِسُ مَجْلِسٌ تُنْشَرُ فِيهِ الْحِكْمَةُ، وَتُرْجَى فِيهِ الرَّحْمَةُ \"",
      "english": {
        "narrator": "",
        "text": ""
      }
    },
    {
      "id": 291,
      "chapterId": 0,
      "bookId": 9,
      "arabic": "أَخْبَرَنَا عَبْدُ اللَّهِ بْنُ صَالِحٍ  ، حَدَّثَنِي مُعَاوِيَةُ  ، عَنْ عَبْدِ الرَّحْمَنِ بْنِ جُبَيْرِ بْنِ نُفَيْرٍ  ، عَنْ أَبِيهِ جُبْيَرِ بْنِ نُفَيْرٍ  ، عَنْ أَبِي الدَّرْدَاءِ   رَضِيَ اللهُ عَنْهُ، قَالَ : كُنَّا مَعَ رَسُولِ اللَّهِ صَلَّى اللَّهُ عَلَيْهِ وَسَلَّمَ، فَشَخَصَ بِبَصَرِهِ إِلَى السَّمَاءِ، ثُمَّ قَالَ :\" هَذَا أَوَانُ يُخْتَلَسُ الْعِلْمُ مِنْ النَّاسِ، حَتَّى لَا يَقْدِرُوا مِنْهُ عَلَى شَيْءٍ، فَقَالَ زِيَادُ بْنُ لَبِيدٍ الْأَنْصَارِيُّ : يَا رَسُولَ اللَّهِ، وَكَيْفَ يُخْتَلَسُ مِنَّا وَقَدْ قَرَأْنَا الْقُرْآنَ؟ فَوَاللَّهِ لَنَقْرَأَنَّهُ، وَلَنُقْرِئَنَّهُ نِسَاءَنَا وَأَبْنَاءَنَا، فَقَالَ : ثَكِلَتْكَ أُمُّكَ يَا زِيَادُ، إِنْ كُنْتُ لَأَعُدُّكَ مِنْ فُقَهَاءِ أَهْلِ الْمَدِينَةِ ، هَذِهِ التَّوْرَاةُ وَالْإِنْجِيلُ عِنْدَ الْيَهُودِ، وَالنَّصَارَى، فَمَاذَا يُغْنِي عَنْهُمْ؟ \"، قَالَ جُبَيْرٌ : فَلَقِيتُ عُبَادَةَ بْنَ الصَّامِتِ   رَضِيَ اللهُ عَنْهُ، قَالَ : قُلْتُ أَلَا تَسْمَعُ مَا يَقُولُ أَخُوكَ أَبُو الدَّرْدَاءِ؟ فَأَخْبَرْتُهُ بِالَّذِي قَالَ، قَالَ : صَدَقَ أَبُو الدَّرْدَاءِ، إِنْ شِئْتَ لَأُحَدِّثَنَّكَ بِأَوَّلِ عِلْمٍ يُرْفَعُ مِنْ النَّاسِ : الْخُشُوعُ يُوشِكُ أَنْ تَدْخُلَ مَسْجِدَ الْجَمَاعَةِ، فَلَا تَرَى فِيهِ رَجُلًا خَاشِعًا",
      "english": {
        "narrator": "",
        "text": ""
      }
    },
    {
      "id": 292,
      "chapterId": 0,
      "bookId": 9,
      "arabic": "أَخْبَرَنَا يَعْقُوبُ بْنُ إِبْرَاهِيمَ  ، حَدَّثَنَا يَزِيدُ بْنُ هَارُونَ  ، حَدَّثَنَا الْوَلِيدُ بْنُ جَمِيلٍ الْكِتَانِيُّ  ، حَدَّثَنَا مَكْحُولٌ  ، قَالَ : قَالَ رَسُولُ اللَّهِ صَلَّى اللَّهُ عَلَيْهِ وَسَلَّمَ :\" فَضْلُ الْعَالِمِ عَلَى الْعَابِدِ كَفَضْلِي عَلَى أَدْنَاكُمْ \"، ثُمَّ تَلَا هَذِهِ الْآيَةَ # إِنَّمَا يَخْشَى اللَّهَ مِنْ عِبَادِهِ الْعُلَمَاءُ سورة فاطر آية 28 #، ثُمَّ قَالَ إِنَّ اللَّهَ وَمَلَائِكَتَهُ وَأَهْلَ سَمَاوَاتِهِ وَأَرَضِيهِ، وَالنُّونَ فِي الْبَحْرِ يُصَلُّونَ عَلَى الَّذِينَ يُعَلِّمُونَ النَّاسَ الْخَيْرَ \"",
      "english": {
        "narrator": "",
        "text": ""
      }
    },
    {
      "id": 293,
      "chapterId": 0,
      "bookId": 9,
      "arabic": "أَخْبَرَنَا أَحْمَدُ بْنُ أَسَدٍ أَبُو عَاصِمٍ  ، حَدَّثَنَا يَحْيَى بْنُ يَمَانٍ  ، عَنْ سُفْيَانَ  ، عَنْ لَيْثٍ  ، عَنْ رَجُلٍ  ، عَنْ ابْنِ عُمَرَ   رَضِيَ اللهُ عَنْهُ، قَالَ :\" لَا يَكُونُ الرَّجُلُ عَالِمًا حَتَّى لَا يَحْسُدَ مَنْ فَوْقَهُ، وَلَا يَحْقِرَ مَنْ دُونَهُ، وَلَا يَبْتَغِيَ بِعِلْمِهِ ثَمَنًا \"",
      "english": {
        "narrator": "",
        "text": ""
      }
    }
  ]
}