{
  "page": 62,
  "perPage": 50,
  "totalPages": 69,
  "totalCount": 3406,
  "nextPage": 63,
  "prevPage": 61,
  "items": [
    {
      "id": 294,
      "chapterId": 0,
      "bookId": 9,
      "arabic": "أَخْبَرَنَا سَعِيدُ بْنُ سُلَيْمَانَ ، عَنْ أَبِي أُسَامَةَ  ، عَنْ مِسْعَرٍ ، قَالَ : سَمِعْتُ عَبْدَ الْأَعْلَى التَّيْمِيَّ ، يَقُولُ :\" مَنْ أُوتِيَ مِنْ الْعِلْمِ مَا لَا يُبْكِيهِ، لَخَلِيقٌ أَنْ لَا يَكُونَ أُوتِيَ عِلْمًا يَنْفَعُهُ، لِأَنَّ اللَّهَ تَعَالَى نَعَتَ الْعُلَمَاءَ، ثُمَّ قَرَأ : # إِنَّ الَّذِينَ أُوتُوا الْعِلْمَ إِلَى قَوْلِهِ يَبْكُونَ سورة الإسراء آية 107 - 109 # \"",
      "english": {
        "narrator": "",
        "text": ""
      }
    },
    {
      "id": 295,
      "chapterId": 0,
      "bookId": 9,
      "arabic": "أَخْبَرَنَا عِصْمَةُ بْنُ الْفَضْلِ ، حَدَّثَنَا زَيْدُ بْنُ حُبَابٍ ، عَنْ مُبَارَكِ بْنِ فَضَالَةَ ، عَنْ عُبَيْدِ اللَّهِ بْنِ عُمَرَ الْعُمَرِيِّ ، عَنْ أَبِي حَازِمٍ ، قَالَ :\" لَا تَكُونُ عَالِمًا حَتَّى يَكُونَ فِيكَ ثَلَاثُ خِصَالٍ : لَا تَبْغِي عَلَى مَنْ فَوْقَكَ، وَلَا تَحْقِرُ مَنْ دُونَكَ، وَلَا تَأْخُذُ عَلَى عِلْمِكَ دُنْيَا \"",
      "english": {
        "narrator": "",
        "text": ""
      }
    },
    {
      "id": 296,
      "chapterId": 0,
      "bookId": 9,
      "arabic": "أَخْبَرَنَا أَحْمَدُ بْنُ أَسَدٍ  ، حَدَّثَنَا عَبْثَرٌ  ، عَنْ بُرْدِ بْنِ سِنَانٍ  ، عَنْ سُلَيْمَانَ بْنِ مُوسَى الدِّمَشْقِيِّ  ، عَنْ أَبِي الدَّرْدَاءِ   رَضِيَ اللهُ عَنْهُ، قَالَ :\" لَا تَكُونُ عَالِمًا حَتَّى تَكُونَ مُتَعَلِّمًا، وَلَا تَكُونُ بِالْعِلْمِ عَالِمًا حَتَّى تَكُونَ بِهِ عَامِلًا، وَكَفَى بِكَ إِثْمًا أَنْ لَا تَزَالَ مُخَاصِمًا، وَكَفَى بِكَ إِثْمًا أَنْ لَا تَزَالَ مُمَارِيًا، وَكَفَى بِكَ كَاذِبًا أَنْ لَا تَزَالَ مُحَدِّثًا فِي غَيْرِ ذَاتِ اللَّهِ G \"",
      "english": {
        "narrator": "",
        "text": ""
      }
    },
    {
      "id": 297,
      "chapterId": 0,
      "bookId": 9,
      "arabic": "أَخْبَرَنَا الْحَسَنُ بْنُ عَرَفَةَ ، حَدَّثَنَا الْمُبَارَكُ بْنُ سَعِيدٍ ، عَنْ أَخِيهِ سُفْيَانَ الثَّوْرِيِّ ، عَنْ عِمْرَانَ الْمِنْقَرِيِّ ، قَالَ : قُلْتُ لِلْحَسَنِ  يَوْمًا فِي شَيْءٍ، قَالَهُ : يَا أَبَا سَعِيدٍ، لَيْسَ هَكَذَا يَقُولُ الْفُقَهَاءُ، فَقَالَ :\" وَيْحَكَ ! وَرَأَيْتَ أَنْتَ فَقِيهًا قَطُّ، إِنَّمَا الْفَقِيهُ الزَّاهِدُ فِي الدُّنْيَا، الرَّاغِبُ فِي الْآخِرَةِ، الْبَصِيرُ بِأَمْرِ دِينِهِ، الْمُدَاوِمُ عَلَى عِبَادَةِ رَبِّهِ \"",
      "english": {
        "narrator": "",
        "text": ""
      }
    },
    {
      "id": 298,
      "chapterId": 0,
      "bookId": 9,
      "arabic": "أَخْبَرَنَا الْحَسَنُ بْنُ عَرَفَةَ ، حَدَّثَنَا النَّضْرُ بْنُ إِسْمَاعِيل الْبَجَلِيُّ ، عَنْ مِسْعَرٍ ،  عَنْ سَعْدِ بْنِ إِبْرَاهِيمَ ، قَالَ : قِيلَ لَهُ : مَنْ أَفْقَهُ أَهْلِ الْمَدِينَةِ ؟، قَالَ :\" أَتْقَاهُمْ لِرَبِّهِ G \"",
      "english": {
        "narrator": "",
        "text": ""
      }
    },
    {
      "id": 299,
      "chapterId": 0,
      "bookId": 9,
      "arabic": "أَخْبَرَنَا الْحَسَنُ بْنُ عَرَفَةَ ، حَدَّثَنَا الْحُسَيْنُ بْنُ عَلِيٍّ ، عَنْ لَيْثِ بْنِ أَبِي سُلَيْمٍ ، عَنْ مُجَاهِدٍ ، قَالَ :\" إِنَّمَا الْفَقِيهُ مَنْ يَخَافُ اللَّهَ تَعَاليَ \"",
      "english": {
        "narrator": "",
        "text": ""
      }
    },
    {
      "id": 300,
      "chapterId": 0,
      "bookId": 9,
      "arabic": "أَخْبَرَنَا إِسْمَاعِيل بْنُ أَبَانَ  ، عَنْ يَعْقُوبَ الْقُمِّيِّ  ، قَالَ : حَدَّثَنِي لَيْثُ بْنُ أَبِي سُلَيْمٍ  ، عَنْ يَحْيَى هُوَ ابْنُ عَبَّادٍ  ، عَنْ عَلِيِّ بْنِ أَبِي طَالِبٍ   رَضِيَ اللهُ عَنْهُ، قَالَ :\" إِنَّ الْفَقِيهَ حَقَّ الْفَقِيهِ، مَنْ لَمْ يُقَنِّطْ النَّاسَ مِنْ رَحْمَةِ اللَّهِ، وَلَمْ يُرَخِّصْ لَهُمْ فِي مَعَاصِي اللَّهِ، وَلَمْ يُؤَمِّنْهُمْ مِنْ عَذَابِ اللَّهِ، وَلَمْ يَدَعْ الْقُرْآنَ رَغْبَةً عَنْهُ إِلَى غَيْرِهِ، إِنَّهُ لَا خَيْرَ فِي عِبَادَةٍ لَا عِلْمَ فِيهَا، وَلَا عِلْمٍ لَا فَهْمَ فِيهِ، وَلَا قِرَاءَةٍ لَا تَدَبُّرَ فِيهَا \"",
      "english": {
        "narrator": "",
        "text": ""
      }
    },
    {
      "id": 301,
      "chapterId": 0,
      "bookId": 9,
      "arabic": "حَدَّثَنَا الْحَسَنُ بْنُ عَرَفَةَ  ، حَدَّثَنَا إِسْمَاعِيل بْنُ إِبْرَاهِيمَ  ، عَنْ لَيْثٍ  ، عَنْ يَحْيَى بْنِ عَبَّادٍ  ، قَالَ : قَالَ عَلِيٌّ   :\" الْفَقِيهُ حَقُّ الْفَقِيهِ الَّذِي لَا يُقَنِّطُ النَّاسَ مِنْ رَحْمَةِ اللَّهِ، وَلَا يُؤَمِّنُهُمْ مِنْ عَذَابِ اللَّهِ، وَلَا يُرَخِّصُ لَهُمْ فِي مَعَاصِي اللَّهِ، إِنَّهُ لَا خَيْرَ فِي عِبَادَةٍ لَا عِلْمَ فِيهَا، وَلَا خَيْرَ فِي عِلْمٍ لَا فَهْمَ فِيهِ، وَلَا خَيْرَ فِي قِرَاءَةٍ لَا تَدَبُّرَ فِيهَا \"",
      "english": {
        "narrator": "",
        "text": ""
      }
    },
    {
      "id": 302,
      "chapterId": 0,
      "bookId": 9,
      "arabic": "أَخْبَرَنَا أَبُو النُّعْمَانِ ، حَدَّثَنَا حَمَّادُ بْنُ زَيْدٍ ، عَنْ يَزِيدَ بْنِ حَازِمٍ ، حَدَّثَنِي عَمِّي جَرِيرُ بْنُ زَيْدٍ ، أَنَّهُ سَمِعَ تُبَيْعًا يُحَدِّثُ، عَنْ كَعْبٍ ، قَالَ :\" إِنِّي لَأَجِدُ نَعْتَ قَوْمٍ يَتَعَلَّمُونَ لِغَيْرِ الْعَمَلِ، وَيَتَفَقَّهُونَ لِغَيْرِ الْعِبَادَةِ، وَيَطْلُبُونَ الدُّنْيَا بِعَمَلِ الْآخِرَةِ، وَيَلْبَسُونَ جُلُودَ الضَّأْنِ، وَقُلُوبُهُمْ أَمَرُّ مِنْ الصَّبْرِ، فَبِي يَغْتَرُّونَ، أَوْ إِيَّايَ يُخَادِعُونَ؟ فَحَلَفْتُ بِي لَأُتِيحَنَّ لَهُمْ فِتْنَةً تَتْرُكُ الْحَلِيمَ فِيهَا حَيْرَانَ \"",
      "english": {
        "narrator": "",
        "text": ""
      }
    },
    {
      "id": 303,
      "chapterId": 0,
      "bookId": 9,
      "arabic": "أَخْبَرَنَا بِشْرُ بْنُ الْحَكَمِ ، حَدَّثَنَا عَبْدُ الْعَزِيزِ بْنُ عَبْدِ الصَّمَدِ الْعَمِّيُّ ، حَدَّثَنَا أَبُو عِمْرَانَ الْجَوْنِيُّ ، عَنْ هَرِمِ بْنِ حَيَّانَ ، أَنَّهُ قَالَ : \"إِيَّاكُمْ وَالْعَالِمَ الْفَاسِقَ، فَبَلَغَ عُمَرَ بْنَ الْخَطَّابِ  رَضِيَ اللهُ عَنْهُ، فَكَتَبَ إِلَيْهِ وَأَشْفَقَ مِنْهَا، مَا الْعَالِمُ الْفَاسِقُ؟، قَالَ : فَكَتَبَ إِلَيْهِ هَرِمٌ : يَا أَمِيرَ الْمُؤْمِنِينَ، وَاللَّهِ مَا أَرَدْتُ بِهِ إِلَّا الْخَيْرَ : يَكُونُ إِمَامٌ يَتَكَلَّمُ بِالْعِلْمِ، وَيَعْمَلُ بِالْفِسْقِ، فَيُشَبِّهُ عَلَى النَّاسِ، فَيَضِلُّونَ \"",
      "english": {
        "narrator": "",
        "text": ""
      }
    },
    {
      "id": 304,
      "chapterId": 0,
      "bookId": 9,
      "arabic": "أَخْبَرَنَا سَعِيدُ بْنُ الْمُغِيرَةِ  ، حَدَّثَنَا الْوَلِيدُ بْنُ مُسْلِمٍ  ، عَنْ مُحَمَّدِ بْنِ مُطَرِّفٍ  ، وَعَبْدِ الْعَزِيزِ بْنِ إِسْمَاعِيل بْنِ عُبَيْدِ اللَّهِ بْنِ أَبِي الْمُهَاجِرِ  ، عَنْ عَبْدِ اللَّهِ بْنِ مَسْعُودٍ  ، قَالَ :\" مَنْ أَرَادَ أَنْ يُكْرَمَ دِينُهُ، فَلَا يَدْخُلْ عَلَى السُّلْطَانِ، وَلَا يَخْلُوَنَّ بِالنِّسْوَانِ، وَلَا يُخَاصِمَنَّ أَصْحَابَ الْأَهْوَاءِ \"",
      "english": {
        "narrator": "",
        "text": ""
      }
    },
    {
      "id": 305,
      "chapterId": 0,
      "bookId": 9,
      "arabic": "أَخْبَرَنَا سَعِيدُ بْنُ عَامِرٍ ، عَنْ إِسْمَاعِيل بْنِ إِبْرَاهِيمَ ، عَنْ يُونُسَ ، قَالَ : كَتَبَ إِلَيَّ مَيْمُونُ بْنُ مِهْرَانَ  :\" إِيَّاكَ وَالْخُصُومَةَ وَالْجِدَالَ فِي الدِّينِ، وَلَا تُجَادِلَنَّ عَالِمًا، وَلَا جَاهِلًا، أَمَّا الْعَالِمُ، فَإِنَّهُ يَخْزَنُ عَنْكَ عِلْمَهُ، وَلَا يُبَالِي مَا صَنَعْتَ، وَأَمَّا الْجَاهِلُ، فَإِنَّهُ يُخَشِّنُ بِصَدْرِكَ وَلَا يُطِيعُكَ \"",
      "english": {
        "narrator": "",
        "text": ""
      }
    },
    {
      "id": 306,
      "chapterId": 0,
      "bookId": 9,
      "arabic": "أَخْبَرَنَا أَبُو الْمُغِيرَةِ  ، حَدَّثَنَا الْأَوْزَاعِيُّ  ، عَنْ يَحْيَى بْنِ أَبِي كَثِيرٍ  ، قَالَ : قَالَ سُلَيْمَانُ بْنُ دَاوُدَ عَلَيْهِ السَّلَام لِابْنِهِ :\" دَعْ الْمِرَاءِ، فَإِنَّ نَفْعَهُ قَلِيلٌ، وَهُوَ يُهَيِّجُ الْعَدَاوَةَ بَيْنَ الْإِخْوَانِ \"",
      "english": {
        "narrator": "",
        "text": ""
      }
    },
    {
      "id": 307,
      "chapterId": 0,
      "bookId": 9,
      "arabic": "أَخْبَرَنَا يَحْيَى بْنُ حَسَّانَ  ، حَدَّثَنَا عَبْدُ اللَّهِ بْنُ إِدْرِيسَ  ، عَنْ إِسْمَاعِيل بْنِ أَبِي حَكِيمٍ  ، قَالَ : سَمِعْتُ عُمَرَ بْنَ عَبْدِ الْعَزِيزِ  ، يَقُولُ :\" مَنْ جَعَلَ دِينَهُ غَرَضًا لِلْخُصُومَاتِ، أَكْثَرَ التَّنَقُّلَ \"",
      "english": {
        "narrator": "",
        "text": ""
      }
    },
    {
      "id": 308,
      "chapterId": 0,
      "bookId": 9,
      "arabic": "أَخْبَرَنَا مَرْوَانُ بْنُ مُحَمَّدٍ  ، حَدَّثَنَا سَعِيدُ بْنُ عَبْدِ الْعَزِيزِ  ، قَالَ : كَتَبَ عُمَرُ بْنُ عَبْدِ الْعَزِيزِ   إِلَى أَهْلِ الْمَدِينَةِ :\" أَنَّهُ مَنْ تَعَبَّدَ بِغَيْرِ عِلْمٍ، كَانَ مَا يُفْسِدُ أَكْثَرَ مِمَّا يُصْلِحُ، وَمَنْ عَدَّ كَلَامَهُ مِنْ عَمَلِهِ، قَلَّ كَلَامُهُ إِلَّا فِيمَا يَعْنِيهِ، وَمَنْ جَعَلَ دِينَهُ غَرَضًا لِلْخُصُومَاتِ، كَثُرَ تَنَقُّلُهُ \"",
      "english": {
        "narrator": "",
        "text": ""
      }
    },
    {
      "id": 309,
      "chapterId": 0,
      "bookId": 9,
      "arabic": "أَخْبَرَنَا مُحَمَّدُ بْنُ يُوسُفَ ، عَنْ سُفْيَانَ ، عَنْ جَعْفَرِ بْنِ بُرْقَانَ ، عَنْ عُمَرَ بْنِ عَبْدِ الْعَزِيزِ ، قَالَ : سَأَلَهُ رَجُلٌ عَنْ شَيْءٍ مِنْ الْأَهْوَاءِ، فَقَالَ :\" عَلَيْكَ بِدِينِ الْأَعْرَابِيِّ، وَالْغُلَامِ فِي الْكُتَّابِ، وَالْهَ عَمَّا سِوَى ذَلِكَ \"، قَالَ أَبُو مُحَمَّدٍ : كَثُرَ تَنَقُّلُهُ، أَيْ : يَنْتَقِلُ مِنْ رَأْيٍ إِلَى رَأْيٍ",
      "english": {
        "narrator": "",
        "text": ""
      }
    },
    {
      "id": 310,
      "chapterId": 0,
      "bookId": 9,
      "arabic": "أَخْبَرَنَا مُحَمَّدُ بْنُ كَثِيرٍ ، عَنْ الْأَوْزَاعِيِّ ، قَالَ : قَالَ عُمَرُ بْنُ عَبْدِ الْعَزِيزِ  :\" إِذَا رَأَيْتَ قَوْمًا يُنْتِجُونَ بِأَمْرٍ دُونَ عَامَّتِهِمْ، فَهُمْ عَلَى تَأْسِيسِ الضَّلَالَةِ \"",
      "english": {
        "narrator": "",
        "text": ""
      }
    },
    {
      "id": 311,
      "chapterId": 0,
      "bookId": 9,
      "arabic": "أَخْبَرَنَا إِبْرَاهِيمُ بْنُ إِسْحَاق ، عَنْ ابْنِ الْمُبَارَكِ ، عَنْ الْأَوْزَاعِيِّ ، قَالَ :\" قَالَ إِبْلِيسُ لِأَوْلِيَائِهِ : مِنْ أَيِّ شَيْءٍ تَأْتُونَ بَنِي آدَمَ ؟، فَقَالُوا : مِنْ كُلِّ شَيْءٍ، قَالَ : فَهَلْ تَأْتُونَهُمْ مِنْ قِبَلِ الِاسْتِغْفَارِ؟، قَالُوا : هَيْهَاتَ ! ذَاكَ شَيْءٌ قُرِنَ بِالتَّوْحِيدِ، قَالَ : لَأَبُثَّنَّ فِيهِمْ شَيْئًا لَا يَسْتَغْفِرُونَ اللَّهَ مِنْهُ، قَالَ : فَبَثَّ فِيهِمْ الْأَهْوَاءَ \"",
      "english": {
        "narrator": "",
        "text": ""
      }
    },
    {
      "id": 312,
      "chapterId": 0,
      "bookId": 9,
      "arabic": "أَخْبَرَنَا إِبْرَاهِيمُ بْنُ إِسْحَاق ، عَنْ الْمُحَارِبِيِّ ، عَنْ الْأَعْمَشِ ، عَنْ مُجَاهِدٍ ، قَالَ :\" مَا أَدْرِي أَيُّ النِّعْمَتَيْنِ عَلَيَّ أَعْظَمُ : أَنْ هَدَانِي لِلْإِسْلَامِ، أَوْ عَافَانِي مِنْ هَذِهِ الْأَهْوَاءِ \"",
      "english": {
        "narrator": "",
        "text": ""
      }
    },
    {
      "id": 313,
      "chapterId": 0,
      "bookId": 9,
      "arabic": "أَخْبَرَنَا مُوسَى بْنُ خَالِدٍ  ، حَدَّثَنَا عِيسَى بْنُ يُونُسَ  ، عَنْ الْأَعْمَشِ  ، عَنْ مُسْلِمٍ الْأَعْوَرِ  ، عَنْ حَبَّةَ بْنِ جُوَيْنٍ  ، قَالَ : سَمِعْتُ عَلِيًّا  ، أَوْ قَالَ : قَالَ عَلِيٌّ رَضِيَ اللهُ عَنْهُ :\" لَوْ أَنَّ رَجُلًا صَامَ الدَّهْرَ كُلَّهُ، وَقَامَ الدَّهْرَ كُلَّهُ، ثُمَّ قُتِلَ بَيْنَ الرُّكْنِ وَالْمَقَامِ، لَحَشَرَهُ اللَّهُ يَوْمَ الْقِيَامَةِ مَعَ مَنْ يَرَى أَنَّهُ كَانَ عَلَى هُدًى \"",
      "english": {
        "narrator": "",
        "text": ""
      }
    },
    {
      "id": 314,
      "chapterId": 0,
      "bookId": 9,
      "arabic": "أَخْبَرَنَا مُحَمَّدُ بْنُ حُمَيْدٍ  ، عَنْ هَارُونَ هُوَ ابْنُ الْمُغِيرَةِ  ، عَنْ شُعَيْبٍ  ، عَنْ سَلَمَةَ بْنِ كُهَيْلٍ  ، عَنْ أَبِي صَادِقٍ  ، قَالَ : قَالَ سَلْمَانُ   رَضِيَ اللهُ عَنْهُ :\" لَوْ وَضَعَ رَجُلٌ رَأْسَهُ عَلَى الْحَجَرِ الْأَسْوَدِ، فَصَامَ النَّهَارَ، وَقَامَ اللَّيْلَ، لَبَعَثَهُ اللَّهُ يَوْمَ الْقِيَامَةِ مَعَ هَوَاهُ \"",
      "english": {
        "narrator": "",
        "text": ""
      }
    },
    {
      "id": 315,
      "chapterId": 0,
      "bookId": 9,
      "arabic": "أَخْبَرَنَا مُحَمَّدُ بْنُ الصَّلْتِ  ، حَدَّثَنَا مَنْصُورٌ هُوَ ابْنُ أَبِي الْأَسْوَدِ  ، عَنْ الْحَارِثِ بْنِ حَصِيرَةَ  ، عَنْ أَبِي صَادِقٍ الْأَزْدِيِّ  ، عَنْ رَبِيعَةَ بْنِ نَاجِذٍ  ، قَالَ : قَالَ عَلِيٌّ   رَضِيَ اللهُ عَنْهُ :\" كُونُوا فِي النَّاسِ كَالنَّحْلَةِ فِي الطَّيْرِ : إِنَّهُ لَيْسَ مِنْ الطَّيْرِ شَيْءٌ إِلَّا وَهُوَ يَسْتَضْعِفُهَا، وَلَوْ يَعْلَمُ الطَّيْرُ مَا فِي أَجْوَافِهَا مِنْ الْبَرَكَةِ، لَمْ يَفْعَلُوا ذَلِكَ بِهَا، خَالِطُوا النَّاسَ بِأَلْسِنَتِكُمْ وَأَجْسَادِكُمْ، وَزَايِلُوهُمْ بِأَعْمَالِكُمْ وَقُلُوبِكُمْ، فَإِنَّ لِلْمَرْءِ مَا اكْتَسَبَ، وَهُوَ يَوْمَ الْقِيَامَةِ مَعَ مَنْ أَحَبَّ \"",
      "english": {
        "narrator": "",
        "text": ""
      }
    },
    {
      "id": 316,
      "chapterId": 0,
      "bookId": 9,
      "arabic": "أَخْبَرَنَا الْوَلِيدُ بْنُ شُجَاعٍ ، حَدَّثَنِي بَقِيَّةُ ، عَنْ الْأَوْزَاعِيِّ ، عَنْ الزُّهْرِيِّ ، قَالَ :\" نِعْمَ وَزِيرُ الْعِلْمِ الرَّأْيُ الْحَسَنُ \"",
      "english": {
        "narrator": "",
        "text": ""
      }
    },
    {
      "id": 317,
      "chapterId": 0,
      "bookId": 9,
      "arabic": "أَخْبَرَنَا أَحْمَدُ بْنُ عَبْدِ اللَّهِ  ، حَدَّثَنَا زَائِدَةُ  ، عَنْ الْأَعْمَشِ  ، عَنْ مُسْلِمٍ  ، عَنْ مَسْرُوقٍ  ، قَالَ :\" كَفَى بِالْمَرْءِ عِلْمًا أَنْ يَخْشَى اللَّهَ، وَكَفَى بِالْمَرْءِ جَهْلًا أَنْ يُعْجَبَ بِعِلْمِهِ \"، قَالَ : وقَالَ مَسْرُوقٌ : \" الْمَرْءُ حَقِيقٌ أَنْ يَكُونَ لَهُ مَجَالِسُ يَخْلُو فِيهَا، فَيَذْكُرُ ذُنُوبَهُ، فَيَسْتَغْفِرُ اللَّهَ تَعَالَى مِنْهَا \"",
      "english": {
        "narrator": "",
        "text": ""
      }
    },
    {
      "id": 318,
      "chapterId": 0,
      "bookId": 9,
      "arabic": "أَخْبَرَنَا مُحَمَّدُ بْنُ أَحْمَدَ بْنِ أَبِي خَلَفٍ  ، حَدَّثَنِي مَعْنٌ  ، عَنْ مُعَاوِيَةَ بْنِ صَالِحٍ  ، عَنْ الْعَلَاءِ بْنِ الْحَارِثِ  ، عَنْ مَكْحُولٍ  ، عَنْ وَاثِلَةَ بْنِ الْأَسْقَعِ   رَضِيَ اللهُ عَنْهُ، قَالَ :\" إِذَا حَدَّثْنَاكُمْ بِالْحَدِيثِ عَلَى مَعْنَاهُ، فَحَسْبُكُمْ \"",
      "english": {
        "narrator": "",
        "text": ""
      }
    },
    {
      "id": 319,
      "chapterId": 0,
      "bookId": 9,
      "arabic": "أَخْبَرَنَا عَاصِمُ بْنُ يُوسُفَ ، حَدَّثَنَا فُضَيْلُ بْنُ عِيَاضٍ ، عَنْ هِشَامٍ ، عَنْ ابْنِ سِيرِينَ  :\" أَنَّهُ كَانَ إِذَا حَدَّثَ، لَمْ يُقَدِّمْ وَلَمْ يُؤَخِّرْ، وَكَانَ الْحَسَنُ إِذَا حَدَّثَ، قَدَّمَ وَأَخَّرَ \"",
      "english": {
        "narrator": "",
        "text": ""
      }
    },
    {
      "id": 320,
      "chapterId": 0,
      "bookId": 9,
      "arabic": "أَخْبَرَنَا مُسْلِمُ بْنُ إِبْرَاهِيمَ ، أَخْبَرَنَا جَرِيرُ بْنُ حَازِمٍ ، قَالَ :\" كَانَ الْحَسَنُ  يُحَدِّثُ بِالْحَدِيثِ الْأَصْلُ وَاحِدٌ، وَالْكَلَامُ مُخْتَلِفٌ \"",
      "english": {
        "narrator": "",
        "text": ""
      }
    },
    {
      "id": 321,
      "chapterId": 0,
      "bookId": 9,
      "arabic": "أَخْبَرَنَا مُحَمَّدُ بْنُ أَحْمَدَ  ، حَدَّثَنَا سُفْيَانُ  ، عَنْ مُحَمَّدِ بْنِ سُوقَةَ  ، عَنْ مُحَمَّدِ بْنِ عَلِيِّ بْنِ الْحُسَيْنِ  ، قَالَ : حَدَّثَ عُبَيْدُ بْنُ عُمَيْرٍ   عَبْدَ اللَّهِ بْنَ عُمَرَ رَضِيَ اللَّهُ عَنْهُ، قَالَ : قَالَ رَسُولُ اللَّهِ صَلَّى اللَّهُ عَلَيْهِ وَسَلَّمَ :\" مَثَلُ الْمُنَافِقِ مَثَلُ الشَّاةِ بَيْنَ الرَّبَضَيْنِ أَوْ بَيْنَ الْغَنَمَيْنِ \"، فَقَالَ ابْنُ عُمَرَ   : لَا، إِنَّمَا قَالَ كَذَا، وَكَذَا، قَالَ : وَكَانَ ابْنُ عُمَرَ إِذَا سَمِعَ النَّبِيَّ صَلَّى اللَّهُ عَلَيْهِ وَسَلَّمَ لَمْ يَزِدْ فِيهِ، وَلَمْ يُنْقِصْ مِنْهُ، وَلَمْ يُجَاوِزْهُ، وَلَمْ يُقَصِّرْ عَنْهُ",
      "english": {
        "narrator": "",
        "text": ""
      }
    },
    {
      "id": 322,
      "chapterId": 0,
      "bookId": 9,
      "arabic": "أَخْبَرَنَا عَبْدُ اللَّهِ بْنُ سَعِيدٍ ، حَدَّثَنَا ابْنُ عُلَيَّةَ ، عَنْ ابْنِ عَوْنٍ ، قَالَ : كَانَ الشَّعْبِيُّ ، وَالنَّخَعِيُّ ، وَالْحَسَنُ يُحَدِّثُونَ بِالْحَدِيثِ مَرَّةً هَكَذَا، وَمَرَّةً هَكَذَا، فَذَكَرْتُ ذَلِكَ لِمُحَمَّدِ بْنِ سِيرِينَ ، فَقَالَ :\" أَمَا إِنَّهُمْ لَوْ حَدَّثُوا بِهِ كَمَا سَمِعُوهُ، كَانَ خَيْرًا لَهُمْ \"",
      "english": {
        "narrator": "",
        "text": ""
      }
    },
    {
      "id": 323,
      "chapterId": 0,
      "bookId": 9,
      "arabic": "أَخْبَرَنَا مُحَمَّدُ بْنُ الْعَلَاءِ ، حَدَّثَنَا عَثَّامٌ ، عَنْ الْأَعْمَشِ ، عَنْ عُمَارَةَ بْنِ عُمَيْرٍ ، عَنْ أَبِي مَعْمَرٍ ، قَالَ :\" إِنِّي لَأَسْمَعُ الْحَدِيثَ لَحْنًا، فَأَلْحَنُ اتِّبَاعًا لِمَا سَمِعْتُ \"",
      "english": {
        "narrator": "",
        "text": ""
      }
    },
    {
      "id": 324,
      "chapterId": 0,
      "bookId": 9,
      "arabic": "أَخْبَرَنَا بِشْرُ بْنُ الْحَكَمِ ، حَدَّثَنَا سُفْيَانُ ،  عَنْ إِبْرَاهِيمَ بْنِ مَيْسَرَةَ ، قَالَ : رَأَى مُجَاهِدٌ  طَاوُسًا فِي الْمَنَامِ، كَأَنَّهُ فِي الْكَعْبَةِ يُصَلِّي مُتَقَنِّعًا، وَالنَّبِيُّ صَلَّى اللَّهُ عَلَيْهِ وَسَلَّمَ عَلَى بَابِ الْكَعْبَةِ ، فَقَالَ لَهُ : \" يَا عَبْدَ اللَّهِ،اكْشِفْ قِنَاعَكَ وَأَظْهِرْ قِرَاءَتَكَ \"، قَالَ : فَكَأَنَّهُ عَبَّرَهُ عَلَى الْعِلْمِ، فَانْبَسَطَ بَعْدَ ذَلِكَ فِي الْحَدِيثِ",
      "english": {
        "narrator": "",
        "text": ""
      }
    },
    {
      "id": 325,
      "chapterId": 0,
      "bookId": 9,
      "arabic": "أَخْبَرَنَا عَبْدُ اللَّهِ بْنُ مُحَمَّدٍ ، حَدَّثَنَا ابْنُ يَمَانٍ ، عَنْ ابْنِ ثَوْبَانَ ، عَنْ أَبِيهِ ، عَنْ عَبْدِ اللَّهِ بْنِ ضَمْرَةَ ، عَنْ كَعْبٍ ، قَالَ :\" الدُّنْيَا مَلْعُونَةٌ، مَلْعُونٌ مَا فِيهَا، إِلَّا مُتَعَلِّمَ خَيْرًا، أَوْ مُعَلِّمُهُ \"",
      "english": {
        "narrator": "",
        "text": ""
      }
    },
    {
      "id": 326,
      "chapterId": 0,
      "bookId": 9,
      "arabic": "أَخْبَرَنَا مُحَمَّدُ بْنُ كَثِيرٍ ، عَنْ الْأَوْزَاعِيِّ ، عَنْ بَحِيرٍ بن سعد ، عَنْ خَالِدِ بْنِ مَعْدَانَ ، قَالَ :\" النَّاسُ عَالِمٌ وَمُتَعَلِّمٌ، وَمَا بَيْنَ ذَلِكَ هَمَجٌ لَا خَيْرَ فِيهِ \"",
      "english": {
        "narrator": "",
        "text": ""
      }
    },
    {
      "id": 327,
      "chapterId": 0,
      "bookId": 9,
      "arabic": "أَخْبَرَنَا بِشْرُ بْنُ الْحَكَمِ ، حَدَّثَنَا عَبْدُ اللَّهِ بْنُ رَجَاءٍ ، عَنْ هِشَامٍ ، عَنْ الْحَسَنِ ، قَالَ : كَانُوا يَقُولُونَ :\" مَوْتُ الْعَالِمِ ثُلْمَةٌ فِي الْإِسْلَامِ، لَا يَسُدُّهَا شَيْءٌ مَا اخْتَلَفَ اللَّيْلُ وَالنَّهَارُ \"",
      "english": {
        "narrator": "",
        "text": ""
      }
    },
    {
      "id": 328,
      "chapterId": 0,
      "bookId": 9,
      "arabic": "أَخْبَرَنَا يُوسُفُ بْنُ مُوسَى ، حَدَّثَنَا إِبْرَاهِيمُ بْنُ مُوسَى ، أَخْبَرَنَا مُحَمَّدُ بْنُ الْحَسَنِ الصَّنْعَانِيُّ ، حَدَّثَنَا مُنْذِرٌ هُوَ ابْنُ النُّعْمَانِ ، عَنْ وَهْبِ بْنِ مُنَبِّهٍ ، قَالَ :\" مَجْلِسٌ يُتَنَازَعُ فِيهِ الْعِلْمُ، أَحَبُّ إِلَيَّ مِنْ قَدْرِهِ صَلَاةً، لَعَلَّ أَحَدَهُمْ يَسْمَعُ الْكَلِمَةَ فَيَنْتَفِعُ بِهَا سَنَةً، أَوْ مَا بَقِيَ مِنْ عُمُرِهِ \"",
      "english": {
        "narrator": "",
        "text": ""
      }
    },
    {
      "id": 329,
      "chapterId": 0,
      "bookId": 9,
      "arabic": "أَخْبَرَنَا يَعْقُوبُ بْنُ إِبْرَاهِيمَ ، أَخْبَرَنَا وَكِيعٌ ، قَالَ : قَالَ سُفْيَانُ  :\" مَا أَعْلَمُ عَمَلًا أَفْضَلَ مِنْ طَلَبِ الْعِلْمِ وَحِفْظِهِ لِمَنْ أَرَادَ اللَّهَ تعَالَي بِهِ خَيْرًا \"، وَقَالَ : قَالَ الْحَسَنُ بْنُ صَالِحٍ  : \" إِنَّ النَّاسَ يَحْتَاجُونَ إِلَى هَذَا الْعِلْمِ فِي دِينِهِمْ، كَمَا يَحْتَاجُونَ إِلَى الطَّعَامِ وَالشَّرَابِ فِي دُنْيَاهُمْ \"",
      "english": {
        "narrator": "",
        "text": ""
      }
    },
    {
      "id": 330,
      "chapterId": 0,
      "bookId": 9,
      "arabic": "أَخْبَرَنَا أَبُو نُعَيْمٍ  ، وَجَعْفَرُ بْنُ عَوْنٍ  ، قَالَا : حَدَّثَنَا مِسْعَرٌ  ، عَنْ عَمْرِو بْنِ مُرَّةَ  ، عَنْ سَالِمِ بْنِ أَبِي الْجَعْدِ  ، قَالَ : قَالَ أَبُو الدَّرْدَاءِ   رَضِيَ اللهُ عَنْهُ :\" تَعَلَّمُوا قَبْلَ أَنْ يُقْبَضَ الْعِلْمُ، فَإِنَّ قَبْضَ الْعِلْمِ قَبْضُ الْعُلَمَاءِ، وَإِنَّ الْعَالِمَ وَالْمُتَعَلِّمَ فِي الْأَجْرِ سَوَاءٌ \"",
      "english": {
        "narrator": "",
        "text": ""
      }
    },
    {
      "id": 331,
      "chapterId": 0,
      "bookId": 9,
      "arabic": "أَخْبَرَنَا هَارُونُ بْنُ مُعَاوِيَةَ ، عَنْ حَفْصِ بْنِ غِيَاثٍ ، عَنْ أَبِي عَبْدِ اللَّهِ الْخُرَاسَانِيِّ ، عَنْ الضَّحَّاكِ  : # وَلَكِنْ كُونُوا رَبَّانِيِّينَ بِمَا كُنْتُمْ تُعَلِّمُونَ الْكِتَابَ سورة آل عمران آية 79 #، قَالَ :\" حَقٌّ عَلَى كُلِّ مَنْ قَرَأَ الْقُرْآنَ أَنْ يَكُونَ فَقِيهًا \"",
      "english": {
        "narrator": "",
        "text": ""
      }
    },
    {
      "id": 332,
      "chapterId": 0,
      "bookId": 9,
      "arabic": "أَخْبَرَنَا هَارُونُ بْنُ مُعَاوِيَةَ ، عَنْ حَفْصٍ ، عَنْ أَشْعَثَ بْنِ سَوَّارٍ ، عَنْ الْحَسَنِ  : # لَوْلا يَنْهَاهُمُ الرَّبَّانِيُّونَ وَالأَحْبَارُ سورة المائدة آية 63 #، قَالَ :\" الْحُكَمَاءُ الْعُلَمَاءُ \"",
      "english": {
        "narrator": "",
        "text": ""
      }
    },
    {
      "id": 333,
      "chapterId": 0,
      "bookId": 9,
      "arabic": "أَخْبَرَنَا مُحَمَّدُ بْنُ عُيَيْنَةَ ، عَنْ أَبِي إِسْحَاق الْفَزَارِيِّ ، عَنْ عَطَاءِ بْنِ السَّائِبِ ، عَنْ سَعِيدِ بْنِ جُبَيْرٍ ، قَالَ : # كُونُوا رَبَّانِيِّينَ سورة آل عمران آية 79 #، قَالَ :\" عُلَمَاءُ فُقَهَاءُ \"",
      "english": {
        "narrator": "",
        "text": ""
      }
    },
    {
      "id": 334,
      "chapterId": 0,
      "bookId": 9,
      "arabic": "أَخْبَرَنَا عُبَيْدُ اللَّهِ بْنُ سَعِيدٍ ، قَالَ : سَمِعْتُ سُفْيَانَ بْنَ عُيَيْنَةَ ، يَقُولُ :\" يُرَادُ لِلْعِلْمِ الْحِفْظُ، وَالْعَمَلُ، وَالِاسْتِمَاعُ، وَالْإِنْصَاتُ، وَالنَّشْرُ \"",
      "english": {
        "narrator": "",
        "text": ""
      }
    },
    {
      "id": 335,
      "chapterId": 0,
      "bookId": 9,
      "arabic": "قَالَ : وأَخْبَرَنِي أحمد بن مُحَمَّدٌ أَبُو عَبْدِ اللَّهِ ، عَنْ سُفْيَانَ بْنِ عُيَيْنَةَ ، قَالَ :\" أَجْهَلُ النَّاسِ مَنْ تَرَكَ مَا يَعْلَمُ، وَأَعْلَمُ النَّاسِ مَنْ عَمِلَ بِمَا يَعْلَمُ، وَأَفْضَلُ النَّاسِ أَخْشَعَهُمْ لِلَّهِ G \"",
      "english": {
        "narrator": "",
        "text": ""
      }
    },
    {
      "id": 336,
      "chapterId": 0,
      "bookId": 9,
      "arabic": "أَخْبَرَنَا عَبْدُ اللَّهِ بْنُ جَعْفَرٍ الرَّقِّيُّ ، عَنْ عُبَيْدِ اللَّهِ بْنِ عَمْرٍو ، عَنْ زَيْدٍ هُوَ ابْنُ أَبِي أُنَيْسَةَ ، عَنْ سَيَّارٍ ، عَنْ الْحَسَنِ ، قَالَ :\" مَنْهُومَانِ لَا يَشْبَعَانِ : مَنْهُومٌ فِي الْعِلْمِ لَا يَشْبَعُ مِنْهُ، وَمَنْهُومٌ فِي الدُّنْيَا لَا يَشْبَعُ مِنْهَا، فَمَنْ تَكُنِ الْآخِرَةُ هَمَّهُ، وَبَثَّهُ، وَسَدَمَهُ، يَكْفِي اللَّهُ ضَيْعَتَهُ، وَيَجْعَلُ غِنَاهُ فِي قَلْبِهِ، وَمَنْ تَكُنِ الدُّنْيَا هَمَّهُ، وَبَثَّهُ، وَسَدَمَهُ، يُفْشِي اللَّهُ عَلَيْهِ ضَيْعَتَهُ، وَيَجْعَلُ فَقْرَهُ بَيْنَ عَيْنَيْهِ، ثُمَّ لَا يُصْبِحُ إِلَّا فَقِيرًا، وَلَا يُمْسِي إِلَّا فَقِيرًا \"",
      "english": {
        "narrator": "",
        "text": ""
      }
    },
    {
      "id": 337,
      "chapterId": 0,
      "bookId": 9,
      "arabic": "أَخْبَرَنَا جَعْفَرُ بْنُ عَوْنٍ  ، أَخْبَرَنَا أَبُو عُمَيْسٍ  ، عَنْ عَوْنٍ  ، قَالَ : قَالَ عَبْدُ اللَّهِ   رَضِيَ اللهُ عَنْهُ :\" مَنْهُومَانِ لَا يَشْبَعَانِ : صَاحِبُ الْعِلْمِ، وَصَاحِبُ الدُّنْيَا، وَلَا يَسْتَوِيَانِ، أَمَّا صَاحِبُ الْعِلْمِ، فَيَزْدَادُ رِضًى لِلرَّحْمَنِ، وَأَمَّا صَاحِبُ الدُّنْيَا، فَيَتَمَادَى فِي الطُّغْيَانِ \"، ثُمَّ قَرَأَ عَبْدُ اللَّهِ : # كَلَّا إِنَّ الإِنْسَانَ لَيَطْغَى { 6 } أَنْ رَآهُ اسْتَغْنَى { 7 } سورة العلق آية 6-7 #، قَالَ : وَقَالَ الْآخَرُ : # إِنَّمَا يَخْشَى اللَّهَ مِنْ عِبَادِهِ الْعُلَمَاءُ سورة فاطر آية 28 #",
      "english": {
        "narrator": "",
        "text": ""
      }
    },
    {
      "id": 338,
      "chapterId": 0,
      "bookId": 9,
      "arabic": "أَخْبَرَنَا مُحَمَّدُ بْنُ حُمَيْدٍ  ، حَدَّثَنَا إِبْرَاهِيمُ بْنُ مُخْتَارٍ  ، حَدَّثَنَا عَنْ سِمَاكِ بْنِ حَرْبٍ  ، عَنْ عِكْرِمَةَ  ،  عَنْ ابْنِ عَبَّاسٍ   رَضِيَ اللهُ عَنْهُمَا : # إِنَّمَا يَخْشَى اللَّهَ مِنْ عِبَادِهِ الْعُلَمَاءُ سورة فاطر آية 28 #، قَالَ :\" مَنْ خَشِيَ اللَّهَ فَهُوَ عَالِمٌ \"",
      "english": {
        "narrator": "",
        "text": ""
      }
    },
    {
      "id": 339,
      "chapterId": 0,
      "bookId": 9,
      "arabic": "أَخْبَرَنَا إِسْمَاعِيل بْنُ أَبَانَ  ، حَدَّثَنَا عَبْدُ اللَّهِ بْنُ إِدْرِيسَ  ، عَنْ لَيْثٍ  ، عَنْ طَاوُسٍ  ، عَنْ ابْنِ عَبَّاسٍ   رَضِيَ اللهُ عَنْهُ، قَال :\" مَنْهُومَانِ لَا يَشْبَعَانِ : طَالِبُ عِلْمٍ، وَطَالِبُ دُنْيَا \"",
      "english": {
        "narrator": "",
        "text": ""
      }
    },
    {
      "id": 340,
      "chapterId": 0,
      "bookId": 9,
      "arabic": "أَخْبَرَنَا مَرْوَانُ بْنُ مُحَمَّدٍ  ، حَدَّثَنَا يَزِيدُ بْنُ رَبِيعَةَ الصَّنْعَانِيُّ  ، حَدَّثَنَا رَبِيعَةُ بْنُ يَزِيدَ  ، قَالَ : سَمِعْتُ وَاثِلَةَ بْنَ الْأَسْقَعِ   رَضِيَ اللهُ عَنْهُ، يَقُولُ : قَالَ رَسُولُ اللَّهِ صَلَّى اللَّهُ عَلَيْهِ وَسَلَّمَ :\" مَنْ طَلَبَ الْعِلْمَ فَأَدْرَكَهُ، كَانَ لَهُ كِفْلَانِ مِنْ الْأَجْرِ، فَإِنْ لَمْ يُدْرِكْهُ، كَانَ لَهُ كِفْلٌ مِنْ الْأَجْرِ \"",
      "english": {
        "narrator": "",
        "text": ""
      }
    },
    {
      "id": 341,
      "chapterId": 0,
      "bookId": 9,
      "arabic": "أَخْبَرَنَا عَبْدُ اللَّهِ بْنُ مُحَمَّدِ بْنِ أَبِي شَيْبَةَ  ، حَدَّثَنَا مَرْوَانُ بْنُ مُعَاوِيَةَ  ، عَنْ عَوْفٍ  ، عَنْ عَبَّاسٍ الْعَمِّيِّ L4161 ، قَالَ : بَلَغَنِي أَنَّ دَاوُدَ النَّبِيَّ صَلَّى اللَّهُ عَلَيْهِ وَسَلَّمَ كَانَ يَقُولُ فِي دُعَائِهِ :\" سُبْحَانَكَ اللَّهُمَّ، أَنْتَ رَبِّي تَعَالَيْتَ فَوْقَ عَرْشِكَ، وَجَعَلْتَ خَشْيَتَكَ عَلَى مَنْ فِي السَّمَوَاتِ وَالْأَرْضِ، فَأَقْرَبُ خَلْقِكَ مِنْكَ مَنْزِلَةً أَشَدُّهُمْ لَكَ خَشْيَةً، وَمَا عِلْمُ مَنْ لَمْ يَخْشَكَ؟ وَمَا حِكْمَةُ مَنْ لَمْ يُطِعْ أَمْرَكَ؟ ! \"",
      "english": {
        "narrator": "",
        "text": ""
      }
    },
    {
      "id": 342,
      "chapterId": 0,
      "bookId": 9,
      "arabic": "أَخْبَرَنَا الْمُعَلَّى بْنُ أَسَدٍ  ، حَدَّثَنَا سَلَّامٌ هُوَ ابْنُ أَبِي مُطِيعٍ  ، قَالَ : سَمِعْتُ أَبَا الْهَزْهَازِ  يُحَدِّثُ، عَنْ الضَّحَّاكِ  ، قَالَ : قَالَ عَبْدُ اللَّهِ بْنُ مَسْعُودٍ   رَضِيَ اللهُ عَنْهُ :\" اغْدُ عَالِمًا، أَوْ مُتَعَلِّمًا، وَلَا خَيْرَ فِيمَا سِوَاهُمَا \"",
      "english": {
        "narrator": "",
        "text": ""
      }
    },
    {
      "id": 343,
      "chapterId": 0,
      "bookId": 9,
      "arabic": "أَخْبَرَنَا الْحَكَمُ بْنُ الْمُبَارَكِ  ، أَخْبَرَنَا الْوَلِيدُ بْنُ مُسْلِمٍ  ، أَخْبَرَنَا الْوَلِيدُ بْنُ سُلَيْمَانَ  ، عَنْ عَلِيِّ بْنِ يَزِيدَ  ، عَنْ الْقَاسِمِ أَبِي عَبْدِ الرَّحْمَنِ  ، عَنْ أَبِي أُمَامَةَ   رَضِيَ اللهُ عَنْهُ، عَنْ النَّبِيِّ صَلَّى اللَّهُ عَلَيْهِ وَسَلَّمَ قَالَ :\" سَتَكُونُ فِتَنٌ يُصْبِحُ الرَّجُلُ فِيهَا مُؤْمِنًا، وَيُمْسِي كَافِرًا، إِلَّا مَنْ أَحْيَاهُ اللَّهُ بِالْعِلْمِ \"",
      "english": {
        "narrator": "",
        "text": ""
      }
    }
  ]
}