{
  "page": 63,
  "perPage": 50,
  "totalPages": 69,
  "totalCount": 3406,
  "nextPage": 64,
  "prevPage": 62,
  "items": [
    {
      "id": 344,
      "chapterId": 0,
      "bookId": 9,
      "arabic": "أَخْبَرَنَا أَبُو الْمُغِيرَةِ  ، حَدَّثَنَا الْأَوْزَاعِيُّ  ، حَدَّثَنِي هَارُونُ بْنُ رِئَابٍ  ، عَنْ عَبْدِ اللَّهِ بْنِ مَسْعُودٍ   رَضِيَ اللهُ عَنْهُ، أَنَّهُ كَانَ يَقُولُ :\" اغْدُ عَالِمًا أَوْ مُتَعَلِّمًا، وَلَا تَغْدُ فِيمَا بَيْنَ ذَلِكَ، فَإِنَّ مَا بَيْنَ ذَلِكَ جَاهِلٌ، وَإِنَّ الْمَلَائِكَةَ تَبْسُطُ أَجْنِحَتَهَا لِلرَّجُلِ غَدَا يَبْتَغِي الْعِلْمَ مِنْ الرِّضَاءِ بِمَا يَصْنَعُ \"",
      "english": {
        "narrator": "",
        "text": ""
      }
    },
    {
      "id": 345,
      "chapterId": 0,
      "bookId": 9,
      "arabic": "أَخْبَرَنَا أَبُو الْمُغِيرَةِ  ، حَدَّثَنَا الْأَوْزَاعِيُّ  ، عَنْ الْحَسَنِ  ، قَالَ : سُئِلَ رَسُولُ اللَّهِ صَلَّى اللَّهُ عَلَيْهِ وَسَلَّمَ، عَنْ رَجُلَيْنِ كَانَا فِي بَنِي إِسْرَائِيلَ : أَحَدُهُمَا كَانَ عَالِمًا يُصَلِّي الْمَكْتُوبَةَ، ثُمَّ يَجْلِسُ فَيُعَلِّمُ النَّاسَ الْخَيْرَ، وَالْآخَرُ يَصُومُ النَّهَارَ وَيَقُومُ اللَّيْلَ، أَيُّهُمَا أَفْضَلُ؟، قَالَ رَسُولُ اللَّهِ صَلَّى اللَّهُ عَلَيْهِ وَسَلَّمَ :\" فَضْلُ هَذَا الْعَالِمِ الَّذِي يُصَلِّي الْمَكْتُوبَةَ ثُمَّ يَجْلِسُ فَيُعَلِّمُ النَّاسَ الْخَيْرَ، عَلَى الْعَابِدِ الَّذِي يَصُومُ النَّهَارَ وَيَقُومُ اللَّيْلَ، كَفَضْلِي عَلَى أَدْنَاكُمْ رَجُلًا \"",
      "english": {
        "narrator": "",
        "text": ""
      }
    },
    {
      "id": 346,
      "chapterId": 0,
      "bookId": 9,
      "arabic": "أَخْبَرَنَا الْحَسَنُ بْنُ الرَّبِيعِ ، عَنْ عَبْدِ اللَّهِ بْنِ عُبَيْدِ اللَّهِ ، عَنْ الْحَسَنِ بْنِ ذَكْوَانَ ، عَنْ ابْنِ سِيرِينَ ، قَالَ :\" دَخَلْتُ الْمَسْجِدَ، فَإِذَا الأَسْودَ بْنُ سَرِيع يَقُصُّ، وَحُمَيْدُ بْنُ عَبْدِ الرَّحْمَنِ يَذْكُرُ الْعِلْمَ فِي نَاحِيَةِ الْمَسْجِدِ، فَمَيَّلْتُ إِلَى أَيِّهِمَا أَجْلِسُ، فَنَعَسْتُ، فَأَتَانِي آتٍ، فَقَالَ : مَيَّلْتَ إِلَى أَيِّهِمَا تَجْلِسُ؟ إِنْ شِئْتَ أَرَيْتُكَ مَكَانَ جِبْرَائِيلَ عَلَيْهِ السَّلامُ مِنْ حُمَيْدِ بْنِ عَبْدِ الرَّحْمَنِ \"",
      "english": {
        "narrator": "",
        "text": ""
      }
    },
    {
      "id": 347,
      "chapterId": 0,
      "bookId": 9,
      "arabic": "أَخْبَرَنَا نَصْرُ بْنُ عَلِيٍّ  ، حَدَّثَنَا عَبْدُ اللَّهِ بْنُ دَاوُدَ  ، عَنْ عَاصِمِ بْنِ رَجَاءِ بْنِ حَيْوَةَ  ، عَنْ دَاوُدَ بْنِ جَمِيلٍ  ، عَنْ كَثِيرِ بْنِ قَيْسٍ  ، قَالَ : كُنْتُ جَالِسًا مَعَ أَبِي الدَّرْدَاءِ رَضِيَ اللهُ عَنْهُ فِي مَسْجِدِ دِمَشْقَ ، فَأَتَاهُ رَجُلٌ، فَقَالَ : يَا أَبَا الدَّرْدَاءِ  ، إِنِّي أَتَيْتُكَ مِنْ الْمَدِينَةِ ، مَدِينَةِ الرَّسُولِ صَلَّى اللَّهُ عَلَيْهِ وَسَلَّمَ لِحَدِيثٍ بَلَغَنِي عَنْ رَسُولِ اللَّهِ صَلَّى اللَّهُ عَلَيْهِ وَسَلَّمَ، قَالَ : فَمَا جَاءَ بِكَ تِجَارَةٌ؟، قَالَ : لَا، قَالَ : وَلَا جَاءَ بِكَ غَيْرُهُ؟، قَالَ : لَا، قَالَ : سَمِعْتُ رَسُولَ اللَّهِ صَلَّى اللَّهُ عَلَيْهِ وَسَلَّمَ يَقُولُ :\" مَنْ سَلَكَ طَرِيقًا يَلْتَمِسُ بِهِ عِلْمًا، سَهَّلَ اللَّهُ بِهِ طَرِيقًا مِنْ طُرُقِ الْجَنَّةِ، وَإِنَّ الْمَلَائِكَةَ لَتَضَعُ أَجْنِحَتَهَا رِضًا لِطَالِبِ الْعِلْمِ، وَإِنَّ طَالِبَ الْعِلْمِ، لَيَسْتَغْفِرُ لَهُ مَنْ فِي السَّمَاءِ وَالْأَرْضِ حَتَّى الْحِيتَانُ فِي الْمَاءِ، وَإِنَّ فَضْلَ الْعَالِمِ عَلَى الْعَابِدِ كَفَضْلِ الْقَمَرِ عَلَى سَائِرِ النُّجُومِ، إِنَّ الْعُلَمَاءَ هُمْ وَرَثَةُ الْأَنْبِيَاءِ، إِنَّ الْأَنْبِيَاءَ لَمْ يُوَرِّثُوا دِينَارًا، وَلَا دِرْهَمًا، وَإِنَّمَا وَرَّثُوا الْعِلْمَ، فَمَنْ أَخَذَ بِهِ أَخَذَ بِحَظِّهِ، أَوْ بِحَظٍّ وَافِرٍ \"",
      "english": {
        "narrator": "",
        "text": ""
      }
    },
    {
      "id": 348,
      "chapterId": 0,
      "bookId": 9,
      "arabic": "أَخْبَرَنَا مُحَمَّدُ بْنُ عُيَيْنَةَ  ، عَنْ أَبِي إِسْحَاق الْفَزَارِيِّ  ، عَنْ الْأَعْمَشِ  ، عَنْ شِمْرِ بْنِ عَطِيَّةَ  ، عَنْ سَعِيدِ بْنِ جُبَيْرٍ  ، عَنْ ابْنِ عَبَّاسٍ   رَضِيَ اللهُ عَنْهُمَا، قَالَ :\" مُعَلِّمُ الْخَيْرِ يَسْتَغْفِرُ لَهُ كُلُّ شَيْءٍ، حَتَّى الْحُوتُ فِي الْبَحْرِ \"",
      "english": {
        "narrator": "",
        "text": ""
      }
    },
    {
      "id": 349,
      "chapterId": 0,
      "bookId": 9,
      "arabic": "أَخْبَرَنَا أَحْمَدُ بْنُ عَبْدِ اللَّهِ بْنِ يُونُسَ  ، حَدَّثَنَا زَائِدَةُ  ، عَنْ الْأَعْمَشِ  ، عَنْ أَبِي صَالِحٍ  ، عَنْ أَبِي هُرَيْرَةَ   رَضِيَ اللهُ عَنْهُ، قَالَ : قَالَ رَسُولُ اللَّهِ صَلَّى اللَّهُ عَلَيْهِ وَسَلَّمَ :\" مَا مِنْ رَجُلٍ يَسْلُكُ طَرِيقًا يَطْلُبُ فِيهِ عِلْمًا، إِلَّا سَهَّلَ اللَّهُ لَهُ بِهِ طَرِيقًا إِلَى الْجَنَّةِ، وَمَنْ أَبْطَأَ بِهِ عَمَلُهُ، لَمْ يُسْرِعْ بِهِ نَسَبُهُ \"",
      "english": {
        "narrator": "",
        "text": ""
      }
    },
    {
      "id": 350,
      "chapterId": 0,
      "bookId": 9,
      "arabic": "أَخْبَرَنَا إِسْمَاعِيل بْنُ أَبَانَ  ، عَنْ يَعْقُوبَ هُوَ الْقُّمِّيُّ  ، عَنْ هَارُونَ بْنِ عَنْتَرَةَ  عَنْ أَبِيهِ  ، عَنْ ابْنِ عَبَّاسٍ   رَضِيَ اللهُ عَنْهُ، قَالَ :\" مَا سَلَكَ رَجُلٌ طَرِيقًا يَبْتَغِي فِيهِ الْعِلْمَ، إِلَّا سَهَّلَ اللَّهُ لَهُ بِهِ طَرِيقًا إِلَى الْجَنَّةِ، وَمَنْ يُبْطِئْ بِهِ عَمَلُهُ، لَمْ يُسْرِعْ بِهِ نَسَبُهُ \"",
      "english": {
        "narrator": "",
        "text": ""
      }
    },
    {
      "id": 351,
      "chapterId": 0,
      "bookId": 9,
      "arabic": "أَخْبَرَنَا مُحَمَّدُ بْنُ كَثِيرٍ ، عَنْ ابْنِ شَوْذَبٍ ، عَنْ مُطَر  : # وَلَقَدْ يَسَّرْنَا الْقُرْءَانَ لِلذِّكْرِ فَهَلْ مِنْ مُدَّكِرٍ سورة القمر آية 17 #، قَالَ :\" هَلْ مِنْ طَالِبِ خَيْرٍ فَيُعَانَ عَلَيْهِ؟ \"، وأَخْبَرَنَا مَرْوَانُ ، عَنْ ضَمْرَةَ ، قَالَ : \" طَالِبُ عِلْمٍ \"",
      "english": {
        "narrator": "",
        "text": ""
      }
    },
    {
      "id": 352,
      "chapterId": 0,
      "bookId": 9,
      "arabic": "أَخْبَرَنَا إِسْمَاعِيل بْنُ أَبَانَ  ، حَدَّثَنَا يَعْقُوبُ هُوَ الْقُمِّيُّ  ، عَنْ عَامِرِ بْنِ إِبْرَاهِيمَ  ، قَالَ : كَانَ أَبُو الدَّرْدَاءِ   رَضِيَ اللهُ عَنْهُ إِذَا رَأَى طَلَبَةَ الْعِلْمِ، قَالَ :\" مَرْحَبًا بِطَلَبَةِ الْعِلْمِ، وَكَانَ يَقُولُ : إِنَّ رَسُولَ اللَّهِ صَلَّى اللَّهُ عَلَيْهِ وَسَلَّمَ أَوْصَى بِكُمْ \"",
      "english": {
        "narrator": "",
        "text": ""
      }
    },
    {
      "id": 353,
      "chapterId": 0,
      "bookId": 9,
      "arabic": "أَخْبَرَنَا عَبْدُ اللَّهِ بْنُ يَزِيدَ  ، حَدَّثَنَا عَبْدُ الرَّحْمَنِ بْنُ زِيَادِ بْنِ أَنْعُمَ  ، عَنْ عَبْدِ الرَّحْمَنِ بْنِ رَافِعٍ  ، عَنْ عَبْدِ اللَّهِ بْنِ عَمْرٍو   رَضِيَ اللهُ عَنْهُمَا، أَنّ رَسُولَ اللَّهِ صَلَّى اللَّهُ عَلَيْهِ وَسَلَّمَ، مَرَّ بِمَجْلِسَيْنِ فِي مَسْجِدِهِ، فَقَالَ :\" كِلَاهُمَا عَلَى خَيْرٍ، وَأَحَدُهُمَا أَفْضَلُ مِنْ صَاحِبِهِ، أَمَّا هَؤُلَاءِ فَيَدْعُونَ اللَّهَ، وَيَرْغَبُونَ إِلَيْهِ، فَإِنْ شَاءَ أَعْطَاهُمْ، وَإِنْ شَاءَ مَنَعَهُمْ، وَأَمَّا هَؤُلَاءِ فَيَتَعَلَّمُونَ الْفِقْهَ وَالْعِلْمَ، وَيُعَلِّمُونَ الْجَاهِلَ، فَهُمْ أَفْضَلُ، وَإِنَّمَا بُعِثْتُ مُعَلِّمًا \"، قَالَ : ثُمَّ جَلَسَ فِيهِمْ",
      "english": {
        "narrator": "",
        "text": ""
      }
    },
    {
      "id": 354,
      "chapterId": 0,
      "bookId": 9,
      "arabic": "أَخْبَرَنَا عَبْدُ اللَّهِ بْنُ يَزِيدَ ، حَدَّثَنَا الْمَسْعُودِيُّ ، عَنْ عَوْنِ بْنِ عَبْدِ اللَّهِ ، عَنْ مُطَرِّفِ بْنِ عَبْدِ اللَّهِ بْنِ الشِّخِّيرِ ، أَنَّهُ قَالَ لِابْنِهِ :\" يَا بُنَيَّ، إِنَّ الْعِلْمَ خَيْرٌ مِنْ الْعَمَلِ \"",
      "english": {
        "narrator": "",
        "text": ""
      }
    },
    {
      "id": 355,
      "chapterId": 0,
      "bookId": 9,
      "arabic": "أَخْبَرَنَا عَبْدُ اللَّهِ بْنُ يَزِيدَ  ، حَدَّثَنَا حَيْوَةُ  ، أَخْبَرَنَا شُرَحْبِيلُ بْنُ شَرِيكٍ  ، أَنَّهُ سَمِعَ أَبَا عَبْدِ الرَّحْمَنِ الْحُبُلِيَّ  ، يَقُولُ :\" لَيْسَ هَدِيَّةٌ أَفْضَلَ مِنْ كَلِمَةِ حِكْمَةٍ، تُهْدِيهَا لِأَخِيكَ \"",
      "english": {
        "narrator": "",
        "text": ""
      }
    },
    {
      "id": 356,
      "chapterId": 0,
      "bookId": 9,
      "arabic": "أَخْبَرَنَا عَبْدُ اللَّهِ بْنُ عِمْرَانَ ، حَدَّثَنَا يَحْيَى بْنُ يَمَانٍ ، حَدَّثَنَا مُحَمَّدُ بْنُ عَجْلَانَ ، عَنْ الزُّهْرِيِّ ، قَالَ :\" فَضْلُ الْعَالِمِ عَلَى الْمُجْتَهِدِ مِئَةُ دَرَجَةٍ، مَا بَيْنَ الدَّرَجَتَيْنِ خَمْسُ مِئَةِ سَنَةٍ، حُضْرِ الْفَرَسِ الْمُضَمَّرِ السَّرِيعِ \"",
      "english": {
        "narrator": "",
        "text": ""
      }
    },
    {
      "id": 357,
      "chapterId": 0,
      "bookId": 9,
      "arabic": "أَخْبَرَنَا عَبْدُ اللَّهِ بْنُ يَزِيدَ  ، حَدَّثَنَا حَيْوَةُ  ، قَالَ : أَخْبَرَنِي السَّكَنُ بْنُ أَبِي كَرِيمَةَ  ، عَنْ عِكْرِمَةَ  مَوْلَى ابْنِ عَبَّاسٍ، عَنْ ابْنِ عَبَّاسٍ   : # يَرْفَعِ اللَّهُ الَّذِينَ آمَنُوا مِنْكُمْ وَالَّذِينَ أُوتُوا الْعِلْمَ دَرَجَاتٍ سورة المجادلة آية 11 #، قَالَ :\" يَرْفَعُ اللَّهُ الَّذِينَ أُوتُوا الْعِلْمَ عَلَى الَّذِينَ آمَنُوا بِدَرَجَاتٍ \"",
      "english": {
        "narrator": "",
        "text": ""
      }
    },
    {
      "id": 358,
      "chapterId": 0,
      "bookId": 9,
      "arabic": "أَخْبَرَنَا بِشْرُ بْنُ ثَابِتٍ الْبَزَّارُ  ، حَدَّثَنَا نَصْرُ بْنُ الْقَاسِمِ  ، عَنْ مُحَمَّدِ بْنِ إِسْمَاعِيل  ، عَنْ عَمْرِو بْنِ كَثِيرٍ  ، عَنْ الْحَسَنِ  ، قَالَ : قَالَ رَسُولُ اللَّهِ صَلَّى اللَّهُ عَلَيْهِ وَسَلَّمَ :\" مَنْ جَاءَهُ الْمَوْتُ وَهُوَ يَطْلُبُ الْعِلْمَ لِيُحْيِيَ بِهِ الْإِسْلَامَ، فَبَيْنَهُ وَبَيْنَ النَّبِيِّينَ دَرَجَةٌ وَاحِدَةٌ فِي الْجَنَّةِ \"",
      "english": {
        "narrator": "",
        "text": ""
      }
    },
    {
      "id": 359,
      "chapterId": 0,
      "bookId": 9,
      "arabic": "أَخْبَرَنَا مُحَمَّدُ بْنُ حُمَيْدٍ ، حَدَّثَنَا مِهْرَانُ ، حَدَّثَنَا أَبُو سِنَانٍ ، عَنْ أَبِي إِسْحَاق ، عَنْ عَمْرِو بْنِ مَيْمُونٍ ، قَالَ :\" ذَهَبَ عُمَرُ بِثُلُثَيْ الْعِلْمِ \"، فَذَكَرْتُ لِإِبْرَاهِيمَ ، فَقَالَ : \" ذَهَبَ عُمَرُ بِتِسْعَةِ أَعْشَارِ الْعِلْمِ \"",
      "english": {
        "narrator": "",
        "text": ""
      }
    },
    {
      "id": 360,
      "chapterId": 0,
      "bookId": 9,
      "arabic": "أَخْبَرَنَا بِشْرُ بْنُ ثَابِتٍ  ، أَخْبَرَنَا شُعْبَةُ  ، عَنْ يَزِيدَ بْنِ أَبِي خَالِدٍ  ، عَنْ هَارُونَ  ، عَنْ أَبِيهِ  ، عَنْ ابْنِ عَبَّاسٍ   رَضِيَ اللهُ عَنْهُ، قَالَ :\" مَا اجْتَمَعَ قَوْمٌ فِي بَيْتٍ مِنْ بُيُوتِ اللَّهِ، يَتَذَاكَرُونَ كِتَابَ اللَّهِ وَيَتَدَارَسُونَهُ بَيْنَهُمْ، إِلَّا أَظَلَّتْهُمْ الْمَلَائِكَةُ بِأَجْنِحَتِهَا، حَتَّى يَخُوضُوا فِي حَدِيثٍ غَيْرِهِ، وَمَنْ سَلَكَ طَرِيقًا يَبْتَغِي بِهِ الْعِلْمَ، سَهَّلَ اللَّهُ طَرِيقَهُ إِلَى الْجَنَّةِ، وَمَنْ أَبْطَأَ بِهِ عَمَلُهُ، لَمْ يُسْرِعْ بِهِ نَسَبُهُ \"",
      "english": {
        "narrator": "",
        "text": ""
      }
    },
    {
      "id": 361,
      "chapterId": 0,
      "bookId": 9,
      "arabic": "أَخْبَرَنَا عَمْرُو بْنُ عَاصِمٍ  ، حَدَّثَنَا حَمَّادٌ هُوَ ابْنُ سَلَمَةَ  ، عَنْ عَاصِمٍ  ، عَنْ زرٍّ  ، قَالَ : غَدَوْتُ عَلَى صَفْوَانَ بْنِ عَسَّالٍ الْمُرَادِيِّ  ، وَأَنَا أُرِيدُ أَنْ أَسْأَلَهُ عَنْ الْمَسْحِ عَلَى الْخُفَّيْنِ، فَقَالَ : مَا جَاءَ بِكَ؟، قُلْتُ : ابْتِغَاءُ الْعِلْمِ، قَالَ : أَلَا أُبَشِّرُكَ؟، قُلْتُ : بَلَى، فَقَالَ : رَفَعَ الْحَدِيثَ إِلَى النَّبِيِّ صَلَّى اللَّهُ عَلَيْهِ وَسَلَّمَ، وَقَالَ :\" إِنَّ الْمَلَائِكَةَ لَتَضَعُ أَجْنِحَتَهَا لِطَالِبِ الْعِلْمِ، رِضًا بِمَا يَطْلُبُ \"",
      "english": {
        "narrator": "",
        "text": ""
      }
    },
    {
      "id": 362,
      "chapterId": 0,
      "bookId": 9,
      "arabic": "أَخْبَرَنَا عَبْدُ اللَّهِ بْنُ عِمْرَانَ ، حَدَّثَنَا يَحْيَى بْنُ يَمَانٍ ، قَالَ : سَمِعْتُ سُفْيَانَ  مُنْذُ أَرْبَعِينَ سَنَةً، قَالَ :\" مَا كَانَ طَلَبُ الْحَدِيثِ أَفْضَلَ مِنْهُ الْيَوْمَ، قَالُوا لِسُفْيَانَ : إِنَّهُمْ يَطْلُبُونَهُ بِغَيْرِ نِيَّةٍ؟، قَالَ : طَلَبُهُمْ إِيَّاهُ نِيَّةٌ \"",
      "english": {
        "narrator": "",
        "text": ""
      }
    },
    {
      "id": 363,
      "chapterId": 0,
      "bookId": 9,
      "arabic": "أَخْبَرَنَا عَبْدُ اللَّهِ بْنُ سَعِيدٍ ، حَدَّثَنَا عَبْدُ اللَّهِ بْنُ الْأَجْلَحِ ، حَدَّثَنِي أَبِي ، عَنْ مُجَاهِدٍ ، قَالَ :\" طَلَبْنَا هَذَا الْعِلْمَ وَمَا لَنَا فِيهِ كَبِيرُ نِيَّةٍ، ثُمَّ رَزَقَ اللَّهُ بَعْدُ فِيهِ النِّيَّةَ \"",
      "english": {
        "narrator": "",
        "text": ""
      }
    },
    {
      "id": 364,
      "chapterId": 0,
      "bookId": 9,
      "arabic": "أَخْبَرَنَا بِشْرُ بْنُ ثَابِتٍ الْبَزَّارُ ، حَدَّثَنَا حَسَّانُ بْنُ مُسْلِمٍ ، عَنْ يُونُسَ بْنِ عُبَيْدٍ ،  عَنْ الْحَسَنِ ، قَالَ :\" لَقَدْ طَلَبَ أَقْوَامٌ الْعِلْمَ، مَا أَرَادُوا بِهِ اللَّهَ تعَالَيَ وَلَا مَا عِنْدَهُ، قَالَ : فَمَا زَالَ بِهِمْ الْعِلْمُ، حَتَّى أَرَادُوا بِهِ اللَّهَ وَمَا عِنْدَهُ \"",
      "english": {
        "narrator": "",
        "text": ""
      }
    },
    {
      "id": 365,
      "chapterId": 0,
      "bookId": 9,
      "arabic": "أَخْبَرَنَا سُلَيْمَانُ بْنُ حَرْبٍ ، حَدَّثَنَا حَمَّادُ بْنُ زَيْدٍ ، عَنْ أَيُّوبَ ، عَنْ أَبِي قِلَابَةَ ، قَالَ : قَالَ أَبُو مُسْلِمٍ الْخَوْلَانِيُّ  :\" الْعُلَمَاءُ ثَلَاثَةٌ : فَرَجُلٌ عَاشَ فِي عِلْمِهِ وَعَاشَ مَعَهُ النَّاسُ فِيهِ، وَرَجُلٌ عَاشَ فِي عِلْمِهِ وَلَمْ يَعِشْ مَعَهُ فِيهِ أَحَدٌ، وَرَجُلٌ عَاشَ النَّاسُ فِي عِلْمِهِ وَكَانَ وَبَالًا عَلَيْهِ \"",
      "english": {
        "narrator": "",
        "text": ""
      }
    },
    {
      "id": 366,
      "chapterId": 0,
      "bookId": 9,
      "arabic": "أَخْبَرَنَا عُبَيْدُ اللَّهِ بْنُ مُوسَى  ، عَنْ عُثْمَانَ بْنِ الْأَسْوَدِ  ، عَنْ عَطَاءٍ   ، قَالَ : قَالَ مُوسَى عَلَيْهِ السَّلامُ : \" يَا رَبِّ،أَيُّ عِبَادِكَ أَحْكَمُ؟، قَالَ : الَّذِي يَحْكُمُ لِلنَّاسِ كَمَا يَحْكُمُ لِنَفْسِهِ، قَالَ : يَا رَبِّ، أَيُّ عِبَادِكَ أَغْنَى؟، قَالَ : أَرْضَاهُمْ بِمَا قَسَمْتُ لَهُ، قَالَ : يَا رَبِّ، أَيُّ عِبَادِكَ أَخْشَى لَكَ؟، قَالَ : أَعْلَمُهُمْ بِي \"",
      "english": {
        "narrator": "",
        "text": ""
      }
    },
    {
      "id": 367,
      "chapterId": 0,
      "bookId": 9,
      "arabic": "أَخْبَرَنَا مُحَمَّدُ بْنُ يُوسُفَ ، عَنْ سُفْيَانَ ، قَالَ :\" كَانَ يُقَالُ الْعُلَمَاءُ ثَلَاثَةٌ : عَالِمٌ بِاللَّهِ يَخْشَى اللَّهَ لَيْسَ بِعَالِمٍ بِأَمْرِ اللَّهِ، وَعَالِمٌ بِاللَّهِ عَالِمٌ بِأَمْرِ اللَّهِ يَخْشَى اللَّهَ، فَذَاكَ الْعَالِمُ الْكَامِلُ، وَعَالِمٌ بِأَمْرِ اللَّهِ لَيْسَ بِعَالِمٍ بِاللَّهِ لَا يَخْشَى اللَّهَ، فَذَلِكَ الْعَالِمُ الْفَاجِرُ \"",
      "english": {
        "narrator": "",
        "text": ""
      }
    },
    {
      "id": 368,
      "chapterId": 0,
      "bookId": 9,
      "arabic": "أَخْبَرَنَا مَكِّيُّ بْنُ إِبْرَاهِيمَ  ، حَدَّثَنَا هِشَامٌ  ،  عَنْ الْحَسَنِ  ، قَالَ :\" الْعِلْمُ عِلْمَانِ : فَعِلْمٌ فِي الْقَلْبِ فَذَلِكَ الْعِلْمُ النَّافِعُ، وَعِلْمٌ عَلَى اللِّسَانِ فَذَلِكَ حُجَّةُ اللَّهِ عَلَى ابْنِ آدَمَ \"، أَخْبَرَنَا عَاصِمُ بْنُ يُوسُفَ  ، عَنْ فُضَيْلِ بْنِ عِيَاضٍ  ، عَنْ هِشَامٍ  ، عَنْ الْحَسَنِ  ، عَنْ النَّبِيِّ صَلَّى اللَّهُ عَلَيْهِ وَسَلَّمَ، مِثْلَ ذَلِكَ",
      "english": {
        "narrator": "",
        "text": ""
      }
    },
    {
      "id": 369,
      "chapterId": 0,
      "bookId": 9,
      "arabic": "أَخْبَرَنَا عَمْرُو بْنُ عَوْنٍ  ، أَخْبَرَنَا خَالِدُ بْنُ عَبْدِ اللَّهِ  ، عَنْ يَزِيدَ بْنِ أَبِي زِيَادٍ  ، عَنْ إِبْرَاهِيمَ  ، عَنْ عَلْقَمَةَ  ، عَنْ عَبْدِ اللَّهِ  ، قَالَ :\" تَعَلَّمُوا، تَعَلَّمُوا، فَإِذَا عَلِمْتُمْ، فَاعْمَلُوا \"",
      "english": {
        "narrator": "",
        "text": ""
      }
    },
    {
      "id": 370,
      "chapterId": 0,
      "bookId": 9,
      "arabic": "أَخْبَرَنَا أَبُو عُبَيْدٍ الْقَاسِمُ بْنُ سَلَّامٍ  ، حَدَّثَنَا أَبُو إِسْمَاعِيل هُوَ إِبْرَاهِيمُ بْنُ سُلَيْمَانَ الْمُؤَدِّبُ  ، عَنْ عَاصِمٍ الْأَحْوَلِ  ، عَمَّنْ  حَدَّثَهُ، عَنْ أَبِي وَائِلٍ  ، عَنْ عَبْدِ اللَّهِ  ، قَالَ :\" مَنْ طَلَبَ الْعِلْمَ لِأَرْبَعٍ، دَخَلَ النَّارَ أَوْ نَحْوَ هَذِهِ الْكَلِمَةِ : لِيُبَاهِيَ بِهِ الْعُلَمَاءَ، أَوْ لِيُمَارِيَ بِهِ السُّفَهَاءَ، أَوْ لِيَصْرِفَ بِهِ وُجُوهَ النَّاسِ إِلَيْهِ، أَوْ لِيَأْخُذَ بِهِ مِنْ الْأُمَرَاءِ \"",
      "english": {
        "narrator": "",
        "text": ""
      }
    },
    {
      "id": 371,
      "chapterId": 0,
      "bookId": 9,
      "arabic": "أَخْبَرَنَا سَعْدُ بْنُ عَامِرٍ ، عَنْ هِشَامٍ  صَاحِبِ الدَّسْتَوَائِيِّ، قَالَ : قَرَأْتُ فِي كِتَابٍ بَلَغَنِي أَنَّهُ مِنْ كَلَامِ عِيسَى عَلَيْهِ السَّلامُ :\" تَعْمَلُونَ لِلدُّنْيَا، وَأَنْتُمْ تُرْزَقُونَ فِيهَا بِغَيْرِ عَمَلٍ، وَلَا تَعْمَلُونَ لِلْآخِرَةِ، وَأَنْتُمْ لَا تُرْزَقُونَ فِيهَا إِلَّا بِالْعَمَلِ، ويْلَكُمْ عُلَمَاءَ السَّوْءِ : الْأَجْرَ تَأْخُذُونَ، وَالْعَمَلَ تُضَيِّعُونَ، يُوشِكُ رَبُّ الْعَمَلِ أَنْ يَطْلُبَ عَمَلَهُ، وَتُوشِكُونَ أَنْ تَخْرُجُوا مِنْ الدُّنْيَا الْعَرِيضَةِ إِلَى ظُلْمَةِ الْقَبْرِ وَضِيقِهِ، اللَّهُ يَنْهَاكُمْ عَنْ الْخَطَايَا، كَمَا أَمَرَكُمْ بِالصَّلَاةِ وَالصِّيَامِ، كَيْفَ يَكُونُ مِنْ أَهْلِ الْعِلْمِ مَنْ سَخِطَ رِزْقَهُ، وَاحْتَقَرَ مَنْزِلَتَهُ، وَقَدْ عَلِمَ أَنَّ ذَلِكَ مِنْ عِلْمِ اللَّهِ وَقُدْرَتِهِ؟ كَيْفَ يَكُونُ مِنْ أَهْلِ الْعِلْمِ مَنْ اتَّهَمَ اللَّهَ فِيمَا قَضَى لَهُ، فَلَيْسَ يَرْضَى شَيْئًا أَصَابَهُ؟ كَيْفَ يَكُونُ مِنْ أَهْلِ الْعِلْمِ مَنْ دُنْيَاهُ آثَرُ عِنْدَهُ مِنْ آخِرَتِهِ، وَهُوَ فِي الدُّنْيَا أَفْضَلُ رَغْبَةً؟ كَيْفَ يَكُونُ مِنْ أَهْلِ الْعِلْمِ مَنْ مَصِيرُهُ إِلَى آخِرَتِهِ، وَهُوَ مُقْبِلٌ عَلَى دُنْيَاهُ، وَمَا يَضُرُّهُ أَشْهَى إِلَيْهِ، أَوْ قَالَ : أَحَبُّ إِلَيْهِ مِمَّا يَنْفَعُهُ؟ كَيْفَ يَكُونُ مِنْ أَهْلِ الْعِلْمِ مَنْ يَطْلُبُ الْكَلَامَ لِيُخْبِرَ بِهِ، وَلَا يَطْلُبُهُ لِيَعْمَلَ بِهِ؟ \"",
      "english": {
        "narrator": "",
        "text": ""
      }
    },
    {
      "id": 372,
      "chapterId": 0,
      "bookId": 9,
      "arabic": "أَخْبَرَنَا عُبَيْدُ اللَّهِ بْنُ عَبْدِ الْمَجِيدِ ، حَدَّثَنَا حَرِيزٌ ، عَنْ حَبِيبِ بْنِ عُبَيْدٍ ، قَالَ : كَانَ يُقَالُ :\" تَعَلَّمُوا الْعِلْمَ وَانْتَفِعُوا بِهِ، وَلَا تَعَلَّمُوهُ لِتَتَجَمَّلُوا بِهِ، فَإِنَّهُ يُوشِكُ إِنْ طَالَ بِكُمْ عُمُرٌ، أَنْ يَتَجَمَّلَ ذُو الْعِلْمِ بِعِلْمِهِ، كَمَا يَتَجَمَّلُ ذُو الْبِزَّةِ بِبِزَّتِهِ \"",
      "english": {
        "narrator": "",
        "text": ""
      }
    },
    {
      "id": 373,
      "chapterId": 0,
      "bookId": 9,
      "arabic": "أَخْبَرَنَا نُعَيْمُ بْنُ حَمَّادٍ  ، حَدَّثَنَا بَقِيَّةُ  ، عَنْ الْأَحْوَصِ بْنِ حَكِيمٍ  ، عَنْ أَبِيهِ  ، قَالَ : سَأَلَ رَجُلٌ النَّبِيَّ صَلَّى اللَّهُ عَلَيْهِ وَسَلَّمَ عَنْ الشَّرِّ، فَقَالَ :\" لَا تَسْأَلُونِي عَنْ الشَّرِّ، وَاسْأَلُونِي عَنْ الْخَيْرِ، يَقُولُهَا ثَلَاثًا، ثُمَّ قَالَ : \" أَلَا إِنَّ شَرَّ الشَّرِّ شِرَارُ الْعُلَمَاءِ، وَإِنَّ خَيْرَ الْخَيْرِ خِيَارُ الْعُلَمَاءِ \"",
      "english": {
        "narrator": "",
        "text": ""
      }
    },
    {
      "id": 374,
      "chapterId": 0,
      "bookId": 9,
      "arabic": "أَخْبَرَنَا سَعِيدُ بْنُ عَامِرٍ ، أَخْبَرَنَا حُمَيْدُ بْنُ الْأَسْوَدِ ، عَنْ عِيسَى ، قَالَ : سَمِعْتُ الشَّعْبِيَّ ، يَقُولُ :\" إِنَّمَا كَانَ يَطْلُبُ هَذَا الْعِلْمَ مَنْ اجْتَمَعَتْ فِيهِ خَصْلَتَانِ : الْعَقْلُ وَالنُّسُكُ، فَإِنْ كَانَ نَاسِكًا، وَلَمْ يَكُنْ عَاقِلًا، قَالَ : هَذَا أَمْرٌ لَا يَنَالُهُ إِلَّا الْعُقَلَاءُ، فَلَمْ يَطْلُبْهُ، وَإِنْ كَانَ عَاقِلًا وَلَمْ يَكُنْ نَاسِكًا، قَالَ : هَذَا أَمْرٌ لَا يَنَالُهُ إِلَّا النُّسَّاكُ، فَلَمْ يَطْلُبْهُ، فَقَالَ الشَّعْبِيُّ : وَلَقَدْ رَهِبْتُ أَنْ يَكُونَ يَطْلُبُهُ الْيَوْمَ مَنْ لَيْسَتْ فِيهِ وَاحِدَةٌ مِنْهُمَا : لَا عَقْلٌ وَلَا نُسُكٌ \"",
      "english": {
        "narrator": "",
        "text": ""
      }
    },
    {
      "id": 375,
      "chapterId": 0,
      "bookId": 9,
      "arabic": "أَخْبَرَنَا أَبُو عَاصِمٍ ، قَالَ : زَعَمَ لِي سُفْيَانُ ، قَالَ :\" كَانَ الرَّجُلُ لَا يَطْلُبُ الْعِلْمَ حَتَّى يَتَعَبَّدَ قَبْلَ ذَلِكَ أَرْبَعِينَ سَنَةً \"",
      "english": {
        "narrator": "",
        "text": ""
      }
    },
    {
      "id": 376,
      "chapterId": 0,
      "bookId": 9,
      "arabic": "أَخْبَرَنَا مُحَمَّدُ بْنُ يُوسُفَ ، عَنْ سُفْيَانَ ، عَنْ بُرْدِ بْنِ سِنَانٍ أَبِي الْعَلَاءِ ، عَنْ مَكْحُولٍ ، قَالَ :\" مَنْ طَلَبَ الْعِلْمَ لِيُمَارِيَ بِهِ السُّفَهَاءَ، وَلِيُبَاهِيَ بِهِ الْعُلَمَاءَ، أَوْ لِيَصْرِفَ بِهِ وُجُوهَ النَّاسِ إِلَيْهِ، فَهُوَ فِي نَارِ جَهَنَّمَ \"",
      "english": {
        "narrator": "",
        "text": ""
      }
    },
    {
      "id": 377,
      "chapterId": 0,
      "bookId": 9,
      "arabic": "أَخْبَرَنَا يَحْيَى بْنُ بِسْطَامَ  ، عَنْ يَحْيَى بْنِ حَمْزَةَ  ، حَدَّثَنِي النُّعْمَانُ  ، عَنْ مَكْحُولٍ   ، قَالَ : قَالَ رَسُولُ اللَّهِ صَلَّى اللَّهُ عَلَيْهِ وَسَلَّمَ :\" مَنْ طَلَبَ الْعِلْمَ لِيُبَاهِيَ بِهِ الْعُلَمَاءَ، أَوْ لِيُمَارِيَ بِهِ السُّفَهَاءَ، أَوْ يُرِيدُ أَنْ يُقْبِلَ بِوُجُوهِ النَّاسِ إِلَيْهِ، أَدْخَلَهُ اللَّهُ جَهَنَّمَ \"",
      "english": {
        "narrator": "",
        "text": ""
      }
    },
    {
      "id": 378,
      "chapterId": 0,
      "bookId": 9,
      "arabic": "أَخْبَرَنَا إِسْمَاعِيل بْنُ أَبَانَ  ، حَدَّثَنَا يَحْيَى بْنُ يَمَانٍ  ، عَنْ الْمِنْهَالِ بْنِ خَلِيفَةَ  ، عَنْ مَطَرٍ الْوَرَّاقِ  ، عَنْ شَهْرِ بْنِ حَوْشَبٍ  ، عَنْ ابْنِ عَبَّاسٍ   رَضِيَ اللهُ عَنْهُ، قَالَ :\" إِنَّمَا يُحْفَظُ حَدِيثُ الرَّجُلِ عَلَى قَدْرِ نِيَّتِهِ \"",
      "english": {
        "narrator": "",
        "text": ""
      }
    },
    {
      "id": 379,
      "chapterId": 0,
      "bookId": 9,
      "arabic": "أَخْبَرَنَا يَعْلَى  ، حَدَّثَنَا الْمَسْعُودِيُّ  ، عَنْ الْقَاسِمِ  ، قَالَ : قَالَ لِي عَبْدُ اللَّهِ   :\" إِنِّي لَأَحْسَبُ الرَّجُلَ يَنْسَى الْعِلْمَ كَانَ يَعْلَمُهُ لِلْخَطِيئَةِ كَانَ يَعْمَلُهَا \"",
      "english": {
        "narrator": "",
        "text": ""
      }
    },
    {
      "id": 380,
      "chapterId": 0,
      "bookId": 9,
      "arabic": "أَخْبَرَنَا الْحَكَمُ بْنُ نَافِعٍ ، أَخْبَرَنَا شُعَيْبُ بْنُ أَبِي حَمْزَةَ ، عَنْ ابْنِ أَبِي حُسَيْنٍ ، عَنْ شَهْرِ بْنِ حَوْشَبٍ ، قَالَ : بَلَغَنِي أَنَّ لُقْمَانَ الْحَكِيمَ كَانَ يَقُولُ لِابْنِهِ : \" يَا بُنَيَّ،لَا تَعَلَّمْ الْعِلْمَ لِتُبَاهِيَ بِهِ الْعُلَمَاءَ، أَوْ لِتُمَارِيَ بِهِ السُّفَهَاءَ، أَوْ تُرَائِيَ بِهِ فِي الْمَجَالِسِ، وَلَا تَتْرُكْ الْعِلْمَ زُهْدًا فِيهِ وَرَغْبَةً فِي الْجَهَالَةِ، يَا بُنَيَّ، اخْتَرْ الْمَجَالِسَ عَلَى عَيْنِكَ، وَإِذَا رَأَيْتَ قَوْمًا يَذْكُرُونَ اللَّهَ، فَاجْلِسْ مَعَهُمْ، فَإِنَّكَ إِنْ تَكُنْ عَالِمًا يَنْفَعْكَ عِلْمُكَ، وَإِنْ تَكُنْ جَاهِلًا يُعَلِّمُوكَ، وَلَعَلَّ اللَّهَ أَنْ يَطَّلِعَ عَلَيْهِمْ بِرَحْمَتِهِ فَيُصِيبَكَ بِهَا مَعَهُمْ، وَإِذَا رَأَيْتَ قَوْمًا لَا يَذْكُرُونَ اللَّهَ، فَلَا تَجْلِسْ مَعَهُمْ، فَإِنَّكَ إِنْ تَكُنْ عَالِمًا لَا يَنْفَعْكَ عِلْمُكَ، وَإِنْ تَكُنْ جَاهِلًا زَادُوكَ عَيًّا، وَلَعَلَّ اللَّهَ أَنْ يَطَّلِعَ عَلَيْهِمْ بِعَذَابٍ فَيُصِيبَكَ مَعَهُمْ \"",
      "english": {
        "narrator": "",
        "text": ""
      }
    },
    {
      "id": 381,
      "chapterId": 0,
      "bookId": 9,
      "arabic": "أَخْبَرَنَا يُوسُفُ بْنُ مُوسَى ، حَدَّثَنَا إِسْحَاق بْنُ سُلَيْمَانَ ، حَدَّثَنَا حَرِيزٌ ، عَنْ سَلْمَانَ بْنِ سُمَيْرٍ ، عَنْ كَثِيرِ بْنِ مُرَّةَ ، قَالَ :\" لَا تُحَدِّثْ الْبَاطِلَ الْحُكَمَاءَ فَيَمْقُتُوكَ، وَلَا تُحَدِّثْ الْحِكْمَةَ لِلسُّفَهَاءِ فَيُكَذِّبُوكَ، وَلَا تَمْنَعْ الْعِلْمَ أَهْلَهُ فَتَأْثَمَ، وَلَا تَضَعْهُ فِي غَيْرِ أَهْلِهِ فَتُجَهَّلَ، إِنَّ عَلَيْكَ فِي عِلْمِكَ حَقًّا كَمَا أَنَّ عَلَيْكَ فِي مَالِكَ حَقًّا \"",
      "english": {
        "narrator": "",
        "text": ""
      }
    },
    {
      "id": 382,
      "chapterId": 0,
      "bookId": 9,
      "arabic": "أَخْبَرَنَا عَبْدُ اللَّهِ بْنُ صَالِحٍ ، حَدَّثَنِي مُعَاوِيَةُ ، أَنَّ أَبَا فَرْوَةَ  حَدَّثَهُ، أَنَّ عِيسَى بْنَ مَرْيَم عَلَيْهِ السَّلامُ، كَانَ يَقُولُ :\" لَا تَمْنَعْ الْعِلْمَ مِنْ أَهْلِهِ فَتَأْثَمَ، وَلَا تَنْشُرْهُ عِنْدَ غَيْرِ أَهْلِهِ فَتُجَهَّلَ، وَكُنْ طَبِيبًا رَفِيقًا يَضَعُ دَوَاءَهُ حَيْثُ يَعْلَمُ أَنَّهُ يَنْفَعُ \"",
      "english": {
        "narrator": "",
        "text": ""
      }
    },
    {
      "id": 383,
      "chapterId": 0,
      "bookId": 9,
      "arabic": "أَخْبَرَنَا أَبُو النُّعْمَانِ ، حَدَّثَنَا مَهْدِيٌّ ، عَنْ غَيْلَانَ ، عَنْ مُطَرِّفٍ ، قَالَ :\" لَا تُطْعِمْ طَعَامَكَ مَنْ لَا يَشْتَهِيهِ \"",
      "english": {
        "narrator": "",
        "text": ""
      }
    },
    {
      "id": 384,
      "chapterId": 0,
      "bookId": 9,
      "arabic": "أَخْبَرَنَا مُحَمَّدُ بْنُ أَحْمَدَ ، حَدَّثَنَا سُفْيَانُ ، عَنْ دَاوُدَ بْنِ شَابُورَ ، سَمِعَ شَهْرَ بْنَ حَوْشَبٍ ، يَقُولُ : قَالَ لُقْمَانُ لِابْنِهِ : \" يَا بُنَيَّ،لَا تَعَلَّمْ الْعِلْمَ لِتُبَاهِيَ بِهِ الْعُلَمَاءَ ، أَوْ تُمَارِيَ بِهِ السُّفَهَاءَ، وَتُرَائِيَ بِهِ فِي الْمَجَالِسِ، وَلَا تَتْرُكْ الْعِلْمَ زَهَادَةً فِيهِ، وَرَغْبَةً فِي الْجَهَالَةِ، وَإِذَا رَأَيْتَ قَوْمًا يَذْكُرُونَ اللَّهَ، فَاجْلِسْ مَعَهُمْ، إِنْ تَكُنْ عَالِمًا يَنْفَعْكَ عِلْمُكَ، وَإِنْ تَكُنْ جَاهِلًا عَلَّمُوكَ، وَلَعَلَّ اللَّهَ أَنْ يَطَّلِعَ عَلَيْهِمْ بِرَحْمَتِهِ فَيُصِيبَكَ بِهَا مَعَهُمْ، وَإِذَا رَأَيْتَ قَوْمًا لَا يَذْكُرُونَ اللَّهَ فَلَا تَجْلِسْ مَعَهُمْ، إِنْ تَكُنْ عَالِمًا لَمْ يَنْفَعْكَ عِلْمُكَ، وَإِنْ تَكُنْ جَاهِلًا زَادُوكَ غَيًّا أَوْ عِيًّا وَلَعَلَّ اللَّهَ أَنْ يَطَّلِعَ عَلَيْهِمْ بِسَخَطٍ فَيُصِيبَكَ بِهِ مَعَهُمْ \"",
      "english": {
        "narrator": "",
        "text": ""
      }
    },
    {
      "id": 385,
      "chapterId": 0,
      "bookId": 9,
      "arabic": "أَخْبَرَنَا الْحَسَنُ بْنُ بِشْرٍ  ، قَالَ : حَدَّثَنِي أَبِي  ، عَنْ سُفْيَانَ  ، عَنْ ثُوَيْرٍ  ، عَنْ يَحْيَى بْنِ جَعْدَةَ  ، عَنْ عَلِيٍّ   رَضِيَ اللهُ عَنْهُ، قَالَ : \" يَا حَمَلَةَ الْعِلْمِ،اعْمَلُوا بِهِ، فَإِنَّمَا الْعَالِمُ مَنْ عَمِلَ بِمَا عَلِمَ وَوَافَقَ عِلْمُهُ عَمَلَهُ، وَسَيَكُونُ أَقْوَامٌ يَحْمِلُونَ الْعِلْمَ لَا يُجَاوِزُ تَرَاقِيَهُمْ، يُخَالِفُ عَمَلُهُمْ عِلْمَهُمْ، وَتُخَالِفُ سَرِيرَتُهُمْ عَلَانِيَتَهُمْ، يَجْلِسُونَ حِلَقًا فَيُبَاهِيَ بَعْضُهُمْ بَعْضًا، حَتَّى إِنَّ الرَّجُلَ لَيَغْضَبُ عَلَى جَلِيسِهِ أَنْ يَجْلِسَ إِلَى غَيْرِهِ وَيَدَعَهُ، أُولَئِكَ لَا تَصْعَدُ أَعْمَالُهُمْ فِي مَجَالِسِهِمْ تِلْكَ إِلَى اللَّهِ تعَالَيَ \"",
      "english": {
        "narrator": "",
        "text": ""
      }
    },
    {
      "id": 386,
      "chapterId": 0,
      "bookId": 9,
      "arabic": "أَخْبَرَنَا أَحْمَدُ بْنُ عَبْدِ اللَّهِ بْنِ يُونُسَ ، حَدَّثَنَا زَائِدَةُ ، عَنْ الْأَعْمَشِ ، عَنْ مُسْلِمٍ ، عَنْ مَسْرُوقٍ ، قَالَ :\" كَفَى بِالْمَرْءِ عِلْمًا أَنْ يَخْشَى اللَّهَ، وَكَفَى بِالْمَرْءِ جَهْلًا أَنْ يُعْجَبَ بِعِلْمِهِ \"",
      "english": {
        "narrator": "",
        "text": ""
      }
    },
    {
      "id": 387,
      "chapterId": 0,
      "bookId": 9,
      "arabic": "أَخْبَرَنَا الْحَكَمُ بْنُ الْمُبَارَكِ ، أَخْبَرَنَا يَحْيَى بْنُ سَعِيدٍ ، عَنْ عَبْدِ اللَّهِ بْنِ بُجَيْرٍ ، عَنْ مُعَاوِيَةَ بْنِ قُرَّةَ ، قَالَ :\" لَوْ أَنَّ أَدْنَى هَذِهِ الْأُمَّةِ عِلْمًا أَخَذَتْ أُمَّةٌ مِنْ الْأُمَمِ بِعِلْمِهِ، لَرَشَدَتْ تِلْكَ الْأُمَّةُ \"",
      "english": {
        "narrator": "",
        "text": ""
      }
    },
    {
      "id": 388,
      "chapterId": 0,
      "bookId": 9,
      "arabic": "أَخْبَرَنَا أَحْمَدُ بْنُ عَبْدِ اللَّهِ ، حَدَّثَنَا زَائِدَةُ ، عَنْ هِشَامٍ ، عَنْ الْحَسَنِ ، قَالَ :\" إِنْ كَانَ الرَّجُلُ لَيُصِيبُ الْبَابَ مِنْ الْعِلْمِ فَيَعْمَلُ بِهِ، فَيَكُونُ خَيْرًا لَهُ مِنْ الدُّنْيَا وَمَا فِيهَا، لَوْ كَانَتْ لَهُ فَجَعَلَهَا فِي الْآخِرَةِ \"، قَالَ : قَالَ الْحَسَنُ  : \" كَانَ الرَّجُلُ إِذَا طَلَبَ الْعِلْمَ لَمْ يَلْبَثْ أَنْ يُرَى ذَلِكَ فِي بَصَرِهِ، وَتَخَشُّعِهِ، وَلِسَانِهِ، وَيَدِهِ، وَصِلاتِهِ، وَزُهْدِهِ \"، قَالَ : وقَالَ مُحَمَّدٌ  : \" انْظُرُوا عَمَّنْ تَأْخُذُونَ هَذَا الْحَدِيثَ، فَإِنَّمَا هُوَ دِينُكُمْ \"",
      "english": {
        "narrator": "",
        "text": ""
      }
    },
    {
      "id": 389,
      "chapterId": 0,
      "bookId": 9,
      "arabic": "أَخْبَرَنَا بِشْرُ بْنُ الْحَكَمِ ، قَالَ : سَمِعْتُ سُفْيَانَ ، يَقُولُ :\" مَا ازْدَادَ عَبْدٌ عِلْمًا، فَازْدَادَ فِي الدُّنْيَا رَغْبَةً، إِلَّا ازْدَادَ مِنْ اللَّهِ بُعْدًا \"",
      "english": {
        "narrator": "",
        "text": ""
      }
    },
    {
      "id": 390,
      "chapterId": 0,
      "bookId": 9,
      "arabic": "أَخْبَرَنَا أَبُو الْمُغِيرَةِ ، حَدَّثَنَا الْأَوْزَاعِيُّ ، عَنْ حَسَّانَ ، قَالَ :\" مَا ازْدَادَ عَبْدٌ بِاللَّهِ عِلْمًا، إِلَّا ازْدَادَ النَّاسُ مِنْهُ قُرْبًا مِنْ رَحْمَةِ اللَّهِ \"، وَقَالَ فِي حَدِيثٍ آخَرَ : \" مَا ازْدَادَ عَبْدٌ عِلْمًا، إِلَّا ازْدَادَ قَصْدًا، وَلَا قَلَّدَ اللَّهُ عَبْدًا قِلَادَةً خَيْرًا مِنْ سَكِينَةٍ \"",
      "english": {
        "narrator": "",
        "text": ""
      }
    },
    {
      "id": 391,
      "chapterId": 0,
      "bookId": 9,
      "arabic": "أَخْبَرَنَا الْقَاسِمُ بْنُ كَثِيرٍ ، قَالَ : سَمِعْتُ عَبْدَ الرَّحْمَنِ بْنَ شُرَيْحٍ يُحَدِّثُ، عَنْ عَمِيرَةَ  أَنَّهُ سَمِعَهُ، يَقُولُ : إِنَّ رَجُلًا قَالَ لِابْنِهِ :\" اذْهَبْ فَاطْلُبْ الْعِلْمَ، فَخَرَجَ فَغَابَ عَنْهُ مَا غَابَ، ثُمَّ جَاءَهُ فَحَدَّثَهُ بِأَحَادِيثَ، فَقَالَ لَهُ أَبُوهُ : يَا بُنَيَّ، اذْهَبْ فَاطْلُبْ الْعِلْمَ، فَغَابَ عَنْهُ أَيْضًا زَمَانًا، ثُمَّ جَاءَ بِقَرَاطِيسَ فِيهَا كُتُبٌ، فَقَرَأَهَا عَلَيْهِ، فَقَالَ لَهُ : هَذَا سَوَادٌ فِي بَيَاضٍ، فَاذْهَبْ اطْلُبْ الْعِلْمَ، فَخَرَجَ فَغَابَ عَنْهُ مَا غَابَ، ثُمَّ جَاءَ، فَقَالَ لِأَبِيهِ : سَلْنِي عَمَّا بَدَا لَكَ، فَقَالَ لَهُ أَبُوهُ : أَرَأَيْتَ لَوْ أَنَّكَ مَرَرْتَ بِرَجُلٍ يَمْدَحُكَ، وَمَرَرْتَ بِآخَرَ يَعِيبُكَ؟، قَالَ : إِذًا لَمْ أَلُمْ الَّذِي يَعِيبُنِي، وَلَمْ أَحْمَدْ الَّذِي يَمْدَحُنِي، فَقَالَ : أَرَأَيْتَ لَوْ مَرَرْتَ بِصَفِيحَةٍ؟، قَالَ أَبُو شُرَيْحٍ : لَا أَدْرِي أَمِنْ ذَهَبٍ أَوْ وَرِقٍ، فَقَالَ : إِذًا لَمْ أُهَيِّجْهَا وَلَمْ أَقْرَبْهَا، فَقَالَ : اذْهَبْ فَقَدْ عَلِمْتَ \"",
      "english": {
        "narrator": "",
        "text": ""
      }
    },
    {
      "id": 392,
      "chapterId": 0,
      "bookId": 9,
      "arabic": "أَخْبَرَنَا الْحَكَمُ بْنُ الْمُبَارَكِ ، أَخْبَرَنَا بَقِيَّةُ ، عَنْ السَّكَنِ بْنِ عُمَيْرٍ ، قَالَ : سَمِعْتُ وَهْبَ بْنَ مُنَبِّهٍ ، يَقُولُ : \" يَا بُنَيَّ،عَلَيْكَ بِالْحِكْمَةِ، فَإِنَّ الْخَيْرَ فِي الْحِكْمَةِ كُلَّهُ، وَتُشَرِّفُ الصَّغِيرَ عَلَى الْكَبِيرِ، وَالْعَبْدَ عَلَى الْحُرِّ، وَتُزِيدُ السَّيِّدَ سُؤْدُدًا، وَتُجْلِسُ الْفَقِيرَ مَجَالِسَ الْمُلُوكِ \"",
      "english": {
        "narrator": "",
        "text": ""
      }
    },
    {
      "id": 393,
      "chapterId": 0,
      "bookId": 9,
      "arabic": "أَخْبَرَنَا الْحَكَمُ بْنُ الْمُبَارَكِ  ، قَالَ : أَخْبَرَنِي بَقِيَّةُ  ، عَنْ عُتْبَةَ بْنِ أَبِي حَكِيمٍ  ، عَنْ أَبِي الدَّرْدَاءِ   رَضِيَ اللهُ عَنْهُ، قَالَ :\" وَمَا نَحْنُ لَوْلَا كَلِمَاتُ الْعُلَمَاءِ؟ \"",
      "english": {
        "narrator": "",
        "text": ""
      }
    }
  ]
}