{
  "page": 64,
  "perPage": 50,
  "totalPages": 69,
  "totalCount": 3406,
  "nextPage": 65,
  "prevPage": 63,
  "items": [
    {
      "id": 394,
      "chapterId": 0,
      "bookId": 9,
      "arabic": "أَخْبَرَنَا سُلَيْمَانُ بْنُ حَرْبٍ  ، عَنْ حَمَّادِ بْنِ زَيْدٍ  ، عَنْ أَيُّوبَ  ، قَالَ : قَالَ أَبُو قِلَابَةَ   :\" لَا تُجَالِسُوا أَهْلَ الْأَهْوَاءِ وَلَا تُجَادِلُوهُمْ، فَإِنِّي لَا آمَنُ أَنْ يَغْمِسُوكُمْ فِي ضَلَالَتِهِمْ، أَوْ يَلْبِسُوا عَلَيْكُمْ مَا كُنْتُمْ تَعْرِفُونَ \"",
      "english": {
        "narrator": "",
        "text": ""
      }
    },
    {
      "id": 395,
      "chapterId": 0,
      "bookId": 9,
      "arabic": "أَخْبَرَنَا سُلَيْمَانُ بْنُ حَرْبٍ ، حَدَّثَنَا حَمَّادُ بْنُ زَيْدٍ ، عَنْ أَيُّوبَ ، قَالَ : رَآنِي سَعِيدُ بْنُ جُبَيْرٍ  جَلَسْتُ إِلَى طَلْقِ بْنِ حَبِيبٍ، فَقَالَ لِي :\" أَلَمْ أَرَكَ جَلَسْتَ إِلَى طَلْقِ بْنِ حَبِيبٍ؟ لَا تُجَالِسَنَّهُ \"",
      "english": {
        "narrator": "",
        "text": ""
      }
    },
    {
      "id": 396,
      "chapterId": 0,
      "bookId": 9,
      "arabic": "أَخْبَرَنَا أَبُو عَاصِمٍ  ، أَخْبَرَنَا حَيْوَةُ بْنُ شُرَيْحٍ  ، حَدَّثَنِي أَبُو صَخْرٍ  ، عَنْ نَافِعٍ  ، عَنْ ابْنِ عُمَرَ   رَضِيَ اللهُ عَنْهُ، أَنَّهُ جَاءَهُ رَجُلٌ فَقَالَ : إِنَّ فُلَانًا يَقْرَأُ عَلَيْكَ السَّلَامَ، قَالَ :\" بَلَغَنِي أَنَّهُ قَدْ أَحْدَثَ، فَإِنْ كَانَ قَدْ أَحْدَثَ، فَلَا تَقْرَأْ عَلَيْهِ السَّلَامَ \"",
      "english": {
        "narrator": "",
        "text": ""
      }
    },
    {
      "id": 397,
      "chapterId": 0,
      "bookId": 9,
      "arabic": "أَخْبَرَنَا مَخْلَدُ بْنُ مَالِكٍ ، حَدَّثَنَا عَبْدُ الرَّحْمَنِ بْنُ مَغْرَاءَ ، حَدَّثَنَا الْأَعْمَشُ ، قَالَ :\" كَانَ إِبْرَاهِيمُ  لَا يَرَى غِيبَةً لِلْمُبْتَدِعِ \"",
      "english": {
        "narrator": "",
        "text": ""
      }
    },
    {
      "id": 398,
      "chapterId": 0,
      "bookId": 9,
      "arabic": "أَخْبَرَنَا مُحَمَّدُ بْنُ حُمَيْدٍ ، حَدَّثَنَا جَرِيرٌ ، عَنْ ابْنِ شُبْرُمَةَ ، عَنْ الشَّعْبِيِّ ، قَالَ :\" إِنَّمَا سُمِّيَ الْهَوَى لِأَنَّهُ يَهْوِي بِصَاحِبِهِ \"",
      "english": {
        "narrator": "",
        "text": ""
      }
    },
    {
      "id": 399,
      "chapterId": 0,
      "bookId": 9,
      "arabic": "أَخْبَرَنَا عَفَّانُ ، حَدَّثَنَا حَمَّادُ بْنُ زَيْدٍ ، حَدَّثَنَا مُحَمَّدُ بْنُ وَاسِعٍ ، قَالَ : كَانَ مُسْلِمُ بْنُ يَسَارٍ ، يَقُولُ :\" إِيَّاكُمْ وَالْمِرَاءَ، فَإِنَّهَا سَاعَةُ جَهْلِ الْعَالِمِ، وَبِهَا يَبْتَغِي الشَّيْطَانُ زَلَّتَهُ \"",
      "english": {
        "narrator": "",
        "text": ""
      }
    },
    {
      "id": 400,
      "chapterId": 0,
      "bookId": 9,
      "arabic": "أَخْبَرَنَا سَعِيدُ بْنُ عَامِرٍ  ، عَنْ أَسْمَاءَ بْنِ عُبَيْدٍ  ، قَالَ : دَخَلَ رَجُلَانِ مِنْ أَصْحَابِ الْأَهْوَاءِ عَلَى ابْنِ سِيرِينَ، فَقَالَا : يَا أَبَا بَكْرٍ  ، نُحَدِّثُكَ بِحَدِيثٍ؟، قَالَ : لَا، قَالَا : فَنَقْرَأُ عَلَيْكَ آيَةً مِنْ كِتَابِ اللَّهِ؟، قَالَ : لَا، لِتَقُومَانِ عَنِّي أَوْ لَأَقُومَنَّ، قَالَ : فَخَرَجَا، فَقَالَ بَعْضُ الْقَوْمِ : يَا أَبَا بَكْرٍ، وَمَا كَانَ عَلَيْكَ أَنْ يَقْرَآ عَلَيْكَ آيَةً مِنْ كِتَابِ اللَّهِ تعَالَى قَالَ :\" إِنِّي خَشِيتُ أَنْ يَقْرَآ عَلَيَّ آيَةً مِنْ كِتَابِ اللَّهِ فَيُحَرِّفَانِهَا، فَيَقِرُّ ذَلِكَ فِي قَلْبِي \"",
      "english": {
        "narrator": "",
        "text": ""
      }
    },
    {
      "id": 401,
      "chapterId": 0,
      "bookId": 9,
      "arabic": "أَخْبَرَنَا سَعِيدٌ  ، عَنْ سَلَّامِ بْنِ أَبِي مُطِيعٍ  ، أَنَّ رَجُلًا مِنْ أَهْلِ الْأَهْوَاءِ، قَالَ لِأَيُّوبَ : يَا أَبَا بَكْرٍ  ، أَسْأَلُكَ عَنْ كَلِمَةٍ؟، قَالَ :\" فَوَلَّى وَهُوَ يُشِيرُ بِأُصْبُعِهِ وَلَا نِصْفَ كَلِمَةٍ \"، وَأَشَارَ لَنَا سَعِيدٌ بِخِنْصِرِهِ الْيُمْنَى",
      "english": {
        "narrator": "",
        "text": ""
      }
    },
    {
      "id": 402,
      "chapterId": 0,
      "bookId": 9,
      "arabic": "أَخْبَرَنَا سُلَيْمَانُ بْنُ حَرْبٍ ، عَنْ حَمَّادِ بْنِ زَيْدٍ ، عَنْ كُلْثُومِ بْنِ جَبْرٍ ، أَنَّ رَجُلًا سَأَلَ سَعِيدَ بْنَ جُبَيْرٍ  عَنْ شَيْءٍ، فَلَمْ يُجِبْهُ، فَقِيلَ لَهُ، فَقَالَ :\" أَزِيشَانْ \"",
      "english": {
        "narrator": "",
        "text": ""
      }
    },
    {
      "id": 403,
      "chapterId": 0,
      "bookId": 9,
      "arabic": "أَخْبَرَنَا أَحْمَدُ بْنُ عَبْدِ اللَّهِ ، حَدَّثَنَا فُضَيْلٌ ، عَنْ لَيْثٍ ، عَنْ أَبِي جَعْفَرٍ مُحَمَّدِ بْنِ عَلِيٍّ ، قَالَ :\" لَا تُجَالِسُوا أَصْحَابَ الْخُصُومَاتِ، فَإِنَّهُمْ الَّذِينَ يَخُوضُونَ فِي آيَاتِ اللَّهِ \"",
      "english": {
        "narrator": "",
        "text": ""
      }
    },
    {
      "id": 404,
      "chapterId": 0,
      "bookId": 9,
      "arabic": "أَخْبَرَنَا أَحْمَدُ ، حَدَّثَنَا زَائِدَةُ ، عَنْ هِشَامٍ ، عَنْ الْحَسَنِ ، وَابْنِ سِيرِينَ ، أنهما قَالَا :\" لَا تُجَالِسُوا أَصْحَابَ الْأَهْوَاءِ، وَلَا تُجَادِلُوهُمْ، وَلَا تَسْمَعُوا مِنْهُمْ \"",
      "english": {
        "narrator": "",
        "text": ""
      }
    },
    {
      "id": 405,
      "chapterId": 0,
      "bookId": 9,
      "arabic": "أَخْبَرَنَا أَحْمَدُ ، حَدَّثَنَا شَرِيكٌ ، عَنْ أُمَيٍّ ، عَنْ الشَّعْبِيِّ ، قَالَ :\" إِنَّمَا سُمُّوا أَصْحَابَ الْأَهْوَاءِ، لِأَنَّهُمْ يَهْوُونَ فِي النَّارِ \"",
      "english": {
        "narrator": "",
        "text": ""
      }
    },
    {
      "id": 406,
      "chapterId": 0,
      "bookId": 9,
      "arabic": "أَخْبَرَنَا بِشْرُ بْنُ الْحَكَمِ ، حَدَّثَنَا سُفْيَانُ ، عَنْ ابْنِ مَيْسَرَةَ ، قَالَ :\" مَا رَأَيْتُ أَحَدًا مِنْ النَّاسِ الشَّرِيفُ وَالْوَضِيعُ عِنْدَهُ سَوَاءٌ غَيْرَ طَاوُسٍ  وَهُوَ يَحْلِفُ عَلَيْهِ \"",
      "english": {
        "narrator": "",
        "text": ""
      }
    },
    {
      "id": 407,
      "chapterId": 0,
      "bookId": 9,
      "arabic": "أَخْبَرَنَا بِشْرُ بْنُ الْحَكَمِ ، حَدَّثَنَا سُفْيَانُ ، عَنْ الزُّهْرِيِّ ، قَالَ :\" كُنَّا نَكْرَهُ كِتَابَةَ الْعِلْمِ حَتَّى أَكْرَهَنَا عَلَيْهِ السُّلْطَانُ فَكَرِهْنَا أَنْ نَمْنَعَهُ أَحَدًا \"",
      "english": {
        "narrator": "",
        "text": ""
      }
    },
    {
      "id": 408,
      "chapterId": 0,
      "bookId": 9,
      "arabic": "أَخْبَرَنَا يُوسُفُ بْنُ مُوسَى ، حَدَّثَنَا مُعَاذُ بْنُ مُعَاذٍ ، حَدَّثَنَا ابْنُ عَوْنٍ ، قَالَ : كَلَّمُوا مُحَمَّدًا  فِي رَجُلٍ يَعْنِي : يُحَدِّثُهُ فَقَالَ :\" لَوْ كَانَ رَجُلًا مِنْ الزِّنْجِ، لَكَانَ عِنْدِي، وَعَبْدُ اللَّهِ بْنُ مُحَمَّدٍ فِي هَذَا سَوَاءً \"",
      "english": {
        "narrator": "",
        "text": ""
      }
    },
    {
      "id": 409,
      "chapterId": 0,
      "bookId": 9,
      "arabic": "أَخْبَرَنَا يَحْيَى بْنُ حَسَّانَ ، عَنْ حَمَّادِ بْنِ زَيْدٍ ، عَنْ الصَّلْتِ بْنِ رَاشِدٍ ، أَنَّه سَأَلَ سَلْمُ بْنُ قُتَيْبَةَ طَاوُسًا  عَنْ مَسْأَلَةٍ فَلَمْ يُجِبْهُ، فَقِيلَ لَهُ : هَذَا سَلْمُ بْنُ قُتَيْبَةَ، قَالَ :\" ذَلِكَ أَهْوَنُ لَهُ عَلَيَّ \"",
      "english": {
        "narrator": "",
        "text": ""
      }
    },
    {
      "id": 410,
      "chapterId": 0,
      "bookId": 9,
      "arabic": "أَخْبَرَنَا إِبْرَاهِيمُ بْنُ إِسْحَاق ، عَنْ بَقِيَّةَ ، قَالَ : حَدَّثَنِي حَبِيبُ بْنُ صَالِحٍ ، قَالَ :\" مَا خِفْتُ أَحَدًا مِنْ النَّاسِ مَخَافَتِي خَالِدِ بْنِ مَعْدَانَ \"",
      "english": {
        "narrator": "",
        "text": ""
      }
    },
    {
      "id": 411,
      "chapterId": 0,
      "bookId": 9,
      "arabic": "أَخْبَرَنَا أَبُو نُعَيْمٍ ، حَدَّثَنَا سُفْيَانُ ، عَنْ مُغِيرَةَ ، قَالَ :\" كُنَّا نَهَابُ إِبْرَاهِيمَ هَيْبَةَ الْأَمِيرِ \"",
      "english": {
        "narrator": "",
        "text": ""
      }
    },
    {
      "id": 412,
      "chapterId": 0,
      "bookId": 9,
      "arabic": "أَخْبَرَنَا سُلَيْمَانُ بْنُ حَرْبٍ ، حَدَّثَنَا حَمَّادُ بْنُ زَيْدٍ ، عَنْ أَيُّوبَ ، قَالَ : حَدَّثَ سَعِيدُ بْنُ جُبَيْرٍ  يَوْمًا بِحَدِيثٍ فَقُمْتُ إِلَيْهِ فَاسْتَعَدْتُهُ، فَقَالَ لِي :\" مَا كُلَّ سَاعَةٍ أَحْلُبُ فَأُشْرَبُ \"",
      "english": {
        "narrator": "",
        "text": ""
      }
    },
    {
      "id": 413,
      "chapterId": 0,
      "bookId": 9,
      "arabic": "أَخْبَرَنَا مُحَمَّدُ بْنُ حُمَيْدٍ ، حَدَّثَنَا هَارُونُ هُوَ ابْنُ الْمُغِيرَةِ ، وَيَحْيَى بْنُ ضُرَيْسٍ ، عَنْ عَمْرِو بْنِ أَبِي قَيْسٍ ، عَنْ عَطَاءٍ \" أَنَّ أَبَا عَبْدِ الرَّحْمَنِ  كَرِهَ الْحَدِيثَ فِي الطَّرِيقِ \"",
      "english": {
        "narrator": "",
        "text": ""
      }
    },
    {
      "id": 414,
      "chapterId": 0,
      "bookId": 9,
      "arabic": "أَخْبَرَنَا عَبْدُ اللَّهِ بْنُ عِمْرَانَ ، حَدَّثَنَا يَحْيَى بْنُ ضُرَيْسٍ ، حَدَّثَنَا أَبُو سِنَانٍ ، عَنْ حَبِيبِ بْنِ أَبِي ثَابِتٍ ، قَالَ : كُنَّا عِنْدَ سَعِيدِ بْنِ جُبَيْرٍ  فَحَدَّثَ بِحَدِيثٍ، فَقَالَ لَهُ رَجُلٌ :مَنْ حَدَّثَكَ هَذَا أَوْ مِمَّنْ سَمِعْتَ هَذَا؟ \" فَغَضِبَ وَمَنَعَنَا حَدِيثَهُ حَتَّى قَامَ؟ \"",
      "english": {
        "narrator": "",
        "text": ""
      }
    },
    {
      "id": 415,
      "chapterId": 0,
      "bookId": 9,
      "arabic": "أَخْبَرَنَا أَبُو مَعْمَرٍ إِسْمَاعِيل بْنُ إِبْرَاهِيمَ ، عَنْ سُفْيَانَ ، عَنْ الزُّهْرِيِّ ، عَنْ أَبِي سَلَمَةَ ، قَالَ :\" لَوْ رَفَقْتُ بِابْنِ عَبَّاسٍ لَأَصَبْتُ مِنْهُ عِلْمًا كَثِيرًا \"",
      "english": {
        "narrator": "",
        "text": ""
      }
    },
    {
      "id": 416,
      "chapterId": 0,
      "bookId": 9,
      "arabic": "أَخْبَرَنَا الْحَكَمُ بْنُ الْمُبَارَكِ ، أَخْبَرَنَا بَقِيَّةُ ، عَنْ أُمِّ عَبْدِ اللَّهِ بِنْتِ خَالِدٍ ، قَالَتْ :\" مَا رَأَيْتُ أَحَدًا أَكْرَمَ لِلْعِلْمِ مِنْ أَبِي \"",
      "english": {
        "narrator": "",
        "text": ""
      }
    },
    {
      "id": 417,
      "chapterId": 0,
      "bookId": 9,
      "arabic": "أَخْبَرَنَا مُحَمَّدُ بْنُ الْمُبَارَكِ ، عَنْ عِيسَى بْنِ يُونُسَ ، عَنْ الْأَوْزَاعِيِّ ، عَنْ سُلَيْمَانَ بْنِ مُوسَى ، قَالَ : قُلْتُ لِطَاوُسٍ  : إِنَّ فُلَانًا حَدَّثَنِي بِكَذَا وَكَذَا، قَالَ :\" إِنْ كَانَ صَاحِبُكَ مَلِيًّا، فَخُذْ عَنْهُ \"",
      "english": {
        "narrator": "",
        "text": ""
      }
    },
    {
      "id": 418,
      "chapterId": 0,
      "bookId": 9,
      "arabic": "أَخْبَرَنَا مُحَمَّدُ بْنُ أَحْمَدَ ، حَدَّثَنَا سُفْيَانُ ، عَنْ مِسْعَرٍ ، قَالَ : قَالَ سَعْدُ بْنُ إِبْرَاهِيمَ  :\" لَا يُحَدِّثْ عَنْ رَسُولِ اللَّهِ إِلَّا الثِّقَاتُ \"",
      "english": {
        "narrator": "",
        "text": ""
      }
    },
    {
      "id": 419,
      "chapterId": 0,
      "bookId": 9,
      "arabic": "أَخْبَرَنَا مُحَمَّدُ بْنُ حُمَيْدٍ ، حَدَّثَنَا جَرِيرٌ ، عَنْ عَاصِمٍ ، عَنْ ابْنِ سِيرِينَ ، قَالَ :\" كَانُوا لَا يَسْأَلُونَ عَنْ الْإِسْنَادِ، ثُمَّ سَأَلُوا بَعْدُ لِيَعْرِفُوا مَنْ كَانَ صَاحِبَ سُنَّةٍ أَخَذُوا عَنْهُ، وَمَنْ لَمْ يَكُنْ صَاحِبَ سُنَّةٍ، لَمْ يَأْخُذُوا عَنْهُ \"، قَالَ أَبُو مُحَمَّد : مَا أَظُنُّهُ سَمِعَهُ مِنْ عَاصِمٍ",
      "english": {
        "narrator": "",
        "text": ""
      }
    },
    {
      "id": 420,
      "chapterId": 0,
      "bookId": 9,
      "arabic": "أَخْبَرَنَا مُحَمَّدُ بْنُ حُمَيْدٍ ، حَدَّثَنَا جَرِيرٌ ، عَنْ عَاصِمٍ ، قَالَ : قَالَ مُحَمَّدُ بْنُ سِيرِينَ  :\" مَا حَدَّثْتَنِي، فَلَا تُحَدِّثْنِي عَنْ رَجُلَيْنِ، فَإِنَّهُمَا لَا يُبَالِيَانِ عَمَّنْ أَخَذَا حَدِيثَهُمَا \"، قَالَ أَبُو مُحَمَّد عَبْدُ اللَّهِ : لَا أَظُنُّهُ سَمِعَهُ",
      "english": {
        "narrator": "",
        "text": ""
      }
    },
    {
      "id": 421,
      "chapterId": 0,
      "bookId": 9,
      "arabic": "أَخْبَرَنَا مُحَمَّدٌ ، حَدَّثَنَا جَرِيرٌ ، عَنْ عُمَارَةَ بْنِ الْقَعْقَاعِ ، قَالَ : قَالَ إِبْرَاهِيمُ  :\" إِذَا حَدَّثْتَنِي، فَحَدِّثْنِي، عَنْ أَبِي زُرْعَةَ، فَإِنَّهُ حَدَّثَنِي بِحَدِيثٍ ثُمَّ سَأَلْتُهُ بَعْدَ ذَلِكَ بِسَنَةٍ فَمَا خَرَمَ مِنْهُ حَرْفًا \"",
      "english": {
        "narrator": "",
        "text": ""
      }
    },
    {
      "id": 422,
      "chapterId": 0,
      "bookId": 9,
      "arabic": "أَخْبَرَنَا عَفَّانُ ، حَدَّثَنَا حَمَّادُ بْنُ زَيْدٍ ، عَنْ ابْنِ عَوْنٍ ، عَنْ مُحَمَّدٍ ، قَالَ :\" إِنَّ هَذَا الْعِلْمَ دِينٌ فَلْيَنْظُرْ الرَّجُلُ عَمَّنْ يَأْخُذُ دِينَهُ \"",
      "english": {
        "narrator": "",
        "text": ""
      }
    },
    {
      "id": 423,
      "chapterId": 0,
      "bookId": 9,
      "arabic": "أَخْبَرَنَا إِسْمَاعِيل بْنُ إِبْرَاهِيمَ ، عَنْ هُشَيْمٍ ، عَنْ مُغِيرَةَ ، عَنْ إِبْرَاهِيمَ ، قَالَ :\" كَانُوا إِذَا أَتَوْا الرَّجُلَ لِيَأْخُذُوا عَنْهُ، نَظَرُوا إِلَى صَلَاتِهِ، وَإِلَى سَمْتِهِ، وَإِلَى هَيْئَتِهِ \"",
      "english": {
        "narrator": "",
        "text": ""
      }
    },
    {
      "id": 424,
      "chapterId": 0,
      "bookId": 9,
      "arabic": "أَخْبَرَنَا عَمْرُو بْنُ زُرَارَةَ ، أَخْبَرَنَا هُشَيْمٌ ، أَخْبَرَنَا مُغِيرَةُ ، عَنْ إِبْرَاهِيمَ ، قَالَ :\" كَانُوا إِذَا أَتَوْا الرَّجُلَ يَأْخُذُونَ عَنْهُ الْعِلْمَ، نَظَرُوا إِلَى صَلَاتِهِ، وَإِلَى سَمْتِهِ، وَإِلَى هَيْئَتِهِ، ثُمَّ يَأْخُذُونَ عَنْهُ \"، أَخْبَرَنَا أَبُو مَعْمَرٍ إِسْمَاعِيل بْنُ إِبْرَاهِيمَ ، عَنْ رَوْحٍ ، عَنْ هِشَامٍ ، عَنْ الْحَسَنِ  ، نَحْوَ حَدِيثِ إِبْرَاهِيمَ",
      "english": {
        "narrator": "",
        "text": ""
      }
    },
    {
      "id": 425,
      "chapterId": 0,
      "bookId": 9,
      "arabic": "أَخْبَرَنَا أَبُو مَعْمَرٍ إِسْمَاعِيل بْنُ إِبْرَاهِيمَ ، أَخْبَرَنَا عَبْدُ اللَّهِ بْنُ أَبِي جَعْفَرٍ الرَّازِيُّ ، عَنْ أَبِيهِ ، عَنْ الرَّبِيعِ ، عَنْ أَبِي الْعَالِيَةِ ، قَالَ :\" كُنَّا نَأْتِي الرَّجُلَ لِنَأْخُذَ عَنْهُ، فَنَنْظُرُ إِذَا صَلَّى، فَإِنْ أَحْسَنَهَا، جَلَسْنَا إِلَيْهِ وَقُلْنَا : هُوَ لِغَيْرِهَا أَحْسَنُ، وَإِنْ أَسَاءَهَا، قُمْنَا عَنْهُ وَقُلْنَا : هُوَ لِغَيْرِهَا أَسْوَأُ \"، قَالَ أَبُو مَعْمَرٍ : لَفْظُهُ نَحْوُ هَذَا",
      "english": {
        "narrator": "",
        "text": ""
      }
    },
    {
      "id": 426,
      "chapterId": 0,
      "bookId": 9,
      "arabic": "أَخْبَرَنَا أَبُو عَاصِمٍ ، قَالَ : لَا أَدْرِي سَمِعْتُهُ مِنْهُ ، أَوْ لَابْنُ عَوْنٍ ،  عَنْ مُحَمَّدٍ  \" إِنَّهَذَا الْعِلْمَ دِينٌ، فَانْظُرُوا عَمَّنْ تَأْخُذُونَ دِينَكُمْ \"",
      "english": {
        "narrator": "",
        "text": ""
      }
    },
    {
      "id": 427,
      "chapterId": 0,
      "bookId": 9,
      "arabic": "أَخْبَرَنَا مَرْوَانُ بْنُ مُحَمَّدٍ ، حَدَّثَنَا سَعِيدُ بْنُ عَبْدِ الْعَزِيزِ ، عَنْ سُلَيْمَانَ بْنِ مُوسَى ، قَالَ : قُلْتُ لِطَاوُسٍ  : إِنَّ فُلَانًا حَدَّثَنِي بِكَذَا وَكَذَا، قَالَ :\" فَإِنْ كَانَ صَاحِبُكَ مَلِيًّا، فَخُذْ عَنْهُ \"",
      "english": {
        "narrator": "",
        "text": ""
      }
    },
    {
      "id": 428,
      "chapterId": 0,
      "bookId": 9,
      "arabic": "أَخْبَرَنَا مُحَمَّدُ بْنُ أَحْمَدَ  ، حَدَّثَنَا سُفْيَانُ  ، عَنْ هِشَامِ بْنِ حُجَيْرٍ  ، عَنْ طَاوُسٍ  ، قَالَ : جَاءَ بُشَيْرُ بْنُ كَعْبٍ إِلَى ابْنِ عَبَّاسٍ فَجَعَلَ يُحَدِّثُهُ، فَقَالَ ابْنُ عَبَّاسٍ : أَعِدْ عَلَيَّ الْحَدِيثَ الْأَوَّلَ، قَالَ لَهُ بُشَيْرٌ : مَا أَدْرِي عَرَفْتَ حَدِيثِي كُلَّهُ وَأَنْكَرْتَ هَذَا، أَوْ عَرَفْتَ هَذَا وَأَنْكَرْتَ حَدِيثِي كُلَّهُ؟، فَقَالَ ابْنُ عَبَّاسٍ   :\" إِنَّا كُنَّا نُحَدِّثُ عَنْ رَسُولِ اللَّهِ صَلَّى اللَّهُ عَلَيْهِ وَسَلَّمَ إِذْ لَمْ يَكُنْ يُكْذَبُ عَلَيْهِ، فَلَمَّا رَكِبَ النَّاسُ الصَّعْبَة وَالذَّلُولَ تَرَكْنَا الْحَدِيثَ عَنْهُ \"",
      "english": {
        "narrator": "",
        "text": ""
      }
    },
    {
      "id": 429,
      "chapterId": 0,
      "bookId": 9,
      "arabic": "أَخْبَرَنَا إِسْمَاعِيل بْنُ أَبَانَ  ، قَالَ : حَدَّثَنَا عَبْدُ اللَّهِ بْنُ الْمُبَارَكِ  ، عَنْ مَعْمَرٍ  ، عَنْ ابْنِ طَاوُسٍ  ، عَنْ أَبِيهِ  ، عَنْ ابْنِ عَبَّاسٍ، قَالَ ابْنِ عَبَّاسٍ   رَضِيَ اللهُ عَنْهُ :\" كُنَّا نَحْفَظُ الْحَدِيثَ، وَالْحَدِيثُ يُحْفَظُ عَنْ رَسُولِ اللَّهِ صَلَّى اللَّهُ عَلَيْهِ وَسَلَّمَ حَتَّى رَكِبْتُمْ الصَّعْبَة وَالذَّلُولَ \"",
      "english": {
        "narrator": "",
        "text": ""
      }
    },
    {
      "id": 430,
      "chapterId": 0,
      "bookId": 9,
      "arabic": "أَخْبَرَنَا مُحَمَّدُ بْنُ يُوسُفَ  ، عَنْ سُفْيَانَ  ، عَنْ لَيْثٍ  ، عَنْ طَاوُسٍ  ، عَنْ عَبْدِ اللَّهِ بْنِ عَمْرٍو   رَضِيَ اللهُ عَنْهُ، قَالَ :\" يُوشِكُ أَنْ يَظْهَرَ شَيَاطِينُ قَدْ أَوْثَقَهَا سُلَيْمَانُ عَلَيْهِ السَّلامُ يُفَقِّهُونَ النَّاسَ فِي الدِّينِ \"",
      "english": {
        "narrator": "",
        "text": ""
      }
    },
    {
      "id": 431,
      "chapterId": 0,
      "bookId": 9,
      "arabic": "أَخْبَرَنَا أَحْمَدُ بْنُ عَبْدِ اللَّهِ ، حَدَّثَنَا زَائِدَةُ ، عَنْ هِشَامٍ ، عَنْ مُحَمَّدٍ ، قَالَ :\" انْظُرُوا عَمَّنْ تَأْخُذُونَ هَذَا الْحَدِيثَ، فَإِنَّهُ دِينُكُمْ \"",
      "english": {
        "narrator": "",
        "text": ""
      }
    },
    {
      "id": 432,
      "chapterId": 0,
      "bookId": 9,
      "arabic": "أَخْبَرَنَا مُوسَى بْنُ خَالِدٍ ، حَدَّثَنَا مُعْتَمِرٌ ، عَنْ أَبِيهِ ، قَالَ :\" لِيُتَّقَى مِنْ تَفْسِيرِ حَدِيثِ رَسُولِ اللَّهِ صَلَّى اللَّهُ عَلَيْهِ وَسَلَّمَ كَمَا يُتَّقَى مِنْ تَفْسِيرِ الْقُرْآنِ \"",
      "english": {
        "narrator": "",
        "text": ""
      }
    },
    {
      "id": 433,
      "chapterId": 0,
      "bookId": 9,
      "arabic": "أَخْبَرَنَا صَدَقَةُ بْنُ الْفَضْلِ  ، حَدَّثَنَا مُعْتَمِرٌ  ، عَنْ أَبِيهِ  ، قَالَ : قَالَ ابْنُ عَبَّاسٍ   :\" أَمَا تَخَافُونَ أَنْ تُعَذَّبُوا، أَوْ يُخْسَفَ بِكُمْ أَنْ تَقُولُوا : قَالَ رَسُولُ اللَّهِ، وَقَالَ فُلَانٌ؟ \"",
      "english": {
        "narrator": "",
        "text": ""
      }
    },
    {
      "id": 434,
      "chapterId": 0,
      "bookId": 9,
      "arabic": "أَخْبَرَنَا الْحَسَنُ بْنُ بِشْرٍ ، حَدَّثَنَا الْمُعَافَى ، عَنْ الْأَوْزَاعِيِّ ، قَالَ : كَتَبَ عُمَرُ بْنُ عَبْدِ الْعَزِيزِ  رَحِمَهُ الله تَعالَيَ :\" إِنَّهُ لَا رَأْيَ لِأَحَدٍ فِي كِتَابِ اللَّهِ، وَإِنَّمَا رَأْيُ الْأَئِمَّةِ فِيمَا لَمْ يَنْزِلْ فِيهِ كِتَابٌ، وَلَمْ تَمْضِ بِهِ سُنَّةٌ مِنْ رَسُولِ اللَّهِ صَلَّى اللَّهُ عَلَيْهِ وَسَلَّمَ، وَلَا رَأْيَ لِأَحَدٍ فِي سُنَّةٍ سَنَّهَا رَسُولُ اللَّهِ صَلَّى اللَّهُ عَلَيْهِ وَسَلَّمَ \"",
      "english": {
        "narrator": "",
        "text": ""
      }
    },
    {
      "id": 435,
      "chapterId": 0,
      "bookId": 9,
      "arabic": "حَدَّثَنَا مُوسَى بْنُ خَالِدٍ ، حَدَّثَنَا مُعْتَمِرُ بْنُ سُلَيْمَانَ ، عَنْ عُبَيْدِ اللَّهِ بْنِ عُمَرَ ، أَنَّ عُمَرَ بْنَ عَبْدِ الْعَزِيزِ  رَحِمَهُ الله خَطَبَ، فَقَالَ : \" يَا أَيُّهَا النَّاسُ،إِنَّ اللَّهَ لَمْ يَبْعَثْ بَعْدَ نَبِيِّكُمْ نَبِيًّا، وَلَمْ يُنْزِلْ بَعْدَ هَذَا الْكِتَابِ الَّذِي أَنْزَلَ عَلَيْهِ كِتَابًا، فَمَا أَحَلَّ اللَّهُ عَلَى لِسَانِ نَبِيِّهِ فَهُوَ حَلَالٌ إِلَى يَوْمِ الْقِيَامَةِ، وَمَا حَرَّمَ عَلَى لِسَانِ نَبِيِّهِ فَهُوَ حَرَامٌ إِلَى يَوْمِ الْقِيَامَةِ، أَلَا وَإِنِّي لَسْتُ بِقَاضٍ وَلَكِنِّي مُنَفِّذٌ، وَلَسْتُ بِمُبْتَدِعٍ وَلَكِنِّي مُتَّبِعٌ، وَلَسْتُ بِخَيْرٍ مِنْكُمْ، غَيْرَ أَنِّي أَثْقَلُكُمْ حِمْلًا، أَلَا وَإِنَّهُ لَيْسَ لِأَحَدٍ مِنْ خَلْقِ اللَّهِ أَنْ يُطَاعَ فِي مَعْصِيَةِ اللَّهِ، أَلَا هَلْ أَسْمَعْتُ؟ \"",
      "english": {
        "narrator": "",
        "text": ""
      }
    },
    {
      "id": 436,
      "chapterId": 0,
      "bookId": 9,
      "arabic": "أَخْبَرَنَا عُبَيْدُ اللَّهِ بْنُ سَعِيدٍ  ، حَدَّثَنَا سُفْيَانُ بْنُ عُيَيْنَةَ  ، عَنْ هِشَامِ بْنِ حُجَيْرٍ  ، قَالَ : كَانَ طَاوُسٌيُصَلِّي رَكْعَتَيْنِ بَعْدَ الْعَصْرِ، فَقَالَ لَهُ ابْنُ عَبَّاسٍ : \" اتْرُكْهَا قَالَ : إِنَّمَا نُهِيَ عَنْهَا أَنْ تُتَّخَذُ سُلَّمًا، قَالَ ابْنُ عَبَّاسٍ   : فَإِنَّهُ قَدْ نُهِيَ عَنْ صَلَاةٍ بَعْدَ الْعَصْرِ، فَلَا أَدْرِي أَتُعَذَّبُ عَلَيْهَا أَمْ تُؤْجَرُ، لِأَنَّ اللَّهَ يَقُولُ : # وَمَا كَانَ لِمُؤْمِنٍ وَلا مُؤْمِنَةٍ إِذَا قَضَى اللَّهُ وَرَسُولُهُ أَمْرًا أَنْ يَكُونَ لَهُمُ الْخِيَرَةُ مِنْ أَمْرِهِمْ وَمَنْ يَعْصِ اللَّهَ وَرَسُولَهُ فَقَدْ ضَلَّ ضَلالا مُبِينًا سورة الأحزاب آية 36 # \"، قَالَ سُفْيَانُ : \" تُتَّخَذَ سُلَّمًا، يَقُولُ : يُصَلِّي بَعْدَ الْعَصْرِ إِلَى اللَّيْلِ \"",
      "english": {
        "narrator": "",
        "text": ""
      }
    },
    {
      "id": 437,
      "chapterId": 0,
      "bookId": 9,
      "arabic": "أَخْبَرَنَا مُحَمَّدُ بْنُ الْعَلَاءِ  ، حَدَّثَنَا ابْنُ نُمَيْرٍ  ، عَنْ مُجَالِدٍ  ، عَنْ عَامِرٍ  ، عَنْ جَابِرٍ   رَضِيَ اللهُ عَنْهُ، أَنَّ عُمَرَ بْنَ الْخَطَّابِ رِضْوَانُ اللَّهِ عَلَيْهِ أَتَى رَسُولَ اللَّهِ صَلَّى اللَّهُ عَلَيْهِ وَسَلَّمَ بِنُسْخَةٍ مِنْ التَّوْرَاةِ، فَقَالَ : يَا رَسُولَ اللَّهِ، هَذِهِ نُسْخَةٌ مِنْ التَّوْرَاةِ، فَسَكَتَ، فَجَعَلَ يَقْرَأُ وَوَجْهُ رَسُولِ اللَّهِ يَتَغَيَّرُ، فَقَالَ أَبُو بَكْرٍ رَحْمَةُ اللَّهِ عَلَيهِ : ثَكِلَتْكَ الثَّوَاكِلُ، مَا تَرَى مَا بِوَجْهِ رَسُولِ اللَّهِ صَلَّى اللَّهُ عَلَيْهِ وَسَلَّمَ؟ فَنَظَرَ عُمَرُ إِلَى وَجْهِ رَسُولِ اللَّهِ صَلَّى اللَّهُ عَلَيْهِ وَسَلَّمَ، فَقَالَ : أَعُوذُ بِاللَّهِ مِنْ غَضَبِ اللَّهِ، وَمِنْ غَضَبِ رَسُولِهِ صَلَّى اللَّهُ عَلَيْهِ وَسَلَّمَ، رَضِينَا بِاللَّهِ رَبًّا، وَبِالْإِسْلَامِ دِينًا، وَبِمُحَمَّدٍ نَبِيًّا، فَقَالَ رَسُولُ اللَّهِ صَلَّى اللَّهُ عَلَيْهِ وَسَلَّمَ : \" وَالَّذِي نَفْسُ مُحَمَّدٍ بِيَدِهِ،لَوْ بَدَا لَكُمْ مُوسَى فَاتَّبَعْتُمُوهُ وَتَرَكْتُمُونِي، لَضَلَلْتُمْ عَنْ سَوَاءِ السَّبِيلِ، وَلَوْ كَانَ حَيًّا وَأَدْرَكَ نُبُوَّتِي لَاتَّبَعَنِي \"",
      "english": {
        "narrator": "",
        "text": ""
      }
    },
    {
      "id": 438,
      "chapterId": 0,
      "bookId": 9,
      "arabic": "حَدَّثَنَا قَبِيصَةُ ، أَخْبَرَنَا سُفْيَانُ ، عَنْ أَبِي رَبَاحٍ شَيْخٌ مِنْ آلِ عُمَرَ، قَالَ : رَأَى سَعِيدُ بْنُ الْمُسَيِّبِ  رَجُلًا يُصَلِّي بَعْدَ الْعَصْرِ الرَّكْعَتَيْنِ يُكَبِّرُ، فَقَالَ لَهُ : يَا أَبَا مُحَمَّدٍ، أَيُعَذِّبُنِي اللَّهُ عَلَى الصَّلَاةِ؟، قَالَ :\" لَا، وَلَكِنْ يُعَذِّبُكَ اللَّهُ بِخِلَافِ السُّنَّةِ \"",
      "english": {
        "narrator": "",
        "text": ""
      }
    },
    {
      "id": 439,
      "chapterId": 0,
      "bookId": 9,
      "arabic": "أَخْبَرَنَا عَبْدُ اللَّهِ بْنُ صَالِحٍ  ، حَدَّثَنِي اللَّيْثُ  ، حَدَّثَنِي ابْنُ عَجْلَانَ  ، عَنْ الْعَجْلَانِ  ، عَنْ أَبِي هُرَيْرَةَ   رَضِيَ اللهُ عَنْهُ، عَنْ رَسُولِ اللَّهِ صَلَّى اللَّهُ عَلَيْهِ وَسَلَّمَ قَالَ :\" بَيْنَمَا رَجُلٌ يَتَبَخْتَرُ فِي بُرْدَيْنِ، خَسَفَ اللَّهُ بِهِ الْأَرْضَ، فَهُوَ يَتَجَلْجَلُ فِيهَا إِلَى يَوْمِ الْقِيَامَةِ \"، فَقَالَ لَهُ فَتًى قَدْ سَمَّاهُ وَهُوَ فِي حُلَّةٍ لَهُ : يَا أَبَا هُرَيْرَةَ، أَهَكَذَا كَانَ يَمْشِي ذَلِكَ الْفَتَى الَّذِي خُسِفَ بِهِ؟ ثُمَّ ضَرَبَ بِيَدِهِ، فَعَثَرَ عَثْرَةً كَادَ يَتَكَسَّرُ مِنْهَا، فَقَالَ أَبُو هُرَيْرَةَ لِلْمَنْخَرَيْنِ وَلِلْفَمِ : # إِنَّا كَفَيْنَاكَ الْمُسْتَهْزِئِينَ سورة الحجر آية 95 #",
      "english": {
        "narrator": "",
        "text": ""
      }
    },
    {
      "id": 440,
      "chapterId": 0,
      "bookId": 9,
      "arabic": "أَخْبَرَنَا مُحَمَّدُ بْنُ حُمَيْدٍ  ، حَدَّثَنَا هَارُونُ هُوَ ابْنُ الْمُغِيرَةِ  ، عَنْ عَمْرِو بْنِ أَبِي قَيْسٍ  ، عَنْ الزُّبَيْرِ بْنِ عَدِيٍّ  ، عَنْ خِرَاشِ بْنِ جُبَيْرٍ  ، قَالَ : رَأَيْتُ فِي الْمَسْجِدِ فَتًى يَخْذِفُ، فَقَالَ لَهُ شَيْخٌ   : لَا تَخْذِفْ، فَإِنِّي سَمِعْتُ رَسُولَ اللَّهِ صَلَّى اللَّهُ عَلَيْهِ وَسَلَّمَ\" نَهَى عَنْ الْخَذْفِ \"، فَغَفَلَ الْفَتَى وَظَنَّ أَنَّ الشَّيْخَ لَا يَفْطِنُ لَهُ، فَخَذَفَ، فَقَالَ لَهُ الشَّيْخُ : أُحَدِّثُكَ أَنِّي سَمِعْتُ رَسُولَ اللَّهِ صَلَّى اللَّهُ عَلَيْهِ وَسَلَّمَ \" يَنْهَى عَنْ الْخَذْفِ \" ثُمَّ تَخْذِفُ؟ وَاللَّهِ لَا أَشْهَدُ لَكَ جَنَازَةً، وَلَا أَعُودُكَ فِي مَرَضٍ، وَلَا أُكَلِّمُكَ أَبَدًا، فَقُلْتُ لِصَاحِبٍ لِي يُقَالُ لَهُ مُهَاجِرٌ : انْطَلِقْ إِلَى خِرَاشٍ فَاسْأَلْهُ، فَأَتَاهُ، فَسَأَلَهُ عَنْهُ فَحَدَّثَهُ",
      "english": {
        "narrator": "",
        "text": ""
      }
    },
    {
      "id": 441,
      "chapterId": 0,
      "bookId": 9,
      "arabic": "أَخْبَرَنَا سُلَيْمَانُ بْنُ حَرْبٍ  ، حَدَّثَنَا حَمَّادُ بْنُ زَيْدٍ  ، عَنْ أَيُّوبَ  ، عَنْ سَعِيدِ بْنِ جُبَيْرٍ  ، عَنْ عَبْدِ اللَّهِ بْنِ مُغَفَّلٍ   رَضِيَ اللهُ عَنْهُ، قَالَ : نَهَى رَسُولُ اللَّهِ صَلَّى اللَّهُ عَلَيْهِ وَسَلَّمَ\" عَنْ الْخَذْفِ \" وَقَالَ : \" إِنَّهَا لَا تَصْطَادُ صَيْدًا، وَلَا تَنْكِأُ عَدُوًّا، وَلَكِنَّهَا تَكْسِرُ السِّنَّ، وَتَفْقَأُ الْعَيْنَ \"، فَرَفَعَ رَجُلٌ بَيْنَهُ وَبَيْنَ سَعِيدٍ قَرَابَةٌ شَيْئًا مِنْ الْأَرْضِ، فَقَالَ : هَذِهِ؟ وَمَا تَكُونُ هَذِهِ؟، فَقَالَ سَعِيدٌ : أَلَا أُرَانِي أُحَدِّثُكَ عَنْ رَسُولِ اللَّهِ صَلَّى اللَّهُ عَلَيْهِ وَسَلَّمَ، ثُمَّ تَهَاوَنُ بِهِ، لَا أُكَلِّمُكَ أَبَدًا",
      "english": {
        "narrator": "",
        "text": ""
      }
    },
    {
      "id": 442,
      "chapterId": 0,
      "bookId": 9,
      "arabic": "أَخْبَرَنَا عَبْدُ اللَّهِ بْنُ يَزِيدَ  ، حَدَّثَنَا كَهْمَسُ بْنُ الْحَسَنِ  ، عَنْ عَبْدِ اللَّهِ بْنِ بُرَيْدَةَ  ، قَالَ : رَأَى عَبْدُ اللَّهِ بْنُ مُغَفَّلٍ   رَضِيَ اللهُ عَنْهُ رَجُلًا مِنْ أَصْحَابِهِ يَخْذِفُ، فَقَالَ : لَا تَخْذِفْ، فَإِنَّ رَسُولَ اللَّهِ صَلَّى اللَّهُ عَلَيْهِ وَسَلَّمَ :\" كَانَ يَنْهَى عَنْ الْخَذْفِ أَوْ كَانَ يَكْرَه الْخَذْفَ \"، وَقَالَ : \" وَإِنَّهُ لَا يُنْكَأُ بِهِ عَدُوٌّ، وَلَا يُصَادُ بِهِ صَيْدٌ، وَلَكِنَّهُ قَدْ يَفْقَأُ الْعَيْنَ، وَيَكْسِرُ السِّنَّ \"، ثُمَّ رَآهُ بَعْدَ ذَلِكَ يَخْذِفُ، فَقَالَ لَهُ : أَلَمْ أُخْبِرْكَ أَنَّ رَسُولَ اللَّهِ صَلَّى اللَّهُ عَلَيْهِ وَسَلَّمَ كَانَ يَنْهَى عَنْهُ، ثُمَّ أَرَاكَ تَخْذِفُ، وَاللَّهِ لَا أُكَلِّمُكَ أَبَدًا",
      "english": {
        "narrator": "",
        "text": ""
      }
    },
    {
      "id": 443,
      "chapterId": 0,
      "bookId": 9,
      "arabic": "أَخْبَرَنَا مَرْوَانُ بْنُ مُحَمَّدٍ ، حَدَّثَنَا سَعِيدُ بْنُ بَشِيرٍ ، عَنْ قَتَادَةَ ، قَالَ : حَدَّثَ ابْنُ سِيرِينَ  رَجُلًا بِحَدِيثٍ، عَنْ النَّبِيِّ صَلَّى اللَّهُ عَلَيْهِ وَسَلَّمَ، فَقَالَ رَجُلٌ : قَالَ فُلَانٌ : كَذَا وَكَذَا، فَقَالَ ابْنُ سِيرِينَ :\" أُحَدِّثُكَ عَنْ النَّبِيِّ صَلَّى اللَّهُ عَلَيْهِ وَسَلَّمَ، وَتَقُولُ : قَالَ فُلَانٌ وَفُلَانٌ : كَذَا وَكذَا، لَا أُكَلِّمُكَ أَبَدًا \"",
      "english": {
        "narrator": "",
        "text": ""
      }
    }
  ]
}