{
  "page": 65,
  "perPage": 50,
  "totalPages": 69,
  "totalCount": 3406,
  "nextPage": 66,
  "prevPage": 64,
  "items": [
    {
      "id": 444,
      "chapterId": 0,
      "bookId": 9,
      "arabic": "أَخْبَرَنَا مُحَمَّدُ بْنُ كَثِيرٍ  ، عَنْ الْأَوْزَاعِيِّ  ، عَنْ الزُّهْرِيِّ  ، عَنْ سَالِمٍ  ، عَنْ ابْنِ عُمَرَ   رَضِيَ اللهُ عَنْهُ، أَنّ رَسُولَ اللَّهِ صَلَّى اللَّهُ عَلَيْهِ وَسَلَّمَ قَالَ :\" إِذَا اسْتَأْذَنَتْ أَحَدَكُمْ امْرَأَتُهُ إِلَى الْمَسْجِدِ، فَلَا يَمْنَعْهَا \"، فَقَالَ فُلَانُ بْنُ عَبْدِ اللَّهِ : إِذًا وَاللَّهِ أَمْنَعُهَا، فَأَقْبَلَ عَلَيْهِ ابْنُ عُمَرَ فَشَتَمَهُ شَتِيمَةً لَمْ أَرَهُ يَشْتِمُهَا أَحَدًا قَبْلَهُ، ثُمَّ قَالَ : أُحَدِّثُكَ عَنْ رَسُولِ اللَّهِ صَلَّى اللَّهُ عَلَيْهِ وَسَلَّمَ، وَتَقُولُ : إِذًا وَاللَّهِ أَمْنَعُهَا ! !",
      "english": {
        "narrator": "",
        "text": ""
      }
    },
    {
      "id": 445,
      "chapterId": 0,
      "bookId": 9,
      "arabic": "أَخْبَرَنَا مُحَمَّدُ بْنُ حُمَيْدٍ  ، حَدَّثَنَا هَارُونُ بْنُ الْمُغِيرَةِ  ، عَنْ مَعْرُوفٍ  ، عَنْ أَبِي الْمُخَارِقِ  ، قَالَ : ذَكَرَ عُبَادَةُ بْنُ الصَّامِتِ   رَضِيَ اللهُ عَنْهُ، أَنَّ النَّبِيَّ صَلَّى اللَّهُ عَلَيْهِ وَسَلَّمَ :\" نَهَى عَنْ دِرْهَمَيْنِ بِدِرْهَمٍ \"، فَقَالَ فُلَانٌ : مَا أَرَى بِهَذَا بَأْسًا، يَدًا بِيَدٍ، فَقَالَ عُبَادَةُ : أَقُولُ : قَالَ النَّبِيُّ صَلَّى اللَّهُ عَلَيْهِ وَسَلَّمَ، وَتَقُولُ : لَا أَرَى بِهِ بَأْسًا، وَاللَّهِ لَا يُظِلُّنِي وَإِيَّاكَ سَقْفٌ أَبَدًا",
      "english": {
        "narrator": "",
        "text": ""
      }
    },
    {
      "id": 446,
      "chapterId": 0,
      "bookId": 9,
      "arabic": "أَخْبَرَنَا مُحَمَّدُ بْنُ يَزِيدَ الرِّفَاعِيُّ  ، حَدَّثَنَا أَبُو عَامِرٍ الْعَقَدِيُّ  ، عَنْ زَمْعَةَ  ، عَنْ سَلَمَةَ بْنِ وَهْرَامٍ  ، عَنْ عِكْرِمَةَ  ، عَنْ ابْنِ عَبَّاسٍ   رَضِيَ اللهُ عَنْهُ، عَنْ النَّبِيِّ صَلَّى اللَّهُ عَلَيْهِ وَسَلَّمَ قَالَ :\" لَا تَطْرُقُوا النِّسَاءَ لَيْلًا \"، قَالَ : وَأَقْبَلَ رَسُولُ اللَّهِ صَلَّى اللَّهُ عَلَيْهِ وَسَلَّمَ قَافِلًا، فَانْسَلَّ رَجُلَانِ إِلَى أَهْلَيْهِمَا، فَكِلَاهُمَا وَجَدَ مَعَ امْرَأَتِهِ رَجُلًا",
      "english": {
        "narrator": "",
        "text": ""
      }
    },
    {
      "id": 447,
      "chapterId": 0,
      "bookId": 9,
      "arabic": "أَخْبَرَنَا أَبُو الْمُغِيرَةِ  ، حَدَّثَنَا الْأَوْزَاعِيُّ  ، عَنْ عَبْدِ الرَّحْمَنِ بْنِ حَرْمَلَةَ الْأَسْلَمِيِّ  ، عَنْ سَعِيدِ بْنِ الْمُسَيِّبِ  ، قَالَ : كَانَ رَسُولُ اللَّهِ صَلَّى اللَّهُ عَلَيْهِ وَسَلَّمَ إِذَا قَدِمَ مِنْ سَفَرٍ نَزَلَ الْمُعَرَّسَ، ثُمَّ قَالَ :\" لَا تَطْرُقُوا النِّسَاءَ لَيْلًا \"، فَخَرَجَ رَجُلَانِ مِمَّنْ سَمِعَ مَقَالَتَهُ، فَطَرَقَا أَهْلِيهِمَا فَوَجَدَ كُلُّ وَاحِدٍ مِنْهُمَا مَعَ امْرَأَتِهِ رَجُلًا",
      "english": {
        "narrator": "",
        "text": ""
      }
    },
    {
      "id": 448,
      "chapterId": 0,
      "bookId": 9,
      "arabic": "أَخْبَرَنَا أَبُو الْمُغِيرَةِ  ، حَدَّثَنَا الْأَوْزَاعِيُّ  ، حَدَّثَنَا عَبْدُ الرَّحْمَنِ بْنُ حَرْمَلَةَ  ، قَالَ : جَاءَ رَجُلٌ إِلَى سَعِيدِ بْنِ الْمُسَيِّبِ   يُوَدِّعُهُ بِحَجٍّ أَوْ عُمْرَةٍ، فَقَالَ لَهُ : لَا تَبْرَحْ حَتَّى تُصَلِّيَ، فَإِنَّ رَسُولَ اللَّهِ صَلَّى اللَّهُ عَلَيْهِ وَسَلَّمَ قَالَ :\" لَا يَخْرُجُ بَعْدَ النِّدَاءِ مِنْ الْمَسْجِدِ إِلَّا مُنَافِقٌ، إِلَّا رَجُلٌ أَخْرَجَتْهُ حَاجَهٌ وَهُوَ يُرِيدُ الرَّجْعَةَ إِلَى الْمَسْجِدِ \"، فَقَالَ : إِنَّ أَصْحَابِي بِالْحَرَّةِ ، قَالَ : فَخَرَجَ قَالَ : فَلَمْ يَزَلْ سَعِيدٌ يَوْلَعُ بِذِكْرِهِ حَتَّى أُخْبِرَ أَنَّهُ وَقَعَ مِنْ رَاحِلَتِهِ فَانْكَسَرَتْ فَخِذُهُ",
      "english": {
        "narrator": "",
        "text": ""
      }
    },
    {
      "id": 449,
      "chapterId": 0,
      "bookId": 9,
      "arabic": "أَخْبَرَنَا عَبْدُ الصَّمَدِ بْنُ عَبْدِ الْوَارِثِ  ، حَدَّثَنَا شُعْبَةُ  ، عَنْ أَبِي إِسْحَاق  ، عَنْ أَبِي الْأَحْوَصِ  ، عَنْ عَبْدِ اللَّهِ  ، قَالَ :\" لَا تُمِلُّوا النَّاسَ \"",
      "english": {
        "narrator": "",
        "text": ""
      }
    },
    {
      "id": 450,
      "chapterId": 0,
      "bookId": 9,
      "arabic": "أَخْبَرَنَا يَزِيدُ بْنُ هَارُونَ  ، أَخْبَرَنَا أَشْعَثُ  ، عَنْ كُرْدُوسٍ  ، عَنْ عَبْدِ اللَّهِ   رَضِيَ اللهُ عَنْهُ، قَالَ :\" إِنَّ لِلْقُلُوبِ لَنَشَاطًا وَإِقْبَالًا، وَإِنَّ لَهَا تَوْلِيَةً وَإِدْبَارًا، فَحَدِّثُوا النَّاسَ مَا أَقْبَلُوا عَلَيْكُمْ \"",
      "english": {
        "narrator": "",
        "text": ""
      }
    },
    {
      "id": 451,
      "chapterId": 0,
      "bookId": 9,
      "arabic": "أَخْبَرَنَا سُلَيْمَانُ بْنُ حَرْبٍ ، حَدَّثَنَا أَبُو هِلَالٍ ، قَالَ : سَمِعْتُ الْحَسَنَ  يَقُولُ : كَانَ يُقَالُ :\" حَدِّثْ الْقَوْمَ مَا أَقْبَلُوا عَلَيْكَ بِوُجُوهِهِمْ، فَإِذَا الْتَفَتُوا، فَاعْلَمْ أَنَّ لَهُمْ حَاجَاتٍ \"",
      "english": {
        "narrator": "",
        "text": ""
      }
    },
    {
      "id": 452,
      "chapterId": 0,
      "bookId": 9,
      "arabic": "أَخْبَرَنَا يَزِيدُ بْنُ هَارُونَ  ، أَخْبَرَنَا هَمَّامٌ  ، عَنْ زَيْدِ بْنِ أَسْلَمَ  ، عَنْ عَطَاءِ بْنِ يَسَارٍ  ، عَنْ أَبِي سَعِيدٍ الْخُدْرِيِّ   رَضِيَ اللهُ عَنْهُ أَنَّ النَّبِيَّ صَلَّى اللَّهُ عَلَيْهِ وَسَلَّمَ قَالَ :\" لَا تَكْتُبُوا عَنِّي شَيْئًا إِلَّا الْقُرْآنَ، فَمَنْ كَتَبَ عَنِّي شَيْئًا غَيْرَ الْقُرْآنِ، فَلْيَمْحُهُ \"",
      "english": {
        "narrator": "",
        "text": ""
      }
    },
    {
      "id": 453,
      "chapterId": 0,
      "bookId": 9,
      "arabic": "أَخْبَرَنَا أَبُو مَعْمَرٍ  ، عَنْ سُفْيَانَ بْنِ عُيَيْنَةَ  ، قَالَ : حَدَّثَنَا زَيْدُ بْنُ أَسْلَمَ  ، عَنْ عَطَاءِ بْنِ يَسَارٍ  ، عَنْ أَبِي سَعِيدٍ الْخُدْرِيِّ   رَضِيَ اللهُ عَنْهُ : أَنَّهُمْاسْتَأْذَنُوا النَّبِيَّ صَلَّى اللَّهُ عَلَيْهِ وَسَلَّمَ فِي أَنْ يَكْتُبُوا عَنْهُ \" فَلَمْ يَأْذَنْ لَهُمْ \"",
      "english": {
        "narrator": "",
        "text": ""
      }
    },
    {
      "id": 454,
      "chapterId": 0,
      "bookId": 9,
      "arabic": "أَخْبَرَنَا بِشْرُ بْنُ الْحَكَمِ ، عَنْ سُفْيَانَ بْنِ عُيَيْنَةَ ، عَنْ ابْنِ شُبْرُمَةَ ، عَنْ الشَّعْبِيِّ ، أَنَّهُ كَانَ يَقُولُ :\" يَا شِبَاكُ، أَرُدُّ عَلَيْكَ، يَعْنِي : الْحَدِيثَ؟ مَا أَرَدْتُ أَنْ يُرَدَّ عَلَيَّ حَدِيثٌ قَطُّ \"",
      "english": {
        "narrator": "",
        "text": ""
      }
    },
    {
      "id": 455,
      "chapterId": 0,
      "bookId": 9,
      "arabic": "أَخْبَرَنَا مُحَمَّدُ بْنُ أَحْمَدَ بْنِ أَبِي خَلَفٍ  ، قَالَ : سَمِعْتُ عَبْدَ الرَّحْمَنِ بْنَ مَهْدِيٍّ  ، يَقُولُ : سَمِعْتُ مَالِكَ بْنَ أَنَسٍ  ، يَقُولُ : جَاءَ الزُّهْرِيُّ بِحَدِيثٍ فَلَقِيتُهُ فِي بَعْضِ الطَّرِيقِ، فَأَخَذْتُ بِلِجَامِهِ، فَقُلْتُ : يَا أَبَا بَكْرٍ  ، أَعِدْ عَلَيَّ الْحَدِيثَ الَّذِي حَدَّثْتَنَا بِهِ، قَالَ :\" وَتَسْتَعِيدُ الْحَدِيثَ؟، قَالَ : قُلْتُ : وَمَا كُنْتَ تَسْتَعِيدُ الْحَدِيثَ؟، قَالَ : لَا، قُلْتُ : وَلَا تَكْتُبُ؟، قَالَ : لَا \"",
      "english": {
        "narrator": "",
        "text": ""
      }
    },
    {
      "id": 456,
      "chapterId": 0,
      "bookId": 9,
      "arabic": "أَخْبَرَنَا مُحَمَّدُ بْنُ كَثِيرٍ ، عَنْ الْأَوْزَاعِيِّ ، قَالَ : \" كَانَ قَتَادَةُ يَكْرَهُ الْكِتَابَةَ، فَإِذَا سَمِعَ وَقْعَ الْكِتَابِ، أَنْكَرَهُ وَالْتَمَسَهُ بِيَدِهِ \"، أَخْبَرَنَا أَبُو الْمُغِيرَةِ ، قَالَ :\" كَانَ الْأَوْزَاعِيُّ  يَكْرَهُهُ \"",
      "english": {
        "narrator": "",
        "text": ""
      }
    },
    {
      "id": 457,
      "chapterId": 0,
      "bookId": 9,
      "arabic": "أَخْبَرَنَا مُحَمَّدُ بْنُ يُوسُفَ ، عَنْ سُفْيَانَ ، عَنْ مَنْصُورٍ \" أَنَّ إِبْرَاهِيمَ كَانَ يَكْرَهُ الْكِتَابَ \"، يَعْنِي : الْعِلْمَ",
      "english": {
        "narrator": "",
        "text": ""
      }
    },
    {
      "id": 458,
      "chapterId": 0,
      "bookId": 9,
      "arabic": "أَخْبَرَنَا يُوسُفُ بْنُ مُوسَى ، أَخْبَرَنَا أَزْهَرُ ، عَنْ ابْنِ عَوْنٍ ،  عَنْ ابْنِ سِيرِينَ ، قَالَ :\" لَوْ كُنْتُ مُتَّخِذًا كِتَابًا، لَاتَّخَذْتُ رَسَائِلَ النَّبِيِّ صَلَّى اللَّهُ عَلَيْهِ وَسَلَّمَ \"",
      "english": {
        "narrator": "",
        "text": ""
      }
    },
    {
      "id": 459,
      "chapterId": 0,
      "bookId": 9,
      "arabic": "أَخْبَرَنَا إِسْمَاعِيل بْنُ أَبَانَ ، حَدَّثَنَا ابْنُ إِدْرِيسَ ، عَنْ ابْنِ عَوْنٍ ، قَالَ :\" رَأَيْتُ حَمَّادًا يَكْتُبُ عِنْدَ إِبْرَاهِيمَ، فَقَالَ لَهُ إِبْرَاهِيمُ  : أَلَمْ أَنْهَكَ؟، قَالَ : إِنَّمَا هِيَ أَطْرَافٌ \"",
      "english": {
        "narrator": "",
        "text": ""
      }
    },
    {
      "id": 460,
      "chapterId": 0,
      "bookId": 9,
      "arabic": "أَخْبَرَنَا إِسْمَاعِيل بْنُ أَبَانَ ، حَدَّثَنَا ابْنُ إِدْرِيسَ ، عَنْ شُعْبَةَ ، عَنْ الْحَكَمِ ، عَنْ إِبْرَاهِيمَ ، قَالَ : قَالَ لِي عَبِيدَةُ  :\" لَا تُخَلِّدَنَّ عَلَيَّ كِتَابًا \"",
      "english": {
        "narrator": "",
        "text": ""
      }
    },
    {
      "id": 461,
      "chapterId": 0,
      "bookId": 9,
      "arabic": "أَخْبَرَنَا سَعِيدُ بْنُ عَامِرٍ ، عَنْ هِشَامٍ ، قَالَ :\" مَا كَتَبْتُ عَنْ مُحَمَّدٍ إِلَّا حَدِيثَ الْأَعْمَاقِ، فَلَمَّا حَفِظْتُهُ، مَحَوْتُهُ \"",
      "english": {
        "narrator": "",
        "text": ""
      }
    },
    {
      "id": 462,
      "chapterId": 0,
      "bookId": 9,
      "arabic": "أَخْبَرَنَا مَرْوَانُ بْنُ مُحَمَّدٍ ، قَالَ : سَمِعْتُ سَعِيدَ بْنَ عَبْدِ الْعَزِيزِ ، يَقُولُ :\" مَا كَتَبْتُ حَدِيثًا قَطُّ \"",
      "english": {
        "narrator": "",
        "text": ""
      }
    },
    {
      "id": 463,
      "chapterId": 0,
      "bookId": 9,
      "arabic": "أَخْبَرَنَا عَبْدُ اللَّهِ بْنُ عِمْرَانَ ، حَدَّثَنَا أَبُو دَاوُدَ ، حَدَّثَنَا شُعْبَةُ ، عَنْ مُغِيرَةِ ،  عَنْ إِبْرَاهِيمَ ، قَالَ :\" مَا كَتَبْتُ شَيْئًا قَطُّ \"",
      "english": {
        "narrator": "",
        "text": ""
      }
    },
    {
      "id": 464,
      "chapterId": 0,
      "bookId": 9,
      "arabic": "أَخْبَرَنَا عَبْدُ اللَّهِ بْنُ عِمْرَانَ  ، حَدَّثَنَا أَبُو دَاوُدَ  ، حَدَّثَنَا شُعْبَةُ  ، عَنْ إِسْمَاعِيل بْنِ رَجَاءٍ  ، عَنْ إِبْرَاهِيمَ  ، قَالَ : سَأَلْتُ عَبِيدَةَ   قِطْعَةَ جِلْدٍ أَكْتُبُ فِيهِ، فَقَالَ : \" يَا إِبْرَاهِيمُ،لَا تُخَلِّدَنَّ عَنِّي كِتَابًا \"، أَخْبَرَنَا عَبْدُ اللَّهِ  ، حَدَّثَنَا أَبُو دَاوُدَ  ، حَدَّثَنَا شُعْبَةُ  ، عَنْ الْحَكَمِ  ، عَنْ إِبْرَاهِيمَ  ، عَنْ عَبِيدَةَ  ، مِثْلَهُ",
      "english": {
        "narrator": "",
        "text": ""
      }
    },
    {
      "id": 465,
      "chapterId": 0,
      "bookId": 9,
      "arabic": "أَخْبَرَنَا يَحْيَى بْنُ حَمَّادٍ ، حَدَّثَنَا أَبُو عَوَانَةَ ، عَنْ سُلَيْمَانَ بْنِ عَتِيكٍ ، عَنْ أَبِي مَعْشَرٍ ، عَنْ إِبْرَاهِيمَ  :\" أَنَّهُ كَانَ يَكْرَهُ أَنْ يُكْتَبَ الْحَدِيثُ فِي الْكَرَارِيسِ، وَيَقُولُ : يُشَبَّهُ بِالْمَصَاحِفِ \"، قَالَ يَحْيَى : وَوَجَدْتُ فِي كِتَابِي، عَنْ زِيَادٍ الْكَاتِبِ، عَنْ أَبِي مَعْشَرٍ ، \" فَاكْتُبْ كَيْفَ شِئْتَ \"",
      "english": {
        "narrator": "",
        "text": ""
      }
    },
    {
      "id": 466,
      "chapterId": 0,
      "bookId": 9,
      "arabic": "أَخْبَرَنَا مُحَمَّدُ بْنُ يُوسُفَ  ، وَعُبَيْدُ اللَّهِ  ، عَنْ سُفْيَانَ  ، عَنْ نُعْمَانَ بْنِ قَيْسٍ L1739 ، أَنَّ عَبِيدَةَ   دَعَا بِكُتُبِهِ فَمَحَاهَا عِنْدَ الْمَوْتِ، وَقَالَ :\" إِنِّي أَخَافُ أَنْ يَلِيَهَا قَوْمٌ، فَلَا يَضَعُونَهَا مَوَاضِعَهَا \"",
      "english": {
        "narrator": "",
        "text": ""
      }
    },
    {
      "id": 467,
      "chapterId": 0,
      "bookId": 9,
      "arabic": "أَخْبَرَنَا الْحَكَمُ بْنُ الْمُبَارَكِ ، وَزَكَرِيَّا بْنُ عَدِيٍّ ، عَنْ عَبْدِ الْوَاحِدِ بْنِ زِيَادٍ ، عَنْ لَيْثٍ ، عَنْ مُجَاهِدٍ ، \" أَنَّهُكَرِهَ أَنْ يُكْتَبَ الْعِلْمُ فِي الْكَرَارِيسِ \"",
      "english": {
        "narrator": "",
        "text": ""
      }
    },
    {
      "id": 468,
      "chapterId": 0,
      "bookId": 9,
      "arabic": "أَخْبَرَنَا عَبْدُ الرَّحْمَنِ بْنُ صَالِحٍ ، حَدَّثَنَا ابْنُ الْمُبَارَكِ ، عَنْ الْأَوْزَاعِيِّ ، قَالَ :\" مَا زَالَ هَذَا الْعِلْمُ عَزِيزًا يَتَلَاقَاهُ الرِّجَالُ حَتَّى وَقَعَ فِي الصُّحُفِ، فَحَمَلَهُ، أَوْ دَخَلَ فِيهِ غَيْرُ أَهْلِهِ \"",
      "english": {
        "narrator": "",
        "text": ""
      }
    },
    {
      "id": 469,
      "chapterId": 0,
      "bookId": 9,
      "arabic": "أَخْبَرَنَا يُوسُفُ بْنُ مُوسَى ، حَدَّثَنَا أَبُو دَاوُدَ الطَّيَالِسِيُّ ، أَخْبَرَنَا شُعْبَةُ ، عَنْ يُونُسَ ، قَالَ :\" كَانَ الْحَسَنُ يَكْتُبُ وَيُكْتِبُ، وَكَانَ ابْنُ سِيرِينَ   لَا يَكْتُبُ وَلَا يُكْتِبُ \"",
      "english": {
        "narrator": "",
        "text": ""
      }
    },
    {
      "id": 470,
      "chapterId": 0,
      "bookId": 9,
      "arabic": "أَخْبَرَنَا يَزِيدُ  ، أَخْبَرَنَا الْعَوَّامُ  ، عَنْ إِبْرَاهِيمَ التَّيْمِيِّ  ، قَالَ : بَلَغَ ابْنَ مَسْعُودٍ   رَضِيَ اللهُ عَنْهُ : أَنَّ عِنْدَ نَاسٍ كِتَابًا يُعْجَبُونَ بِهِ، فَلَمْ يَزَلْ بِهِمْ حَتَّى أَتَوْهُ بِهِ، فَمَحَاهُ، ثُمَّ قَالَ :\" إِنَّمَا هَلَكَ أَهْلُ الْكِتَابِ قَبْلَكُمْ : أَنَّهُمْ أَقْبَلُوا عَلَى كُتُبِ عُلَمَائِهِمْ، وَتَرَكُوا كِتَابَ رَبِّهِمْ \"",
      "english": {
        "narrator": "",
        "text": ""
      }
    },
    {
      "id": 471,
      "chapterId": 0,
      "bookId": 9,
      "arabic": "أَخْبَرَنَا أَبُو النُّعْمَانِ  ، حَدَّثَنَا حَمَّادُ بْنُ زَيْدٍ  ، عَنْ ابْنِ عَوْنٍ  ، عَنْ مُحَمَّدٍ  قَالَ : قُلْتُ لِعَبِيدَةَ   :\" أَكْتُبُ مَا أَسْمَعُ مِنْكَ، قَالَ : لَا، قُلْتُ : فَإِنْ وَجَدْتُ كِتَابًا أَقْرَؤُهُ؟، قَالَ : لَا \"",
      "english": {
        "narrator": "",
        "text": ""
      }
    },
    {
      "id": 472,
      "chapterId": 0,
      "bookId": 9,
      "arabic": "أَخْبَرَنَا يَزِيدُ بْنُ هَارُونَ  ، أَخْبَرَنَا الْجُرَيْرِيُّ  ، عَنْ أَبِي نَضْرَةَ  ، قَالَ : قُلْتُ لِأَبِي سَعِيدٍ الْخُدْرِيِّ   رَضِيَ اللهُ عَنْهُ : أَلَا تُكْتِبُنَا، فَإِنَّا لَا نَحْفَظُ؟، فَقَالَ :\" لَا، إِنَّا لَنْ نُكْتِبَكُمْ، وَلَنْ نَجْعَلَهُ قُرْآنًا، وَلَكِنْ احْفَظُوا عَنَّا كَمَا حَفِظْنَا نَحْنُ عَنْ رَسُولِ اللَّهِ صَلَّى اللَّهُ عَلَيْهِ وَسَلَّمَ \"",
      "english": {
        "narrator": "",
        "text": ""
      }
    },
    {
      "id": 473,
      "chapterId": 0,
      "bookId": 9,
      "arabic": "حَدَّثَنَا مُحَمَّدُ بْنُ كَثِيرٍ  ، عَنْ الْأَوْزَاعِيِّ  ، قَالَ : سَمِعْتُ أَبَا كَثِيرٍ  ، يَقُولُ : سَمِعْتُ أَبَا هُرَيْرَةَ  ، يَقُولُ :\" إِنَّ أَبَا هُرَيْرَةَ لَا يَكْتُبُ، وَلَا يُكْتِبُ \"",
      "english": {
        "narrator": "",
        "text": ""
      }
    },
    {
      "id": 474,
      "chapterId": 0,
      "bookId": 9,
      "arabic": "أَخْبَرَنَا أَسَدُ بْنُ مُوسَى ، حَدَّثَنَا شُعْبَةُ ، عَنْ أَبِي مُوسَى ، عَنْ حُمَيْدِ بْنِ هِلَالٍ ، عَنْ أَبِي بُرْدَةَ  :\" أَنَّهُ كَانَ يَكْتُبُ حَدِيثَ أَبِيهِ، فَرَآهُ أَبُو مُوسَى، فَمَحَاهُ \"",
      "english": {
        "narrator": "",
        "text": ""
      }
    },
    {
      "id": 475,
      "chapterId": 0,
      "bookId": 9,
      "arabic": "أَخْبَرَنَا الْوَلِيدُ بْنُ شُجَاعٍ ، حَدَّثَنِي قُرَيْشُ بْنُ أَنَسٍ ، قَالَ : قَالَ لِي ابْنُ عَوْنٍ  :\" وَاللَّهِ مَا كَتَبْتُ حَدِيثًا قَطُّ \"",
      "english": {
        "narrator": "",
        "text": ""
      }
    },
    {
      "id": 476,
      "chapterId": 0,
      "bookId": 9,
      "arabic": "قَالَ : وقَالَ ابْنُ سِيرِينَ  رَضِيَ اللهُ عَنْهُ :\" لَا وَاللَّهِ مَا كَتَبْتُ حَدِيثًا قَطُّ \"، قَالَ ابْنُ عَوْنٍ : قَالَ لِي ابْنُ سِيرِينَ : عَنْ زَيْدِ بْنِ ثَابِتٍ  رَضِيَ اللهُ عَنْهُ أَرَادَنِي مَرْوَانُ بْنُ الْحَكَمِ وَهُوَ أَمِيرٌ عَلَى الْمَدِينَةِ أَنْ أُكْتِبَهُ شَيْئًا، قَالَ : فَلَمْ أَفْعَلْ، قَالَ : فَجَعَلَ سِتْرًا بَيْنَ مَجْلِسِهِ وَبَيْنَ بَقِيَّةِ دَارِهِ، قَالَ : فَكَانَ أَصْحَابُهُ يَدْخُلُونَ عَلَيْهِ، وَيَتَحَدَّثُونَ فِي ذَلِكَ الْمَوْضِعِ، فَأَقْبَلَ مَرْوَانُ عَلَى أَصْحَابِهِ، فَقَالَ : مَا أُرَانَا إِلَّا قَدْ خُنَّاهُ، ثُمَّ أَقْبَلَ عَلَيَّ، قَالَ : قُلْتُ وَمَا ذَاكَ؟، قَالَ : مَا أُرَانَا إِلَّا قَدْ خُنَّاكَ، قَالَ : قُلْتُ : وَمَا ذَاكَ؟، قَالَ : \" إِنَّا أَمَرْنَا رَجُلًا يَقْعُدُ خَلْفَ هَذَا السِّتْرِ، فَيَكْتُبُ مَا تُفْتِي هَؤُلَاءِ وَمَا تَقُولُ \"",
      "english": {
        "narrator": "",
        "text": ""
      }
    },
    {
      "id": 477,
      "chapterId": 0,
      "bookId": 9,
      "arabic": "أَخْبَرَنَا عَفَّانُ ، حَدَّثَنَا يَحْيَى بْنُ سَعِيدٍ الْقَطَّانُ ، حَدَّثَنَا سُفْيَانُ ، عَنْ مَنْصُورٍ ، قَالَ : قُلْتُ لِإِبْرَاهِيمَ  : إِنَّ سَالِمًا أَتَمُّ مِنْكَ حَدِيثًا؟ قَالَ :\" إِنَّ سَالِمًا كَانَ يَكْتُبُ \"",
      "english": {
        "narrator": "",
        "text": ""
      }
    },
    {
      "id": 478,
      "chapterId": 0,
      "bookId": 9,
      "arabic": "أَخْبَرَنَا الْوَلِيدُ بْنُ هِشَامٍ ، حَدَّثَنَا الْحَارِثُ بْنُ يَزِيدَ الْحِمْصِيُّ ، عَنْ عَمْرِو بْنِ قَيْسٍ ، قَالَ : وَفَدْتُ مَعَ أَبِي إِلَى يَزِيدَ بْنِ مُعَاوِيَةَ بِحُوَّارَيْنَ حِينَ تُوُفِّيَ مُعَاوِيَةُ رَضِيَ اللهُ عَنْهُ نُعَزِّيهِ، وَنُهَنِّيهِ بِالْخِلَافَةِ، فَإِذَا رَجُلٌ فِي مَسْجِدِهَا، يَقُولُ :\" أَلَا إِنَّ مِنْ أَشْرَاطِ السَّاعَةِ أَنْ تُرْفَعَ الْأَشْرَارُ، ويُوضَعُ الْأَخْيَارُ، أَلَا إِنَّ مِنْ أَشْرَاطِ السَّاعَةِ أَنْ يَظْهَرَ الْقَوْلُ وَيُخْزَنَ الْعَمَلُ، أَلَا إِنَّ مِنْ أَشْرَاطِ السَّاعَةِ أَنْ تُتْلَى الْمَثْنَاةُ، فَلَا يُوجَدُ مَنْ يُغَيِّرُهَا، قِيلَ لَهُ : وَمَا الْمَثْنَاةُ؟، قَالَ : مَا اسْتُكْتِبَ مِنْ كِتَابٍ غَيْرِ الْقُرْآنِ، فَعَلَيْكُمْ بِالْقُرْآنِ فَبِهِ هُدِيتُمْ، وَبِهِ تُجْزَوْنَ، وَعَنْهُ تُسْأَلُونَ \"، فَلَمْ أَدْرِ مَنْ الرَّجُلُ، فَحَدَّثْتُ هذَا الْحَدِيثِ بَعْدَ ذَلِكَ بِحِمْصَ ، فَقَالَ لِي رَجُلٌ مِنْ الْقَوْمِ : أَوَ مَا تَعْرِفُهُ؟، قُلْتُ : لَا، قَالَ : ذَلِكَ عَبْدُ اللَّهِ بْنُ عَمْرٍو  رَضِيَ اللهُ عَنْهُمَا",
      "english": {
        "narrator": "",
        "text": ""
      }
    },
    {
      "id": 479,
      "chapterId": 0,
      "bookId": 9,
      "arabic": "أَخْبَرَنَا أَحْمَدُ بْنُ عَبْدِ اللَّهِ بْنِ يُونُسَ  ، حَدَّثَنَا أَبُو زُبَيْدٍ  ، حَدَّثَنَا حُصَيْنٌ  ، عَنْ مُرَّةَ الْهَمْدَانِيِّ  ، قَالَ : جَاءَ أَبُو قُرَّةَ الْكِنْدِيُّ بِكِتَابٍ مِنْ الشَّامِ ، فَحَمَلَهُ، فَدَفَعَهُ إِلَى عَبْدِ اللَّهِ بْنِ مَسْعُودٍ   رَضِيَ اللهُ عَنْهُ، فَنَظَرَ فِيهِ، فَدَعَا بِطَسْتٍ، ثُمَّ دَعَا بِمَاءٍ، فَمَرَسَهُ فِيهِ، وَقَالَ :\" إِنَّمَا هَلَكَ مَنْ كَانَ قَبْلَكُمْ بِاتِّبَاعِهِمْ الْكُتُبَ وَتَرْكِهِمْ كِتَابَهُمْ \"، قَالَ حُصَيْنٌ : فَقَالَ مُرَّةُ : \" أَمَا إِنَّهُ لَوْ كَانَ مِنْ الْقُرْآنِ، أَوْ السُّنَّةِ لَمْ يَمْحُهُ، وَلَكِنْ كَانَ مِنْ كُتُبِ أَهْلِ الْكِتَابِ \"",
      "english": {
        "narrator": "",
        "text": ""
      }
    },
    {
      "id": 480,
      "chapterId": 0,
      "bookId": 9,
      "arabic": "أَخْبَرَنَا مُحَمَّدُ بْنُ أَحْمَدَ  ، حَدَّثَنَا سُفْيَانُ  ، عَنْ عَمْرٍو  ، عَنْ يَحْيَى بْنِ جَعْدَةَ  ، قَالَ : أُتِيَ النَّبِيُّ صَلَّى اللَّهُ عَلَيْهِ وَسَلَّمَ بِكَتِفٍ فِيهِ كِتَابٌ، فَقَالَ :\" كَفَى بِقَوْمٍ ضَلَالًا أَنْ يَرْغَبُوا عَمَّا جَاءَ بِهِ نَبِيُّهُمْ إِلَى مَا جَاءَ بِهِ نَبِيٌّ غَيْرُ نَبِيِّهِمْ، أَوْ كِتَابٌ غَيْرُ كِتَابِهِمْ \"، فَأَنْزَلَ اللَّهُ G : # أَوَلَمْ يَكْفِهِمْ أَنَّا أَنْزَلْنَا عَلَيْكَ الْكِتَابَ يُتْلَى عَلَيْهِمْ إِنَّ فِي ذَلِكَ لَرَحْمَةً وَذِكْرَى لِقَوْمٍ يُؤْمِنُونَ سورة العنكبوت آية 51 #",
      "english": {
        "narrator": "",
        "text": ""
      }
    },
    {
      "id": 481,
      "chapterId": 0,
      "bookId": 9,
      "arabic": "أَخْبَرَنَا سَهْلُ بْنُ حَمَّادٍ  ، حَدَّثَنَا شُعْبَةُ  ، عَنْ الْأَشْعَثِ  ، عَنْ أَبِيهِ  ، وَكَانَ مِنْ أَصْحَابِ عَبْدِ اللَّهِ، قَالَ : رَأَيْتُ مَعَ رَجُلٍ صَحِيفَةً فِيهَا : سُبْحَانَ اللَّهِ، وَالْحَمْدُ لِلَّهِ، وَلَا إِلَهَ إِلَّا اللَّهُ، وَاللَّهُ أَكْبَرُ، فَقُلْتُ لَهً : أَنْسِخْنِيهَا، فَكَأَنَّهُ بَخِلَ بِهَا، ثُمَّ وَعَدَنِي أَنْ يُعْطِيَنِيهَا، فَأَتَيْتُ عَبْدَ اللَّهِ   رَضِيَ اللهُ عَنْهُ فَإِذَا هِيَ بَيْنَ يَدَيْهِ، فَقَالَ :\" إِنَّ مَا فِي هَذَا الْكِتَابِ بِدْعَةٌ، وَفِتْنَةٌ، وَضَلَالَةٌ، وَإِنَّمَا أَهْلَكَ مَنْ كَانَ قَبْلَكُمْ هَذَا وَأَشْبَاهُ هَذَا، إِنَّهُمْ كَتَبُوهَا، فَاسْتَلَذَّتْهَا أَلْسِنَتُهُمْ، وَأُشْرِبَتْهَا قُلُوبُهُمْ، فَأَعْزِمُ عَلَى كُلِّ امْرِئٍ يَعْلَمُ بِمَكَانِ كِتَابٍ إِلَّا دَلَّ عَلَيْهِ، وَأُقْسِمُ بِاللَّهِ، قَالَ شُعْبَةُ : فَأَقْسَمَ بِاللَّهِ؟، قَالَ : أَحْسَبُهُ أَقْسَمَ : لَوْ أَنَّهَا ذُكِرَتْ لَهُ بِدَيْرٍ الْهِنْدِ نَرَاهُ يَعْنِي مَكَانًا بِالْكُوفَةِ بَعِيدًا، لآَتَيْتُهُ وَلَوْ مَشْيًا \"",
      "english": {
        "narrator": "",
        "text": ""
      }
    },
    {
      "id": 482,
      "chapterId": 0,
      "bookId": 9,
      "arabic": "أَخْبَرَنَا زَكَرِيَّا بْنُ عَدِيٍّ  ، حَدَّثَنَا عُبَيْدُ اللَّهِ هُوَ ابْنُ عَمْرٍو  ، عَنْ عَبْدِ الْمَلِكِ بْنِ عُمَيْرٍ  ، عَنْ أَبِي بُرْدَةَ  ، عَنْ أَبِي مُوسَى   رَضِيَ اللهُ عَنْهُ :\" أَنَّ بَنِي إِسْرَائِيلَ كَتَبُوا كِتَابًا، فَتَبِعُوهُ وَتَرَكُوا التَّوْرَاةَ \"",
      "english": {
        "narrator": "",
        "text": ""
      }
    },
    {
      "id": 483,
      "chapterId": 0,
      "bookId": 9,
      "arabic": "أَخْبَرَنَا أَبُو نُعَيْمٍ  ، حَدَّثَنَا إِسْرَائِيلُ  ، عَنْ عُثْمَانَ بْنِ أَبِي الْمُغِيرَةِ  ، عَنْ عَفَّاقٍ الْمُحَارِبِيِّ L5652 ، عَنْ أَبِيهِ  ، قَالَ : سَمِعْتُ ابْنَ مَسْعُودٍ   رَضِيَ اللهُ عَنْهُ، يَقُولُ :\" إِنَّ نَاسًا يَسْمَعُونَ كَلَامِي، ثُمَّ يَنْطَلِقُونَ فَيَكْتُبُونَهُ، وَإِنِّي لَا أُحِلُّ لِأَحَدٍ أَنْ يَكْتُبَ إِلَّا كِتَابَ اللَّهِ \"",
      "english": {
        "narrator": "",
        "text": ""
      }
    },
    {
      "id": 484,
      "chapterId": 0,
      "bookId": 9,
      "arabic": "أَخْبَرَنَا مَالِكُ بْنُ إِسْمَاعِيل ، حَدَّثَنَا مُحَمَّدُ بْنُ فُضَيْلٍ ، عَنْ ابْنِ شُبْرُمَةَ ، قَالَ : سَمِعْتُ الشَّعْبِيَّ ، يَقُولُ :\" مَا كَتَبْتُ سَوْدَاءَ فِي بَيْضَاءَ، وَلَا اسْتَعَدْتُ حَدِيثًا مِنْ إِنْسَانٍ \"",
      "english": {
        "narrator": "",
        "text": ""
      }
    },
    {
      "id": 485,
      "chapterId": 0,
      "bookId": 9,
      "arabic": "أَخْبَرَنَا مُحَمَّدُ بْنُ أَحْمَدَ  ، حَدَّثَنَا سُفْيَانُ  ، عَنْ عَمْرٍو  ، عَنْ وَهْبِ بْنِ مُنَبِّهٍ  ، عَنْ أَخِيهِ  ، سَمِعَ أَبَا هُرَيْرَةَ   رَضِيَ اللهُ عَنْهُ، يَقُولُ :\" لَيْسَ أَحَدٌ مِنْ أَصْحَابِ رَسُولِ اللَّهِ صَلَّى اللَّهُ عَلَيْهِ وَسَلَّمَ أَكْثَرَ حَدِيثًا عَنْ النَّبِيِّ صَلَّى اللَّهُ عَلَيْهِ وَسَلَّمَ مِنِّي، إِلَّا مَا كَانَ مِنْ عَبْدِ اللَّهِ بْنِ عَمْرٍو، فَإِنَّهُ كَانَ يَكْتُبُ، وَلَا أَكْتُبُ \"",
      "english": {
        "narrator": "",
        "text": ""
      }
    },
    {
      "id": 486,
      "chapterId": 0,
      "bookId": 9,
      "arabic": "أَخْبَرَنَا مُسَدَّدٌ  ، حَدَّثَنَا يَحْيَى  ، عَنْ عُبَيْدِ اللَّهِ بْنِ الْأَخْنَسِ  ، قَالَ : حَدَّثَنِي الْوَلِيدُ بْنُ عَبْدِ اللَّهِ  ، عَنْ يُوسُفَ بْنِ مَاهَكَ  ، عَنْ عَبْدِ اللَّهِ بْنِ عَمْرٍو  ، قَالَ : كُنْتُ أَكْتُبُ كُلَّ شَيْءٍ أَسْمَعُهُ مِنْ رَسُولِ اللَّهِ صَلَّى اللَّهُ عَلَيْهِ وَسَلَّمَ أُرِيدُ حِفْظَهُ، فَنَهَتْنِي قُرَيْشٌ، وَقَالُوا : تَكْتُبُ كُلَّ شَيْءٍ سَمِعْتَهُ مِنْ رَسُولِ اللَّهِ صَلَّى اللَّهُ عَلَيْهِ وَسَلَّمَ، وَرَسُولُ اللَّهِ صَلَّى اللَّهُ عَلَيْهِ وَسَلَّمَ بَشَرٌ يَتَكَلَّمُ فِي الْغَضَبِ وَالرِّضَاءِ؟ فَأَمْسَكْتُ عَنْ الْكِتَابِ، فَذَكَرْتُ ذَلِكَ لِرَسُولِ اللَّهِ صَلَّى اللَّهُ عَلَيْهِ وَسَلَّمَ، فَأَوْمَأَ بِإِصْبَعِهِ إِلَى فِيهِ، وَقَالَ :\" اكْتُبْ، فَوَالَّذِي نَفْسِي بِيَدِهِ، مَا خَرَجَ مِنْهُ إِلَّا حَقٌّ \"",
      "english": {
        "narrator": "",
        "text": ""
      }
    },
    {
      "id": 487,
      "chapterId": 0,
      "bookId": 9,
      "arabic": "أَخْبَرَنَا عَبْدُ اللَّهِ بْنُ صَالِحٍ  ، حَدَّثَنِي اللَّيْثُ  ، حَدَّثَنِي خَالِدُ بْنُ يَزِيدَ  ، عَنْ سَعِيدِ بْنِ أَبِي هِلَالٍ  ، عَنْ عَبْدِ الْوَاحِدِ بْنِ قَيْسٍ  ، قَالَ : أَخْبَرَنِي مُخْبِرٌ  ، عَنْ عَبْدِ اللَّهِ بْنِ عَمْرٍو   رَضِيَ اللهُ عَنْهُمَا، أَنَّهُ أَتَى رَسُولَ اللَّهِ صَلَّى اللَّهُ عَلَيْهِ وَسَلَّمَ، فَقَالَ : يَا رَسُولَ اللَّهِ، إِنِّي أُرِيدُ أَنْ أَرْوِيَ مِنْ حَدِيثِكَ، فَأَرَدْتُ أَنْ أَسْتَعِينَ بِكِتَابِ يَدِي مَعَ قَلْبِي إِنْ رَأَيْتَ ذَلِكَ؟، فَقَالَ رَسُولُ اللَّهِ صَلَّى اللَّهُ عَلَيْهِ وَسَلَّمَ إِنْ كَانَ قَالَهُ :\" عِ حَدِيثِي، ثُمَّ اسْتَعِنْ بِيَدِكَ مَعَ قَلْبِكَ \"",
      "english": {
        "narrator": "",
        "text": ""
      }
    },
    {
      "id": 488,
      "chapterId": 0,
      "bookId": 9,
      "arabic": "أَخْبَرَنَا عُثْمَانُ بْنُ مُحَمَّدٍ  ، حَدَّثَنَا يَحْيَى بْنُ إِسْحَاق  ، حَدَّثَنَا يَحْيَى بْنُ أَيُّوبَ  ، عَنْ أَبِي قَبِيلٍ  ، قَالَ : سَمِعْتُ عَبْدَ اللَّهِ بْنَ عَمْرٍو   رَضِيَ اللهُ عَنْهُ، قَالَ : بَيْنَمَا نَحْنُ حَوْلَ رَسُولِ اللَّهِ صَلَّى اللَّهُ عَلَيْهِ وَسَلَّمَ نَكْتُبُ إِذْ سُئِلَ رَسُولُ اللَّهِ صَلَّى اللَّهُ عَلَيْهِ وَسَلَّمَ : أَيُّ الْمَدِينَتَيْنِ تُفْتَحُ أَوَّلًا : قُسْطَنْطِينِيَّةُ ، أَوْ رُومِيَّةُ ؟، فَقَالَ النَّبِيُّ صَلَّى اللَّهُ عَلَيْهِ وَسَلَّمَ :\" لَا، بَلْ مَدِينَةُ هِرَقْلَ أَوَّلًا \"",
      "english": {
        "narrator": "",
        "text": ""
      }
    },
    {
      "id": 489,
      "chapterId": 0,
      "bookId": 9,
      "arabic": "أَخْبَرَنَا إِسْمَاعِيل بْنُ إِبْرَاهِيمَ أَبُو مَعْمَرٍ ، عَنْ أَبِي ضَمْرَةَ ، عَنْ يَحْيَى بْنِ سَعِيدٍ ،  عَنْ عَبْدِ اللَّهِ بْنِ دِينَارٍ ، قَالَ : كَتَبَ عُمَرُ بْنُ عَبْدِ الْعَزِيزِ  رَحِمَهُ الله إِلَى أَبِي بَكْرِ بْنِ مُحَمَّدِ بْنِ عَمْرِو بْنِ حَزْمٍ :\" أَنْ اكْتُبْ إِلَيَّ بِمَا ثَبَتَ عِنْدَكَ مِنْ الْحَدِيثِ عَنْ رَسُولِ اللَّهِ صَلَّى اللَّهُ عَلَيْهِ وَسَلَّمَ، وَبِحَدِيثِ عَمْرَةَ فَإِنِّي قَدْ خَشِيتُ دُرُوسَ الْعِلْمِ وَذَهَابَهُ \"",
      "english": {
        "narrator": "",
        "text": ""
      }
    },
    {
      "id": 490,
      "chapterId": 0,
      "bookId": 9,
      "arabic": "حَدَّثَنَا يَحْيَى بْنُ حَسَّانَ ، حَدَّثَنَا عَبْدُ الْعَزِيزِ بْنُ مُسْلِمٍ ، عَنْ عَبْدِ اللَّهِ بْنِ دِينَارٍ ، قَالَ : كَتَبَ عُمَرُ بْنُ عَبْدِ الْعَزِيزِ  إِلَى أَهْلِ الْمَدِينَةِ :\" أَنْ انْظُرُوا حَدِيثَ رَسُولِ اللَّهِ صَلَّى اللَّهُ عَلَيْهِ وَسَلَّمَ فَاكْتُبُوهُ، فَإِنِّي قَدْ خِفْتُ دُرُوسَ الْعِلْمِ وَذَهَابَ أَهْلِهِ \"",
      "english": {
        "narrator": "",
        "text": ""
      }
    },
    {
      "id": 491,
      "chapterId": 0,
      "bookId": 9,
      "arabic": "أَخْبَرَنَا سُلَيْمَانُ بْنُ حَرْبٍ ، حَدَّثَنَا حَمَّادُ بْنُ زَيْدٍ ، عَنْ أَيُّوبَ ، عَنْ أَبِي الْمَلِيحِ ، قَالَ :\" يَعِيبُونَ عَلَيْنَا الْكِتَابَ، وَقَدْ قَالَ اللَّهُ تَعَالَى : # عِلْمُهَا عِنْدَ رَبِّي فِي كِتَابٍ سورة طه آية 52 # \"",
      "english": {
        "narrator": "",
        "text": ""
      }
    },
    {
      "id": 492,
      "chapterId": 0,
      "bookId": 9,
      "arabic": "أَخْبَرَنَا عُبَيْدُ اللَّهِ بْنُ عَبْدِ الْمَجِيدِ ، حَدَّثَنَا سَوَادَةُ بْنُ حَيَّانَ ، قَالَ : سَمِعْتُ مُعَاوِيَةَ بْنَ قُرَّةَ أَبَا إِيَاسٍ ، يَقُولُ : كَانَ يُقَالُ :\" مَنْ لَمْ يَكْتُبْ عِلْمَهُ، لَمْ يُعَدَّ عِلْمُهُ عِلْمًا \"",
      "english": {
        "narrator": "",
        "text": ""
      }
    },
    {
      "id": 493,
      "chapterId": 0,
      "bookId": 9,
      "arabic": "أَخْبَرَنَا مُسْلِمُ بْنُ إِبْرَاهِيمَ  ، حَدَّثَنَا عَبْدُ اللَّهِ بْنُ الْمُثَنَّى  ، حَدَّثَنِي ثُمَامَةُ بْنُ عَبْدِ اللَّهِ بْنِ أَنَسٍ  : أَنَّ أَنَسًا   رَضِيَ اللهُ عَنْهُ كَانَ يَقُولُ لِبَنِيهِ : \" يَا بَنِيَّقَيِّدُوا هَذَا الْعِلْمَ \"",
      "english": {
        "narrator": "",
        "text": ""
      }
    }
  ]
}