{
  "page": 66,
  "perPage": 50,
  "totalPages": 69,
  "totalCount": 3406,
  "nextPage": 67,
  "prevPage": 65,
  "items": [
    {
      "id": 494,
      "chapterId": 0,
      "bookId": 9,
      "arabic": "أَخْبَرَنَا إِسْمَاعِيل بْنُ أَبَانَ ، حَدَّثَنَا ابْنُ إِدْرِيسَ ، عَنْ مَهْدِيِّ بْنِ مَيْمُونٍ ، عَنْ سَلْمٍ الْعَلَوِيِّ ، قَالَ :\" رَأَيْتُ أَبَانَ يَكْتُبُ عِنْدَ أَنَسٍ  رَضِيَ اللهُ عَنْهُ فِي سَبُّورَةٍ \"",
      "english": {
        "narrator": "",
        "text": ""
      }
    },
    {
      "id": 495,
      "chapterId": 0,
      "bookId": 9,
      "arabic": "أَخْبَرَنَا أَحْمَدُ بْنُ عِيسَى  ، حَدَّثَنَا ابْنُ وَهْبٍ  ، عَنْ مُعَاوِيَةَ  ، عَنْ الْحَسَنِ بْنِ جَابِرٍ  ، أَنَّهُ سَأَلَ أَبَا أُمَامَةَ الْبَاهِلِيَّ   رَضِيَ اللهُ عَنْهُ عَنْ كِتَابِ الْعِلْمِ، فَقَالَ :\" لَا بَأْسَ بِذَلِكَ \"",
      "english": {
        "narrator": "",
        "text": ""
      }
    },
    {
      "id": 496,
      "chapterId": 0,
      "bookId": 9,
      "arabic": "أَخْبَرَنَا مَخْلَدُ بْنُ مَالِكٍ  ، حَدَّثَنَا مُعَاذٌ  ، حَدَّثَنَا عِمْرَانُ بْنُ حُدَيْرٍ  ، عَنْ أَبِي مِجْلَزٍ  ، عَنْ بَشِيرِ بْنِ نَهِيكٍ  ، قَالَ : كُنْتُ أَكْتُبُ مَا أَسْمَعُ مِنْ أَبِي هُرَيْرَةَ   رَضِيَ اللهُ عَنْهُ، فَلَمَّا أَرَدْتُ أَنْ أُفَارِقَهُ،\" أَتَيْتُهُ بِكِتَابِهِ، فَقَرَأْتُهُ عَلَيْهِ، وَقُلْتُ لَهُ : هَذَا سَمِعْتُ مِنْكَ؟، قَالَ : نَعَمْ \"",
      "english": {
        "narrator": "",
        "text": ""
      }
    },
    {
      "id": 497,
      "chapterId": 0,
      "bookId": 9,
      "arabic": "أَخْبَرَنَا مُحَمَّدُ بْنُ سَعِيدٍ ، أَخْبَرَنَا شَرِيكٌ ، عَنْ طَارِقِ بْنِ عَبْدِ الرَّحْمَنِ ، عَنْ سَعِيدِ بْنِ جُبَيْرٍ ، قَالَ : كُنْتُ أَسْمَعُ مِنْ ابْنِ عُمَرَ، وَابْنِ عَبَّاسٍ رَضِيَ اللهُ عَنْهُمَا\" الْحَدِيثَ بِاللَّيْلِ فَأَكْتُبُهُ فِي وَاسِطَةِ الرَّحْلِ \"",
      "english": {
        "narrator": "",
        "text": ""
      }
    },
    {
      "id": 498,
      "chapterId": 0,
      "bookId": 9,
      "arabic": "أَخْبَرَنَا مُحَمَّدُ بْنُ سَعِيدٍ  ، أَخْبَرَنَا شَرِيكٌ  ، عَنْ لَيْثٍ  ، عَنْ مُجَاهِدٍ  ، عَنْ عَبْدِ اللَّهِ بْنِ عَمْرٍو  ، قَالَ :\" مَا يُرَغِّبُنِي فِي الْحَيَاةِ إِلَّا الصَّادِقَةُ وَالْوَهْطُ، فَأَمَّا الصَّادِقَةُ، فَصَحِيفَةٌ كَتَبْتُهَا مِنْ رَسُولِ اللَّهِ صَلَّى اللَّهُ عَلَيْهِ وَسَلَّمَ، وَأَمَّا الْوَهْطُ، فَأَرْضٌ تَصَدَّقَ بِهَا عَمْرُو بْنُ الْعَاصِ رَضِيَ اللهُ عَنْهُ كَانَ يَقُومُ عَلَيْهَا \"",
      "english": {
        "narrator": "",
        "text": ""
      }
    },
    {
      "id": 499,
      "chapterId": 0,
      "bookId": 9,
      "arabic": "أَخْبَرَنَا أَبُو عَاصِمٍ  ، أَخْبَرَنِي ابْنُ جُرَيْجٍ  ، عَنْ عَبْدِ الْمَلِكِ بْنِ عَبْدِ اللَّهِ بْنِ أَبِي سُفْيَانَ  ، عَنْ عَمِّهْ عَمْرِو بْنِ أَبِي سُفْيَانَ  ، أَنَّهُ سَمِعَ عُمَرَ بْنَ الْخَطَّابِ   رِضْوَانُ اللَّهِ عَلَيْهِ، يَقُولُ :\" قَيِّدُوا الْعِلْمَ بِالْكِتَابِ \"",
      "english": {
        "narrator": "",
        "text": ""
      }
    },
    {
      "id": 500,
      "chapterId": 0,
      "bookId": 9,
      "arabic": "أَخْبَرَنَا مَخْلَدُ بْنُ مَالِكٍ  ، حَدَّثَنَا يَحْيَى بْنُ سَعِيدٍ  ، حَدَّثَنَا ابْنُ جُرَيْجٍ  ، قَالَ : أَخْبَرَنِي عَبْدُ الْمَلِكِ بْنُ عَبْدِ اللَّهِ بْنِ أَبِي سُفْيَانَ الثَّقَفِيُّ  ،  عَنْ ابْنِ عُمَرَ   رَضِيَ اللهُ عَنْهُمَا أَنَّهُ، قَالَ :\" قَيِّدُوا هَذَا الْعِلْمَ بِالْكِتَابِ \"",
      "english": {
        "narrator": "",
        "text": ""
      }
    },
    {
      "id": 501,
      "chapterId": 0,
      "bookId": 9,
      "arabic": "أَخْبَرَنَا أَبُو النُّعْمَانِ ، حَدَّثَنَا عَبْدُ الْوَاحِدِ ، حَدَّثَنَا عُثْمَانُ بْنُ حَكِيمٍ ، قَالَ : سَمِعْتُ سَعِيدَ بْنَ جُبَيْرٍ ، يَقُولُ :\" كُنْتُ أَسِيرُ مَعَ ابْنِ عَبَّاسٍ رَضِيَ اللهُ عَنْهُ فِي طَرِيقِ مَكَّةَ لَيْلًا، وَكَانَ يُحَدِّثُنِي بِالْحَدِيثِ فَأَكْتُبُهُ فِي وَاسِطَةِ الرَّحْلِ حَتَّى أُصْبِحَ فَأَكْتُبَهُ \"",
      "english": {
        "narrator": "",
        "text": ""
      }
    },
    {
      "id": 502,
      "chapterId": 0,
      "bookId": 9,
      "arabic": "أَخْبَرَنَا إِسْمَاعِيل بْنُ أَبَانَ ، عَنْ يَعْقُوبَ الْقُمِّيِّ ، عَنْ جَعْفَرِ بْنِ أَبِي الْمُغِيرَةِ ، عَنْ سَعِيدِ بْنِ جُبَيْرٍ ، قَالَ :\" كُنْتُ أَكْتُبُ عِنْدَ ابْنِ عَبَّاسٍ رَضِيَ اللهُ عَنْهُ فِي صَحِيفَةٍ، وَأَكْتُبُ فِي نَعْلَيَّ \"",
      "english": {
        "narrator": "",
        "text": ""
      }
    },
    {
      "id": 503,
      "chapterId": 0,
      "bookId": 9,
      "arabic": "أَخْبَرَنَا مَالِكُ بْنُ إِسْمَاعِيل ، حَدَّثَنَا مَنْدَلُ بْنُ عَلِيٍّ الْعَنَزِيُّ ، حَدَّثَنِي جَعْفَرُ بْنُ أَبِي الْمُغِيرَةِ ، عَنْ سَعِيدِ بْنِ جُبَيْرٍ ، قَالَ :\" كُنْتُ أَجْلِسُ إِلَى ابْنِ عَبَّاسٍ فَأَكْتُبُ فِي الصَّحِيفَةِ حَتَّى تَمْتَلِئَ، ثُمَّ أَقْلِبُ نَعْلَيَّ فَأَكْتُبُ فِي ظُهُورِهِمَا \"",
      "english": {
        "narrator": "",
        "text": ""
      }
    },
    {
      "id": 504,
      "chapterId": 0,
      "bookId": 9,
      "arabic": "أَخْبَرَنَا عَمْرُو بْنُ عَوْنٍ ، أَخْبَرَنَا فُضَيْلٌ ، عَنْ عُبَيْدٍ الْمُكْتِبِ ، قَالَ :\" رَأَيْتُهُمْ يَكْتُبُونَ التَّفْسِيرَ عِنْدَ مُجَاهِدٍ \"",
      "english": {
        "narrator": "",
        "text": ""
      }
    },
    {
      "id": 505,
      "chapterId": 0,
      "bookId": 9,
      "arabic": "أَخْبَرَنَا مُحَمَّدُ بْنُ سَعِيدٍ ، أَخْبَرَنَا وَكِيعٍ ، حَدَّثَنَا أَبِي ، عَنْ عَبْدِ اللَّهِ بْنِ حَنَشٍ ، قَالَ :\" رَأَيْتُهُمْ يَكْتُبُونَ عِنْدَ الْبَرَاءِ بِأَطْرَافِ الْقَصَبِ عَلَى أَكُفِّهِمْ \"",
      "english": {
        "narrator": "",
        "text": ""
      }
    },
    {
      "id": 506,
      "chapterId": 0,
      "bookId": 9,
      "arabic": "أَخْبَرَنَا إِسْمَاعِيل بْنُ أَبَانَ  ، عَنْ ابْنِ إِدْرِيسَ  ، عَنْ هَارُونَ بْنِ عَنْتَرَةَ  ، عَنْ أَبِيهِ  ، حَدَّثَنِي ابْنُ عَبَّاسٍ   بِحَدِيثٍ، فَقُلْتُ : أَكْتُبُهُ عَنْكَ؟، قَالَ :\" فَرَخَّصَ لِي وَلَمْ يَكَدْ \"",
      "english": {
        "narrator": "",
        "text": ""
      }
    },
    {
      "id": 507,
      "chapterId": 0,
      "bookId": 9,
      "arabic": "أَخْبَرَنَا الْوَلِيدُ بْنُ شُجَاعٍ ، حَدَّثَنِي مُحَمَّدُ بْنُ شُعَيْبِ بْنِ شَابُورٍ ، أَخْبَرَنَا الْوَلِيدُ بْنُ سُلَيْمَانَ بْنِ أَبِي السَّائِبِ ، عَنْ رَجَاءِ بْنِ حَيْوَةَ ، أَنَّهُ حَدَّثَهُ، قَالَ : كَتَبَ هِشَامُ بْنُ عَبْدِ الْمَلِكِ إِلَى عَامِلِهِ أَنْ يَسْأَلَنِي عَنْ حَدِيثٍ، قَالَ رَجَاءٌ :\" فَكُنْتُ قَدْ نَسِيتُهُ لَوْلَا أَنَّهُ كَانَ عِنْدِي مَكْتُوبًا \"",
      "english": {
        "narrator": "",
        "text": ""
      }
    },
    {
      "id": 508,
      "chapterId": 0,
      "bookId": 9,
      "arabic": "أَخْبَرَنَا الْوَلِيدُ بْنُ شُجَاعٍ ، أَخْبَرَنِي مُحَمَّدُ بْنُ شُعَيْبٍ ، أَخْبَرَنَا هِشَامُ بْنُ الْغَازِ ، قَالَ :\" كَانَ يُسْأَلُ عَطَاءُ بْنُ أَبِي رَبَاحٍ  ، وَيُكْتَبُ مَا يُجِيبَ فِيهِ بَيْنَ يَدَيْهِ \"",
      "english": {
        "narrator": "",
        "text": ""
      }
    },
    {
      "id": 509,
      "chapterId": 0,
      "bookId": 9,
      "arabic": "أَخْبَرَنَا الْوَلِيدُ بْنُ شُجَاعٍ ، أَخْبَرَنَا مُحَمَّدُ بْنُ شُعَيْبِ بْنِ شَابُورٍ ، حَدَّثَنَا الْوَلِيدُ بْنُ سُلَيْمَانَ بْنِ أَبِي السَّائِبِ ، عَنْ سُلَيْمَانَ بْنِ مُوسَى  \" أَنَّهُرَأَى نَافِعًا  مَوْلَى ابْنِ عُمَرَ، يُمْلِي عِلْمَهُ، وَيُكْتَبُ بَيْنَ يَدَيْهِ \"",
      "english": {
        "narrator": "",
        "text": ""
      }
    },
    {
      "id": 510,
      "chapterId": 0,
      "bookId": 9,
      "arabic": "أَخْبَرَنَا الْوَلِيدُ بْنُ شُجَاعٍ ، حَدَّثَنَا الْمُبَارَكُ بْنُ سَعِيدٍ ، قَالَ :\" كَانَ سُفْيَانُ  يَكْتُبُ الْحَدِيثَ بِاللَّيْلِ فِي الْحَائِطِ، فَإِذَا أَصْبَحَ نَسَخَهُ ثُمَّ حَكَّهُ \"",
      "english": {
        "narrator": "",
        "text": ""
      }
    },
    {
      "id": 511,
      "chapterId": 0,
      "bookId": 9,
      "arabic": "أَخْبَرَنَا الْحُسَيْنُ بْنُ مَنْصُورٍ  ، حَدَّثَنَا أَبُو أُسَامَةَ  ، حَدَّثَنَا أَبُو غِفَارٍ الْمُثَنَّى بْنُ سَعْيدٍ الطَّائِيُّ  ، حَدَّثَنِي عَوْنُ بْنُ عَبْدِ اللَّهِ  ، قَالَ : قُلْتُ لِعُمَرَ بْنِ عَبْدِ الْعَزِيزِ : حَدَّثَنِي فُلَانٌ   رَجُلٌ مِنْ أَصْحَابِ رَسُولِ اللَّهِ صَلَّى اللَّهُ عَلَيْهِ وَسَلَّمَ فَعَرَفَهُ عُمَرُ، قُلْتُ : حَدَّثَنِي أَنَّ رَسُولَ اللَّهِ صَلَّى اللَّهُ عَلَيْهِ وَسَلَّمَ قَالَ :\" إِنَّ الْحَيَاءَ وَالْعَفَافَ وَالْعِيَّ عِيَّ اللِّسَانِ لَا عِيَّ الْقَلْبِ وَالْفِقْهَ مِنْ الْإِيمَانِ، وَهُنَّ مِمَّا يَزِدْنَ فِي الْآخِرَةِ، وَيُنْقِصْنَ مِنْ الدُّنْيَا، وَمَا يَزِدْنَ فِي الْآخِرَةِ أَكْثَرُ، وَإِنَّ الْبَذَاءَ وَالْجَفَاءَ وَالشُّحَّ مِنْ النِّفَاقِ، وَهُنَّ مِمَّا يَزِدْنَ فِي الدُّنْيَا، وَيُنْقِصْنَ فِي الْآخِرَةِ، وَمَا يُنْقِصْنَ فِي الْآخِرَةِ أَكْثَرُ \"، أَخْبَرَنَا الْحُسَيْنُ بْنُ مَنْصُورٍ  ، حَدَّثَنَا أَبُو أُسَامَةَ  ، حَدَّثَنِي سُلَيْمَانُ بْنُ الْمُغِيرَةِ  ، قَالَ : قَالَ أَبُو قِلَابَةَ  : خَرَجَ عَلَيْنَا عُمَرُ بْنُ عَبْدِ الْعَزِيزِ  لِصَلَاةِ الظُّهْرِ، وَمَعَهُ قِرْطَاسٌ ثُمَّ خَرَجَ عَلَيْنَا لِصَلَاةِ الْعَصْرِ، وَهُوَ مَعَهُ، فَقُلْتُ لَهُ : يَا أَمِيرَ الْمُؤْمِنِينَ، مَا هَذَا الْكِتَابُ؟، قَالَ : \" هَذَا حَدِيثٌ حَدَّثَنِي بِهِ عَوْنُ بْنُ عَبْدِ اللَّهِ  ، فَأَعْجَبَنِي فَكَتَبْتُهُ \"، فَإِذَا فِيهِ هَذَا الْحَدِيثُ",
      "english": {
        "narrator": "",
        "text": ""
      }
    },
    {
      "id": 512,
      "chapterId": 0,
      "bookId": 9,
      "arabic": "أَخْبَرَنَا إِسْمَاعِيل بْنُ أَبَانَ  ، حَدَّثَنَا مَسْعُودٌ  ، عَنْ يُونُسَ بْنِ عَبْدِ اللَّهِ بْنِ أَبِي فَرْوَةَ  ، عَنْ شُرَحْبِيلَ بْنِ أَبِي سَعْدٍ  ، قَالَ : دَعَا الْحَسَنُ   رَضِيَ اللهُ عَنْهُ بَنِيهِ وَبَنِي أَخِيهِ، فَقَالَ : \" يَا بَنِيَّ وَبَنِي أَخِي،إِنَّكُمْ صِغَارُ قَوْمٍ يُوشِكُ أَنْ تَكُونُوا كِبَارَ آخَرِينَ، فَتَعَلَّمُوا الْعِلْمَ، فَمَنْ لَمْ يَسْتَطِعْ مِنْكُمْ أَنْ يَرْوِيَهُ، أَوْ قَالَ : يَحْفَظَهُ فَلْيَكْتُبْهُ، وَلْيَضَعْهُ فِي بَيْتِهِ \"",
      "english": {
        "narrator": "",
        "text": ""
      }
    },
    {
      "id": 513,
      "chapterId": 0,
      "bookId": 9,
      "arabic": "أَخْبَرَنَا الْوَلِيدُ بْنُ شُجَاعٍ  ، حَدَّثَنَا سُفْيَانُ بْنُ عُيَيْنَةَ  ، حَدَّثَنَاهُ عَاصِمٌ  ، عَنْ شَقِيقٍ  ، عَنْ جَرِيرٍ   رَضِيَ اللهُ عَنْهُ، قَالَ : قَالَ رَسُولُ اللَّهِ صَلَّى اللَّهُ عَلَيْهِ وَسَلَّمَ :\" مَنْ سَنَّ سُنَّةً حَسَنَةً عُمِلَ بِهَا بَعْدَهُ، كَانَ لَهُ مِثْلُ أَجْرِ مَنْ عَمِلَ بِهَا مِنْ غَيْرِ أَنْ يُنْقَصَ مِنْ أَجْرِهِ شَيْءٌ، وَمَنْ سَنَّ سُنَّةً سَيِّئَةً، كَانَ عَلَيْهِ مِثْلُ وِزْرِ مَنْ عَمِلَ بِهَا مِنْ غَيْرِ أَنْ يُنْقَصَ مِنْ أَوْزَارِهِمْ شَيْءٌ \"",
      "english": {
        "narrator": "",
        "text": ""
      }
    },
    {
      "id": 514,
      "chapterId": 0,
      "bookId": 9,
      "arabic": "أَخْبَرَنَا الْوَلِيدُ بْنُ شُجَاعٍ  ، حَدَّثَنَا إِسْمَاعِيل بْنُ جَعْفَرٍ  ، عَنْ الْعَلَاءِ بْنِ عَبْدِ الرَّحْمَنِ بْنِ يَعْقُوبَ  مَوْلَى الْحُرَقَةِ، عَنْ أَبِيهِ  ، عَنْ أَبِي هُرَيْرَةَ   رَضِيَ اللهُ عَنْهُ، أَنّ رَسُولَ اللَّهِ صَلَّى اللَّهُ عَلَيْهِ وَسَلَّمَ قَالَ :\" مَنْ دَعَا إِلَى هُدًى، كَانَ لَهُ مِنْ الْأَجْرِ مِثْلُ أُجُورِ مَنْ اتَّبَعَهُ، لَا يَنْقُصُ ذَلِكَ مِنْ أُجُورِهِمْ شَيْئًا، وَمَنْ دَعَا إِلَى ضَلَالَةٍ، كَانَ عَلَيْهِ مِنْ الْإِثْمِ مِثْلُ آثَامِ مَنْ اتَّبِعَهُ لَا يَنْقُصُ ذَلِكَ مِنْ آثَامِهِمْ شَيْئًا \"",
      "english": {
        "narrator": "",
        "text": ""
      }
    },
    {
      "id": 515,
      "chapterId": 0,
      "bookId": 9,
      "arabic": "أَخْبَرَنَا الْوَلِيدُ بْنُ شُجَاعٍ  ، حَدَّثَنَا أَبُو مُعَاوِيَةَ  ، حَدَّثَنَا الْأَعْمَشُ  ، عَنْ مُسْلِمٍ يَعْنِي ابْنَ صُبَيْحٍ  ، عَنْ عَبْدِ الرَّحْمَنِ بْنِ هِلَالٍ الْعَبْسِيِّ  ، عَنْ جَرِيرِ بْنِ عَبْدِ اللَّهِ   رَضِيَ اللهُ عَنْهُ، قَالَ : خَطَبَنَا رَسُولُ اللَّهِ صَلَّى اللَّهُ عَلَيْهِ وَسَلَّمَ \" فَحَثَّ النَّاسَ عَلَى الصَّدَقَةِ، فَأَبْطَئُوا حَتَّى بَانَ فِي وَجْهِهِ الْغَضَبُ \"، ثُمَّ إِنَّ رَجُلًا مِنْ الْأَنْصَارِ جَاءَ بِصُرَّةٍ، فَتَتَابَعَ النَّاسُ حَتَّى رُئِيَ فِي وَجْهِهِ السُّرُورُ، فَقَالَ :\" مَنْ سَنَّ سُنَّةً حَسَنَةً، كَانَ لَهُ أَجْرُهُ، وَمِثْلُ أَجْرِ مَنْ عَمِلَ بِهَا مِنْ غَيْرِ أَنْ يُنْقَصَ مِنْ أُجُورِهِمْ شَيْءٌ، وَمَنْ سَنَّ سُنَّةً سَيِّئَةً، كَانَ عَلَيْهِ وِزْرُهُ، وَمِثْلُ وِزْرِ مَنْ عَمِلَ بِهَا مِنْ غَيْرِ أَنْ يُنْقَصَ مِنْ أَوْزَارِهِمْ شَيْءٌ \"",
      "english": {
        "narrator": "",
        "text": ""
      }
    },
    {
      "id": 516,
      "chapterId": 0,
      "bookId": 9,
      "arabic": "أَخْبَرَنَا عَبْدُ الْوَهَّابِ بْنُ سَعِيدٍ  ، حَدَّثَنَا شُعَيْبٌ هُوَ ابْنُ إِسْحَاق  ، حَدَّثَنَا الْأَوْزَاعِيُّ  ، حَدَّثَنِي حَسَّانُ بْنُ عَطِيَّةَ  ، أَنّ رَسُولَ اللَّهِ صَلَّى اللَّهُ عَلَيْهِ وَسَلَّمَ قَالَ :\" أَنَا أَعْظَمُكُمْ أَجْرًا يَوْمَ الْقِيَامَةِ، لِأَنَّ لِي أَجْرِي وَمِثْلَ أَجْرِ مَنْ اتَّبَعَنِي \"",
      "english": {
        "narrator": "",
        "text": ""
      }
    },
    {
      "id": 517,
      "chapterId": 0,
      "bookId": 9,
      "arabic": "أَخْبَرَنَا مَالِكُ بْنُ إِسْمَاعِيل  ، حَدَّثَنَا عَبْدُ السَّلَامِ  ، عَنْ لَيْثٍ  ، عَنْ بِشْرٍ  ، عَنْ أَنَسٍ   رَضِيَ اللهُ عَنْهُ، قَالَ : قَالَ رَسُولُ اللَّهِ صَلَّى اللَّهُ عَلَيْهِ وَسَلَّمَ :\" مَنْ دَعَا إِلَى أَمْرٍ وَلَوْ دَعَا رَجُلٌ رَجُلًا، كَانَ يَوْمَ الْقِيَامَةِ مَوْقُوفًا بِهِ، لَازِمًا بِغَارِبِهِ، ثُمَّ قَرَأَ : # وَقِفُوهُمْ إِنَّهُمْ مَسْئُولُونَ سورة الصافات آية 24 # \"",
      "english": {
        "narrator": "",
        "text": ""
      }
    },
    {
      "id": 518,
      "chapterId": 0,
      "bookId": 9,
      "arabic": "أَخْبَرَنَا عَمْرُو بْنُ عَاصِمٍ  ، حَدَّثَنَا حَمَّادُ بْنُ سَلَمَةَ  ، عَنْ عَاصِمٍ  ، عَنْ الشَّعْبِيِّ  ، أَنَّ ابْنَ مَسْعُودٍ   رَضِيَ اللهُ عَنْهُ، قَالَ :\" أَرْبَعٌ يُعْطَاهَا الرَّجُلُ بَعْدَ مَوْتِهِ : ثُلُثُ مَالِهِ إِذَا كَانَ فِيهِ قَبْلَ ذَلِكَ لِلَّهِ مُطِيعًا، وَالْوَلَدُ الصَّالِحُ يَدْعُو لَهُ مِنْ بَعْدِ مَوْتِهِ، وَالسُّنَّةُ الْحَسَنَةُ يَسُنُّهَا الرَّجُلُ فَيُعْمَلُ بِهَا بَعْدَ مَوْتِهِ، وَالْمِائَةُ إِذَا شَفَعُوا لِلرَّجُلِ شُفِّعُوا فِيهِ \"",
      "english": {
        "narrator": "",
        "text": ""
      }
    },
    {
      "id": 519,
      "chapterId": 0,
      "bookId": 9,
      "arabic": "أَخْبَرَنَا أَحْمَدُ بْنُ الْحَجَّاجِ ، حَدَّثَنَا سُفْيَانُ بْنُ عُيَيْنَةَ ، عَنْ الْأَعْمَشِ ، قَالَ :\" جَهَدْنَا بِإِبْرَاهِيمَ  حَتَّى أَنْ نُجْلِسَهُ إِلَى سَارِيَةٍ، فَأَبَى \"",
      "english": {
        "narrator": "",
        "text": ""
      }
    },
    {
      "id": 520,
      "chapterId": 0,
      "bookId": 9,
      "arabic": "أَخْبَرَنَا عَفَّانُ ، حَدَّثَنَا أَبُو عَوَانَةَ ، عَنْ مُغِيرَةَ ، عَنْ إِبْرَاهِيمَ  \" أَنَّهُ كَانَيَكْرَهُ أَنْ يَسْتَنِدَ إِلَى السَّارِيَةِ \"",
      "english": {
        "narrator": "",
        "text": ""
      }
    },
    {
      "id": 521,
      "chapterId": 0,
      "bookId": 9,
      "arabic": "أَخْبَرَنَا الْحَكَمُ بْنُ الْمُبَارَكِ ، حَدَّثَنَا أَبُو عَوَانَةَ ، عَنْ مُغِيرَةَ ، قَالَ :\" كَانَ إِبْرَاهِيمُ  لَا يَبْتَدِئُ الْحَدِيثَ حَتَّى يُسْأَلَ \"",
      "english": {
        "narrator": "",
        "text": ""
      }
    },
    {
      "id": 522,
      "chapterId": 0,
      "bookId": 9,
      "arabic": "أَخْبَرَنَا عَبْدُ اللَّهِ بْنُ سَعِيدٍ ، حَدَّثَنَا يُونُسُ بْنُ بُكَيْرٍ ، حَدَّثَنَا الْأَعْمَشُ ، عَنْ خَيْثَمَةَ ، قَالَ : كَانَ الْحَارِثُ بْنُ قَيْسٍ الْجُعْفِيُّ  وَكَانَ مِنْ أَصْحَابِ عَبْدِ اللَّهِ، وَكَانُوا مُعْجَبِينَ بِهِ، \" فَكَانَيَجْلِسُ إِلَيْهِ الرَّجُلُ وَالرَّجُلَانِ فَيُحَدِّثُهُمَا، فَإِذَا كَثُرُوا، قَامَ وَتَرَكَهُمْ \"",
      "english": {
        "narrator": "",
        "text": ""
      }
    },
    {
      "id": 523,
      "chapterId": 0,
      "bookId": 9,
      "arabic": "أَخْبَرَنَا أَحْمَدُ بْنُ عَبْدِ اللَّهِ بْنِ يُونُسَ ، حَدَّثَنَا أَبُو شِهَابٍ ، عَنْ الْأَعْمَشِ ، عَنْ إِبْرَاهِيمَ ،  عَنْ عَلْقَمَةَ ، قَالَ : قِيلَ لَهُ حِينَ مَاتَ عَبْدُ اللَّهِ رَضِيَ اللهُ عَنْهُ : لَوْ قَعَدْتَ فَعَلَّمْتَ النَّاسَ السُّنَّةَ؟، فَقَالَ :\" أَتُرِيدُونَ أَنْ يُوطَأَ عَقِبِي؟ \"",
      "english": {
        "narrator": "",
        "text": ""
      }
    },
    {
      "id": 524,
      "chapterId": 0,
      "bookId": 9,
      "arabic": "أَخْبَرَنَا مُحَمَّدُ بْنُ الْعَلَاءِ  ، حَدَّثَنَا ابْنُ إِدْرِيسَ  ، قَالَ : سَمِعْتُ هَارُونَ بْنَ عَنْتَرَةَ  ، عَنْ سُلَيْمِ بْنِ حَنْظَلَةَ  ، قَالَ : أَتَيْنَا أُبَيَّ بْنَ كَعْبٍ لِنَتَحَدَّثَ إِلَيْهِ، فَلَمَّا قَامَ قُمْنَا، وَنَحْنُ نَمْشِي خَلْفَهُ، فَرَهَقَنَا عُمَرُ   رَضِيَ اللهُ عَنْهُ، فَتَبِعَهُ فَضَرَبَهُ عُمَرُ بِالدِّرَّةِ، قَالَ : فَاتَّقَاهُ بِذِرَاعَيْهِ، فَقَالَ : يَا أَمِيرَ الْمُؤْمِنِينَ، مَا نَصْنَعُ؟، قَالَ :\" أَوَ مَا تَرَى؟ فِتْنَةً لِلْمَتْبُوعِ، مَذَلَّةً لِلتَّابِعِ \"",
      "english": {
        "narrator": "",
        "text": ""
      }
    },
    {
      "id": 525,
      "chapterId": 0,
      "bookId": 9,
      "arabic": "أَخْبَرَنَا مُحَمَّدُ بْنُ عِيسَى ، حَدَّثَنَا جَرِيرٌ ، عَنْ مَنْصُورٍ ، عَنْ إِبْرَاهِيمَ  قَالَ :\" كَانُوا يَكْرَهُونَ أَنْ تُوطَأَ أَعْقَابُهُمْ \"",
      "english": {
        "narrator": "",
        "text": ""
      }
    },
    {
      "id": 526,
      "chapterId": 0,
      "bookId": 9,
      "arabic": "أَخْبَرَنَا سَعِيدُ بْنُ عَامِرٍ ، عَنْ بِسْطَامِ بْنِ مُسْلِمٍ ، قَالَ : كَانَ مُحَمَّدُ بْنُ سِيرِينَ  إِذَا مَشَى مَعَهُ الرَّجُلُ قَامَ، فَقَالَ :\" أَلَكَ حَاجَةٌ؟ فَإِنْ كَانَتْ لَهُ حَاجَةٌ، قَضَاهَا، وَإِنْ عَادَ يَمْشِي مَعَهُ قَامَ، فَقَالَ : أَلَكَ حَاجَةٌ؟ \"",
      "english": {
        "narrator": "",
        "text": ""
      }
    },
    {
      "id": 527,
      "chapterId": 0,
      "bookId": 9,
      "arabic": "أَخْبَرَنَا أَبُو نُعَيْمٍ ، حَدَّثَنَا حَسَنُ بْنُ صَالِحٍ ، عَنْ أَبِي حَمْزَةَ ، عَنْ إِبْرَاهِيمَ ، قَالَ :\" إِيَّاكُمْ أَنْ تُوطَأَ أَعْقَابُكُمْ \"",
      "english": {
        "narrator": "",
        "text": ""
      }
    },
    {
      "id": 528,
      "chapterId": 0,
      "bookId": 9,
      "arabic": "أَخْبَرَنَا مَخْلَدُ بْنُ مَالِكٍ ، حَدَّثَنَا حَجَّاجُ بْنُ مُحَمَّدٍ ، حَدَّثَنَا شُعْبَةُ ، عَنْ الْهَيْثَمِ ، عَنْ عَاصِمِ بْنِ ضَمْرَةَ أَنَّهُ رَأَى أُنَاسًا يَتْبَعُونَ سَعِيدَ بْنَ جُبَيْر ، قَالَ : فَأُرَاهُ قَالَ : نَهَاهُمْ، وَقَالَ :\" إِنَّ صَنِيعَكُمْ هَذَا أَوْ مَشْيَكُمْ هَذَا مَذَلَّةٌ لِلتَّابِعِ، وَفِتْنَةٌ لِلْمَتْبُوعِ \"",
      "english": {
        "narrator": "",
        "text": ""
      }
    },
    {
      "id": 529,
      "chapterId": 0,
      "bookId": 9,
      "arabic": "أَخْبَرَنَا سَعِيدُ بْنُ عَامِرٍ ، حَدَّثَنَا حُمَيْدُ بْنُ أَسْوَدَ ، عَنْ ابْنِ عَوْنٍ ، قَالَ :\" شَاوَرْتُ مُحَمَّدًا  فِي بِنَاءٍ أَرَدْتُ أَنْ أَبْنِيَهُ فِي الْكَلَّاءِ، قَالَ : فَأَشَارَ عَلَيَّ، وَقَالَ : إِذَا أَرَدْتَ أَسَاسَ الْبِنَاءِ فَآذِنِّي حَتَّى أَجِيءَ مَعَكَ، قَالَ : فَأَتَيْتُهُ، قَالَ : فَبَيْنَمَا نَحْنُ نَمْشِي إِذْ جَاءَ رَجُلٌ فَمَشَى مَعَهُ، فَقَامَ، فَقَالَ : أَلَكَ حَاجَةٌ؟، قَالَ : لَا، قَالَ : أَمَّا لَا، فَاذْهَبْ، ثُمَّ أَقْبَلَ عَلَيَّ، فَقَالَ : أَنْتَ أَيْضًا فَاذْهَبْ، قَالَ : فَذَهَبْتُ حَتَّى خَالَفْتُ الطَّرِيقَ \"",
      "english": {
        "narrator": "",
        "text": ""
      }
    },
    {
      "id": 530,
      "chapterId": 0,
      "bookId": 9,
      "arabic": "أَخْبَرَنَا أَحْمَدُ بْنُ الْحَجَّاجِ ، حَدَّثَنَا عَبْدُ الرَّحْمَنِ بْنُ مَهْدِيٍّ ، عَنْ سُفْيَانَ ، عَنْ نُسَيْرٍ ، أَنَّ الرَّبِيعَ  كَانَ إِذَا أَتَوْهُ، يَقُولُ :\" أَعُوذُ بِاللَّهِ مِنْ شَرِّكُمْ \"، يَعْنِي : أَصْحَابَهُ",
      "english": {
        "narrator": "",
        "text": ""
      }
    },
    {
      "id": 531,
      "chapterId": 0,
      "bookId": 9,
      "arabic": "أَخْبَرَنَا مَخْلَدُ بْنُ مَالِكٍ  ، حَدَّثَنَا يَحْيَى بْنُ سَعِيدٍ  ، عَنْ الْأَعْمَشِ  ، عَنْ رَجَاءٍ الْأَنْصَارِيِّ  ، عَنْ عَبْدِ الرَّحْمَنِ بْنِ بِشْرٍ  ، قَالَ : كُنَّا عِنْدَ خَبَّابِ بْنِ الْأَرَتِّ   رَضِيَ اللهُ عَنْهُ، فَاجْتَمَعَ إِلَيْهِ أَصْحَابُهُ وَهُوَ سَاكِتٌ، فَقِيلَ لَهُ : أَلَا تُحَدِّثُ أَصْحَابَكَ؟، قَالَ :\" أَخَافُ أَنْ أَقُولَ لَهُمْ مَا لَا أَفْعَلُ \"",
      "english": {
        "narrator": "",
        "text": ""
      }
    },
    {
      "id": 532,
      "chapterId": 0,
      "bookId": 9,
      "arabic": "أَخْبَرَنَا مُحَمَّدُ بْنُ يُوسُفَ ، عَنْ سُفْيَانَ ، عَنْ صَالِحٍ ، قَالَ : سَمِعْتُ الشَّعْبِيَّ ، قَالَ :\" وَدِدْتُ أَنِّي نَجَوْتُ مِنْ عَمَلِي كَفَافًا لَا لِي وَلَا عَلَيَّ \"",
      "english": {
        "narrator": "",
        "text": ""
      }
    },
    {
      "id": 533,
      "chapterId": 0,
      "bookId": 9,
      "arabic": "أَخْبَرَنَا يَزِيدُ بْنُ هَارُونَ  ، حَدَّثَنَا ابْنُ عَوْنٍ  ، عَنْ الْحَسَنِ  ، أَنَّ ابْنَ مَسْعُودٍ   رَضِيَ اللهُ عَنْهُ كَانَ يَمْشِي وَنَاسٌ يَطَئُونَ عَقِبَهُ، فَقَالَ :\" لَا تَطَئُوا عَقِبِي، فَوَاللَّهِ لَوْ تَعْلَمُونَ مَا أُغْلِقُ عَلَيْهِ بَابِي، مَا تَبِعَنِي رَجُلٌ مِنْكُمْ \"",
      "english": {
        "narrator": "",
        "text": ""
      }
    },
    {
      "id": 534,
      "chapterId": 0,
      "bookId": 9,
      "arabic": "أَخْبَرَنَا مُحَمَّدُ بْنُ حُمَيْدٍ ، حَدَّثَنَا جَرِيرٌ ، عَنْ مُغِيرَةَ ، عَنْ سَعِيدِ بْنِ جُبَيْرٍ ، قَالَ :\" فِتْنَةٌ لِلْمَتْبُوعِ، مَذَلَّةٌ لِلتَّابِعِ \"",
      "english": {
        "narrator": "",
        "text": ""
      }
    },
    {
      "id": 535,
      "chapterId": 0,
      "bookId": 9,
      "arabic": "أَخْبَرَنَا شِهَابُ بْنُ عَبَّادٍ  ، حَدَّثَنَا سُفْيَانُ  ، عَنْ أُمَيٍّ  ، قَالَ : مَشَوْا خَلْفَ عَلِيٍّ   رَضِيَ اللهُ عَنْهُ، فَقَالَ :\" عَنِّي خَفْقَ نِعَالِكُمْ، فَإِنَّهَا مُفْسِدَةٌ لِقُلُوبِ نَوْكَى الرِّجَالِ \"",
      "english": {
        "narrator": "",
        "text": ""
      }
    },
    {
      "id": 536,
      "chapterId": 0,
      "bookId": 9,
      "arabic": "أَخْبَرَنَا أَبُو النُّعْمَانِ ، حَدَّثَنَا حَمَّادُ بْنُ زَيْدٍ ، عَنْ يَزِيدَ بْنِ حَازِمٍ ، قَالَ : سَمِعْتُ الْحَسَنَ ، يَقُولُ :\" إِنَّ خَفْقَ النِّعَالِ حَوْلَ الرِّجَالِ قَلَّ مَا يُلَبِّثُ الْحَمْقَى \"",
      "english": {
        "narrator": "",
        "text": ""
      }
    },
    {
      "id": 537,
      "chapterId": 0,
      "bookId": 9,
      "arabic": "أَخْبَرَنَا مُحَمَّدُ بْنُ حَاتِمٍ الْمُكْتِبُ ، حَدَّثَنَا قَاسِمُ هُوَ ابْنُ مَالِكٍ ، حَدَّثَنَا لَيْثٌ ، عَنْ طَاوُسٍ ، قَالَ :\" كَانَ إِذَا جَلَسَ إِلَيْهِ الرَّجُلُ أَوْ الرَّجُلَانِ، قَامَ فَتَنَحَّى \"",
      "english": {
        "narrator": "",
        "text": ""
      }
    },
    {
      "id": 538,
      "chapterId": 0,
      "bookId": 9,
      "arabic": "أَخْبَرَنَا أَسْوَدُ بْنُ عَامِرٍ  ، حَدَّثَنَا أَبُو بَكْرٍ  ، عَنْ الْأَعْمَشِ  ، عَنْ سَعِيدِ بْنِ عَبْدِ اللَّهِ بْنِ جُرَيْجٍ  ،  عَنْ أَبِي بَرْزَةَ الْأَسْلَمِيِّ  ، قَالَ : قَالَ رَسُولُ اللَّهِ صَلَّى اللَّهُ عَلَيْهِ وَسَلَّمَ :\" لَا تَزُولُ قَدَمَا عَبْدٍ يَوْمَ الْقِيَامَةِ حَتَّى يُسْأَلَ عَنْ عُمُرِهِ فِيمَا أَفْنَاهُ، وَعَنْ عِلْمِهِ مَا فَعَلَ بِهِ، وَعَنْ مَالِهِ مِنْ أَيْنَ اكْتَسَبَهُ وَفِيمَا أَنْفَقَهُ، وَعَنْ جِسْمِهِ فِيمَا أَبْلَاهُ \"",
      "english": {
        "narrator": "",
        "text": ""
      }
    },
    {
      "id": 539,
      "chapterId": 0,
      "bookId": 9,
      "arabic": "أَخْبَرَنَا سَعِيدُ بْنُ مَنْصُورٍ  ، حَدَّثَنَا عَبْدُ الْعَزِيزِ بْنُ مُحَمَّدٍ  ، عَنْ عُمَارَةَ بْنِ غَزِيَّةَ  ، عَنْ يَحْيَى بْنِ رَاشِدٍ  ، حَدَّثَنِي فُلَانٌ الْعُرَنِيُّ  ، عَنْ مُعَاذِ بْنِ جَبَلٍ   رَضِيَ اللهُ عَنْهُ، قَالَ :\" لَا يَدَعُ اللَّهُ الْعِبَادَ يَوْمَ الْقِيَامَةِ يَوْمَ يَقُومُ النَّاسُ لِرَبِّ الْعَالَمِينَ حَتَّى يَسْأَلَهُمْ عَنْ أَرْبَعٍ : عَمَّا أَفْنَوْا فِيهِ أَعْمَارَهُمْ، وَعَمَّا أَبْلَوْا فِيهِ أَجْسَادَهُمْ، وَعَمَّا كَسَبُوا وفِيمَا أَنْفَقُوا، وَعَمَّا عَمِلُوا فِيمَا عَلِمُوا \"",
      "english": {
        "narrator": "",
        "text": ""
      }
    },
    {
      "id": 540,
      "chapterId": 0,
      "bookId": 9,
      "arabic": "أَخْبَرَنَا مُحَمَّدُ بْنُ يُوسُفَ  ، عَنْ سُفْيَانَ  ، عَنْ لَيْثٍ  ، عَنْ عَدِيِّ بْنِ عَدِيٍّ  ، عَنْ أَبِي عَبْدِ اللَّهِ الصُّنَابِحِيِّ  ، عَنْ مُعَاذِ بْنِ جَبَلٍ   رَضِيَ اللهُ عَنْهُ، قَالَ :\" لَا تَزُولُ قَدَمَا عَبْدٍ يَوْمَ الْقِيَامَةِ حَتَّى يُسْأَلَ عَنْ أَرْبَعٍ : عَنْ عُمُرِهِ فِيمَا أَفْنَاهُ، وَعَنْ جَسَدِهِ فِيمَا أَبْلَاهُ، وَعَنْ مَالِهِ مِنْ أَيْنَ اكْتَسَبَهُ، وَفِيمَا وَضَعَهُ، وَعَنْ عِلْمِهِ مَاذَا عَمِلَ فِيهِ \"",
      "english": {
        "narrator": "",
        "text": ""
      }
    },
    {
      "id": 541,
      "chapterId": 0,
      "bookId": 9,
      "arabic": "أَخْبَرَنَا مُحَمَّدُ بْنُ يُوسُفَ ، عَنْ سُفْيَانَ ، عَنْ لَيْثٍ ، قَالَ : قَالَ لِي طَاوُسٌ  :\" مَا تَعَلَّمْتَ، فَتَعَلَّمْ لِنَفْسِكَ، فَإِنَّ النَّاسَ قَدْ ذَهَبَتْ مِنْهُمْ الْأَمَانَةُ \"",
      "english": {
        "narrator": "",
        "text": ""
      }
    },
    {
      "id": 542,
      "chapterId": 0,
      "bookId": 9,
      "arabic": "أَخْبَرَنَا سُلَيْمَانُ بْنُ حَرْبٍ ، عَنْ عُمَارَةَ بْنِ مِهْرَانَ ، عَنْ الْحَسَنِ ، قَالَ :\" أَدْرَكْتُ النَّاسَ وَالنَّاسِكُ إِذَا نَسَكَ لَمْ يُعْرَفْ مِنْ قِبَلِ مَنْطِقِهِ، وَلَكِنْ يُعْرَفُ مِنْ قِبَلِ عَمَلِهِ، فَذَلِكَ الْعِلْمُ النَّافِعُ \"",
      "english": {
        "narrator": "",
        "text": ""
      }
    },
    {
      "id": 543,
      "chapterId": 0,
      "bookId": 9,
      "arabic": "أَخْبَرَنَا أَبُو الْمُغِيرَةِ  ، حَدَّثَنَا الْأَوْزَاعِيُّ  ، عَنْ حَسَّانَ  ، عَنْ أَبِي كَبْشَةَ  ، قَالَ : سَمِعْتُ عَبْدَ اللَّهِ بْنَ عَمْرٍو   رَضِيَ اللهُ عَنْهُ، قَالَ : سَمِعْتُ رَسُولَ اللَّهِ صَلَّى اللَّهُ عَلَيْهِ وَسَلَّمَ يَقُولُ :\" بَلِّغُوا عَنِّي وَلَوْ آيَةً، وَحَدِّثُوا عَنْ بَنِي إِسْرَائِيلَ وَلَا حَرَجَ، وَمَنْ كَذَبَ عَلَيَّ مُتَعَمِّدًا، فَلْيَتَبَوَّأْ مَقْعَدَهُ مِنْ النَّارِ \"",
      "english": {
        "narrator": "",
        "text": ""
      }
    }
  ]
}