{
  "page": 67,
  "perPage": 50,
  "totalPages": 69,
  "totalCount": 3406,
  "nextPage": 68,
  "prevPage": 66,
  "items": [
    {
      "id": 544,
      "chapterId": 0,
      "bookId": 9,
      "arabic": "أَخْبَرَنَا عَلِيُّ بْنُ حُجْرٍ السَّعْدِيُّ  ، أَخْبَرَنَا يَزِيدُ بْنُ هَارُونَ  ، أَخْبَرَنَا الْعَوَّامُ بْنُ حَوْشَبٍ أَبُو عِيسَى الشَّيْبَانِيُّ  ، حَدَّثَنَا الْقَاسِمُ بْنُ عَوْفٍ الشَّيْبَانِيُّ  ، عَنْ أَبِي ذَرٍّ   رَضِيَ اللهُ عَنْهُ، قَالَ : أَمَرَنَا رَسُولُ اللَّهِ صَلَّى اللَّهُ عَلَيْهِ وَسَلَّمَ \" أَنْلَا يَغْلِبُونَا عَلَى ثَلَاثٍ : أَنْ نَأْمُرَ بِالْمَعْرُوفِ، وَنَنْهَى عَنْ الْمُنْكَرِ، وَنُعَلِّمَ النَّاسَ السُّنَنَ \"",
      "english": {
        "narrator": "",
        "text": ""
      }
    },
    {
      "id": 545,
      "chapterId": 0,
      "bookId": 9,
      "arabic": "أَخْبَرَنَا أَبُو الْمُغِيرَةِ  ، حَدَّثَنَا صَفْوَانُ  ، حَدَّثَنِي سُلَيْمُ بْنُ عَامِرٍ  ، قَالَ : كَانَ أَبُو أُمَامَةَ   رَضِيَ اللهُ عَنْهُ إِذَا قَعَدْنَا إِلَيْهِ يَجِيئُنَا مِنْ الْحَدِيثِ بِأَمْرٍ عَظِيمٍ، وَيَقُولُ :\" لَنَا اسْمَعُوا وَاعْقِلُوا، وَبَلِّغُوا عَنَّا مَا تَسْمَعُونَ \"، قَالَ سُلَيْمٌ : \" بِمَنْزِلَةِ الَّذِي يُشْهِدُ عَلَى مَا عَلِمَ \"",
      "english": {
        "narrator": "",
        "text": ""
      }
    },
    {
      "id": 546,
      "chapterId": 0,
      "bookId": 9,
      "arabic": "أَخْبَرَنَا عَبْدُ الْوَهَّابِ بْنُ سَعِيدٍ  ، حَدَّثَنَا شُعَيْبٌ هُوَ ابْنُ إِسْحَاق  ، حَدَّثَنَا الْأَوْزَاعِيُّ  ، حَدَّثَنِي أَبُو كَثِيرٍ  ، حَدَّثَنِي أَبِي  ، قَالَ : أَتَيْتُ أَبَا ذَرٍّ   رَضِيَ اللهُ عَنْهُ وَهُوَ جَالِسٌ عِنْدَ الْجَمْرَةِ الْوُسْطَى، وَقَدْ اجْتَمَعَ النَّاسُ عَلَيْهِ يَسْتَفْتُونَهُ، فَأَتَاهُ رَجُلٌ فَوَقَفَ عَلَيْهِ، ثُمَّ قَالَ : أَلَمْ تُنْهَ عَنْ الْفُتْيَا؟ فَرَفَعَ رَأْسَهُ إِلَيْهِ، فَقَالَ :\" أَرَقِيبٌ أَنْتَ عَلَيَّ؟ لَوْ وَضَعْتُمْ الصَّمْصَامَةَ عَلَى هَذِهِ وَأَشَارَ إِلَى قَفَاهُ، ثُمَّ ظَنَنْتُ أَنِّي أُنْفِذُ كَلِمَةً سَمِعْتُهَا مِنْ رَسُولِ اللَّهِ صَلَّى اللَّهُ عَلَيْهِ وَسَلَّمَ قَبْلَ أَنْ تُجِيزُوا عَلَيَّ لَأَنْفَذْتُهَا \"",
      "english": {
        "narrator": "",
        "text": ""
      }
    },
    {
      "id": 547,
      "chapterId": 0,
      "bookId": 9,
      "arabic": "أَخْبَرَنَا مُحَمَّدُ بْنُ عِيسَى  ، حَدَّثَنَا عَبَّادٌ هُوَ ابْنُ الْعَوَّامِ  ، عَنْ عَوْفٍ  ، عَنْ أَبِي الْعَالِيَةِ  ، قَالَ : سَأَلْتُ ابْنَ عَبَّاسٍ   رَضِيَ اللهُ عَنْهُمَا عَنْ شَيْءٍ، فَقَالَ : يَا أَبَا الْعَالِيَةِ، أَتُرِيدُ أَنْ تَكُونَ مُفْتِيًا؟، فَقُلْتُ :\" لَا، وَلَكِنْ لَا آمَنُ أَنْ تَذْهَبُوا وَنَبْقَى \"، فَقَالَ : \" صَدَقَ أَبُو الْعَالِيَةِ \"",
      "english": {
        "narrator": "",
        "text": ""
      }
    },
    {
      "id": 548,
      "chapterId": 0,
      "bookId": 9,
      "arabic": "أَخْبَرَنَا مُحَمَّدُ بْنُ عِيسَى ، حَدَّثَنَا عَبَّادٌ ، عَنْ حُصَيْنٍ ، عَنْ إِبْرَاهِيمَ ، قَالَ :\" كَانَ عَبِيدَةُ  يَأْتِي عَبْدَ اللَّهِ رَضِيَ اللهُ عَنْهُ كُلَّ خَمِيسٍ، فَيَسْأَلُهُ عَنْ أَشْيَاءَ غَابَ عَنْهَا، فَكَانَ عَامَّةُ مَا يُحْفَظُ عَنْ عَبْدِ اللَّهِ مِمَّا يَسْأَلُهُ عَبِيدَةُ عَنْهُ \"",
      "english": {
        "narrator": "",
        "text": ""
      }
    },
    {
      "id": 549,
      "chapterId": 0,
      "bookId": 9,
      "arabic": "أَخْبَرَنَا الْحَكَمُ بْنُ الْمُبَارَكِ ، حَدَّثَنَا غَسَّانُ هُوَ ابْنُ مُضَرَ ، عَنْ سَعِيدِ بْنِ يَزِيدَ ، قَالَ : سَمِعْتُ عِكْرِمَةَ ، يَقُولُ :\" مَا لَكُمْ لَا تَسْأَلُونِي، أَفْلَسْتُمْ؟ \"",
      "english": {
        "narrator": "",
        "text": ""
      }
    },
    {
      "id": 550,
      "chapterId": 0,
      "bookId": 9,
      "arabic": "أَخْبَرَنَا مُحَمَّدُ بْنُ حَاتِمٍ الْمُكْتِبُ ، حَدَّثَنَا عَامِرُ بْنُ صَالِحٍ ، حَدَّثَنَا يُونُسُ ، عَنْ ابْنِ شِهَابٍ ، قَالَ :\" الْعِلْمُ خَزَائِنُ، وَتَفْتَحُهَا الْمَسْأَلَةُ \"",
      "english": {
        "narrator": "",
        "text": ""
      }
    },
    {
      "id": 551,
      "chapterId": 0,
      "bookId": 9,
      "arabic": "أَخْبَرَنَا إِبْرَاهِيمُ بْنُ إِسْحَاق  ، عَنْ جَرِيرٍ  ، قَالَ : قَالَ إِبْرَاهِيمُ   :\" مَنْ رَقَّ وَجْهُهُ، رَقَّ عِلْمُهُ \"، أَخْبَرَنَا وَكِيعٌ  ، عَنْ أَبِيهِ  ، عَنْ الشَّعْبِيِّ  ، قَالَ : \" مَنْ رَقَّ وَجْهُهُ، رَقَّ عِلْمُهُ \"، وَعَنْ ضَمْرَةَ  ، عَنْ حَفْصِ بْنِ عُمَرَ L2436 ، قَالَ : قَالَ عُمَرُ بْنُ الْخَطَّابِ   : \" مَنْ رَقَّ وَجْهُهُ، رَقَّ عِلْمُهُ \"",
      "english": {
        "narrator": "",
        "text": ""
      }
    },
    {
      "id": 552,
      "chapterId": 0,
      "bookId": 9,
      "arabic": "أَخْبَرَنَا إِبْرَاهِيمُ بْنُ إِسْحَاق ، عَنْ جَرِيرٍ ، عَنْ رَجُلٍ ، عَنْ مُجَاهِدٍ ، قَالَ :\" لَا يَتَعَلَّمُ مَنْ اسْتَحْيَا وَاسْتَكْبَرَ \"",
      "english": {
        "narrator": "",
        "text": ""
      }
    },
    {
      "id": 553,
      "chapterId": 0,
      "bookId": 9,
      "arabic": "أَخْبَرَنَا مُحَمَّدُ بْنُ أَحْمَدَ بْنِ أَبِي خَلَفٍ ، حَدَّثَنَا أَنَسُ بْنُ عِيَاضٍ ، عَنْ هِشَامِ بْنِ عُرْوَةَ ، عَنْ أَبِيهِ ، أَنَّهُ كَانَ يَجْمَعُ بَنِيهِ، فَيَقُولُ : \" يَا بَنِيَّ ،تَعَلَّمُوا، فَإِنْ تَكُونُوا صِغَارَ قَوْمٍ، فَعَسَى أَنْ تَكُونُوا كِبَارَ آخَرِينَ، وَمَا أَقْبَحَ عَلَى شَيْخٍ يُسْأَلُ لَيْسَ عِنْدَهُ عِلْمٌ \"",
      "english": {
        "narrator": "",
        "text": ""
      }
    },
    {
      "id": 554,
      "chapterId": 0,
      "bookId": 9,
      "arabic": "أَخْبَرَنَا أَبُو النُّعْمَانِ  ، حَدَّثَنَا حَمَّادُ بْنُ زَيْدٍ  ، عَنْ الزُّبَيْرِ بْنِ الْخِرِّيتِ  ، عَنْ عِكْرِمَةَ  ، قَالَ : كَانَ ابْنُ عَبَّاسٍ   رَضِيَ اللهُ عَنْهُ\" يَضَعُ فِي رِجْلَيَّ الْكَبْلَ، وَيُعَلِّمُنِي الْقُرْآنَ وَالسُّنَنَ \"",
      "english": {
        "narrator": "",
        "text": ""
      }
    },
    {
      "id": 555,
      "chapterId": 0,
      "bookId": 9,
      "arabic": "أَخْبَرَنَا مُحَمَّدُ بْنُ حُمَيْدٍ ، حَدَّثَنَا يَحْيَى بْنُ الضُّرَيْسِ ، قَالَ : سَمِعْتُ سُفْيَانَ ، يَقُولُ :\" مَنْ تَرَأَّسَ سَرِيعًا، أَضَرَّ بِكَثِيرٍ مِنْ الْعِلْمِ، وَمَنْ لَمْ يَتَرَأَّسْ، طَلَبَ وَطَلَبَ حَتَّى يَبْلُغَ \"",
      "english": {
        "narrator": "",
        "text": ""
      }
    },
    {
      "id": 556,
      "chapterId": 0,
      "bookId": 9,
      "arabic": "أَخْبَرَنَا مُحَمَّدُ بْنُ يُوسُفَ  ، عَنْ سُفْيَانَ  ، عَنْ الْأَعْمَشِ  ، عَنْ صَالِحِ بْنِ خَبَّابٍ  ، عَنْ حُصَيْنِ بْنِ عُقْبَةَ  ، عَنْ سَلْمَانَ   رَضِيَ اللهُ عَنْهُ، قَالَ :\" عِلْمٌ لَا يُقَالُ بِهِ، كَكَنْزٍ لَا يُنْفَقُ مِنْهُ \"",
      "english": {
        "narrator": "",
        "text": ""
      }
    },
    {
      "id": 557,
      "chapterId": 0,
      "bookId": 9,
      "arabic": "أَخْبَرَنَا أَحْمَدُ بْنُ عَبْدِ اللَّهِ  ، حَدَّثَنَا أَبُو شِهَابٍ  ، حَدَّثَنِي إِبْرَاهِيمُ  ، عَنْ أَبِي عِيَاضٍ  ، عَنْ أَبِي هُرَيْرَةَ   رَضِيَ اللهُ عَنْهُ، قَالَ : قَالَ رَسُولُ اللَّهِ صَلَّى اللَّهُ عَلَيْهِ وَسَلَّمَ :\" مَثَلُ عِلْمٍ لَا يُنْتَفَعُ بِهِ، كَمَثَلِ كَنْزٍ لَا يُنْفَقُ مِنْهُ فِي سَبِيلِ اللَّهِ \"",
      "english": {
        "narrator": "",
        "text": ""
      }
    },
    {
      "id": 558,
      "chapterId": 0,
      "bookId": 9,
      "arabic": "أَخْبَرَنَا يَعْلَى  ، حَدَّثَنَا مُحَمَّدٌ هُوَ ابْنُ إِسْحَاق  ، عَنْ مُوسَى بْنِ يَسَارٍ  عَمِّهِ، قَالَ : بَلَغَنِي أَنَّ سَلْمَانَ   رَضِيَ اللهُ عَنْهُ، كَتَبَ إِلَى أَبِي الدَّرْدَاءِ رَضِيَ اللهُ عَنْهُ :\" إِنَّ الْعِلْمَ كَالْيَنَابِيعِ يَغْشَاهُنَّ النَّاسُ، فَيَخْتَلِجُهُ هَذَا وَهَذَا، فَيَنْفَعُ اللَّهُ بِهِ غَيْرَ وَاحِدٍ، وَإِنَّ حِكْمَةً لَا يُتَكَلَّمُ بِهَا كَجَسَدٍ لَا رُوحَ فِيهِ، وَإِنَّ عِلْمًا لَا يُخْرَجُ كَكَنْزٍ لَا يُنْفَقُ مِنْهُ، وَإِنَّمَا مَثَلُ الْعَالِمِ كَمَثَلِ رَجُلٍ حَمَلَ سِرَاجًا فِي طَرِيقٍ مُظْلِمٍ يَسْتَضِيءُ بِهِ مَنْ مَرَّ بِهِ، وَكُلٌّ يَدْعُو لَهُ بِالْخَيْرِ \"",
      "english": {
        "narrator": "",
        "text": ""
      }
    },
    {
      "id": 559,
      "chapterId": 0,
      "bookId": 9,
      "arabic": "أَخْبَرَنَا مُحَمَّدُ بْنُ الصَّلْتِ ، حَدَّثَنَا مَنْصُورُ بْنُ أَبِي الْأَسْوَدِ ، عَنْ أَبِي إِسْحَاق الشَّيْبَانِيِّ ، عَنْ حَمَّادٍ ، عَنْ إِبْرَاهِيمَ ، قَالَ :\" يَتْبَعُ الرَّجُلَ بَعْدَ مَوْتِهِ ثَلَاثُ خِلَالٍ : صَدَقَةٌ تَجْرِي بَعْدَهُ، وَصَلَاةُ وَلَدِهِ عَلَيْهِ، وَعِلْمٌ أَفْشَاهُ يُعْمَلُ بِهِ بَعْدَهُ \"",
      "english": {
        "narrator": "",
        "text": ""
      }
    },
    {
      "id": 560,
      "chapterId": 0,
      "bookId": 9,
      "arabic": "حَدَّثَنَا مُوسَى بْنُ إِسْمَاعِيل  ، حَدَّثَنِي إِسْمَاعِيل بْنُ جَعْفَرٍ الْمَدَنِيُّ  ، عَنْ الْعَلَاءِ بْنِ عَبْدِ الرَّحْمَنِ  ، عَنْ أَبِيهِ  ، عَنْ أَبِي هُرَيْرَةَ   رَضِيَ اللهُ عَنْهُ، عَنْ النَّبِيِّ صَلَّى اللَّهُ عَلَيْهِ وَسَلَّمَ قَالَ :\" إِذَا مَاتَ الْإِنْسَانُ انْقَطَعَ عَنْهُ عَمَلُهُ إِلَّا مِنْ ثَلَاثٍ : عِلْمٍ يُنْتَفَعُ بِهِ، أَوْ صَدَقَةٍ تَجْرِي لَهُ، أَوْ وَلَدٍ صَالِحٍ يَدْعُو لَهُ \"",
      "english": {
        "narrator": "",
        "text": ""
      }
    },
    {
      "id": 561,
      "chapterId": 0,
      "bookId": 9,
      "arabic": "أَخْبَرَنَا عُبَيْدُ بْنُ يَعِيشَ  ، حَدَّثَنَا يُونُسُ  ، عَنْ صَالِحِ بْنِ رُسْتُمَ الْمُزَنِيِّ  ، عَنْ الْحَسَنِ  ، عَنْ أَبِي مُوسَى   رَضِيَ اللهُ عَنْهُ، أَنَّهُ قَالَ حِينَ قَدِمَ الْبَصْرَةَ :\" بَعَثَنِي إِلَيْكُمْ عُمَرُ بْنُ الْخَطَّابِ رَضِيَ اللهُ عَنْهُ أُعَلِّمُكُمْ كِتَابَ رَبِّكُمْ، وَسُنَّتَكُمْ، وَأُنَظِّفُ طُرُقَكُمْ \"",
      "english": {
        "narrator": "",
        "text": ""
      }
    },
    {
      "id": 562,
      "chapterId": 0,
      "bookId": 9,
      "arabic": "أَخْبَرَنَا مُحَمَّدُ بْنُ حُمَيْدٍ  ، حَدَّثَنَا مُحَمَّدُ بْنُ الْمُعَلَّى  ، حَدَّثَنَا زِيَادُ بْنُ خَيْثَمَةَ  ، عَنْ أَبِي دَاوُدَ  ، عَنْ عَبْدِ اللَّهِ بْنِ سَخْبَرَةَ  ، عَنْ سَخْبَرَةَ   رَضِيَ اللهُ عَنْهُ، عَنْ النَّبِيِّ صَلَّى اللَّهُ عَلَيْهِ وَسَلَّمَ قَالَ :\" مَنْ طَلَبَ الْعِلْمَ، كَانَ كَفَّارَةً لِمَا مَضَى \"",
      "english": {
        "narrator": "",
        "text": ""
      }
    },
    {
      "id": 563,
      "chapterId": 0,
      "bookId": 9,
      "arabic": "أَخْبَرَنَا مُحَمَّدُ بْنُ عِيسَى ، حَدَّثَنَا حَمَّادُ بْنُ زَيْدٍ ، عَنْ أَيُّوبَ ، عَنْ أَبِي قِلَابَةَ ، قَالَ :\" لَقَدْ أَقَمْتُ فِي الْمَدِينَةِ ثَلَاثًا مَا لِي حَاجَةٌ إِلَّا وَقَدْ فَرَغْتُ مِنْهَا، إِلَّا أَنَّ رَجُلًا كَانُوا يَتَوَقَّعُونَهُ، كَانَ يَرْوِي حَدِيثًا، فَأَقَمْتُ حَتَّى قَدِمَ فَسَأَلْتُهُ \"",
      "english": {
        "narrator": "",
        "text": ""
      }
    },
    {
      "id": 564,
      "chapterId": 0,
      "bookId": 9,
      "arabic": "أَخْبَرَنَا الْحَكَمُ بْنُ الْمُبَارَكِ ، حَدَّثَنَا الْوَلِيدُ بنْ مُسِلمٍ ، عَنْ عَبْدَ الرَّحْمَنَ بِنْ يزيدٍ بْنِ جَابِرٍ ، قَالَ : سَمِعْتُ بُسْرَ بْنَ عُبَيْدِ اللَّهِ ، يَقُولُ :\" إِنْ كُنْتُ لَأَرْكَبُ إِلَى مِصْرٍ مِنْ الْأَمْصَارِ فِي الْحَدِيثِ الْوَاحِدِ لِأَسْمَعَهُ \"",
      "english": {
        "narrator": "",
        "text": ""
      }
    },
    {
      "id": 565,
      "chapterId": 0,
      "bookId": 9,
      "arabic": "أَخْبَرَنَا عَمْرُو بْنُ زُرَارَةَ ، أَخْبَرَنَا أَبُو قَطَنٍ عَمْرُو بْنُ الْهَيْثَمِ ، عَنْ أَبِي خَلْدَةَ ،  عَنْ أَبِي الْعَالِيَةِ ، قَالَ :\" كُنَّا نَسْمَعُ الرِّوَايَةَ بِالْبَصْرَةِ عَنْ أَصْحَابِ رَسُولِ اللَّهِ صَلَّى اللَّهُ عَلَيْهِ وَسَلَّمَ فَلَمْ نَرْضَ حَتَّى رَكِبْنَا إِلَى الْمَدِينَةِ ، فَسَمِعْنَاهَا مِنْ أَفْوَاهِهِمْ \"",
      "english": {
        "narrator": "",
        "text": ""
      }
    },
    {
      "id": 566,
      "chapterId": 0,
      "bookId": 9,
      "arabic": "أَخْبَرَنَا نُعَيْمُ بْنُ حَمَّادٍ ، حَدَّثَنَا بَقِيَّةُ ، عَنْ عَبْدِ اللَّهِ بْنِ عَبْدِ الرَّحْمَنِ القُشَيْرِيّ ، قَالَ : قَالَ دَاوُدُ النَّبِيُّ صَلَّى اللَّهُ عَلَيْهِ وَسَلَّمَ :\" قُلْ لِصَاحِبِ الْعِلْمِ يَتَّخِذْ عَصًا مِنْ حَدِيدٍ، وَنَعْلَيْنِ مِنْ حَدِيدٍ، وَيَطْلُبْ الْعِلْمَ، حَتَّى تَنْكَسِرَ الْعَصَا وَتَنْخَرِقَ النَّعْلَانِ \"",
      "english": {
        "narrator": "",
        "text": ""
      }
    },
    {
      "id": 567,
      "chapterId": 0,
      "bookId": 9,
      "arabic": "أَخْبَرَنَا مَخْلَدُ بْنُ مَالِكٍ  ، حَدَّثَنَا يَحْيَى بْنُ سَعِيدٍ الْأُمَوِيُّ  ، حَدَّثَنَا الْحَجَّاجُ  ، عَنْ حُصَيْنِ بْنِ عَبْدِ الرَّحْمَنِ  مِنْ آلِ سَعْدِ بْنِ مُعَاذٍ، قَالَ : قَالَ ابْنُ عَبَّاسٍ   رَضِيَ اللهُ عَنْهُمَا :\" طَلَبْتُ الْعِلْمَ فَلَمْ أَجِدْهُ أَكْثَرَ مِنْهُ فِي الْأَنْصَارِ، فَكُنْتُ آتِي الرَّجُلَ فَأَسْأَلُ عَنْهُ، فَيُقَالُ لِي : نَائِمٌ فَأَتَوَسَّدُ رِدَائِي، ثُمَّ أَضْطَجِعُ حَتَّى يَخْرُجَ إِلَى الظُّهْرِ، فَيَقُولُ : مَتَى كُنْتَ هَا هُنَا يَا ابْنَ عَمِّ رَسُولِ اللَّهِ؟، فَأَقُولُ : مُنْذُ زَمَنٍ طَوِيلٍ، فَيَقُولُ : بِئْسَ مَا صَنَعْتَ، هَلَّا أَعْلَمْتَنِي؟، فَأَقُولُ : أَرَدْتُ أَنْ تَخْرُجَ إِلَيَّ وَقَدْ قَضَيْتَ حَاجَتَكَ \"",
      "english": {
        "narrator": "",
        "text": ""
      }
    },
    {
      "id": 568,
      "chapterId": 0,
      "bookId": 9,
      "arabic": "أَخْبَرَنَا أَحْمَدُ بْنُ عَبْدِ اللَّهِ بْنِ يُونُسَ  ، حَدَّثَنَا أَبُو بَكْرٍ  ، عَنْ مُحَمَّدِ بْنِ عَمْرٍو  ، عَنْ أَبِي سَلَمَةَ بْنِ عَبْدِ الرَّحْمَنِ  ، عَنْ ابْنِ عَبَّاسٍ   رَضِيَ اللهُ عَنْهُ، قَالَ :\" وُجِدَ أَكْثَرُ حَدِيثِ رَسُولِ اللَّهِ صَلَّى اللَّهُ عَلَيْهِ وَسَلَّمَ عِنْدَ هَذَا الْحَيِّ مِنْ الْأَنْصَارِ، وَاللَّهِ إِنْ كُنْتُ لَآتِي الرَّجُلَ مِنْهُمْ، فَيُقَالُ : هُوَ نَائِمٌ، فَلَوْ شِئْتُ أَنْ يُوقَظَ لِي، فَأَدَعُهُ حَتَّى يَخْرُجَ لِأَسْتَطِيبَ بِذَلِكَ حَدِيثَهُ \"",
      "english": {
        "narrator": "",
        "text": ""
      }
    },
    {
      "id": 569,
      "chapterId": 0,
      "bookId": 9,
      "arabic": "أَخْبَرَنَا أَبُو مَعْمَرٍ إِسْمَاعِيل بْنُ إِبْرَاهِيمَ ، عَنْ سُفْيَانَ بْنِ عُيَيْنَةَ ، عَنْ الزُّهْرِيِّ ،  عَنْ أَبِي سَلَمَةَ ، قَالَ :\" لَوْ رَفَقْتُ بِابْنِ عَبَّاسٍ، لَأَصَبْتُ مِنْهُ عِلْمًا كَثِيرًا \"",
      "english": {
        "narrator": "",
        "text": ""
      }
    },
    {
      "id": 570,
      "chapterId": 0,
      "bookId": 9,
      "arabic": "أَخْبَرَنَا بِشْرُ بْنُ الْحَكَمِ ، حَدَّثَنَا عَبْدُ الرَّزَّاقِ ، حَدَّثَنَا مَعْمَرٌ ، عَنْ الزُّهْرِيِّ ، قَالَ :\" كُنْتُ آتِي بَابَ عُرْوَةَ، فَأَجْلِسُ بِالْبَابِ، وَلَوْ شِئْتُ أَنْ أَدْخُلَ لَدَخَلْتُ، وَلَكِنْ إِجْلَالًا لَهُ \"",
      "english": {
        "narrator": "",
        "text": ""
      }
    },
    {
      "id": 571,
      "chapterId": 0,
      "bookId": 9,
      "arabic": "أَخْبَرَنَا يَزِيدُ بْنُ هَارُونَ  ، حَدَّثَنَا جَرِيرُ بْنُ حَازِمٍ  ، عَنْ يَعْلَى بْنِ حَكِيمٍ  ، عَنْ عِكْرِمَةَ  ، عَنْ ابْنِ عَبَّاسٍ   رَضِيَ اللهُ عَنْهُ، قَالَ :\" لَمَّا تُوُفِّيَ رَسُولُ اللَّهِ صَلَّى اللَّهُ عَلَيْهِ وَسَلَّمَ، قُلْتُ لِرَجُلٍ مِنْ الْأَنْصَارِ : يَا فُلَانُ، هَلُمَّ فَلْنَسْأَلْ أَصْحَابَ النَّبِيِّ صَلَّى اللَّهُ عَلَيْهِ وَسَلَّمَ، فَإِنَّهُمْ الْيَوْمَ كَثِيرٌ، فَقَالَ : وَا عَجَبًا لَكَ يَا ابْنَ عَبَّاسٍ، أَتَرَى النَّاسَ يَحْتَاجُونَ إِلَيْكَ وَفِي النَّاسِ مِنْ أَصْحَابِ النَّبِيِّ صَلَّى اللَّهُ عَلَيْهِ وَسَلَّمَ مَنْ تَرَى؟ فَتَرَكَ ذَلِكَ، وَأَقْبَلْتُ عَلَى الْمَسْأَلَةِ، فَإِنْ كَانَ لَيَبْلُغُنِي الْحَدِيثُ عَنْ الرَّجُلِ فَآتِيهِ، وَهُوَ قَائِلٌ، فَأَتَوَسَّدُ رِدَائِي عَلَى بَابِهِ، فَتَسْفِي الرِّيحُ عَلَى وَجْهِي التُّرَابَ، فَيَخْرُجُ، فَيَرَانِي، فَيَقُولُ : يَا ابْنَ عَمِّ رَسُولِ اللَّهِ، مَا جَاءَ بِكَ؟ أَلَا أَرْسَلْتَ إِلَيَّ فَآتِيَكَ؟، فَأَقُولُ : لَا، أَنَا أَحَقُّ أَنْ آتِيَكَ، فَأَسْأَلُهُ عَنْ الْحَدِيثِ، قَالَ : فَبَقِيَ الرَّجُلُ حَتَّى رَآنِي وَقَدْ اجْتَمَعَ النَّاسُ عَلَيَّ، فَقَالَ : كَانَ هَذَا الْفَتَى أَعْقَلَ مِنِّي \"",
      "english": {
        "narrator": "",
        "text": ""
      }
    },
    {
      "id": 572,
      "chapterId": 0,
      "bookId": 9,
      "arabic": "أَخْبَرَنَا يَزِيدُ بْنُ هَارُونَ  ، حَدَّثَنَا الْجُرَيْرِيُّ  ، عَنْ عَبْدِ اللَّهِ بْنِ بُرَيْدَةَ  ، \" أَنَّرَجُلًا مَنْ أَصْحَابِ النَّبِيِّ صَلَّى اللَّهُ عَلَيْهِ وَسَلَّمَ رَحَلَ إِلَى فَضَالَةَ بْنِ عُبَيْدٍ رَضِيَ اللهُ عَنْهُ، وَهُوَ بِمِصْرَ ، فَقَدِمَ عَلَيْهِ وَهُوَ يَمُدُّ لِنَاقَةٍ لَهُ، فَقَالَ : مَرْحَبًا، قَالَ : أَمَا إِنِّي لَمْ آتِكَ زَائِرًا، وَلَكِنْ سَمِعْتُ أَنَا وَأَنْتَ حَدِيثًا مِنْ رَسُولِ اللَّهِ صَلَّى اللَّهُ عَلَيْهِ وَسَلَّمَ، رَجَوْتُ أَنْ يَكُونَ عِنْدَكَ مِنْهُ عِلْمٌ، قَالَ : كَذَا وَكَذَا \"",
      "english": {
        "narrator": "",
        "text": ""
      }
    },
    {
      "id": 573,
      "chapterId": 0,
      "bookId": 9,
      "arabic": "أَخْبَرَنَا مُحَمَّدُ بْنُ سَعِيدٍ ، حَدَّثَنَا عَبْدُ السَّلَامِ بْنُ حَرْبٍ ، عَنْ عَبْدِ الْأَعْلَى ،  عَنْ الْحَسَنِ ، أَنَّهُ دَخَلَ السُّوقَ فَسَاوَمَ رَجُلًا بِثَوْبٍ، فَقَالَ :\" هُوَ لَكَ بِكَذَا وَكَذَا، وَاللَّهِ لَوْ كَانَ غَيْرَكَ مَا أَعْطَيْتُهُ، فَقَالَ : فَعَلْتُمُوهَا، فَمَا رُئِيَ بَعْدَهَا مُشْتَرِيًا مِنْ السُّوقِ، وَلَا بَائِعًا حَتَّى لَحِقَ بِاللَّهِ G \"",
      "english": {
        "narrator": "",
        "text": ""
      }
    },
    {
      "id": 574,
      "chapterId": 0,
      "bookId": 9,
      "arabic": "أَخْبَرَنَا الْهَيْثَمُ بْنُ جَمِيلٍ ، عَنْ حُسَامٍ ، عَنْ أَبِي مَعْشَرٍ ، عَنْ إِبْرَاهِيمَ ، أَنَّهُ كَانَ\" لَا يَشْتَرِي مِمَّنْ يَعْرِفُهُ \"",
      "english": {
        "narrator": "",
        "text": ""
      }
    },
    {
      "id": 575,
      "chapterId": 0,
      "bookId": 9,
      "arabic": "أَخْبَرَنَا مُحَمَّدُ بْنُ سَعِيدٍ ، أَخْبَرَنَا عَبْدُ السَّلَامِ ، عَنْ عَبْدِ اللَّهِ بْنِ الْوَلِيدِ الْمُزَنِيِّ ، عَنْ عُبَيْدِ بْنِ الْحَسَنِ ، قَالَ : قَسَمَ مُصْعَبُ بْنُ الزُّبَيْرِ مَالًا فِي قُرَّاءِ أَهْلِ الْكُوفَةِ حِينَ دَخَلَ شَهْرُ رَمَضَانَ، فَبَعَثَ إِلَى عَبْدِ الرَّحْمَنِ بْنِ مَعْقِلٍ  بِأَلْفَيْ دِرْهَمٍ، فَقَالَ لَهُ : اسْتَعِنْ بِهَا فِي شَهْرِكَ هَذَا، فَرَدَّهَا عَبْدُ الرَّحْمَنِ بْنُ مَعْقِلٍ وَقَالَ :\" لَمْ نَقْرَأْ الْقُرْآنَ لِهَذَا \"",
      "english": {
        "narrator": "",
        "text": ""
      }
    },
    {
      "id": 576,
      "chapterId": 0,
      "bookId": 9,
      "arabic": "أَخْبَرَنَا مُحَمَّدُ بْنُ أَحْمَدَ بْنِ أَبِي خَلَفٍ  ، حَدَّثَنَا أَنَسُ بْنُ عِيَاضٍ  ، حَدَّثَنِي عُبَيْدُ اللَّهِ بْنُ عُمَرَ  ، أَنَّ عُمَرَ بْنَ الْخَطَّابِ عَلَيْه رضْوَانُ اللَّهِ تَعَالَى، قَالَ لِعَبْدِ اللَّهِ بْنِ سَلَامٍ   رَضِيَ اللهُ عَنْهُ :\" مَنْ أَرْبَابُ الْعِلْمِ؟ \"، قَالَ : \" الَّذِينَ يَعْمَلُونَ بِمَا يَعْلَمُونَ، قَالَ : فَمَا يَنْفِي الْعِلْمَ مِنْ صُدُورِ الرِّجَالِ؟، قَالَ : الطَّمَعُ \"",
      "english": {
        "narrator": "",
        "text": ""
      }
    },
    {
      "id": 577,
      "chapterId": 0,
      "bookId": 9,
      "arabic": "أَخْبَرَنَا مُحَمَّدُ بْنُ أَحْمَدَ ، حَدَّثَنَا سُفْيَانُ بْنُ عُيَيْنَةَ ، عَنْ زَيْدٍ ، عَنْ عَطَاءٍ ، قَالَ :\" مَا أَوَى شَيْءٌ إِلَى شَيْءٍ أَزْيَنَ مِنْ حِلْمٍ إِلَى عِلْمٍ \"",
      "english": {
        "narrator": "",
        "text": ""
      }
    },
    {
      "id": 578,
      "chapterId": 0,
      "bookId": 9,
      "arabic": "أَخْبَرَنَا عَفَّانُ ، حَدَّثَنَا حَمَّادُ بْنُ سَلَمَةَ ، أَخْبَرَنَا عَاصِمٌ الْأَحْوَلُ ، عَنْ عَامِرٍ الشَّعْبِيِّ ، قَالَ :\" زَيْنُ الْعِلْمِ حِلْمُ أَهْلِهِ \"",
      "english": {
        "narrator": "",
        "text": ""
      }
    },
    {
      "id": 579,
      "chapterId": 0,
      "bookId": 9,
      "arabic": "أَخْبَرَنَا يَعْقُوبُ بْنُ إِبْرَاهِيمَ ، حَدَّثَنَا عَبْدُ الرَّحْمَنِ ، حَدَّثَنَا زَمْعَةُ بْنُ صَالِحٍ ، عَنْ سَلَمَةَ بْنِ وَهْرَامٍ ، عَنْ طَاوُسٍ ، قَالَ :\" مَا حُمِلَ الْعِلْمُ فِي مِثْلِ جِرَابِ حِلْمٍ \"",
      "english": {
        "narrator": "",
        "text": ""
      }
    },
    {
      "id": 580,
      "chapterId": 0,
      "bookId": 9,
      "arabic": "أَخْبَرَنَا مُحَمَّدُ بْنُ حُمَيْدٍ ، حَدَّثَنَا جَرِيرٌ ، عَنْ ابْنِ شُبْرُمَةَ ،  عَنْ الشَّعْبِيِّ ، قَالَ :\" زَيْنُ الْعِلْمِ حِلْمُ أَهْلِهِ \"",
      "english": {
        "narrator": "",
        "text": ""
      }
    },
    {
      "id": 581,
      "chapterId": 0,
      "bookId": 9,
      "arabic": "أَخْبَرَنَا الْحَكَمُ بْنُ الْمُبَارَكِ ، أَخْبَرَنَا مُطَرِّفُ بْنُ مَازِنٍ ، عَنْ يَعْلَى بْنِ مِقْسَمٍ ، عَنْ وَهْبِ بْنِ مُنَبِّهٍ ، قَالَ :\" إِنَّ الْحِكْمَةَ تَسْكُنُ الْقَلْبَ الْوَادِعَ السَّاكِنَ \"",
      "english": {
        "narrator": "",
        "text": ""
      }
    },
    {
      "id": 582,
      "chapterId": 0,
      "bookId": 9,
      "arabic": "أَخْبَرَنَا مُحَمَّدُ بْنُ أَحْمَدَ ، قَالَ : سَمِعْتُ سُفْيَانَ ، يَقُولُ : قَالَ عُبَيْدُ اللَّهِ  :\" شِنْتُمْ الْعِلْمَ وَأَذْهَبْتُمْ نُورَهُ، وَلَوْ أَدْرَكَنِي وَإِيَّاكُمْ عُمَرُ رِضْوَانُ الله عَلَيْهِ لَأَوْجَعَنَا \"",
      "english": {
        "narrator": "",
        "text": ""
      }
    },
    {
      "id": 583,
      "chapterId": 0,
      "bookId": 9,
      "arabic": "أَخْبَرَنَا شِهَابُ بْنُ عَبَّادٍ  ، حَدَّثَنَا سُفْيَانُ بْنُ عُيَيْنَةَ  ، عَنْ أُمَيٍّ الْمُرَادِيِّ  ، قَالَ : قَالَ عَلِيٌّ   رِضْوَانُ اللَّهِ عَلَيْهِ :\" تَعَلَّمُوا الْعِلْمَ، فَإِذَا عَلِمْتُمُوهُ، فَاكْظِمُوا عَلَيْهِ وَلَا تَشُوبُوهُ بِضَحِكٍ، وَلَا بِلَعِبٍ فَتَمُجَّهُ الْقُلُوبُ \"",
      "english": {
        "narrator": "",
        "text": ""
      }
    },
    {
      "id": 584,
      "chapterId": 0,
      "bookId": 9,
      "arabic": "أَخْبَرَنَا مُحَمَّدُ بْنُ حُمَيْدٍ  ، حَدَّثَنَا جَرِيرٌ  ، عَنْ الْفُضَيْلِ بْنِ غَزْوَانَ  ، عَنْ عَلِيِّ بْنِ حُسَيْنٍ   رَحِمَةُ اللَّهِ عَلَيْهِ، قَالَ :\" مَنْ ضَحِكَ ضَحْكَةً مَجَّ مَجَّةً مِنْ الْعِلْمِ \"",
      "english": {
        "narrator": "",
        "text": ""
      }
    },
    {
      "id": 585,
      "chapterId": 0,
      "bookId": 9,
      "arabic": "أَخْبَرَنَا مُحَمَّدُ بْنُ يُوسُفَ  ، عَنْ سُفْيَانَ  ، أَنَّ عُمَرَ رَضِيَ اللهُ عَنْهُ، قَالَ لِكَعْبٍ   :\" مَنْ أَرْبَابُ الْعِلْمِ؟، قَالَ : الَّذِينَ يَعْمَلُونَ بِمَا يَعْلَمُونَ، قَالَ : فَمَا أَخْرَجَ الْعِلْمَ مِنْ قُلُوبِ الْعُلَمَاءِ؟، قَالَ : الطَّمَعُ \"",
      "english": {
        "narrator": "",
        "text": ""
      }
    },
    {
      "id": 586,
      "chapterId": 0,
      "bookId": 9,
      "arabic": "أَخْبَرَنَا مُحَمَّدُ بْنُ حُمَيْدٍ ، حَدَّثَنَا مُحَمَّدُ بْنُ بِشْرٍ ، حَدَّثَنَا عَبْدُ اللَّهِ بْنُ الْوَلِيدِ ، عَنْ عُمَرَ بْنِ أَيُّوبَ ، عَنْ أَبِي إِيَاسٍ ، قَالَ : كُنْتُ نَازِلًا عَلَى عَمْرِو بْنِ النُّعْمَانِ  فَأَتَاهُ رَسُولُ مُصْعَبِ بْنِ الزُّبَيْرِ حِينَ حَضَرَهُ رَمَضَانُ بِأَلْفَيْ دِرْهَمٍ، فَقَالَ : إِنَّ الْأَمِيرَ يُقْرِئُكَ السَّلَامَ، وَقَالَ : إِنَّا لَمْ نَدَعْ قَارِئًا شَرِيفًا إِلَّا وَقَدْ وَصَلَ إِلَيْهِ مِنَّا مَعْرُوفٌ، فَاسْتَعِنْ بِهَذَيْنِ عَلَى نَفَقَةِ شَهْرِكَ هَذَا، فَقَالَ : أَقْرِئْ الْأَمِيرَ السَّلَامَ، وَقُلْ لَهُ :\" إِنَّا وَاللَّهِ مَا قَرَأْنَا الْقُرْآنَ نُرِيدُ بِهِ الدُّنْيَا وَدِرْهَمَهَا \"",
      "english": {
        "narrator": "",
        "text": ""
      }
    },
    {
      "id": 587,
      "chapterId": 0,
      "bookId": 9,
      "arabic": "أَخْبَرَنَا أَسَدُ بْنُ مُوسَى  ، حَدَّثَنَا مُعَاوِيَةُ  ، حَدَّثَنَا الْحَسَنُ بْنُ جَابِرٍ  ، عَنْ الْمِقْدَامِ بْنِ مَعْدِي كَرِبَ الْكِنْدِيِّ   رَضِيَ اللهُ عَنْهُ : أَنّ رَسُولَ اللَّهِ صَلَّى اللَّهُ عَلَيْهِ وَسَلَّمَ : \" حَرَّمَ أَشْيَاءَ يَوْمَ خَيْبَرَ : الْحِمَارَ وَغَيْرَهُ \"، ثُمَّ قَالَ :\" لَيُوشِكُ ِالرَّجُل مُتَّكِئًا عَلَى أَرِيكَتِهِ، يُحَدَّثُ بِحَدِيثِي فَيَقُولُ : بَيْنَنَا وَبَيْنَكُمْ كِتَابُ اللَّهِ، مَا وَجَدْنَا فِيهِ مِنْ حَلَالٍ، اسْتَحْلَلْنَاهُ، وَمَا وَجَدْنَا فِيهِ مِنْ حَرَامٍ، حَرَّمْنَاهُ، أَلَا وَإِنَّ مَا حَرَّمَ رَسُولُ اللَّهِ، هُوَ مِثْلُ مَا حَرَّمَ اللَّهُ تَعَالَى \"",
      "english": {
        "narrator": "",
        "text": ""
      }
    },
    {
      "id": 588,
      "chapterId": 0,
      "bookId": 9,
      "arabic": "أَخْبَرَنَا مُحَمَّدُ بْنُ عُيَيْنَةَ ، عَنْ أَبِي إِسْحَاق الْفَزَارِيِّ ، عَنْ الْأَوْزَاعِيِّ ، عَنْ يَحْيَى بْنِ أَبِي كَثِيرٍ ، قَالَ :\" السُّنَّةُ قَاضِيَةٌ عَلَى الْقُرْآنِ وَلَيْسَ الْقُرْآنُ بِقَاضٍ عَلَى السُّنَّةِ \"",
      "english": {
        "narrator": "",
        "text": ""
      }
    },
    {
      "id": 589,
      "chapterId": 0,
      "bookId": 9,
      "arabic": "أَخْبَرَنَا مُحَمَّدُ بْنُ كَثِيرٍ  ، عَنْ الْأَوْزَاعِيِّ  ، عَنْ حَسَّانَ  ، قَالَ :\" كَانَ جِبْرِيلُ يَنْزِلُ عَلَى النَّبِيِّ صَلَّى اللَّهُ عَلَيْهِ وَسَلَّمَ بِالسُّنَّةِ كَمَا يَنْزِلُ عَلَيْهِ بِالْقُرْآنِ \"",
      "english": {
        "narrator": "",
        "text": ""
      }
    },
    {
      "id": 590,
      "chapterId": 0,
      "bookId": 9,
      "arabic": "أَخْبَرَنَا مُحَمَّدُ بْنُ كَثِيرٍ ، عَنْ الْأَوْزَاعِيِّ ، عَنْ مَكْحُولٍ ، قَالَ :\" السُّنَّةُ سُنَّتَانِ : سُنَّةٌ الْأَخْذُ بِهَا فَرِيضَةٌ، وَتَرْكُهَا كُفْرٌ، وَسُنَّةٌ الْأَخْذُ بِهَا فَضِيلَةٌ، وَتَرْكُهَا إِلَى غَيْرِ حَرَجٍ \"",
      "english": {
        "narrator": "",
        "text": ""
      }
    },
    {
      "id": 591,
      "chapterId": 0,
      "bookId": 9,
      "arabic": "أَخْبَرَنَا سُلَيْمَانُ بْنُ حَرْبٍ  ، حَدَّثَنَا حَمَّادُ بْنُ سَلَمَةَ  ، عَنْ يَعْلَى بْنِ حَكِيمٍ  ، عَنْ سَعِيدِ بْنِ جُبَيْرٍ   \" أَنَّهُحَدَّثَ يَوْمًا بِحَدِيثٍ عَنْ النَّبِيِّ صَلَّى اللَّهُ عَلَيْهِ وَسَلَّمَ، فَقَالَ رَجُلٌ : فِي كِتَابِ اللَّهِ مَا يُخَالِفُ هَذَا؟، قَالَ : لَا أُرَانِي أُحَدِّثُكَ عَنْ رَسُولِ اللَّهِ صَلَّى اللَّهُ عَلَيْهِ وَسَلَّمَ وَتُعَرِّضُ فِيهِ بِكِتَابِ اللَّهِ، كَانَ رَسُولُ اللَّهِ صَلَّى اللَّهُ عَلَيْهِ وَسَلَّمَ أَعْلَمَ بِكِتَابِ اللَّهِ تَعَالَى مِنْكَ \"",
      "english": {
        "narrator": "",
        "text": ""
      }
    },
    {
      "id": 592,
      "chapterId": 0,
      "bookId": 9,
      "arabic": "أَخْبَرَنَا نُعَيْمُ بْنُ حَمَّادٍ  ، حَدَّثَنَا عَبْدُ الْعَزِيزِ بْنُ مُحَمَّدٍ  ، عَنْ ابْنِ عَجْلَانَ  ، عَنْ عَوْنِ بْنِ عَبْدِ اللَّهِ  ، عَنْ ابْنِ مَسْعُودٍ   رَضِيَ اللهُ عَنْهُ أَنَّهُ، قَالَ :\" إِذَا حُدِّثْتُمْ بِالْحَدِيثِ عَنْ رَسُولِ اللَّهِ صَلَّى اللَّهُ عَلَيْهِ وَسَلَّمَ فَظُنُّوا بِهِ الَّذِي هُوَ أَهْيَأُ، وَالَّذِي هُوَ أَهْدَى، وَالَّذِي هُوَ أَتْقَى \"",
      "english": {
        "narrator": "",
        "text": ""
      }
    },
    {
      "id": 593,
      "chapterId": 0,
      "bookId": 9,
      "arabic": "أَخْبَرَنَا أَبُو نُعَيْمٍ  ، حَدَّثَنَا مِسْعَرٌ  ، عَنْ عَمْرِو بْنِ مُرَّةَ  ، عَنْ أَبِي الْبَخْتَرِيِّ  ، عَنْ أَبِي عَبْدِ الرَّحْمَنِ السُّلَمِيِّ  ، عَنْ عَلِيٍّ   رَضِيَ اللهُ عَنْهُ، قَالَ :\" إِذَا حُدِّثْتُمْ شَيْئًا عَنْ رَسُولِ اللَّهِ صَلَّى اللَّهُ عَلَيْهِ وَسَلَّمَ فَظُنُّوا بِهِ الَّذِي هُوَ أَهْدَى، وَالَّذِي هُوَ أَتْقَى، وَالَّذِي هُوَ أَهْيَأُ \"",
      "english": {
        "narrator": "",
        "text": ""
      }
    }
  ]
}