{
  "page": 68,
  "perPage": 50,
  "totalPages": 69,
  "totalCount": 3406,
  "nextPage": 69,
  "prevPage": 67,
  "items": [
    {
      "id": 594,
      "chapterId": 0,
      "bookId": 9,
      "arabic": "أَخْبَرَنَا أَبُو مَعْمَرٍ إِسْمَاعِيل بْنُ إِبْرَاهِيمَ  ، عَنْ صَالِحِ بْنِ عُمَرَ  ، عَنْ عَاصِمِ بْنِ كُلَيْبٍ  ، عَنْ أَبِيهِ  ، عَنْ أَبِي هُرَيْرَةَ   رَضِيَ اللهُ عَنْهُ، قَالَ : كَانَ إِذَا حَدَّثَ عَنْ رَسُولِ اللَّهِ صَلَّى اللَّهُ عَلَيْهِ وَسَلَّمَ، يَقُولُ : قَالَ رَسُولُ اللَّهِ صَلَّى اللَّهُ عَلَيْهِ وَسَلَّمَ :\" مَنْ كَذَبَ عَلَيَّ مُتَعَمِّدًا، فَلْيَتَبَوَّأْ مَقْعَدَهُ مِنْ النَّارِ \"، فَكَانَ ابْنُ عَبَّاسٍ إِذَا حَدَّثَ قَالَ : إِذَا سَمِعْتُمُونِي أُحَدِّثُ عَنْ رَسُولِ اللَّهِ صَلَّى اللَّهُ عَلَيْهِ وَسَلَّمَ، فَلَمْ تَجِدُوهُ فِي كِتَابِ اللَّهِ، أَوْ حَسَنًا عِنْدَ النَّاسِ، فَاعْلَمُوا أَنِّي قَدْ كَذَبْتُ عَلَيْهِ",
      "english": {
        "narrator": "",
        "text": ""
      }
    },
    {
      "id": 595,
      "chapterId": 0,
      "bookId": 9,
      "arabic": "أَخْبَرَنَا عَبْدُ اللَّهِ بْنُ عِمْرَانَ ، حَدَّثَنَا سُفْيَانُ بْنُ عُيَيْنَةَ ، عَنْ سُلَيْمَانَ الْأَحْوَلِ ، عَنْ عِكْرِمَةَ ، قَالَ : \" إِنَّأَزْهَدَ النَّاسِ فِي عَالِمٍ أَهْلُهُ \"",
      "english": {
        "narrator": "",
        "text": ""
      }
    },
    {
      "id": 596,
      "chapterId": 0,
      "bookId": 9,
      "arabic": "أَخْبَرَنَا أَسَدُ بْنُ مُوسَى  ، حَدَّثَنَا شُعْبَةُ  ، عَنْ الْجُرَيْرِيِّ  ، وَأَبِي مَسْلَمَةَ  ، عَنْ أَبِي نَضْرَةَ  ،  عَنْ أَبِي سَعِيدٍ الْخُدْرِيِّ   رَضِيَ اللهُ عَنْهُ قَالَ :\" تَذَاكَرُوا الْحَدِيثَ، فَإِنَّ الْحَدِيثَ يُهَيِّجُ الْحَدِيثَ \"",
      "english": {
        "narrator": "",
        "text": ""
      }
    },
    {
      "id": 597,
      "chapterId": 0,
      "bookId": 9,
      "arabic": "أَخْبَرَنَا أَبُو نُعَيْمٍ  ، حَدَّثَنَا أَبُو عَوَانَةَ  ، عَنْ أَبِي بِشْرٍ  ، عَنْ أَبِي نَضْرَةَ  ، عَنْ أَبِي سَعِيدٍ الْخُدْرِيِّ   رَضِيَ اللهُ عَنْهُ، قَالَ :\" تَذَاكَرُوا الْحَدِيثَ، فَإِنَّ الْحَدِيثَ يُهَيِّجُ الْحَدِيثَ \"",
      "english": {
        "narrator": "",
        "text": ""
      }
    },
    {
      "id": 598,
      "chapterId": 0,
      "bookId": 9,
      "arabic": "أَخْبَرَنَا أَبُو مَعْمَرٍ  ، عَنْ هُشَيْمٍ  ، عَنْ أَبِي بِشْرٍ  ، عَنْ أَبِي نَضْرَةَ  ، عَنْ أَبِي سَعِيدٍ الْخُدْريَّ   رَضِيَ اللهُ عَنْهُ، قَالَ :\" تَذَاكَرُوا الْحَدِيثَ، فَإِنَّ الْحَدِيثَ يُهَيِّجُ الْحَدِيثَ \"، أَخْبَرَنَا أَبُو مَعْمَرٍ  ، عَنْ أَبِي مُعَاوِيَةَ  ، عَنْ الْأَعْمَشِ  ، عَنْ أَبِي بِشْرٍ  ، عَنْ أَبِي نَضْرَةَ  ، عَن أَبِي سَعِيدٍ  ، وَابْنِ عُلَيَّةَ  ، عَنْ الْجُرَيْرِيِّ  ، عَنْ أَبِي نَضْرَةَ  ، عَن أَبِي سَعِيدٍ  ، أَخْبَرَنَا أَبُو مَسْلَمَةَ  يُعْنِي، عَنْ أَبِي نَضْرَةَ  ، عَن أَبي سَعيدٍ  ، وَفِيهِ كَلَامٌ أَكْثَرُ مِنْ هَذَا",
      "english": {
        "narrator": "",
        "text": ""
      }
    },
    {
      "id": 599,
      "chapterId": 0,
      "bookId": 9,
      "arabic": "أَخْبَرَنَا مُحَمَّدُ بْنُ أَحْمَدَ ، حَدَّثَنَا سُفْيَانُ ، عَنْ عَمْرٍو ، قَالَ : قَالَ لِي طَاوُسٌ  :\" اذْهَبْ بِنَا نُجَالِسْ النَّاسَ \"",
      "english": {
        "narrator": "",
        "text": ""
      }
    },
    {
      "id": 600,
      "chapterId": 0,
      "bookId": 9,
      "arabic": "أَخْبَرَنَا إِسْمَاعِيل بْنُ أَبَانَ  ، حَدَّثَنَا يَعْقُوبُ بْنُ عَبْدِ اللَّهِ الْقُمِّيُّ  ، حَدَّثَنَا جَعْفَرُ بْنُ أَبِي الْمُغِيرَةِ  ، عَنْ سَعِيدِ بْنِ جُبَيْرٍ  ، عَنْ ابْنِ عَبَّاسٍ   رَضِيَ اللهُ عَنْهُ، قَالَ :\" تَذَاكَرُوا هَذَا الْحَدِيثَ لَا يَنْفَلِتْ مِنْكُمْ، فَإِنَّهُ لَيْسَ مِثْلَ الْقُرْآنِ مَجْمُوعٌ مَحْفُوظٌ، وَإِنَّكُمْ إِنْ لَمْ تَذَاكَرُوا هَذَا الْحَدِيثَ يَنْفَلِتْ مِنْكُمْ، وَلَا يَقُولَنَّ أَحَدُكُمْ حَدَّثْتُ أَمْسِ فَلَا أُحَدِّثُ الْيَوْمَ، بَلْ حَدِّثْ أَمْسِ، وَلْتُحَدِّثْ الْيَوْمَ، وَلْتُحَدِّثْ غَدًا \"",
      "english": {
        "narrator": "",
        "text": ""
      }
    },
    {
      "id": 601,
      "chapterId": 0,
      "bookId": 9,
      "arabic": "أَخْبَرَنَا مَالِكُ بْنُ إِسْمَاعِيل  ، حَدَّثَنَا مِنْدَلُ بْنُ عَلِيٍّ  ، حَدَّثَنِي جَعْفَرُ بْنُ أَبِي الْمُغِيرَةِ  ، حَدَّثَنِي سَعِيدُ بْنُ جُبَيْرٍ  ، قَالَ : قَالَ ابْنُ عَبَّاسٍ   رَضِيَ اللهُ عَنْهُ :\" رُدُّوا الْحَدِيثَ وَاسْتَذْكِرُوهُ، فَإِنَّهُ إِنْ لَمْ تَذْكُرُوهُ، ذَهَبَ، وَلَا يَقُولَنَّ رَجُلٌ لِحَدِيثٍ قَدْ حَدَّثَهُ قَدْ حَدَّثْتُهُ مَرَّةً، فَإِنَّهُ مَنْ كَانَ سَمِعَهُ يَزْدَادُ بِهِ عِلْمًا، وَيَسْمَعُ مَنْ لَمْ يَسْمَعْ \"",
      "english": {
        "narrator": "",
        "text": ""
      }
    },
    {
      "id": 602,
      "chapterId": 0,
      "bookId": 9,
      "arabic": "أَخْبَرَنَا الْحَكَمُ بْنُ الْمُبَارَكِ ، أَخْبَرَنَا أَبُو عَوَانَةَ ، عَنْ يَزِيدَ بْنِ أَبِي زِيَادٍ ، عَنْ عَبْدِ الرَّحْمَنِ بْنِ أَبِي لَيْلَى ، قَالَ :\" تَذَاكَرُوا، فَإِنَّ إِحْيَاءَ الْحَدِيثِ مُذَاكَرَتُهُ \"",
      "english": {
        "narrator": "",
        "text": ""
      }
    },
    {
      "id": 603,
      "chapterId": 0,
      "bookId": 9,
      "arabic": "أَخْبَرَنَا قَبِيصَةُ ، وَمُحَمَّدُ بْنُ يُوسُفَ ، قَالَا : حَدَّثَنَا سُفْيَانُ ، عَنْ الْأَعْمَشِ ، عَنْ إِبْرَاهِيمَ ، عَنْ عَلْقَمَةَ ، قَالَ :\" تَذَاكَرُوا الْحَدِيثَ، فَإِنَّ ذِكْرَهُ حَيَاتُهُ \"",
      "english": {
        "narrator": "",
        "text": ""
      }
    },
    {
      "id": 604,
      "chapterId": 0,
      "bookId": 9,
      "arabic": "أَخْبَرَنَا مُحَمَّدُ بْنُ قُدَامَةَ ، عَنْ سُفْيَانَ بْنِ عُيَيْنَةَ ، عَنْ زِيَادِ بْنِ سَعْدٍ ، قَالَ :\" كَانَ ابْنُ شِهَابٍ يُحَدِّثُ الْأَعْرَابَ \"",
      "english": {
        "narrator": "",
        "text": ""
      }
    },
    {
      "id": 605,
      "chapterId": 0,
      "bookId": 9,
      "arabic": "أَخْبَرَنَا مُحَمَّدُ بْنُ سَعِيدٍ ، أَنْبَأَنَا مُحَمَّدُ بْنُ فُضَيْلٍ ، عَنْ الْأَعْمَشِ ، قَالَ :\" كَانَ إِسْمَاعِيل بْنُ رَجَاءٍ يَجْمَعُ صِبْيَانَ الْكُتَّابِ يُحَدِّثُهُمْ يَتَحَفَّظُ بِذَاكَ \"",
      "english": {
        "narrator": "",
        "text": ""
      }
    },
    {
      "id": 606,
      "chapterId": 0,
      "bookId": 9,
      "arabic": "أَخْبَرَنَا أَبُو النُّعْمَانِ ، حَدَّثَنَا حَمَّادُ بْنُ زَيْدٍ ، عَنْ أَبِي عَبْدِ اللَّهِ الشَّقَرِيِّ ، عَنْ إِبْرَاهِيمَ ، قَالَ :\" حَدِّثْ حَدِيثَكَ مَنْ يَشْتَهِيهِ، وَمَنْ لَا يَشْتَهِيهِ، فَإِنَّهُ يَصِيرُ عِنْدَكَ كَأَنَّهُ إِمَامٌ تَقْرَؤُهُ \"",
      "english": {
        "narrator": "",
        "text": ""
      }
    },
    {
      "id": 607,
      "chapterId": 0,
      "bookId": 9,
      "arabic": "أَخْبَرَنَا أَبُو مَعْمَرٍ  ، وَمُحَمَّدُ بْنُ سَعِيدٍ  ، عَنْ عَبْدِ السَّلَامِ  ، عَنْ حَجَّاجٍ  ، عَنْ عَطَاءٍ  ، عَنْ ابْنِ عَبَّاسٍ   رَضِيَ اللهُ عَنْهُ، قَالَ :\" إِذَا سَمِعْتُمْ مِنَّا حَدِيثًا، فَتَذَاكَرُوهُ بَيْنَكُمْ \"",
      "english": {
        "narrator": "",
        "text": ""
      }
    },
    {
      "id": 608,
      "chapterId": 0,
      "bookId": 9,
      "arabic": "أَخْبَرَنَا أَبُو مَعْمَرٍ ، عَنْ هُشَيْمٍ ، أَخْبَرَنَا يُونُسُ ، قَالَ :\" كُنَّا نَأْتِي الْحَسَنَ، فَإِذَا خَرَجْنَا مِنْ عِنْدِهِ، تَذَاكَرْنَا بَيْنَنَا \"",
      "english": {
        "narrator": "",
        "text": ""
      }
    },
    {
      "id": 609,
      "chapterId": 0,
      "bookId": 9,
      "arabic": "أَخْبَرَنَا صَدَقَةُ بْنُ الْفَضْلِ  ، حَدَّثَنَا عَبْدُ اللَّهِ بْنُ وَهْبٍ  ، عَنْ عَمْرِو بْنِ الْحَارِثِ  ، عَنْ حُنَيْنِ بْنِ أَبِي حَكِيمٍ  ، عَنْ نَافِعٍ  ،  عَنْ ابْنِ عُمَرَ   رَضِيَ اللهُ عَنْهُ، قَالَ :\" إِذَا أَرَادَ أَحَدُكُمْ أَنْ يَرْوِيَ حَدِيثًا، فَلْيُرَدِّدْهُ ثَلَاثًا \"",
      "english": {
        "narrator": "",
        "text": ""
      }
    },
    {
      "id": 610,
      "chapterId": 0,
      "bookId": 9,
      "arabic": "أَخْبَرَنَا مُحَمَّدُ بْنُ سَعِيدٍ ، حَدَّثَنَا مُحَمَّدُ بْنُ فُضَيْلٍ ، عَنْ يَزِيدَ ، عَنْ عَبْدِ الرَّحْمَنِ بْنِ أَبِي لَيْلَى ، قَالَ :\" إِحْيَاءُ الْحَدِيثِ مُذَاكَرَتُهُ \"، فَقَالَ لَهُ عَبْدُ اللَّهِ بْنُ شَدَّادٍ : \" يَرْحَمُكَ اللَّهُ، كَمْ مِنْ حَدِيثٍ أَحْيَيْتَهُ فِي صَدْرِي كَانَ قَدْ مَاتَ \"",
      "english": {
        "narrator": "",
        "text": ""
      }
    },
    {
      "id": 611,
      "chapterId": 0,
      "bookId": 9,
      "arabic": "أَخْبَرَنَا عَبْدُ اللَّهِ بْنُ سَعِيدٍ ، حَدَّثَنَا مُحَمَّدُ بْنُ فُضَيْلٍ ، عَنْ أَبِيهِ ، قَالَ :\" كَانَ الْحَارِثُ بْنُ يَزِيدَ الْعُكْلِيُّ ، وَابْنُ شُبْرُمَةَ ، وَالْقَعْقَاعُ بْنُ يَزِيدَ ، وَمُغِيرَةُ  إِذَا صَلَّوْا الْعِشَاءَ الْآخِرَةَ، جَلَسُوا فِي الْفِقْهِ، فَلَمْ يُفَرِّقْ بَيْنَهُمْ إِلَّا أَذَانُ الصُّبْحِ \"",
      "english": {
        "narrator": "",
        "text": ""
      }
    },
    {
      "id": 612,
      "chapterId": 0,
      "bookId": 9,
      "arabic": "أَخْبَرَنَا مَالِكُ بْنُ إِسْمَاعِيل ، قَالَ : سَمِعْتُ شَرِيكًا ذَكَرَ، عَنْ لَيْثٍ ، عَنْ عَطَاءٍ ، وَطَاوُسٍ ، وَمُجَاهِدٍ ، قَالَ : عَنْ اثْنَيْنِ مِنْهُمْ\" لَا بَأْسَ بِالسَّمَرِ فِي الْفِقْهِ \"",
      "english": {
        "narrator": "",
        "text": ""
      }
    },
    {
      "id": 613,
      "chapterId": 0,
      "bookId": 9,
      "arabic": "أَخْبَرَنَا مُحَمَّدُ بْنُ سَعِيدٍ ، حَدَّثَنَا عَبْدُ السَّلَامِ ، عَنْ لَيْثٍ ، عَنْ مُجَاهِدٍ ، قَالَ :\" لَا بَأْسَ بِالسَّمَرِ فِي الْفِقْهِ \"",
      "english": {
        "narrator": "",
        "text": ""
      }
    },
    {
      "id": 614,
      "chapterId": 0,
      "bookId": 9,
      "arabic": "أَخْبَرَنَا مُحَمَّدُ بْنُ سَعِيدٍ  ، حَدَّثَنَا حَفْصٌ  ، عَنْ ابْنِ جُرَيْجٍ  ، قَالَ : قَالَ ابْنُ عَبَّاسٍ   رَضِيَ اللهُ عَنْهُ :\" تَدَارُسُ الْعِلْمِ سَاعَةً مِنْ اللَّيْلِ، خَيْرٌ مِنْ إِحْيَائِهَا \"",
      "english": {
        "narrator": "",
        "text": ""
      }
    },
    {
      "id": 615,
      "chapterId": 0,
      "bookId": 9,
      "arabic": "أَخْبَرَنَا أَبُو مَعْمَرٍ ، وَمُحَمَّدُ بْنُ عِيسَى ، عَنْ هُشَيْمٍ ، أَخْبَرَنَا حَجَّاجٌ ، عَنْ عَطَاءٍ ، قَالَ :\" كُنَّا نَأْتِي جَابِرَ بْنَ عَبْدِ اللَّهِ رَضِيَ اللهُ عَنْهُ، فَإِذَا خَرَجْنَا مِنْ عِنْدِهِ تَذَاكَرْنَا، فَكَانَ أَبُو الزُّبَيْرِ أَحْفَظَنَا لِحَدِيثِهِ \"",
      "english": {
        "narrator": "",
        "text": ""
      }
    },
    {
      "id": 616,
      "chapterId": 0,
      "bookId": 9,
      "arabic": "أَخْبَرَنَا مَرْوَانُ بْنُ مُحَمَّدٍ ، قَالَ : سَمِعْتُ اللَّيْثَ بْنَ سَعْدٍ ، يَقُولُ :\" تَذَاكَرَ ابْنُ شِهَابٍ  لَيْلَةً بَعْدَ الْعِشَاءِ حَدِيثًا وَهُوَ جَالِسٌ مُتَوَضِّئًا، قَالَ : فَمَا زَالَ ذَلِكَ مَجْلِسَهُ حَتَّى أَصْبَحَ \"، قَالَ مَرْوَانُ : \" جَعَلَ يَتَذَاكَرُ الْحَدِيثَ \"",
      "english": {
        "narrator": "",
        "text": ""
      }
    },
    {
      "id": 617,
      "chapterId": 0,
      "bookId": 9,
      "arabic": "أَخْبَرَنَا عَبْدُ اللَّهِ بْنُ مُحَمَّدٍ  ، حَدَّثَنَا ابْنُ إِدْرِيسَ  ، عَنْ مُحَمَّدِ بْنِ إِسْحَاق  ، عَنْ الزُّهْرِيِّ  ، قَالَ :\" كُنْتُ إِذَا لَقِيتُ عُبَيْدَ اللَّهِ بْنَ عَبْدِ اللَّهِ، فَكَأَنَّمَا أَفْجُرُ بِهِ بَحْرًا \"",
      "english": {
        "narrator": "",
        "text": ""
      }
    },
    {
      "id": 618,
      "chapterId": 0,
      "bookId": 9,
      "arabic": "أَخْبَرَنَا مُحَمَّدُ بْنُ حُمَيْدٍ ، حَدَّثَنَا جَرِيرٌ ، عَنْ عُثْمَانَ بْنِ عَبْدِ اللَّهِ ، قَالَ :\" كَانَ الْحَارِثُ الْعُكْلِيُّ  وَأَصْحَابُهُ يَتَجَالَسُونَ بِاللَّيْلِ، وَيَذْكُرُونَ الْفِقْهَ \"",
      "english": {
        "narrator": "",
        "text": ""
      }
    },
    {
      "id": 619,
      "chapterId": 0,
      "bookId": 9,
      "arabic": "أَخْبَرَنَا أَبُو نُعَيْمٍ  ، حَدَّثَنَا أَبُو إِسْرَائِيلَ  ، عَنْ عَطَاءِ بْنِ السَّائِبِ  ، عَنْ أَبِيهِ  ، رَوَى عَنْ أَبِي الْأَحْوَصِ  ، عَنْ عَبْدِ اللَّهِ   رَضِيَ اللهُ عَنْهُ، قَالَ :\" تَذَاكَرُوا هَذَا الْحَدِيثَ، فَإِنَّ حَيَاتَهُ مُذَاكَرَتُهُ \"",
      "english": {
        "narrator": "",
        "text": ""
      }
    },
    {
      "id": 620,
      "chapterId": 0,
      "bookId": 9,
      "arabic": "أَخْبَرَنَا أَبُو نُعَيْمٍ  ، حَدَّثَنَا الْمَسْعُودِيُّ  ، عَنْ عَوْنٍ  ، قَالَ : قَالَ عَبْدُ اللَّهِ   رَضِيَ اللهُ عَنْهُ لِأَصْحَابِهِ حِينَ قَدِمُوا عَلَيْهِ : هَلْ تَجَالَسُونَ؟، قَالُوا : لَيْسَ نُتْرَكُ ذَاكَ، قَالَ : فَهَلْ تَزَاوَرُونَ؟، قَالُوا : نَعَمْ، يَا أَبَا عَبْدِ الرَّحْمَنِ، إِنَّ الرَّجُلَ مِنَّا لَيَفْقِدُ أَخَاهُ، فَيَمْشِي فِي طَلَبِهِ إِلَى أَقْصَى الْكُوفَةِ حَتَّى يَلْقَاهُ، قَالَ :\" فَإِنَّكُمْ لَنْ تَزَالُوا بِخَيْرٍ مَا فَعَلْتُمْ ذَلِكَ \"",
      "english": {
        "narrator": "",
        "text": ""
      }
    },
    {
      "id": 621,
      "chapterId": 0,
      "bookId": 9,
      "arabic": "أَخْبَرَنَا مُحَمَّدُ بْنُ الْمُبَارَكِ ، حَدَّثَنَا الْوَلِيدُ ، عَنْ الْأَوْزَاعِيِّ ، عَنْ الزُّهْرِيِّ ، قَالَ :\" آفَةُ الْعِلْمِ النِّسْيَانُ، وَتَرْكُ الْمُذَاكَرَةِ \"",
      "english": {
        "narrator": "",
        "text": ""
      }
    },
    {
      "id": 622,
      "chapterId": 0,
      "bookId": 9,
      "arabic": "أَخْبَرَنَا جَعْفَرُ بْنُ عَوْنٍ  ، أَنْبَأَنَا أَبُو عُمَيْسٍ  ، عَنْ الْقَاسِمِ  ، قَالَ : قَالَ عَبْدُ اللَّهِ   رَضِيَ اللهُ عَنْهُ :\" آفَةُ الْحَدِيثِ النِّسْيَانُ \"",
      "english": {
        "narrator": "",
        "text": ""
      }
    },
    {
      "id": 623,
      "chapterId": 0,
      "bookId": 9,
      "arabic": "أَخْبَرَنَا مُحَمَّدُ بْنُ يُوسُفَ  ، عَنْ سُفْيَانَ  ، عَنْ طَارِقٍ  ، عَنْ حَكِيمِ بْنِ جَابِرٍ  ، قَالَ : قَالَ عَبْدُ اللَّهِ   :\" إِنَّ لِكُلِّ شَيْءٍ آفَةً، وَآفَةُ الْعِلْمِ النِّسْيَانُ \"",
      "english": {
        "narrator": "",
        "text": ""
      }
    },
    {
      "id": 624,
      "chapterId": 0,
      "bookId": 9,
      "arabic": "أَخْبَرَنَا عَبْدُ اللَّهِ بْنُ سَعِيدٍ  ، حَدَّثَنَا أَبُو أُسَامَةَ  ، عَنْ الْأَعْمَشِ  ، قَالَ : قَالَ رَسُولُ اللَّهِ صَلَّى اللَّهُ عَلَيْهِ وَسَلَّمَ :\" آفَةُ الْعِلْمِ النِّسْيَانُ، وَإِضَاعَتُهُ أَنْ تُحَدِّثَ بِهِ غَيْرَ أَهْلِهِ \"",
      "english": {
        "narrator": "",
        "text": ""
      }
    },
    {
      "id": 625,
      "chapterId": 0,
      "bookId": 9,
      "arabic": "أَخْبَرَنَا عَفَّانُ ، حَدَّثَنَا حَمَّادُ بْنُ سَلَمَةَ ، أَنْبَأَنَا أَبُو حَمْزَةَ الثُّمَالِيُّ ، عَنْ الْحَسَنِ ، قَالَ :\" غَائِلَةُ الْعِلْمِ النِّسْيَانُ \"",
      "english": {
        "narrator": "",
        "text": ""
      }
    },
    {
      "id": 626,
      "chapterId": 0,
      "bookId": 9,
      "arabic": "أَخْبَرَنَا عُثْمَانُ بْنُ عُمَرَ  ، أَخْبَرَنَا كَهْمَسٌ  ، عَنْ ابْنِ بُرَيْدَةَ  ، قَالَ : قَالَ عَلِيٌّ   :\" تَذَاكَرُوا هَذَا الْحَدِيثَ، وَتَزَاوَرُوا، فَإِنَّكُمْ إِنْ لَمْ تَفْعَلُوا يَدْرُسْ \"",
      "english": {
        "narrator": "",
        "text": ""
      }
    },
    {
      "id": 627,
      "chapterId": 0,
      "bookId": 9,
      "arabic": "أَخْبَرَنَا بِشْرُ بْنُ الْحَكَمِ ، قَالَ : سَمِعْتُ سُفْيَانَ ، يَقُولُ : قَالَ الزُّهْرِيُّ  :\" كُنْتُ أَحْسَبُ بِأَنِّي أَصَبْتُ مِنْ الْعِلْمِ، فَجَالَسْتُ عُبَيْدَ اللَّهِ، فَكَأَنِّي كُنْتُ فِي شِعْبٍ مِنْ الشِّعَابِ \"",
      "english": {
        "narrator": "",
        "text": ""
      }
    },
    {
      "id": 628,
      "chapterId": 0,
      "bookId": 9,
      "arabic": "أَخْبَرَنَا يَزِيدُ بْنُ هَارُونَ ، عَنْ حَمَّادِ بْنِ سَلَمَةَ ، عَنْ حُمَيْدٍ ، قَالَ : قِيلَ لِعُمَرَ بْنِ عَبْدِ الْعَزِيزِ  رَحِمَهُ الله تَعَالَي : لَوْ جَمَعْتَ النَّاسَ عَلَى شَيْءٍ؟، فَقَالَ :\" مَا يَسُرُّنِي أَنَّهُمْ لَمْ يَخْتَلِفُوا، قَالَ : ثُمَّ كَتَبَ إِلَى الْآفَاقِ وَإِلَى الْأَمْصَارِ، لِيَقْضِ كُلُّ قَوْمٍ بِمَا اجْتَمَعَ عَلَيْهِ فُقَهَاؤُهُمْ \"",
      "english": {
        "narrator": "",
        "text": ""
      }
    },
    {
      "id": 629,
      "chapterId": 0,
      "bookId": 9,
      "arabic": "أَخْبَرَنَا يَزِيدُ ، عَنْ الْمَسْعُودِيِّ ، عَنْ عَوْنِ بْنِ عَبْدِ اللَّهِ ، قَالَ :\" مَا أُحِبُّ أَنَّ أَصْحَابَ النَّبِيِّ صَلَّى اللَّهُ عَلَيْهِ وَسَلَّمَ لَمْ يَخْتَلِفُوا، فَإِنَّهُمْ لَوْ اجْتَمَعُوا عَلَى شَيْءٍ، فَتَرَكَهُ رَجُلٌ، تَرَكَ السُّنَّةَ، وَلَوْ اخْتَلَفُوا، فَأَخَذَ رَجُلٌ بِقَوْلِ أَحَدٍ، أَخَذَ بِالسُّنَّةِ \"",
      "english": {
        "narrator": "",
        "text": ""
      }
    },
    {
      "id": 630,
      "chapterId": 0,
      "bookId": 9,
      "arabic": "أَخْبَرَنَا أَبُو نُعَيْمٍ ، حَدَّثَنَا حَسَنٌ ، عَنْ لَيْثٍ  ، عَنْ طَاوُسٍ  ، قَالَ :\" رُبَّمَا رَأَى ابْنُ عَبَّاسٍ  الرَّأْيَ، ثُمَّ تَرَكَهُ \"",
      "english": {
        "narrator": "",
        "text": ""
      }
    },
    {
      "id": 631,
      "chapterId": 0,
      "bookId": 9,
      "arabic": "أَخْبَرَنَا الْحَجَّاجُ بْنُ الْمِنْهَالِ  ، حَدَّثَنَا حَمَّادُ بْنُ سَلَمَةَ  ، أَنْبَأَنَا هِشَامُ بْنُ عُرْوَةَ  ، عَنْ عُرْوَةَ  ، عَنْ مَرْوَانَ بْنِ الْحَكَمِ  ، قَالَ : قَالَ لِي عُثْمَانُ بْنُ عَفَّانَ   : إِنَّ عُمَرَ رَضِيَ اللهُ عَنْهُ، قَالَ لِي : إِنِّي قَدْ رَأَيْتُ فِي الْجَدِّ رَأْيًا، فَإِنْ رَأَيْتُمْ أَنْ تَتَّبِعُوهُ فَاتَّبِعُوهُ، قَالَ عُثْمَانُ :\" إِنْ نَتَّبِعْ رَأْيَكَ، فَإِنَّهُ رَشَدٌ، وَإِنْ نَتَّبِعْ رَأْيَ الشَّيْخِ قَبْلَكَ فَنِعْمَ ذُو الرَّأْيِ كَانَ \"، قَالَ : وَكَانَ أَبُو بَكْرٍ يَجْعَلُهُ أَبًا",
      "english": {
        "narrator": "",
        "text": ""
      }
    },
    {
      "id": 632,
      "chapterId": 0,
      "bookId": 9,
      "arabic": "أَخْبَرَنَا إِبْرَاهِيمُ بْنُ الْمُنْذِرِ الْحِزَامِيُّ ، حَدَّثَنَا مَرْوَانُ بْنُ مُعَاوِيَةَ ، حَدَّثَنَا عَاصِمٌ الْأَحْوَلُ ، قَالَ :\" عَرَضْتُ عَلَى الشَّعْبِيِّ  أَحَادِيثَ الْفِقْهِ، فَأَجَازَهَا لِي \"",
      "english": {
        "narrator": "",
        "text": ""
      }
    },
    {
      "id": 633,
      "chapterId": 0,
      "bookId": 9,
      "arabic": "أَخْبَرَنَا إِبْرَاهِيمُ بْنُ الْمُنْذِرِ  ، حَدَّثَنَا سُفْيَانُ بْنُ عُيَيْنَةَ  ، قَالَ : قُلْتُ لِعَمْرِو بْنِ دِينَارٍ  : أَسَمِعْتَ جَابِرَ بْنَ عَبْدِ اللَّهِ  ، يَقُولُ : قَالَ رَسُولُ اللَّهِ صَلَّى اللَّهُ عَلَيْهِ وَسَلَّمَ لِرَجُلٍ مَرَّ فِي الْمَسْجِدِ بِسِهَامٍ :\" أَمْسِكْ بِنِصَالِهَا \"؟، قَالَ : نَعَمْ",
      "english": {
        "narrator": "",
        "text": ""
      }
    },
    {
      "id": 634,
      "chapterId": 0,
      "bookId": 9,
      "arabic": "أَخْبَرَنَا إِبْرَاهِيمُ بْنُ الْمُنْذِرِ  ، حَدَّثَنَا سُفْيَانُ  ، قَالَ : قُلْتُ لِعَبْدِ الرَّحْمَنِ بْنِ الْقَاسِمِ  : أَسَمِعْتَ أَبَاكَ  يُحَدِّثُ، عَنْ عَائِشَةَ   أَنّ رَسُولَ اللَّهِ صَلَّى اللَّهُ عَلَيْهِ وَسَلَّمَ كَانَ\" يُقَبِّلُهَا وَهُوَ صَائِمٌ \"؟، قَالَ : نَعَمْ",
      "english": {
        "narrator": "",
        "text": ""
      }
    },
    {
      "id": 635,
      "chapterId": 0,
      "bookId": 9,
      "arabic": "أَخْبَرَنَا الْحَسَنُ بْنُ أَحْمَدَ ، حَدَّثَنَا مِسْكِينُ بْنُ بُكَيْرٍ ، حَدَّثَنَا شُعْبَةُ ، قَالَ : كَتَبَ إِلَيَّ مَنْصُورٌ   بِحَدِيثٍ فَلَقِيتُهُ، فَقُلْتُ : أُحَدِّثُ بِهِ عَنْكَ؟، قَالَ :\" أَوَ لَيْسَ إِذَا كَتَبْتُ إِلَيْكَ فَقَدْ حَدَّثْتُكَ؟ \"، قَالَ : وَسَأَلْتُ أَيُّوبَ السَّخْتِيَانِيَّ ، فَقَالَ : مِثْلَ ذَلِكَ",
      "english": {
        "narrator": "",
        "text": ""
      }
    },
    {
      "id": 636,
      "chapterId": 0,
      "bookId": 9,
      "arabic": "أَخْبَرَنَا زَكَرِيَّا بْنُ عَدِيٍّ  ، أَخْبَرَنَا عَبْدُ اللَّهِ بْنُ الْمُبَارَكِ  ، عَنْ مَعْمَرٍ  ، عَنْ الزُّهْرِيِّ  ، قَالَ : عَرَضْتُ عَلَيْهِ كِتَابًا فَقُلْتُ : أَرْوِيهِ عَنْكَ؟، قَالَ :\" وَمَنْ حَدَّثَكَ بِهِ غَيْرِي \"",
      "english": {
        "narrator": "",
        "text": ""
      }
    },
    {
      "id": 637,
      "chapterId": 0,
      "bookId": 9,
      "arabic": "أَخْبَرَنَا إِبْرَاهِيمُ بْنُ الْمُنْذِرِ الْحِزَامِيُّ ، حَدَّثَنَا دَاوُدُ بْنُ عَطَاءٍ مَوْلَى الْمُزَنِيِّينَ، حَدَّثَنَا هِشَامُ بْنُ عُرْوَةَ ، عَنْ أَبِيهِ ، قَالَ :\" عَرْضُ الْكِتَابِ وَالْحَدِيثُ سَوَاءٌ \"",
      "english": {
        "narrator": "",
        "text": ""
      }
    },
    {
      "id": 638,
      "chapterId": 0,
      "bookId": 9,
      "arabic": "أَخْبَرَنَا إِبْرَاهِيمُ بْنُ الْمُنْذِرِ ، حَدَّثَنَا دَاوُدُ بْنُ عَطَاءٍ ، عَنْ جَعْفَرِ بْنِ مُحَمَّدٍ ، عَنْ أَبِيهِ ، قَالَ :\" عَرْضُ الْكِتَابِ وَالْحَدِيثُ سَوَاءٌ \"",
      "english": {
        "narrator": "",
        "text": ""
      }
    },
    {
      "id": 639,
      "chapterId": 0,
      "bookId": 9,
      "arabic": "أَخْبَرَنَا إِبْرَاهِيمُ بْنُ الْمُنْذِرِ ، حَدَّثَنَا دَاوُدُ بْنُ عَطَاءٍ ، قَالَ :\" كَانَ زَيْدُ بْنُ أَسْلَمَ يَرَى عَرْضَ الْكِتَابِ وَالْحَدِيثَ سَوَاءً، وَكَانَ ابْنُ أَبِي ذِئْبٍ  يَرَى ذَلِكَ \"",
      "english": {
        "narrator": "",
        "text": ""
      }
    },
    {
      "id": 640,
      "chapterId": 0,
      "bookId": 9,
      "arabic": "أَخْبَرَنَا إِبْرَاهِيمُ ، حَدَّثَنَا مُطَرِّفٌ ، عَنْ مَالِكِ بْنِ أَنَسٍ  \" أَنَّهُ كَانَيَرَى الْعَرْضَ وَالْحَدِيثَ سَوَاءً \"",
      "english": {
        "narrator": "",
        "text": ""
      }
    },
    {
      "id": 641,
      "chapterId": 0,
      "bookId": 9,
      "arabic": "أَخْبَرَنَا قَبِيصَةُ  ، حَدَّثَنَا سُفْيَانُ  ، عَنْ الْأَعْمَشِ  ، قَالَ : كَانَ إِبْرَاهِيمُ، يَقُولُ : يَقُومُ عَنْ يَسَارِهِ، فَحَدَّثْتُهُ عَن سُمَيْعٍ الزَّيَّاتِ  ، عَنْ ابْنِ عَبَّاسٍ   : أَنّ النَّبِيَّ صَلَّى اللَّهُ عَلَيْهِ وَسَلَّمَ\" أَقَامَهُ عَنْ يَمِينِهِ \"، فَأَخَذَ بِهِ",
      "english": {
        "narrator": "",
        "text": ""
      }
    },
    {
      "id": 642,
      "chapterId": 0,
      "bookId": 9,
      "arabic": "أَخْبَرَنَا مُحَمَّدُ بْنُ حُمَيْدٍ  ، حَدَّثَنَا هَارُونُ بْنُ الْمُغِيرَةِ  ، عَنْ عَنْبَسَةَ بْنِ سَعِيدٍ  ، عَنْ خَالِدِ بْنِ زَيْدٍ الْأَنْصَارِيِّ  ، عَنْ عَقَّارِ بْنِ الْمُغِيرَةِ بْنِ شُعْبَةَ  ، عَنْ أَبِيهِ الْمُغِيرَةِ بْنِ شُعْبَةَ  ، قَالَ : نَشَدَ عُمَرُ النَّاسَ : أَسَمِعَ مِنْ النَّبِيِّ صَلَّى اللَّهُ عَلَيْهِ وَسَلَّمَ أَحَدٌ مِنْكُمْ فِي الْجَنِينِ؟ فَقَامَ الْمُغِيرَةُ بْنُ شُعْبَةَ، فَقَالَ : قَضَى فِيهِ عَبْدًا أَوْ أَمَةً، فَنَشَدَ النَّاسَ أَيْضًا : فَقَامَ الْمَقْضِيُّ لَهُ  ، فَقَالَ : \" قَضَى النَّبِيُّ صَلَّى اللَّهُ عَلَيْهِ وَسَلَّمَ لِي بِهِ عَبْدًا أَوْ أَمَةً \" فَنَشَدَ النَّاسَ أَيْضًا : فَقَامَ الْمَقْضِيُّ عَلَيْهِ  ، فَقَالَ : قَضَى النَّبِيُّ صَلَّى اللَّهُ عَلَيْهِ وَسَلَّمَ \" عَلَيَّ غُرَّةً عَبْدًا أَوْ أَمَةً \"، فَقُلْتُ : أَتَقْضِي عَلَيَّ فِيهِ فِيمَا لَا أَكَلَ، وَلَا شَرِبَ، وَلَا اسْتَهَلَّ، وَلَا نَطَقَ؟ أَنْ تُطِلَّهُ فَهُوَ أَحَقُّ مَا يُطَلُّ \" فَهَمَّ النَّبِيُّ صَلَّى اللَّهُ عَلَيْهِ وَسَلَّمَ إِلَيْهِ بِشَيْءٍ مَعَهُ \"، فَقَالَ :\" أَشِعْرٌ؟ \"، فَقَالَ عُمَرُ : لَوْلَا مَا بَلَغَنِي مِنْ قَضَاءِ النَّبِيِّ صَلَّى اللَّهُ عَلَيْهِ وَسَلَّمَ لَجَعَلْتُهُ دِيَةً بَيْنَ دِيَتَيْنِ",
      "english": {
        "narrator": "",
        "text": ""
      }
    },
    {
      "id": 643,
      "chapterId": 0,
      "bookId": 9,
      "arabic": "أَخْبَرَنَا سَعِيدُ بْنُ عَامِرٍ ، قَالَ : كَانَ سَلَّامٌ يَذْكُرُ، عَنْ أَيُّوبَ ، قَالَ :\" إِذَا أَرَدْتَ أَنْ تَعْرِفَ خَطَأَ مُعَلِّمِكَ، فَجَالِسْ غَيْرَهُ \"",
      "english": {
        "narrator": "",
        "text": ""
      }
    }
  ]
}