{
  "page": 7,
  "perPage": 50,
  "totalPages": 69,
  "totalCount": 3406,
  "nextPage": 8,
  "prevPage": 6,
  "items": [
    {
      "id": 301,
      "chapterId": 1,
      "bookId": 9,
      "arabic": "أَخْبَرَنَا مُحَمَّدُ بْنُ يُوسُفَ ، حَدَّثَنَا سُفْيَانُ ، عَنْ الْعَلَاءِ بْنِ الْمُسَيَّبِ ، عَنْ عَطَاءٍ ، قَالَ :\" الْحَيْضُ أَكْبَرُ \"",
      "english": {
        "narrator": "",
        "text": ""
      }
    },
    {
      "id": 302,
      "chapterId": 1,
      "bookId": 9,
      "arabic": "أَخْبَرَنَا سَعِيدُ بْنُ عَامِرٍ ، عَنْ شُعْبَةَ ، عَنْ مُغِيرَةَ ، عَنْ إِبْرَاهِيمَ  فِي رَجُلٍ غَشِيَ امْرَأَتَهُ فَحَاضَتْ، فَقَالَ :\" تَغْتَسِلُ أَحَبُّ إِلَيَّ \"",
      "english": {
        "narrator": "",
        "text": ""
      }
    },
    {
      "id": 303,
      "chapterId": 1,
      "bookId": 9,
      "arabic": "أَخْبَرَنَا حَجَّاجٌ ، حَدَّثَنَا حَمَّادٌ ، عَنْ حَجَّاجٍ ، عَنْ عَطَاءٍ ، وَالنَّخَعِيِّ ، قَالَا :\" لِتَغْتَسِلْ مِنْ الْجَنَابَةِ \"، حَدَّثَنَا حَجَّاجٌ ، عَنْ حَمَّادٍ ، عَنْ عَامِرٍ الْأَحْوَلِ ، عَنْ الْحَسَنِ ، مِثْلَ ذَلِكَ",
      "english": {
        "narrator": "",
        "text": ""
      }
    },
    {
      "id": 304,
      "chapterId": 1,
      "bookId": 9,
      "arabic": "أَخْبَرَنَا الْمُعَلَّى بْنُ أَسَدٍ ، حَدَّثَنَا عَبْدُ الْوَاحِدِ بْنُ زِيَادٍ ، حَدَّثَنَا الْعَلَاءُ بْنُ الْمُسَيَّبِ ، قَالَ : سُئِلَ عَنْهَا حَمَّادٌ ، فَقَالَ : قَالَ إِبْرَاهِيمُ  :\" تَغْتَسِلُ \"",
      "english": {
        "narrator": "",
        "text": ""
      }
    },
    {
      "id": 305,
      "chapterId": 1,
      "bookId": 9,
      "arabic": "حَدَّثَنَا إِبْرَاهِيمُ بْنُ مُوسَى ، عَنْ ابْنِ فُضَيْلٍ ، عَنْ مُحَمَّدِ بْنِ سَالِمٍ ، عَنْ الشَّعْبِيِّ ، قَالَ :\" تَغْتَسِلُ \"",
      "english": {
        "narrator": "",
        "text": ""
      }
    },
    {
      "id": 306,
      "chapterId": 1,
      "bookId": 9,
      "arabic": "أَخْبَرَنَا مُحَمَّدُ بْنُ يُوسُفَ ، حَدَّثَنَا يَحْيَى بْنُ أَيُّوبَ ، قَالَ : سَمِعْتُ الْحَكَمَ بْنَ عُتَيْبَةَ ، يَقُولُ :\" كَانَ يُعْجِبُهُمْ فِي الْمَرْأَةِ الْحَائِضِ أَنْ تَتَوَضَّأَ وُضُوءَهَا لِلصَّلَاةِ، ثُمَّ تُسَبِّحَ اللَّهَ وَتُكَبِّرَهُ فِي وَقْتِ الصَّلَاةِ \"",
      "english": {
        "narrator": "",
        "text": ""
      }
    },
    {
      "id": 307,
      "chapterId": 1,
      "bookId": 9,
      "arabic": "أَخْبَرَنَا مُحَمَّدُ بْنُ يُوسُفَ ، حَدَّثَنَا سُفْيَانُ ، عَنْ سُلَيْمَانَ التَّيْمِيِّ ، قَالَ : قُلْتُ لِأَبِي قِلَابَةَ  :\" الْحَائِضُ تَتَوَضَّأُ عِنْدَ وَقْتِ كُلِّ صَلَاةٍ، وَتَذْكُرُ اللَّهَ؟، فَقَالَ : مَا وَجَدْتُ لِهَذَا أَصْلًا \"",
      "english": {
        "narrator": "",
        "text": ""
      }
    },
    {
      "id": 308,
      "chapterId": 1,
      "bookId": 9,
      "arabic": "أَخْبَرَنَا عَبْدُ اللَّهِ بْنُ يَزِيد  ، حَدَّثَنَا سَعِيدُ بْنُ أَبِي أَيُّوبَ  ، قَالَ : حَدَّثَنِي خَالِدُ بْنُ يَزِيدَ الصَّدَفِيُّ  ، عَنْ أَبِيهِ  ، عَنْ عُقْبَةَ بْنِ عَامِرٍ الْجُهَنِيِّ   رَضِيَ اللهُ عَنْهُ، أَنَّهُ كَانَ\" يَأْمُرُ الْمَرْأَةَ الْحَائِضَ عِنْدَ أَوَانِ الصَّلَاةِ أَنْ تَوَضَّأَ، وَتَجْلِسَ بِفِنَاءِ مَسْجِدِهَا، فَتَذْكُرَ اللَّهَ وَتُسَبِّحَ \"",
      "english": {
        "narrator": "",
        "text": ""
      }
    },
    {
      "id": 309,
      "chapterId": 1,
      "bookId": 9,
      "arabic": "حَدَّثَنَا يَعْلَى ، حَدَّثَنَا عَبْدُ الْمَلِكِ ، عَنْ عَطَاءٍ  فِي الْمَرْأَةِ الْحَائِضِ : أَتَقْرَأُ؟، قَالَ :\" لَا، إِلَّا طَرَفَ الْآيَةِ وَلَكِنْ تَوَضَّأُ عِنْدَ وَقْتِ كُلِّ صَلَاةٍ، ثُمَّ تَسْتَقْبِلُ الْقِبْلَةَ وَتُسَبِّحُ وَتُكَبِّرُ وَتَدْعُو اللَّهَ G \"",
      "english": {
        "narrator": "",
        "text": ""
      }
    },
    {
      "id": 310,
      "chapterId": 1,
      "bookId": 9,
      "arabic": "أَخْبَرَنَا مُحَمَّدُ بْنُ يَزِيدَ ، حَدَّثَنَا ضَمْرَةُ ، حَدَّثَنَا الشَّيْبَانِيُّ وَهُوَ يَحْيَى بْنُ أَبِي عَمْرٍو مِنْ أَهْلِ الرَّمْلَةِ ، حَدَّثَنَا مَكْحُولٌ ، قَالَ :\" تُؤْمَرُ الْحَائِضُ تَتَوَضَّأُ عِنْدَ مَوَاقِيتِ الصَّلَاةِ، وَتَسْتَقْبِلُ الْقِبْلَةَ وَتَذْكُرُ اللَّهَ تَعَالَي \"",
      "english": {
        "narrator": "",
        "text": ""
      }
    },
    {
      "id": 311,
      "chapterId": 1,
      "bookId": 9,
      "arabic": "أَخْبَرَنَا مُحَمَّدُ بْنُ يُوسُفَ ، حَدَّثَنَا سُفْيَانُ ، عَنْ حَمَّادٍ ، عَنْ إِبْرَاهِيمَ ، قَالَ :\" إِذَا سَمِعَ الْحَائِضُ وَالْجُنُبُ السَّجْدَةَ، يَغْتَسِلُ الْجُنُبُ وَيَسْجُدُ، وَلَا تَقْضِي الْحَائِضُ، لِأَنَّهَا لَا تُصَلِّي \"",
      "english": {
        "narrator": "",
        "text": ""
      }
    },
    {
      "id": 312,
      "chapterId": 1,
      "bookId": 9,
      "arabic": "أَخْبَرَنَا مُحَمَّدُ بْنُ يُوسُفَ ، حَدَّثَنَا سُفْيَانُ ، عَنْ مُغِيرَةَ ، عَنْ إِبْرَاهِيمَ  فِي الْحَائِضِ تَسْمَعُ السَّجْدَةَ، قَالَ :\" لَا تَقْضِي \"",
      "english": {
        "narrator": "",
        "text": ""
      }
    },
    {
      "id": 313,
      "chapterId": 1,
      "bookId": 9,
      "arabic": "أَخْبَرَنَا سَعِيدُ بْنُ عَامِرٍ ، وَجَعْفَرُ بْنُ عَوْنٍ ، عَنْ سَعِيدٍ ، عَنْ أَبِي مَعْشَرٍ ، عَنْ إِبْرَاهِيمَ ، قَالَ :\" لَيْسَ عَلَيْهَا شَيْءٌ \"",
      "english": {
        "narrator": "",
        "text": ""
      }
    },
    {
      "id": 314,
      "chapterId": 1,
      "bookId": 9,
      "arabic": "أَخْبَرَنَا يَعْلَى  ، حَدَّثَنَا عُبَيْدَةُ بْنُ مُعَتِّبٍ  ، عَنْ إِبْرَاهِيمَ  ، عَنْ الْأَسْوَدِ  ، عَنْ عَائِشَةَ   رَضِيَ اللهُ عَنْهَا، قَالَتْ :\" كُنَّا نَحِيضُ عِنْدَ رَسُولِ اللَّهِ صَلَّى اللَّهُ عَلَيْهِ وَسَلَّمَ، فَمَا يَأْمُرُ امْرَأَةً مِنَّا بِرَدِّ الصَّلَاةِ \"",
      "english": {
        "narrator": "",
        "text": ""
      }
    },
    {
      "id": 315,
      "chapterId": 1,
      "bookId": 9,
      "arabic": "أَخْبَرَنَا أَبُو النُّعْمَانِ  ، حَدَّثَنَا حَمَّادٌ  ، عَنْ أَيُّوبَ  ، عَنْ أَبِي قِلَابَةَ  ، عَنْ مُعَاذَةَ  : أَنَّ امْرَأَةً سَأَلَتْ عَائِشَةَ   رَضِيَ اللهُ عَنْهَا : أَتَقْضِي إِحْدَانَا صَلَاةَ أَيَّامِ حَيْضِهَا؟، فَقَالَتْ :\" أَحَرُورِيَّةٌ أَنْتِ؟ قَدْ كَانَتْ إِحْدَانَا تَحِيضُ عَلَى عَهْدِ رَسُولِ اللَّهِ صَلَّى اللَّهُ عَلَيْهِ وَسَلَّمَ فَلَا تُؤْمَرُ بِقَضَاءٍ \"، أَخْبَرَنَا أَبُو النُّعْمَانِ  ، حَدَّثَنَا حَمَّادٌ  ، عَنْ يَزِيدَ الرِّشْكِ  ، عَنْ مُعَاذَةَ  ، قَالَ أَبُو النُّعْمَانِ : \" كَأَنَّ حَمَّادًا فَرِقَ حَدِيثَ أَيُّوبَ، فَجَاءَ بِهَذَا \"",
      "english": {
        "narrator": "",
        "text": ""
      }
    },
    {
      "id": 316,
      "chapterId": 1,
      "bookId": 9,
      "arabic": "أَخْبَرَنَا عَمْرُو بْنُ عَوْنٍ ، عَنْ خَالِدِ بْنِ عَبْدِ اللَّهِ ، عَنْ عَطَاءِ بْنِ السَّائِبِ ، عَنْ عَامِرٍ ، قَالَ :\" إِذَا سَمِعَتْ الْحَائِضُ السَّجْدَةَ، فَلَا تَسْجُدْ \"",
      "english": {
        "narrator": "",
        "text": ""
      }
    },
    {
      "id": 317,
      "chapterId": 1,
      "bookId": 9,
      "arabic": "أَخْبَرَنَا عَمْرُو بْنُ عَوْنٍ ، عَنْ خَالِدِ بْنِ عَبْدِ اللَّهِ ، عَنْ خَالِدٍ الْحَذَّاءِ ، عَنْ أَبِي قِلَابَةَ ، قَالَ :\" لَا تَسْجُدُ الْمَرْأَةُ الْحَائِضُ إِذَا سَمِعَتْ السَّجْدَةَ \"",
      "english": {
        "narrator": "",
        "text": ""
      }
    },
    {
      "id": 318,
      "chapterId": 1,
      "bookId": 9,
      "arabic": "أَخْبَرَنَا عَمْرُو بْنُ عَوْنٍ ، عَنْ خَالِدٍ ، عَنْ الْحَسَنِ بْنِ عُبَيْدِ اللَّهِ ، عَنْ إِبْرَاهِيمَ ، أَنَّهُ كَانَ\" يَكْرَهُ لِلْحَائِضِ أَنْ تَسْجُدَ إِذَا سَمِعَتْ السَّجْدَةَ \"",
      "english": {
        "narrator": "",
        "text": ""
      }
    },
    {
      "id": 319,
      "chapterId": 1,
      "bookId": 9,
      "arabic": "أَخْبَرَنَا يَعْلَى  ، عَنْ مُحَمَّدِ بْنِ عَوْنٍ  ، عَنْ أَبِي غَالِبٍ عَجْلَانَ  ، قَالَ : سَأَلْتُ ابْنَ عَبَّاسٍ   رَضِيَ اللهُ عَنْ النُّفَسَاءِ وَالْحَائِضِ : هَلْ تَقْضِيَانِ الصَّلَاةَ إِذَا تَطَهَّرْنَ، قَالَ :\" هُوَ ذَا، أَزْوَاجُ النَّبِيِّ صَلَّى اللَّهُ عَلَيْهِ وَسَلَّمَ فَلَوْ فَعَلْنَ ذَلِكَ أَمَرْنَا نِسَاءَنَا بِذَلِكَ \"",
      "english": {
        "narrator": "",
        "text": ""
      }
    },
    {
      "id": 320,
      "chapterId": 1,
      "bookId": 9,
      "arabic": "أَخْبَرَنَا عَمْرُو بْنُ عَوْنٍ  ، أَخْبَرَنَا خَالِدٌ  ، عَنْ لَيْثٍ  ، عَنْ عَبْدِ الرَّحْمَنِ بْنِ الْقَاسِمِ  ، عَنْ أَبِيهِ  ، قَالَ : أَتَتْ امْرَأَةٌ إِلَى عَائِشَةَ  ، فَقَالَتْ : أَقْضِي مَا تَرَكْتُ مِنْ صَلاتِي فِي الْحَيْضِ عِنْدَ الطُّهْرِ؟، فَقَالَتْ عَائِشَةُ :\" أَحَرُورِيَّةٌ أَنْتِ؟ كُنَّا مَعَ رَسُولِ اللَّهِ صَلَّى اللَّهُ عَلَيْهِ وَسَلَّمَ فَكَانَتْ إِحْدَانَا تَحِيضُ وَتَطْهُرُ، فَلَا يَأْمُرُنَا بِالْقَضَاءِ \"",
      "english": {
        "narrator": "",
        "text": ""
      }
    },
    {
      "id": 321,
      "chapterId": 1,
      "bookId": 9,
      "arabic": "أَخْبَرَنَا إِسْحَاق بْنُ عِيسَى ، حَدَّثَنَا شَرِيكٌ ، عَنْ كَثِيرٍ أَبِي إِسْمَاعِيل ، قَالَ : قُلْت لِفَاطِمَةَ  يَعْنِي بِنْتَ عَلِيٍّ :\" أَتَقْضِينَ الصَلَاةَ أَيَّامِ حَيْضِكِ؟، قَالَتْ : لَا \"",
      "english": {
        "narrator": "",
        "text": ""
      }
    },
    {
      "id": 322,
      "chapterId": 1,
      "bookId": 9,
      "arabic": "أَخْبَرَنَا سَعِيدُ بْنُ الرَّبِيعِ  ، حَدَّثَنَا شُعْبَةُ  ، عَنْ يَزِيدَ الرِّشْكِ  ، قَالَ : سَمِعْتُ مُعَاذَةَ  ، عَنْ عَائِشَةَ   رَضِيَ اللهُ عَنْهَا سَأَلَتْهَا امْرَأَةٌ : أَتَقْضِي الْحَائِضُ الصَّلَاةَ؟، قَالَتْ :\" أَحَرُورِيَّةٌ أَنْتِ؟ قَدْ حِضْنَ نِسَاءُ رَسُولِ اللَّهِ صَلَّى اللَّهُ عَلَيْهِ وَسَلَّمَ فَأَمَرَهُنَّ يَجْزِينَ \"، قَالَ عَبْد اللَّهِ : مَعْنَاهُ أَنَّهُنَّ لَا يَقْضِينَ",
      "english": {
        "narrator": "",
        "text": ""
      }
    },
    {
      "id": 323,
      "chapterId": 1,
      "bookId": 9,
      "arabic": "أَخْبَرَنَا مُحَمَّدُ بْنُ يُوسُفَ ، حَدَّثَنَا سُفْيَانُ ، عَنْ مُغِيرَةَ ، عَنْ إِبْرَاهِيمَ ، قَالَ :\" الْحَائِضُ وَالْجُنُبُ يَذْكُرَانِ اللَّهَ، وَيُسَمِّيَانِ \"",
      "english": {
        "narrator": "",
        "text": ""
      }
    },
    {
      "id": 324,
      "chapterId": 1,
      "bookId": 9,
      "arabic": "أَخْبَرَنَا مُحَمَّدُ بْنُ يُوسُفَ ، حَدَّثَنَا سُفْيَانُ ، قَالَ : بَلَغَنِي عَنْ إِبْرَاهِيمَ ، وَسَعِيدِ بْنِ جُبَيْرٍ ، أنهما قَالَا :\" لَا يَقْرَأْ الْجُنُبُ وَالْحَائِضُ آيَةً تَامَّةً، يَقْرَآنِ الْحَرْفَ \"",
      "english": {
        "narrator": "",
        "text": ""
      }
    },
    {
      "id": 325,
      "chapterId": 1,
      "bookId": 9,
      "arabic": "أَخْبَرَنَا مُحَمَّدُ بْنُ يَزِيدَ الْبَزَّازُ ، حَدَّثَنَا شَرِيكٌ ، عَنْ فِرَاسٍ ، عَنْ عَامِرٍ  :\" الْجُنُبُ وَالْحَائِضُ لَا يَقْرَآنِ الْقُرْآنَ \"",
      "english": {
        "narrator": "",
        "text": ""
      }
    },
    {
      "id": 326,
      "chapterId": 1,
      "bookId": 9,
      "arabic": "أَخْبَرَنَا أَبُو الْوَلِيدِ  ، حَدَّثَنَا شُعْبَةُ  ، حَدَّثَنَا الْحَكَمُ  ، عَنْ إِبْرَاهِيمَ  ، قَالَ : كَانَ عُمَرُ   رَضِيَ اللهُ عَنْهُ يَكْرَهُ أَوْ\" يَنْهَى أَنْ يَقْرَأَ الْجُنُبُ \"، قَالَ شُعْبَةُ : \" وَجَدْتُ فِي الْكِتَابِ وَالْحَائِضُ \"",
      "english": {
        "narrator": "",
        "text": ""
      }
    },
    {
      "id": 327,
      "chapterId": 1,
      "bookId": 9,
      "arabic": "أَخْبَرَنَا يَزِيدُ بْنُ هَارُونَ ، عَنْ هِشَامٍ الدَّسْتَوَائِيِّ ، عَنْ حَمَّادٍ ، عَنْ إِبْرَاهِيمَ ، قَالَ :\" أَرْبَعَةٌ لَا يَقْرَءُونَ الْقُرْآنَ : عِنْدَ الْخَلَاءِ، وَفِي الْحَمَّامِ، وَالْجُنُبُ، وَالْحَائِضُ، إِلَّا الْآيَةَ وَنَحْوَهَا لِلْجُنُبِ وَالْحَائِضِ \"",
      "english": {
        "narrator": "",
        "text": ""
      }
    },
    {
      "id": 328,
      "chapterId": 1,
      "bookId": 9,
      "arabic": "أَخْبَرَنَا عَبْدُ اللَّهِ بْنُ سَعِيدٍ ، حَدَّثَنَا أَبُو خَالِدٍ الْأَحْمَرُ ، عَنْ حَجَّاجٍ ، عَنْ عَطَاءٍ ، وَحَمَّادٍ ، عَنْ إِبْرَاهِيمَ ، وَسَعِيدِ بْنِ جُبَيْرٍ ، قَالُوا :\" الْحَائِضُ وَالْجُنُبُ يَسْتَفْتِحُونَ الْآيَةَ وَلَا يُتِمُّونَ آخِرَهَا \"",
      "english": {
        "narrator": "",
        "text": ""
      }
    },
    {
      "id": 329,
      "chapterId": 1,
      "bookId": 9,
      "arabic": "أَخْبَرَنَا حَجَّاجٌ ، حَدَّثَنَا حَمَّادُ بْنُ سَلَمَةَ ، عَنْ عَاصِمٍ الْأَحْوَلِ ، عَنْ أَبِي الْعَالِيَةِ ، فِي الْحَائِضِ، قَالَ :\" لَا تَقْرَأُ الْقُرْآنَ \"",
      "english": {
        "narrator": "",
        "text": ""
      }
    },
    {
      "id": 330,
      "chapterId": 1,
      "bookId": 9,
      "arabic": "أَخْبَرَنَا عُبَيْدُ اللَّهِ بْنُ مُوسَى  ، وَأَبُو نُعَيْمٍ  ، قَالَا : أَخْبَرَنَا السَّائِبُ بْنُ عُمَرَ  ، عَنْ ابْنِ أَبِي مُلَيْكَةَ  ، أَنَّ عَائِشَةَ   رَضِيَ اللهُ عَنْهَا كَانَتْ\" تَرْقِي أَسْمَاءَ رَضِيَ اللهُ عَنْهَا وَهِيَ عَارِكٌ \"",
      "english": {
        "narrator": "",
        "text": ""
      }
    },
    {
      "id": 331,
      "chapterId": 1,
      "bookId": 9,
      "arabic": "أَخْبَرَنَا مُسْلِمٌ ، حَدَّثَنَا هِشَامٌ ، حَدَّثَنَا قَتَادَةُ ، قَالَ :\" الْجُنُبُ يَذْكُرُ اسْمَ اللَّهِ تَعَالَى \"",
      "english": {
        "narrator": "",
        "text": ""
      }
    },
    {
      "id": 332,
      "chapterId": 1,
      "bookId": 9,
      "arabic": "أَخْبَرَنَا سَهْلُ بْنُ حَمَّادٍ ، حَدَّثَنَا شُعْبَةُ ، عَنْ سَيَّارٍ ، عَنْ أَبِي وَائِلٍ ، قَالَ : كَانَ يُقَالُ :\" لَا يَقْرَأُ الْجُنُبُ، وَلَا الْحَائِضُ، وَلَا يُقْرَأُ فِي الْحَمَّامِ، وَحَالَانِ لَا يَذْكُرُ الْعَبْدُ فِيهِمَا اللَّهَ : عِنْدَ الْخَلَاءِ، وَعِنْدَ الْجِمَاعِ، إِلَّا أَنَّ الرَّجُلَ إِذَا أَتَى أَهْلَهُ، بَدَأَ فَسَمَّى اللَّهَ \"",
      "english": {
        "narrator": "",
        "text": ""
      }
    },
    {
      "id": 333,
      "chapterId": 1,
      "bookId": 9,
      "arabic": "أَخْبَرَنَا يَعْلَى ، حَدَّثَنَا عَبْدُ الْمَلِكِ ، عَنْ عَطَاءٍ  فِي الْمَرْأَةِ الْحَائِضِ : تَقْرَأُ؟، قَالَ :\" لَا، إِلَّا طَرَفَ الْآيَةِ \"",
      "english": {
        "narrator": "",
        "text": ""
      }
    },
    {
      "id": 334,
      "chapterId": 1,
      "bookId": 9,
      "arabic": "أَخْبَرَنَا عَبْدُ اللَّهِ بْنُ سَعِيدٍ  ، حَدَّثَنَا أَبُو أُسَامَةَ  ، عَنْ الْجُرَيْرِيِّ  ، عَنْ أَبِي عَطَّافٍ L275 ، عَنْ أَبِي هُرَيْرَةَ   رَضِيَ اللهُ عَنْهُ، قَالَ :\" أَرْبَعٌ لَا يَحْرُمْنَ عَلَى جُنُبٍ وَلَا حَائِضٍ : سُبْحَانَ اللَّهِ، وَالْحَمْدُ لِلَّهِ، وَلَا إِلَهَ إِلَّا اللَّهُ، وَاللَّهُ أَكْبَرُ \"، سُئِلَ أَبُو مُحَمَّد عَبْد اللَّهِ : يَقْرَأُ الْجُنُبُ آيَةً آيَةً؟، قَالَ : لَا يُعْجِبُنِي",
      "english": {
        "narrator": "",
        "text": ""
      }
    },
    {
      "id": 335,
      "chapterId": 1,
      "bookId": 9,
      "arabic": "أَخْبَرَنَا أَحْمَدُ بْنُ حُمَيْدٍ  ، حَدَّثَنَا عَبْدُ الرَّحِيمِ بْنُ سُلَيْمَانَ  ، حَدَّثَنَا الْحَسَنُ بْنُ عُبَيْدِ اللَّهِ  ، عَنْ مُسْلِمِ بْنِ صُبَيْحٍ  ، عَنْ ابْنِ عَبَّاسٍ   رَضِيَ اللهُ عَنْهُ، أَنَّهُ سُئِلَ عَنْ الْحَائِضِ تَسْمَعُ السَّجْدَةَ، قَالَ :\" لَا تَسْجُدُ لِأَنَّهَا صَلَاةٌ \"",
      "english": {
        "narrator": "",
        "text": ""
      }
    },
    {
      "id": 336,
      "chapterId": 1,
      "bookId": 9,
      "arabic": "أَخْبَرَنَا أَحْمَدُ بْنُ حُمَيْدٍ ، حَدَّثَنَا حَفْصُ بْنُ غِيَاثٍ ، عَنْ الْحَسَنِ بْنِ عُبَيْدِ اللَّهِ ، عَنْ إِبْرَاهِيمَ ، وأبي الضحي ، قَالَا :\" لَا تَسْجُدُ \"",
      "english": {
        "narrator": "",
        "text": ""
      }
    },
    {
      "id": 337,
      "chapterId": 1,
      "bookId": 9,
      "arabic": "أَخْبَرَنَا أَحْمَدُ بْنُ حُمَيْدٍ ، حَدَّثَنَا ابْنُ نُمَيْرٍ ، عَنْ حَجَّاجٍ ، عَنْ حَمَّادٍ ، عَنْ إِبْرَاهِيمَ ، وَسَعِيدِ بْنِ جُبَيْرٍ ، قَالَا :\" لَيْسَ عَلَيْهَا ذَاكَ الصَّلَاةُ أَكْبَرُ مِنْ ذَلِكَ \"",
      "english": {
        "narrator": "",
        "text": ""
      }
    },
    {
      "id": 338,
      "chapterId": 1,
      "bookId": 9,
      "arabic": "أَخْبَرَنَا أَحْمَدُ بْنُ حُمَيْدٍ ، حَدَّثَنَا ابْنُ الْمُبَارَكِ ، عَنْ ابْنِ جُرَيْجٍ ، عَنْ عَطَاءٍ ، قَالَ :\" مُنِعَتْ خَيْرًا مِنْ ذَلِكَ الصَّلَاةَ الْمَكْتُوبَةَ \"",
      "english": {
        "narrator": "",
        "text": ""
      }
    },
    {
      "id": 339,
      "chapterId": 1,
      "bookId": 9,
      "arabic": "أَخْبَرَنَا أَحْمَدُ بْنُ حُمَيْدٍ ، حَدَّثَنَا غُنْدَرٌ ، عَنْ أَشْعَثَ ، عَنْ الْحَسَنِ ، قَالَ :\" لَا تَسْجُدُ \"",
      "english": {
        "narrator": "",
        "text": ""
      }
    },
    {
      "id": 340,
      "chapterId": 1,
      "bookId": 9,
      "arabic": "أَخْبَرَنَا أَحْمَدُ ، حَدَّثَنَا ابْنُ الْمُبَارَكِ ، عَنْ يُونُسَ ، عَنْ الزُّهْرِيِّ  فِي الْمَرْأَةِ تَرَى الطُّهْرَ فَتَسْمَعُ السَّجْدَةَ، قَالَ :\" لَا تَسْجُدُ حَتَّى تَغْتَسِلَ \"",
      "english": {
        "narrator": "",
        "text": ""
      }
    },
    {
      "id": 341,
      "chapterId": 1,
      "bookId": 9,
      "arabic": "أَخْبَرَنَا أَبُو زَيْدٍ سَعِيدُ بْنُ الرَّبِيعِ  ، حَدَّثَنَا شُعْبَةُ  ، عَنْ الْحَكَمِ  ، قَالَ : سَمِعْتُ ذَرًّا  ، عَنْ وَائِلِ بْنِ مُهَانَةَ  ، عَنْ عَبْدِ اللَّهِ   رَضِيَ اللهُ عَنْهُ، عَنْ النَّبِيِّ صَلَّى اللَّهُ عَلَيْهِ وَسَلَّمَ قَالَ لِلنِّسَاءِ :\" تَصَدَّقْنَ، فَإِنَّكُنَّ أَكْثَرُ أَهْلِ النَّارِ \"، فَقَالَتْ امْرَأَةٌ لَيْسَتْ مِنْ عِلْيَةِ النِّسَاءِ : لِمَ، أَوْ بِمَ، أَوْ فِيمَ؟، قَالَ : \" إِنَّكُنَّ تُكْثِرْنَ اللَّعْنَةَ، وَتَكْفُرْنَ الْعَشِيرَ \"، قَالَ : وَقَالَ عَبْدُ اللَّهِ : مَا مِنْ نَاقِصِي الدِّينِ وَالْعَقْلِ أَغْلَبَ لِلرِّجَالِ ذَوِي الْأَمْرِ عَلَى أَمْرِهِمْ مِنْ النِّسَاءِ، قَالَ رَجُلٌ لِعَبْدِ اللَّهِ : مَا نُقْصَانُ عَقْلِهَا؟، قَالَ : جُعِلَتْ شَهَادَةُ امْرَأَتَيْنِ بِشَهَادَةِ رَجُلٍ، قَالَ سُئِلَ : مَا نُقْصَانُ دِينِهَا؟ قَالَ : تَمْكُثُ كَذَا وَكَذَا مِنْ يَوْمٍ وَلَيْلَةٍ لَا تُصَلِّي لِلَّهِ صَلَاةً",
      "english": {
        "narrator": "",
        "text": ""
      }
    },
    {
      "id": 342,
      "chapterId": 1,
      "bookId": 9,
      "arabic": "أَخْبَرَنَا مُحَمَّدُ بْنُ يُوسُفَ  ، حَدَّثَنَا الْأَوْزَاعِيُّ  ، عَنْ عَبْدِ الرَّحْمَنِ بْنِ الْقَاسِمِ  ، عَنْ أَبِيهِ  ، عَنْ عَائِشَةَ   رَضِيَ اللهُ عَنْهَا، قَالَتْ :\" إِذَا طَهُرَتْ الْمَرْأَةُ مِنْ الْحَيْضِ، فَلْتَتَّبِعْ ثَوْبَهَا الَّذِي يَلِي جِلْدَهَا فَلْتَغْسِلْ مَا أَصَابَهُ مِنْ الْأَذَى، ثُمَّ تُصَلِّي فِيهِ \"",
      "english": {
        "narrator": "",
        "text": ""
      }
    },
    {
      "id": 343,
      "chapterId": 1,
      "bookId": 9,
      "arabic": "أَخْبَرَنَا مُحَمَّدُ بْنُ يُوسُفَ  ، حَدَّثَنَا ابْنُ عُيَيْنَةَ  ، عَنْ ابْنِ أَبِي نَجِيحٍ  ، عَنْ عَطَاءٍ  ، عَنْ عَائِشَةَ   رَضِيَ اللهُ عَنْهَا، قَالَتْ :\" كَانَ يَكُونُ لِإِحْدَانَا الدِّرْعُ فِيهِ تَحِيضُ وَفِيهِ تُجْنِبُ، ثُمَّ تَرَى فِيهِ الْقَطْرَةَ مِنْ دَمِ حَيْضَتِهَا، فَتَقْصَعُهُ بِرِيقِهَا \"",
      "english": {
        "narrator": "",
        "text": ""
      }
    },
    {
      "id": 344,
      "chapterId": 1,
      "bookId": 9,
      "arabic": "أَخْبَرَنَا سَهْلُ بْنُ حَمَّادٍ  ، حَدَّثَنَا أَبُو بَكْرٍ الْهُذَلِيُّ  ، عَنْ الْحَسَنِ  ، عَنْ أُمِّهِ  ، عَنْ أُمِّ سَلَمَةَ   \" إِنَّ إِحْدَاكُنَّ تَسْبِقُهَا الْقَطْرَةُ مِنْ الدَّمِ،فَإِذَا أَصَابَتْ إِحْدَاكُنَّ ذَلِكَ فَلْتَقْصَعْهُ بِرِيقِهَا \"",
      "english": {
        "narrator": "",
        "text": ""
      }
    },
    {
      "id": 345,
      "chapterId": 1,
      "bookId": 9,
      "arabic": "أَخْبَرَنَا أَبُو النُّعْمَانِ  ، حَدَّثَنَا ثَابِتُ بْنُ يَزِيدَ  ، حَدَّثَنَا عَاصِمٌ  ، عَنْ مُعَاذَةَ الْعَدَوِيَّةِ  ، عَنْ عَائِشَةَ   رَضِيَ اللهُ عَنْهَا، قَالَتْ :\" إِذَا غَسَلَتْ الْمَرْأَةُ الدَّمَ فَلَمْ يَذْهَبْ، فَلْتُغَيِّرْهُ بِصُفْرَةِ وَرْسٍ، أَوْ زَعْفَرَانٍ \"",
      "english": {
        "narrator": "",
        "text": ""
      }
    },
    {
      "id": 346,
      "chapterId": 1,
      "bookId": 9,
      "arabic": "أَخْبَرَنَا سَعِيدُ بْنُ الرَّبِيعِ  ، حَدَّثَنَا شُعْبَةُ  ، عَنْ يَزِيدَ الرِّشْكِ  ، قَالَ : سَمِعْتُ مُعَاذَةَ الْعَدَوِيَّةَ  ، عَنْ عَائِشَةَ   رَضِيَ اللهُ عَنْهَا، قَالَتْ لَهَا امْرَأَةٌ : الدَّمُ يَكُونُ فِي الثَّوْبِ فَأَغْسِلُهُ، فَلَا يَذْهَبُ، فَأُقَطِّعُهُ؟، قَالَتْ :\" الْمَاءُ طَهُورٌ \"",
      "english": {
        "narrator": "",
        "text": ""
      }
    },
    {
      "id": 347,
      "chapterId": 1,
      "bookId": 9,
      "arabic": "أَخْبَرَنَا أَبُو الْوَلِيدِ الطَّيَالِسِيُّ  ، حَدَّثَنَا يَحْيَى بْنُ سَعِيدٍ الْقَطَّانُ  ، قَالَ : حَدَّثَنِي جَابِرُ بْنُ صُبْحٍ  ، قَالَ : سَمِعْتُ خِلَاسَ بْنَ عَمْرٍو  ، قَالَ : سَمِعْتُ عَائِشَةَ   رَضِيَ اللهُ عَنْهَا، تَقُولُ : كَانَ رَسُولُ اللَّهِ صَلَّى اللَّهُ عَلَيْهِ وَسَلَّمَ أَبُو الْقَاسِمِ :\" يَكُونُ مَعِي فِي الشِّعَارِ الْوَاحِدِ وَأَنَا حَائِضٌ طَامِثٌ إِنْ أَصَابَهُ مِنِّي شَيْءٌ غَسَلَ مَا أَصَابَهُ، لَمْ يَعْدُهُ إِلَى غَيْرِهِ، وَصَلَّى فِيهِ ثُمَّ يَعُودُ، وَإِنْ أَصَابَهُ مِنِّي شَيْءٌ، فَعَلَ مِثْلَ ذَلِكَ، غَسَلَ مَكَانَهُ لَمْ يَعْدُهُ إِلَى غَيْرِهِ، وَصَلَّى فِيهِ \"",
      "english": {
        "narrator": "",
        "text": ""
      }
    },
    {
      "id": 348,
      "chapterId": 1,
      "bookId": 9,
      "arabic": "أَخْبَرَنَا يَزِيدُ بْنُ هَارُونَ ، عَنْ هِشَامٍ الدَّسْتَوَائِيِّ ، عَنْ حَمَّادٍ ، عَنْ إِبْرَاهِيمَ ، فِيمَا تَلْبَسُ الْمَرْأَةُ مِنْ الثِّيَابِ وَهِيَ حَائِضٌ\" إِنْ أَصَابَهُ دَمٌ، غَسَلَتْهُ، وَإِلَّا فَلَيْسَ عَلَيْهَا غَسْلُهُ وَإِنْ عَرِقَتْ فِيهِ، فَإِنَّهُ يُجْزِئُهَا أَنْ تَنْضَحَهُ \"",
      "english": {
        "narrator": "",
        "text": ""
      }
    },
    {
      "id": 349,
      "chapterId": 1,
      "bookId": 9,
      "arabic": "أَخْبَرَنَا عُبَيْدُ اللَّهِ بْنُ مُوسَى ، عَنْ عُثْمَانَ ، عَنْ مُجَاهِدٍ ، قَالَ :\" الْمَرْأَةُ الْحَائِضُ تُصَلِّي فِي ثِيَابِهَا الَّتِي تَحِيضُ فِيهَا، إِلَّا أَنْ يُصِيبَ شَيْئًا مِنْهَا دَمٌ، فَتَغْسِلَ مَوْضِعَ الدَّمِ \"",
      "english": {
        "narrator": "",
        "text": ""
      }
    },
    {
      "id": 350,
      "chapterId": 1,
      "bookId": 9,
      "arabic": "أَخْبَرَنَا عَمْرُو بْنُ عَوْنٍ  ، حَدَّثَنَا سُفْيَانُ بْنُ عُيَيْنَةَ  ، عَنْ هِشَامِ بْنِ عُرْوَةَ  ، عَنْ فَاطِمَةَ بِنْتِ الْمُنْذِرِ  ، عَنْ أَسْمَاءَ بِنْتِ أَبِي بَكْرٍ   رَضِيَ اللهُ عَنْهَا، قَالَتْ : سَأَلْتُ رَسُولَ اللَّهِ صَلَّى اللَّهُ عَلَيْهِ وَسَلَّمَ عَنْ دَمِ الْحَيْضِ يُصِيبُ الثَّوْبَ، قَالَ :\" حُتِّيهِ ثُمَّ رُشِّيهِ بِالْمَاءِ \"",
      "english": {
        "narrator": "",
        "text": ""
      }
    }
  ]
}