{
  "page": 8,
  "perPage": 50,
  "totalPages": 69,
  "totalCount": 3406,
  "nextPage": 9,
  "prevPage": 7,
  "items": [
    {
      "id": 351,
      "chapterId": 1,
      "bookId": 9,
      "arabic": "حَدَّثَنَا مُعَاذُ بْنُ هَانِئٍ ، عَنْ إِبْرَاهِيمَ بْنِ طَهْمَانَ ، عَنْ مُغِيرَةَ ، عَنْ إِبْرَاهِيمَ ، قَالَ :\" الْحَائِضُ لَا تَغْسِلُ ثَوْبَهَا إِذَا لَمْ يَكُنْ فِيهِ دَمٌ \"",
      "english": {
        "narrator": "",
        "text": ""
      }
    },
    {
      "id": 352,
      "chapterId": 1,
      "bookId": 9,
      "arabic": "أَخْبَرَنَا مُحَمَّدُ بْنُ عَبْدِ اللَّهِ الرَّقَاشِيُّ  ، حَدَّثَنَا يَزِيدُ هُوَ ابْنُ زُرَيْعٍ  ، حَدَّثَنَا مُحَمَّدٌ هُوَ ابْنُ إِسْحَاق  ، حَدَّثَتْنِي فَاطِمَةُ بِنْتُ الْمُنْذِرِ  ، عَنْ أَسْمَاءَ بِنْتِ أَبِي بَكْرٍ   رَضِيَ اللهُ عَنْهَا، قَالَتْ : سَمِعْتُ امْرَأَةً تَسْأَلُ رَسُولَ اللَّهِ صَلَّى اللَّهُ عَلَيْهِ وَسَلَّمَ عَنْ ثَوْبِهَا إِذَا طَهُرَتْ مِنْ مَحِيضِهَا، كَيْفَ تَصْنَعُ بِهِ؟، قَالَ :\" إِنْ رَأَيْتِ فِيهِ دَمًا فَحُكِّيهِ، ثُمَّ اقْرُصِيهِ بِمَاءٍ، ثُمَّ انْضَحِي فِي سَائِرِهِ، فَصَلِّي فِيهِ \"",
      "english": {
        "narrator": "",
        "text": ""
      }
    },
    {
      "id": 353,
      "chapterId": 1,
      "bookId": 9,
      "arabic": "أَخْبَرَنَا أَبُو عُبَيْدٍ الْقَاسِمُ بْنُ سَلَّامٍ  ، حَدَّثَنَا عَبْدُ الرَّحْمَنِ بْنُ مَهْدِيٍّ  ، عَنْ سُفْيَانَ  ، عَنْ ثَابِتٍ الْحَدَّادِ  ، عَنْ عَدِيِّ بْنِ دِينَارٍ  مَوْلَى أُمِّ قَيْسٍ بِنْتِ مِحْصَنٍ ، عَنْ أُمِّ قَيْسٍ   رَضِيَ اللهُ عَنْهَا، قَالَتْ : سَأَلْتُ النَّبِيَّ صَلَّى اللَّهُ عَلَيْهِ وَسَلَّمَ عَنْ دَمِ الْحِيضَةِ يَكُونُ فِي الثَّوْبِ، فَقَالَ :\" اغْسِلِيهِ بِمَاءٍ وَسِدْرٍ وَحُكِّيهِ بِضِلَعٍ \"",
      "english": {
        "narrator": "",
        "text": ""
      }
    },
    {
      "id": 354,
      "chapterId": 1,
      "bookId": 9,
      "arabic": "أَخْبَرَنَا سَعِيدُ بْنُ الرَّبِيعِ  ، عَنْ عَلِيِّ بْنِ الْمُبَارَكِ  ، قَالَ : سَمِعْتُ كَرِيمَةَ  ، قالَتْ : سَمِعْتُ عَائِشَةَ  ، وَسَأَلْتُهَا امْرَأَةٌ يُصِيبُ ثَوْبَهَا مِنْ دَمِ حِيضَتِهَا، قَالَتْ :\" لِتَغْسِلْهُ بِالْمَاءِ \"، قَالَتْ : فَإِنَّا نَغْسِلُهُ فَيَبْقَى أَثَرُهُ؟، قَالَتْ : \" إِنَّ الْمَاءَ طَهُورٌ \"",
      "english": {
        "narrator": "",
        "text": ""
      }
    },
    {
      "id": 355,
      "chapterId": 1,
      "bookId": 9,
      "arabic": "أَخْبَرَنَا جَعْفَرُ بْنُ عَوْنٍ ، حَدَّثَنَا ابْنُ جُرَيْجٍ ، عَنْ عَطَاءٍ ، قَالَ :\" كَانَتْ عَائِشَةُ  تَرَى الشَّيْءَ مِنْ الْمَحِيضِ فِي ثَوْبِهَا، فَتَحُتُّهُ بِالْحَجَرِ، أَوْ بِالْعُودِ، أَوْ بِالْقَرْنِ، ثُمَّ تَرُشُّهُ \"",
      "english": {
        "narrator": "",
        "text": ""
      }
    },
    {
      "id": 356,
      "chapterId": 1,
      "bookId": 9,
      "arabic": "أَخْبَرَنَا أَبُو نُعَيْمٍ ، عَنْ عَبْدِ الْوَهَّابِ الثَّقَفِيِّ ، عَنْ عَبْدِ اللَّهِ بْنِ عُثْمَانَ بْنِ خُثَيْمٍ ، قَالَ : سَأَلْتُ سَعِيدَ بْنَ جُبَيْرٍ  عَنْ الْجُنُبِ يَعْرَقُ فِي الثَّوْبِ ثُمَّ يَمْسَحُهُ بِهِ، قَالَ :\" لَا بَأْسَ بِهِ \"",
      "english": {
        "narrator": "",
        "text": ""
      }
    },
    {
      "id": 357,
      "chapterId": 1,
      "bookId": 9,
      "arabic": "حَدَّثَنَا حَجَّاجُ بْنُ مِنْهَالٍ ، حَدَّثَنَا حَمَّادُ بْنُ سَلَمَةَ ، عَنْ عَبْدِ اللَّهِ بْنِ عُثْمَانَ بْنِ خُثَيْمٍ ، عَنْ سَعِيدِ بْنِ جُبَيْرٍ  أَنَّهُ كَانَ\" لَا يَرَى بِعَرَقِ الْجُنُبِ فِي الثَّوْبِ بَأْسًا \"",
      "english": {
        "narrator": "",
        "text": ""
      }
    },
    {
      "id": 358,
      "chapterId": 1,
      "bookId": 9,
      "arabic": "أَخْبَرَنَا حَجَّاجٌ ، حَدَّثَنَا حَمَّادٌ  ، عَنْ عَطَاءِ بْنِ السَّائِبِ ، عَنْ الشَّعْبِيِّ  أَنَّهُ كَانَ\" لَا يَرَى بِهِ بَأْسًا \"",
      "english": {
        "narrator": "",
        "text": ""
      }
    },
    {
      "id": 359,
      "chapterId": 1,
      "bookId": 9,
      "arabic": "أَخْبَرَنَا حَجَّاجٌ ، حَدَّثَنَا حَمَّادٌ ، عَنْ حُمَيْدٍ ، عَنْ الْحَسَنِ ، قَالَ : مَا كُلُّ أَصْحَابِ النَّبِيِّ صَلَّى اللَّهُ عَلَيْهِ وَسَلَّمَ كَانُوا يَجِدُونَ ثَوْبَيْنِ، فَقَالَ :\" إِذَا اغْتَسَلْتَ أَلَسْتَ تَلْبَسُهُ فَذَاكَ بِذَاكَ \"",
      "english": {
        "narrator": "",
        "text": ""
      }
    },
    {
      "id": 360,
      "chapterId": 1,
      "bookId": 9,
      "arabic": "أَخْبَرَنَا عَمْرُو بْنُ عَوْنٍ  ، حَدَّثَنَا سُفْيَانُ بْنُ عُيَيْنَةَ  ، عَنْ يَحْيَى بْنِ سَعِيدٍ  ، عَنْ الْقَاسِمِ بْنِ مُحَمَّدٍ  : أَنَّ عَائِشَةَ   رَضِيَ اللهُ عَنْهَا سُئِلَتْ عَنْ الرَّجُلِ يُصِيبُ الْمَرْأَةَ، ثُمَّ يَلْبَسُ الثَّوْبَ فَيَعْرَقُ فِيهِ،\" فَلَمْ تَرَ بِهِ بَأْسًا \"",
      "english": {
        "narrator": "",
        "text": ""
      }
    },
    {
      "id": 361,
      "chapterId": 1,
      "bookId": 9,
      "arabic": "أَخْبَرَنَا عَمْرُو بْنُ عَوْنٍ ، حَدَّثَنَا يَحْيَى بْنُ سُلَيْمٍ ، عَنْ ابْنِ جُرَيْجٍ ، عَنْ عَطَاءٍ ، قَالَ :\" لَا بَأْسَ أَنْ يَعْرَقَ الْجُنُبُ وَالْحَائِضُ فِي الثَّوْبِ يُصَلَّى فِيهِ \"",
      "english": {
        "narrator": "",
        "text": ""
      }
    },
    {
      "id": 362,
      "chapterId": 1,
      "bookId": 9,
      "arabic": "أَخْبَرَنَا عَمْرُو بْنُ عَوْنٍ ، أَخْبَرَنَا أَبُو الْأَحْوَصِ ، عَنْ أَبِي حَمْزَةَ ،  عَنْ إِبْرَاهِيمَ  فِي الْجُنُبِ يَعْرَقُ فِي ثَوْبِهِ، قَالَ :\" لَا يَضُرُّهُ، وَلَا يَنْضَحُهُ بِالْمَاءِ \"",
      "english": {
        "narrator": "",
        "text": ""
      }
    },
    {
      "id": 363,
      "chapterId": 1,
      "bookId": 9,
      "arabic": "أَخْبَرَنَا يَزِيدُ بْنُ هَارُونَ ، عَنْ هِشَامٍ ، عَنْ حَمَّادٍ ، عَنْ إِبْرَاهِيمَ  فِي الْحَائِضِ إِذَا عَرِقَتْ فِي ثِيَابِهَا \" فَإِنَّهُيُجْزِئُهَا أَنْ تَنْضَحَهُ بِالْمَاءِ \"",
      "english": {
        "narrator": "",
        "text": ""
      }
    },
    {
      "id": 364,
      "chapterId": 1,
      "bookId": 9,
      "arabic": "أَخْبَرَنَا عَبْدُ اللَّهِ بْنُ مَسْلَمَةَ ، حَدَّثَنَا مَالِكٌ ، عَنْ نَافِعٍ ، عَنْ ابْنِ عُمَرَ  كَانَ\" يَعْرَقُ فِي الثَّوْبِ وَهُوَ جُنُبٌ، ثُمَّ يُصَلِّي فِيهِ \"",
      "english": {
        "narrator": "",
        "text": ""
      }
    },
    {
      "id": 365,
      "chapterId": 1,
      "bookId": 9,
      "arabic": "أَخْبَرَنَا يَحْيَى بْنُ يَحْيَى  ، حَدَّثَنَا هُشَيْمٌ  ، عَنْ هِشَامٍ هُوَ ابْنُ حَسَّانَ  ، عَنْ عِكْرِمَةَ  ، عَنْ ابْنِ عَبَّاسٍ   رَضِيَ اللهُ عَنْهُمَا، أَنَّهُ\" لَمْ يَكُنْ يَرَى بَأْسًا بِعَرَقِ الْحَائِضِ وَالْجُنُبِ \"",
      "english": {
        "narrator": "",
        "text": ""
      }
    },
    {
      "id": 366,
      "chapterId": 1,
      "bookId": 9,
      "arabic": "أَخْبَرَنَا خَالِدُ بْنُ مَخْلَدٍ  ، حَدَّثَنَا مَالِكُ بْنُ أَنَسٍ  ، عَنْ زَيْدِ بْنِ أَسْلَمَ  ، قَالَ : سَأَلَ رَجُلٌ رَسُولَ اللَّهِ صَلَّى اللَّهُ عَلَيْهِ وَسَلَّمَ، فَقَالَ : مَا يَحِلُّ لِي مِنْ امْرَأَتِي وَهِيَ حَائِضٌ؟، قَالَ :\" لِتَشُدَّ عَلَيْهَا إِزَارَهَا ثُمَّ شَأْنَكَ بِأَعْلَاهَا \"",
      "english": {
        "narrator": "",
        "text": ""
      }
    },
    {
      "id": 367,
      "chapterId": 1,
      "bookId": 9,
      "arabic": "أَخْبَرَنَا خَالِدٌ  ، حَدَّثَنَا مَالِكٌ  ، عَنْ نَافِعٍ  ، قَالَ : أَرْسَلَ عَبْدُ اللَّهِ بْنُ عَبْدِ اللَّهِ بْنِ عُمَرَ إِلَى عَائِشَةَ   رَضِيَ اللهُ عَنْهَا لِيَسْأَلَهَا : هَلْ يُبَاشِرُ الرَّجُلُ امْرَأَتَهُ وَهِيَ حَائِضٌ؟، فَقَالَتْ :\" لِتَشُدَّ إِزَارَهَا عَلَى أَسْفَلِهَا ثُمَّ يُبَاشِرُهَا \"",
      "english": {
        "narrator": "",
        "text": ""
      }
    },
    {
      "id": 368,
      "chapterId": 1,
      "bookId": 9,
      "arabic": "حَدَّثَنَا مُحَمَّدُ بْنُ عِيسَى ، حَدَّثَنَا ابْنُ أَبِي زَائِدَةَ ، عَنْ الْعَلَاءِ بْنِ الْمُسَيَّبِ ، عَنْ حَمَّادٍ ، عَنْ إِبْرَاهِيمَ ، قَالَ :\" الْحَائِضُ يَأْتِيهَا زَوْجُهَا فِي مَرَاقِّهَا وَبَيْنَ فَخِذَيْهَا، فَإِذَا دَفَقَ، غَسَلَتْ مَا أَصَابَهَا، وَاغْتَسَلَ هُوَ \"",
      "english": {
        "narrator": "",
        "text": ""
      }
    },
    {
      "id": 369,
      "chapterId": 1,
      "bookId": 9,
      "arabic": "أَخْبَرَنَا مُحَمَّدُ بْنُ عِيسَى ، حَدَّثَنَا عُبَيْدُ اللَّهِ بْنُ عَمْرٍو ، قَالَ : سَأَلْتُ عَبْدَ الْكَرِيمِ عَنْ الْحَائِضِ، فَقَالَ : قَالَ إِبْرَاهِيمُ  :\" لَقَدْ عَلِمَتْ أُمُّ عِمْرَانَ أَنِّي أَطْعُنُ فِي أَلْيَتِهَا، يَعْنِي : وَهِيَ حَائِضٌ \"",
      "english": {
        "narrator": "",
        "text": ""
      }
    },
    {
      "id": 370,
      "chapterId": 1,
      "bookId": 9,
      "arabic": "أَخْبَرَنَا مُحَمَّدُ بْنُ يُوسُفَ ، حَدَّثَنَا مَالِكُ بْنُ مِغْوَلٍ ، قَالَ : سَأَلَ رَجُلٌ عَطَاءً  عَنْ الْحَائِضِ\" فَلَمْ يَرَ بِمَا دُونَ الدَّمِ بَأْسًا \"",
      "english": {
        "narrator": "",
        "text": ""
      }
    },
    {
      "id": 371,
      "chapterId": 1,
      "bookId": 9,
      "arabic": "أَخْبَرَنَا مُحَمَّدُ بْنُ يُوسُفَ  ، حَدَّثَنَا سُفْيَانُ  ، عَنْ مَنْصُورٍ  ، عَنْ إِبْرَاهِيمَ  ، عَنْ الْأَسْوَدِ  ، عَنْ عَائِشَةَ   رَضِيَ اللهُ عَنْهَا، قَالَتْ :\" كُنْتُ إِذَا حِضْتُ أَمَرَنِي النَّبِيُّ صَلَّى اللَّهُ عَلَيْهِ وَسَلَّمَ فَأَتَّزِرُ، وَكَانَ يُبَاشِرُنِي \"",
      "english": {
        "narrator": "",
        "text": ""
      }
    },
    {
      "id": 372,
      "chapterId": 1,
      "bookId": 9,
      "arabic": "أَخْبَرَنَا مُحَمَّدُ بْنُ يُوسُفَ  ، حَدَّثَنَا الْأَوْزَاعِيُّ  ، حَدَّثَنِي مَيْمُونُ بْنُ مِهْرَانَ  ، قَالَ : سُئِلَتْ عَائِشَةُ   مَا يَحِلُّ لِلرَّجُلِ مِنْ امْرَأَتِهِ وَهِيَ حَائِضٌ؟، قَالَتْ :\" مَا فَوْقَ الْإِزَارِ \"",
      "english": {
        "narrator": "",
        "text": ""
      }
    },
    {
      "id": 373,
      "chapterId": 1,
      "bookId": 9,
      "arabic": "أَخْبَرَنَا يَزِيدُ بْنُ هَارُونَ  ، حَدَّثَنَا عُيَيْنَةُ بْنُ عَبْدِ الرَّحْمَنِ بْنِ جَوْشَنٍ  ، عَنْ مَرْوَانَ الْأَصْفَرِ  ، عَنْ مَسْرُوقٍ  ، قَالَ : قُلْتُ لِعَائِشَةَ   رَضِيَ اللهُ عَنْهَا : مَا يَحِلُّ لِلرَّجُلِ مِنْ امْرَأَتِهِ إِذَا كَانَتْ حَائِضًا؟، قَالَتْ :\" كُلُّ شَيْءٍ غَيْرُ الْجِمَاعِ \"، قَالَ : قَلْتُ : فَمَا يَحْرُمُ عَلَيْهِ مِنْهَا إِذَا كَانَا مُحْرِمَيْنِ؟، قَالَتْ : \" كُلُّ شَيْءٍ غَيْرُ كَلَامِهَا \"",
      "english": {
        "narrator": "",
        "text": ""
      }
    },
    {
      "id": 374,
      "chapterId": 1,
      "bookId": 9,
      "arabic": "أَخْبَرَنَا مُحَمَّدُ بْنُ يُوسُفَ  ، حَدَّثَنَا سُفْيَانُ  ، عَنْ جَلْدِ بْنِ أَيُّوبَ  ، عَنْ رَجُلٍ  ، عَنْ عَائِشَةَ   رَضِيَ اللهُ عَنْهَا، قَالَتْ :\" لِإِنْسَانٍ اجْتَنِبْ شِعَارَ الدَّمِ \"",
      "english": {
        "narrator": "",
        "text": ""
      }
    },
    {
      "id": 375,
      "chapterId": 1,
      "bookId": 9,
      "arabic": "أَخْبَرَنَا مُحَمَّدُ بْنُ يُوسُفَ ، حَدَّثَنَا سُفْيَانُ ، عَنْ إِسْمَاعِيل ، عَنْ الشَّعْبِيِّ ، قَالَ :\" إِذَا كَفَّ الْأَذَى يَعْنِي : الدَّمَ \"",
      "english": {
        "narrator": "",
        "text": ""
      }
    },
    {
      "id": 376,
      "chapterId": 1,
      "bookId": 9,
      "arabic": "أَخْبَرَنَا زَكَرِيَّا بْنُ عَدِيٍّ ، حَدَّثَنَا شَرِيكٌ ، عَنْ لَيْثٍ ، عَنْ مُجَاهِدٍ ، قَالَ :\" لَا بَأْسَ أَنْ تُؤْتَى الْحَائِضُ بَيْنَ فَخِذَيْهَا وَفِي سُرَّتِهَا \"",
      "english": {
        "narrator": "",
        "text": ""
      }
    },
    {
      "id": 377,
      "chapterId": 1,
      "bookId": 9,
      "arabic": "أَخْبَرَنَا أَبُو نُعَيْمٍ ، حَدَّثَنَا الْحَسَنُ بْنُ صَالِحٍ ، عَنْ لَيْثٍ ، عَنْ مُجَاهِدٍ ، قَالَ :\" تُقْبِلُ وَتُدْبِرُ، إِلَّا الدُّبُرَ وَالْمَحِيضَ \"",
      "english": {
        "narrator": "",
        "text": ""
      }
    },
    {
      "id": 378,
      "chapterId": 1,
      "bookId": 9,
      "arabic": "أَخْبَرَنَا يَعْلَى بْنُ عُبَيْدٍ  ، وَيَزِيدُ بْنُ هَارُونَ  ، عَنْ مُحَمَّدِ بْنِ عَمْرٍو  ، عَنْ أَبِي سَلَمَةَ  رَضِيَ اللهُ عَنْهَا، عَنْ أُمِّ سَلَمَةَ  ، قَالَتْ : كُنْتُ مَعَ رَسُولِ اللَّهِ صَلَّى اللَّهُ عَلَيْهِ وَسَلَّمَ فِي لِحَافٍ، فَوَجَدْتُ مَا تَجِدُ النِّسَاءُ، فَقُمْتُ، فَقَالَ رَسُولُ اللَّهِ صَلَّى اللَّهُ عَلَيْهِ وَسَلَّمَ :\" مَا لَكِ، أَنَفِسْتِ؟ \"، قُلْتُ : وَجَدْتُ مَا تَجِدُ النِّسَاءُ، قَالَ : \" ذَاكَ مَا كَتَبَ اللَّهُ عَلَى بَنَاتِ آدَمَ \"، قَالَتْ : فَقُمْتُ فَأَصْلَحْتُ مِنْ شَأْنِي، ثُمَّ رَجَعْتُ، قَالَ رَسُولُ اللَّهِ صَلَّى اللَّهُ عَلَيْهِ وَسَلَّمَ : \" ادْخُلِي فِي اللِّحَافِ \"، فَدَخَلْتُ",
      "english": {
        "narrator": "",
        "text": ""
      }
    },
    {
      "id": 379,
      "chapterId": 1,
      "bookId": 9,
      "arabic": "أَخْبَرَنَا وَهْبُ بْنُ جَرِيرٍ  ، عَنْ هِشَامٍ الدَّسْتَوَائِيِّ  ، عَنْ يَحْيَى  ، عَنْ أَبِي سَلَمَةَ  ، عَنْ زَيْنَبَ بِنْتِ أُمِّ سَلَمَةَ  ، عَنْ أُمِّ سَلَمَةَ   رَضِيَ اللهُ عَنْهَا، قَالَتْ : بَيْنَا أَنَا مَعَ رَسُولِ اللَّهِ صَلَّى اللَّهُ عَلَيْهِ وَسَلَّمَ مُضْطَجِعَةٌ فِي الْخَمِيلَةِ إِذْ حِضْتُ، فَانْسَلَلْتُ، فَأَخَذْتُ ثِيَابَ حِيضَتِي، فَقَالَ :\" أَنَفِسْتِ؟ \"، قُلْتُ : نَعَمْ، قَالَتْ : \" فَدَعَانِي فَاضْطَجَعْتُ مَعَهُ فِي الْخَمِيلَةِ \"، قَالَتْ : وَكَانَتْ هِيَ وَرَسُولُ اللَّهِ صَلَّى اللَّهُ عَلَيْهِ وَسَلَّمَ \" يَغْتَسِلَانِ مِنْ الْإِنَاءِ الْوَاحِدِ مِنْ الْجَنَابَةِ، وَكَانَ يُقَبِّلُهَا وَهُوَ صَائِمٌ \"",
      "english": {
        "narrator": "",
        "text": ""
      }
    },
    {
      "id": 380,
      "chapterId": 1,
      "bookId": 9,
      "arabic": "أَخْبَرَنَا عَمْرُو بْنُ عَوْنٍ  ، حَدَّثَنَا خَالِدٌ  ، عَنْ الشَّيْبَانِيِّ  ، عَنْ عَبْدِ اللَّهِ بْنِ شَدَّادٍ  ، عَنْ مَيْمُونَةَ   رَضِيَ اللهُ عَنْهَا، قَالَتْ : كَانَ رَسُولُ اللَّهِ صَلَّى اللَّهُ عَلَيْهِ وَسَلَّمَ\" يُبَاشِرُ الْمَرْأَةَ مِنْ نِسَائِهِ فَوْقَ الْإِزَارِ وَهِيَ حَائِضٌ \"",
      "english": {
        "narrator": "",
        "text": ""
      }
    },
    {
      "id": 381,
      "chapterId": 1,
      "bookId": 9,
      "arabic": "أَخْبَرَنَا بِشْرُ بْنُ عُمَرَ الزَّهْرَانِيُّ  ، حَدَّثَنَا أَبُو الْأَحْوَصِ  ، حَدَّثَنَا أَبُو إِسْحَاق  ، عَنْ أَبِي مَيْسَرَةَ عَمْرِو بْنِ شُرَحْبِيلَ  ، عَنْ عَائِشَةَ   رَضِيَ اللهُ عَنْهَا، قَالَتْ : كَانَ رَسُولُ اللَّهِ صَلَّى اللَّهُ عَلَيْهِ وَسَلَّمَ\" يَأْمُرُ إِحْدَانَا إِذَا كَانَتْ حَائِضًا أَنْ تَشُدَّ عَلَيْهَا إِزَارَهَا، ثُمَّ يُبَاشِرُهَا \"",
      "english": {
        "narrator": "",
        "text": ""
      }
    },
    {
      "id": 382,
      "chapterId": 1,
      "bookId": 9,
      "arabic": "أَخْبَرَنَا عَبْدُ الصَّمَدِ  ، حَدَّثَنَا شُعْبَةُ  ، عَنْ أَبِي إِسْحَاق  ، عَنْ أَبِي مَيْسَرَةَ  قَالَ : قَالَتْ أُمُّ الْمُؤْمِنِينَ   رَضِيَ اللهُ عَنْهَا :\" كُنْتُ أَتَّزِرُ وَأَنَا حَائِضٌ، ثُمَّ أَدْخُلُ مَعَ رَسُولِ اللَّهِ صَلَّى اللَّهُ عَلَيْهِ وَسَلَّمَ فِي لِحَافِهِ \"",
      "english": {
        "narrator": "",
        "text": ""
      }
    },
    {
      "id": 383,
      "chapterId": 1,
      "bookId": 9,
      "arabic": "أَخْبَرَنَا عَمْرُو بْنُ عَوْنٍ ، عَنْ خَالِدِ بْنِ عَبْدِ اللَّهِ ، عَنْ يَزِيدَ بْنِ أَبِي زِيَادٍ ، قَالَ : سُئِلَ ابْنُ جُبَيْرٍ  : مَا لِلرَّجُلِ مِنْ امْرَأَتِهِ إِذَا كَانَتْ حَائِضًا؟، قَالَ :\" مَا فَوْقَ الْإِزَارِ \"",
      "english": {
        "narrator": "",
        "text": ""
      }
    },
    {
      "id": 384,
      "chapterId": 1,
      "bookId": 9,
      "arabic": "أَخْبَرَنَا يَزِيدُ بْنُ هَارُونَ ، أَخْبَرَنَا ابْنُ عَوْنٍ ، عَنْ مُحَمَّدِ بْنِ سِيرِينَ ، عَنْ عَبِيدَةَ  فِي الْحَائِضِ، قَالَ :\" الْفِرَاشُ وَاحِدٌ، وَاللُّحُفُ شَتَّى، فَإِنْ كَانُوا لَا يَجِدُونَ، رَدَّ عَلَيْهَا مِنْ لِحَافِهِ \"",
      "english": {
        "narrator": "",
        "text": ""
      }
    },
    {
      "id": 385,
      "chapterId": 1,
      "bookId": 9,
      "arabic": "أَخْبَرَنَا يَزِيدُ بْنُ هَارُونَ ، حَدَّثَنَا ابْنُ عَوْنٍ ، عَنْ مُحَمَّدِ بْنِ سِيرِينَ ،  عَنْ شُرَيْحٍ ، قَالَ لَهُ :\" مَا فَوْقَ السَّرَرِ أَوْ السُّرَّةِ \"",
      "english": {
        "narrator": "",
        "text": ""
      }
    },
    {
      "id": 386,
      "chapterId": 1,
      "bookId": 9,
      "arabic": "حَدَّثَنَا سُلَيْمَانُ بْنُ حَرْبٍ  ، حَدَّثَنَا حَمَّادُ بْنُ سَلَمَةَ  ، عَنْ أَبِي عِمْرَانَ الْجَوْنِيِّ  ، عَنْ يَزِيدَ بْنِ بَابَنُوسَ  ، عَنْ عَائِشَةَ   رَضِيَ اللهُ عَنْهَا، قَالَتْ : كَانَ رَسُولُ اللَّهِ صَلَّى اللَّهُ عَلَيْهِ وَسَلَّمَ\" يَتَوَشَّحُنِي وَأَنَا حَائِضٌ، وَيُصِيبُ مِنْ رَأْسِي وَبَيْنِي وَبَيْنَهُ ثَوْبٌ \"",
      "english": {
        "narrator": "",
        "text": ""
      }
    },
    {
      "id": 387,
      "chapterId": 1,
      "bookId": 9,
      "arabic": "أَخْبَرَنَا سُلَيْمَانُ بْنُ حَرْبٍ  ، حَدَّثَنَا حَمَّادُ بْنُ سَلَمَةَ  ، عَنْ ثَابِتٍ  ، عَنْ أَنَسٍ   رَضِيَ اللهُ عَنْهُ : أَنَّ الْيَهُودَ كَانُوا إِذَا حَاضَتْ الْمَرْأَةُ فِيهِمْ لَمْ يُؤَاكِلُوهَا، وَلَمْ يُشَارِبُوهَا، وَأَخْرَجُوهَا مِنْ الْبَيْتِ، وَلَمْ تَكُنْ مَعَهُمْ فِي الْبُيُوتِ، فَسُئِلَ النَّبِيُّ صَلَّى اللَّهُ عَلَيْهِ وَسَلَّمَ عَنْ ذَلِكَ، فَأَنْزَلَ اللَّهُ تَعَالَى # وَيَسْأَلُونَكَ عَنِ الْمَحِيضِ قُلْ هُوَ أَذًى سورة البقرة آية 222 #، فَأَمَرَهُمْ رَسُولُ اللَّهِ صَلَّى اللَّهُ عَلَيْهِ وَسَلَّمَ\" أَنْ يُؤَاكِلُوهُنَّ، وَأَنْ يُشَارِبُوهُنَّ، وَأَنْ يَكُنَّ مَعَهُمْ فِي الْبُيُوتِ، وَأَنْ يَفْعَلُوا كُلَّ شَيْءٍ مَا خَلَا النِّكَاحَ \"، فَقَالَتْ الْيَهُودُ : مَا يُرِيدُ هَذَا أَنْ يَدَعَ شَيْئًا مِنْ أَمْرِنَا إِلَّا خَالَفَنَا فِيهِ، فَجَاءَ عَبَّادُ بْنُ بِشْرٍ، وَأُسَيْدُ بْنُ حُضَيْرٍ رَضِيَ اللهُ عَنْهُمَا إِلَى رَسُولِ اللَّهِ صَلَّى اللَّهُ عَلَيْهِ وَسَلَّمَ فَأَخْبَرَاهُ بِذَلِكَ، وَقَالَا : يَا رَسُولَ اللَّهِ، أَفَلَا نَنْكِحُهُنَّ فِي الْمَحِيضِ؟ \" فَتَمَعَّرَ وَجْهُ رَسُولِ اللَّهِ صَلَّى اللَّهُ عَلَيْهِ وَسَلَّمَ تَمَعُّرًا شَدِيدًا حَتَّى ظَنَنَّا أَنَّهُ وَجَدَ عَلَيْهِمَا، فَقَامَا، فَخَرَجَا \"، هَدِيَّةُ لَبَنٍ \" فَبَعَثَ رَسُولُ اللَّهِ صَلَّى اللَّهُ عَلَيْهِ وَسَلَّمَ فِي آثَارِهِمَا فَرَدَّهُمَا فَسَقَاهُمَا \"، فَعَلِمْنَا أَنَّهُ لَمْ يَغْضَبْ عَلَيْهِمَا",
      "english": {
        "narrator": "",
        "text": ""
      }
    },
    {
      "id": 388,
      "chapterId": 1,
      "bookId": 9,
      "arabic": "أَخْبَرَنَا أَبُو نُعَيْمٍ ، حَدَّثَنَا أَبُو هِلَالٍ ، حَدَّثَنِي شَيْبَةُ بْنُ هِشَامٍ الرَّاسِبِيُّ ، قَالَ : سَأَلْتُ سَالِمَ بْنَ عَبْدِ اللَّهِ ، عَنْ الرَّجُلِ يُضَاجِعُ امْرَأَتَهُ وَهِيَ حَائِضٌ فِي لِحَافٍ وَاحِدٍ، فَقَالَ :\" أَمَّا نَحْنُ آلَ عُمَرَ فَنَهْجُرُهُنَّ إِذَا كُنَّ حُيَّضًا \"",
      "english": {
        "narrator": "",
        "text": ""
      }
    },
    {
      "id": 389,
      "chapterId": 1,
      "bookId": 9,
      "arabic": "أَخْبَرَنَا أَحْمَدُ بْنُ خَالِدٍ  ، عَنْ مُحَمَّدِ بْنِ إِسْحَاق  ، عَنْ نَافِعٍ  ، عَنْ ابْنِ عُمَرَ  ، قَالَ :\" لَا بَأْسَ بِفَضْلِ وَضُوءِ الْمَرْأَةِ مَا لَمْ تَكُنْ جُنُبًا أَوْ حَائِضًا \"",
      "english": {
        "narrator": "",
        "text": ""
      }
    },
    {
      "id": 390,
      "chapterId": 1,
      "bookId": 9,
      "arabic": "أَخْبَرَنَا مُحَمَّدُ بْنُ يُوسُفَ ، حَدَّثَنَا سُفْيَانُ ، عَنْ غَيْلَانَ ، عَنْ الْحَكَمِ ، قَالَ :\" تَضَعُهُ وَضْعًا يَعْنِي عَلَى الْفَرْجِ \"",
      "english": {
        "narrator": "",
        "text": ""
      }
    },
    {
      "id": 391,
      "chapterId": 1,
      "bookId": 9,
      "arabic": "أَخْبَرَنَا عَبْدُ اللَّهِ بْنُ صَالِحٍ  ، قَالَ : حَدَّثَنِي اللَّيْثُ  ، حَدَّثَنِي ابْنُ شِهَابٍ  ، عَنْ حَبِيبٍ  مَوْلَى عُرْوَةَ، عَنْ نُدْبَةَ  مَوْلَاةِ مَيْمُونَةَ ، عَنْ مَيْمُونَةَ   زَوْجِ النَّبِيِّ صَلَّى اللَّهُ عَلَيْهِ وَسَلَّمَ : أَنَّ رَسُولَ اللَّهِ صَلَّى اللَّهُ عَلَيْهِ وَسَلَّمَ كَانَ\" يُبَاشِرُ الْمَرْأَةَ مِنْ نِسَائِهِ وَهِيَ حَائِضٌ إِذَا كَانَ عَلَيْهَا إِزَارٌ، يَبْلُغُ أَنْصَافَ الْفَخِذَيْنِ أَوْ الرُّكْبَتَيْنِ مُحْتَجِزَةً بِهِ \"",
      "english": {
        "narrator": "",
        "text": ""
      }
    },
    {
      "id": 392,
      "chapterId": 1,
      "bookId": 9,
      "arabic": "أَخْبَرَنَا خَالِدُ بْنُ مَخْلَدٍ  ، حَدَّثَنَا مَالِكٌ  ، عَنْ ابْنِ شِهَابٍ  ، عَنْ عُرْوَةَ  ، عَنْ عَائِشَةَ   رَضِيَ اللهُ عَنْهَا، قَالَتْ :\" كُنْتُ أُرَجِّلُ رَأْسَ رَسُولِ اللَّهِ صَلَّى اللَّهُ عَلَيْهِ وَسَلَّمَ وَأَنَا حَائِضٌ \"",
      "english": {
        "narrator": "",
        "text": ""
      }
    },
    {
      "id": 393,
      "chapterId": 1,
      "bookId": 9,
      "arabic": "أَخْبَرَنَا خَالِدٌ  ، حَدَّثَنَا مَالِكٌ  ، عَنْ هِشَامِ بْنِ عُرْوَةَ  ، عَنْ أَبِيهِ  ، عَنْ عَائِشَةَ   رَضِيَ اللهُ عَنْهَا، قَالَتْ :\" كُنْتُ أُرَجِّلُ رَأْسَ رَسُولِ اللَّهِ صَلَّى اللَّهُ عَلَيْهِ وَسَلَّمَ وَأَنَا حَائِضٌ \"",
      "english": {
        "narrator": "",
        "text": ""
      }
    },
    {
      "id": 394,
      "chapterId": 1,
      "bookId": 9,
      "arabic": "أَخْبَرَنَا خَالِدٌ ، حَدَّثَنَا مَالِكٌ ، عَنْ نَافِعٍ ، قَالَ :\" كُنَّ جَوَارِي ابْنِ عُمَرَ يَغْسِلْنَ رِجْلَيْهِ وَهُنَّ حُيَّضٌ، وَيُعْطِينَهُ الْخُمْرَةَ \"",
      "english": {
        "narrator": "",
        "text": ""
      }
    },
    {
      "id": 395,
      "chapterId": 1,
      "bookId": 9,
      "arabic": "أَخْبَرَنَا مُحَمَّدُ بْنُ يُوسُفَ  ، حَدَّثَنَا سُفْيَانُ  ، عَنْ الْمِقْدَامِ بْنِ شُرَيْحِ بْنِ هَانِئٍ  ، عَنْ أَبِيهِ  ، عَنْ عَائِشَةَ   رَضِيَ اللهُ عَنْهَا، قَالَتْ : كُنْتُ أُوتَى بِالْإِنَاءِ فَأَضَعُ فَمِي فَأَشْرَبُ وَأَنَا حَائِضٌ،\" فَيَضَعُ رَسُولُ اللَّهِ صَلَّى اللَّهُ عَلَيْهِ وَسَلَّمَ فَمَهُ عَلَى الْمَكَانِ الَّذِي وَضَعْتُ فَيَشْرَبُ، وَأُوتَى بِالْعَرْقِ فَأَنْتَهِسُ، فَيَضَعُ فَاهُ عَلَى الْمَكَانِ الَّذِي وَضَعْتُ فَيَنْتَهِسُ، ثُمَّ يَأْمُرُنِي فَأَتَّزِرُ وَأَنَا حَائِضٌ، وَكَانَ يُبَاشِرُنِي \"",
      "english": {
        "narrator": "",
        "text": ""
      }
    },
    {
      "id": 396,
      "chapterId": 1,
      "bookId": 9,
      "arabic": "أَخْبَرَنَا مُحَمَّدُ بْنُ يُوسُفَ ، حَدَّثَنَا سُفْيَانُ ، عَنْ مُغِيرَةَ ، عَنْ إِبْرَاهِيمَ ، قَالَ : كَانَ يُقَالُ :\" الْحَائِضُ لَيْسَتْ الْحِيضَةُ فِي يَدِهَا، تَغْسِلُ يَدَهَا وَتَعْجِنُ وَتَنْبِذُ \"",
      "english": {
        "narrator": "",
        "text": ""
      }
    },
    {
      "id": 397,
      "chapterId": 1,
      "bookId": 9,
      "arabic": "أَخْبَرَنَا أَبُو زَيْدٍ ، حَدَّثَنَا شُعْبَةُ ، عَنْ مُغِيرَةَ ، عَنْ إِبْرَاهِيمَ ، قَالَ : كَانَ يَقُولُ :\" إِنَّ الْحَائِضَ حِيضَتُهَا لَيْسَتْ فِي يَدِهَا \"، وَكَانَ يَقُولُ : \" الْحَائِضُ حُبُّ الْحَيِّ \"",
      "english": {
        "narrator": "",
        "text": ""
      }
    },
    {
      "id": 398,
      "chapterId": 1,
      "bookId": 9,
      "arabic": "أَخْبَرَنَا جَعْفَرُ بْنُ عَوْنٍ ، حَدَّثَنَا سُفْيَانُ ، عَنْ حَمَّادٍ  ، قَالَ : سَأَلْتُ إِبْرَاهِيمَ  عَنْ مُصَافَحَةِ الْيَهُودِيِّ ، وَالنَّصْرَانِيِّ ، وَالْمَجُوسِيِّ ، وَالْحَائِضِ\" فَلَمْ يَرَ فِيهِ وُضُوءًا \"",
      "english": {
        "narrator": "",
        "text": ""
      }
    },
    {
      "id": 399,
      "chapterId": 1,
      "bookId": 9,
      "arabic": "أَخْبَرَنَا أَبُو الْوَلِيدِ الطَّيَالِسِيُّ  ، حَدَّثَنَا زَائِدَةُ  ، حَدَّثَنَا إِسْمَاعِيل السُّدِّيُّ  ، عَنْ عَبْدِ اللَّهِ الْبَهِيِّ  ، قَالَ : حَدَّثَتْنِي عَائِشَةُ   رَضِيَ اللهُ عَنْهَا، أَنّ رَسُولَ اللَّهِ صَلَّى اللَّهُ عَلَيْهِ وَسَلَّمَ كَانَ فِي الْمَسْجِدِ، فَقَالَ لِلْجَارِيَةِ :\" نَاوِلِينِي الْخُمْرَةَ \"، قَالَتْ : أَرَادَ أَنْ يَبْسُطَهَا، وَيُصَلِّيَ عَلَيْهَا، فَقَالَتْ : إِنَّهَا حَائِضٌ، فَقَالَ : \" إِنَّ حِيضَتَهَا لَيْسَ فِي يَدِهَا \"",
      "english": {
        "narrator": "",
        "text": ""
      }
    },
    {
      "id": 400,
      "chapterId": 1,
      "bookId": 9,
      "arabic": "أَخْبَرَنَا عَبْدُ اللَّهِ بْنُ مَسْلَمَةَ  ، حَدَّثَنَا فُضَيْلُ بْنُ عِيَاضٍ  ، عَنْ سُلَيْمَانَ  ، عَنْ تَمِيمِ بْنِ سَلَمَةَ  ، عَنْ عُرْوَةَ  ، عَنْ عَائِشَةَ   رَضِيَ اللهُ عَنْهَا، قَالَتْ : كَانَ رَسُولُ اللَّهِ صَلَّى اللَّهُ عَلَيْهِ وَسَلَّمَ\" يُخْرِجُ إِلَيَّ رَأْسَهُ مِنْ الْمَسْجِدِ فَأَغْسِلُهُ \"، يَعْنِي : وَهُوَ مُعْتَكِفٌ",
      "english": {
        "narrator": "",
        "text": ""
      }
    }
  ]
}