{
  "page": 9,
  "perPage": 50,
  "totalPages": 69,
  "totalCount": 3406,
  "nextPage": 10,
  "prevPage": 8,
  "items": [
    {
      "id": 401,
      "chapterId": 1,
      "bookId": 9,
      "arabic": "أَخْبَرَنَا الْمُعَلَّى بْنُ أَسَدٍ ، حَدَّثَنَا أَبُو عَوَانَةَ ، عَنْ مُغِيرَةَ ، عَنْ إِبْرَاهِيمَ  كَانَ :\" لَا يَرَى بَأْسًا أَنْ تُوَضِّئَ الْحَائِضُ الْمَرِيضَ \"",
      "english": {
        "narrator": "",
        "text": ""
      }
    },
    {
      "id": 402,
      "chapterId": 1,
      "bookId": 9,
      "arabic": "أَخْبَرَنَا يَزِيدُ بْنُ هَارُونَ  ، عَنْ جَعْفَرِ بْنِ الْحَارِثِ  ، عَنْ مَنْصُورٍ  ، عَنْ إِبْرَاهِيمَ  ، عَنْ الْأَسْوَدِ  ، عَنْ عَائِشَةَ   رَضِيَ اللهُ عَنْهَا، قَالَتْ :\" كُنْتُ أَغْسِلُ رَأْسَ النَّبِيِّ صَلَّى اللَّهُ عَلَيْهِ وَسَلَّمَ وَأَنَا حَائِضٌ \"",
      "english": {
        "narrator": "",
        "text": ""
      }
    },
    {
      "id": 403,
      "chapterId": 1,
      "bookId": 9,
      "arabic": "أَخْبَرَنَا يَعْلَى بْنُ عُبَيْدٍ  ، حَدَّثَنَا الْأَعْمَشُ  ، عَنْ تَمِيمِ بْنِ سَلَمَةَ  ، عَنْ عُرْوَةَ  ، عَنْ عَائِشَةَ   رَضِيَ اللهُ عَنْهَا، قَالَتْ :\" لَقَدْ كُنْتُ أَغْسِلُ رَأْسَ رَسُولِ اللَّهِ صَلَّى اللَّهُ عَلَيْهِ وَسَلَّمَ وَأَنَا حَائِضٌ، وَهُوَ عَاكِفٌ \"",
      "english": {
        "narrator": "",
        "text": ""
      }
    },
    {
      "id": 404,
      "chapterId": 1,
      "bookId": 9,
      "arabic": "أَخْبَرَنَا أَبُو الْوَلِيدِ الطَّيَالِسِيُّ ، حَدَّثَنَا شُعْبَةُ ، قَالَ : سَمِعْتُ مُغِيرَةَ ، قَالَ : أَرْسَلَ أَبُو ظَبْيَانَ إِلَى إِبْرَاهِيمَ  يَسْأَلُهُ عَنْ الْحَائِضِ تُوَضِّئُ الْمَرِيضَ؟، قَالَ :\" نَعَمْ، وَتُسْنِدُهُ \"، قَالَ : لَا، فَقُلْتُ لِلْمُغِيرَةِ : سَمِعْتَهُ مِنْ إِبْرَاهِيمَ؟، قَالَ : لَا، قَالَ عَبْد اللَّهِ : وَتُسْنِدُهُ يَعْنِي فِي الصَّلَاةِ",
      "english": {
        "narrator": "",
        "text": ""
      }
    },
    {
      "id": 405,
      "chapterId": 1,
      "bookId": 9,
      "arabic": "أَخْبَرَنَا أَبُو الْوَلِيدِ  ، حَدَّثَنَا شُعْبَةُ  ، قَالَ سُلَيْمَانُ  : أَخْبَرَنِي عَنْ ثَابِتِ بْنِ عُبَيْدٍ  ، عَنْ الْقَاسِمِ  ، عَنْ عَائِشَةَ   رَضِيَ اللهُ عَنْهَا، أَنّ النَّبِيَّ صَلَّى اللَّهُ عَلَيْهِ وَسَلَّمَ قَالَ لَهَا :\" نَاوِلِينِي الْخُمْرَةَ \"، قَالَتْ : إِنِّي حَائِضٌ، قَالَ : \" إِنَّهَا لَيْسَتْ فِي يَدِكِ \"",
      "english": {
        "narrator": "",
        "text": ""
      }
    },
    {
      "id": 406,
      "chapterId": 1,
      "bookId": 9,
      "arabic": "حَدَّثَنَا سُلَيْمَانُ بْنُ حَرْبٍ ، حَدَّثَنَا حَمَّادُ بْنُ زَيْدٍ ، عَنْ كَثِيرِ بْنِ شِنْظِيرٍ ، عَنْ الْحَسَنِ  \" أَنَّهُسُئِلَ عَنْ امْرَأَةٍ حَائِضٍ شَرِبَتْ مِنْ مَاءٍ، أَيُتَوَضَّأُ بِهِ؟ فَضَحِكَ، وَقَالَ : نَعَمْ \"",
      "english": {
        "narrator": "",
        "text": ""
      }
    },
    {
      "id": 407,
      "chapterId": 1,
      "bookId": 9,
      "arabic": "أَخْبَرَنَا أَحْمَدُ بْنُ الْحَجَّاجِ  ، حَدَّثَنَا عَبْدُ الرَّحْمَنِ بْنُ مَهْدِيٍّ  ، عَنْ مُعَاوِيَةَ بْنِ صَالِحٍ  ، عَنْ الْعَلَاءِ بْنِ الْحَارِثِ  ، عَنْ حَرَامِ بْنِ مُعَاوِيَةَ  ،  عَنْ عَمِّهِ عَبْدِ اللَّهِ بْنِ سَعْدٍ   رَضِيَ اللهُ عَنْهُ، قَالَ : سَأَلْتُ النَّبِيَّ صَلَّى اللَّهُ عَلَيْهِ وَسَلَّمَعَنْ مُؤَاكَلَةِ الْحَائِضِ، قَالَ : \" وَاكِلْهَا \"",
      "english": {
        "narrator": "",
        "text": ""
      }
    },
    {
      "id": 408,
      "chapterId": 1,
      "bookId": 9,
      "arabic": "أَخْبَرَنَا مُحَمَّدُ بْنُ عُيَيْنَةَ  ، عَنْ عَلِيِّ بْنِ مُسْهِرٍ  ، عَنْ عُبَيْدِ اللَّهِ  ، عَنْ نَافِعٍ  ، عَنْ ابْنِ عُمَرَ   رَضِيَ اللهُ عَنْهُ، أَنَّهُ كَانَ يَأْمُرُ جَارِيَتَهُ أَنْ تُنَاوِلَهُ الْخُمْرَةَ مِنْ الْمَسْجِدِ، فَتَقُولُ : إِنِّي حَائِضٌ، فَيَقُولُ :\" إِنَّ حِيضَتَكِ لَيْسَتْ فِي كَفِّكِ فَتُنَاوِلُهُ \"",
      "english": {
        "narrator": "",
        "text": ""
      }
    },
    {
      "id": 409,
      "chapterId": 1,
      "bookId": 9,
      "arabic": "أَخْبَرَنَا مَرْوَانُ بْنُ مُحَمَّدٍ  ، حَدَّثَنَا الْهَيْثَمُ بْنُ حُمَيْدٍ  ، حَدَّثَنَا الْعَلَاءُ بْنُ الْحَارِثِ  ، عَنْ حَرَامِ بْنِ حَكِيمٍ  ، عَنْ عَمِّهِ  ، قَالَ : سَأَلْتُ رَسُولَ اللَّهِ صَلَّى اللَّهُ عَلَيْهِ وَسَلَّمَ عَنْ مُؤَاكَلَةِ الْحَائِضِ، فَقَالَ رَسُولُ اللَّهِ صَلَّى اللَّهُ عَلَيْهِ وَسَلَّمَ : \" إِنَّبَعْضَ أَهْلِي لَحَائِضٌ، وَإِنَّا لَمُتَعَشُّونَ إِنْ شَاءَ اللَّهُ جَمِيعًا \"",
      "english": {
        "narrator": "",
        "text": ""
      }
    },
    {
      "id": 410,
      "chapterId": 1,
      "bookId": 9,
      "arabic": "أَخْبَرَنَا سَهْلُ بْنُ حَمَّادٍ  ، حَدَّثَنَا شُعْبَةُ  ، عَنْ عَبْدِ الرَّحْمَنِ بْنِ الْقَاسِمِ  ، عَنْ أَبِيهِ  ، عَنْ عَائِشَةَ   رَضِيَ اللهُ عَنْهَا : أَنَّهَا كَانَتْ\" لَا تَرَى بَأْسًا أَنْ تَمَسَّ الْحَائِضُ الْخُمْرَةَ \"",
      "english": {
        "narrator": "",
        "text": ""
      }
    },
    {
      "id": 411,
      "chapterId": 1,
      "bookId": 9,
      "arabic": "حَدَّثَنَا مُحَمَّدُ بْنُ عِيسَى ، حَدَّثَنَا هُشَيْمٌ ، حَدَّثَنَا مُغِيرَةُ ، عَنْ إِبْرَاهِيمَ ، وَيُونُسُ ، عَنْ الْحَسَنِ ، وَعَبْدُ الْمَلِكِ ، عَنْ عَطَاءٍ ، قَالَ مُحَمَّدٌ ، وَحَدَّثَنِي يَحْيَى بْنُ سَعِيدٍ الْقَطَّانُ ، عَنْ عُثْمَانَ بْنِ الْأَسْوَدِ ، عَنْ مُجَاهِدٍ ، فِي الْحَائِضِ\" إِذَا طَهُرَتْ مِنْ الدَّمِ لَا يَقْرَبُهَا زَوْجُهَا حَتَّى تَغْتَسِلَ \"، حَدَّثَنَا عُبَيْدُ اللَّهِ بْنُ مُوسَى ، عَنْ عُثْمَانَ بْنِ الْأَسْوَدِ ، عَن مُجَاهِدٍ ، مِثْلَهُ سَوَاءً",
      "english": {
        "narrator": "",
        "text": ""
      }
    },
    {
      "id": 412,
      "chapterId": 1,
      "bookId": 9,
      "arabic": "حَدَّثَنَا مُحَمَّدُ بْنُ يُوسُفَ ، قَالَ : سُئِلَ سُفْيَانُ  :\" أَيُجَامِعُ الرَّجُلُ امْرَأَتَهُ إِذَا انْقَطَعَ عَنْهَا الدَّمُ قَبْلَ أَنْ تَغْتَسِلَ؟، فَقَالَ : لَا، فَقِيلَ : أَرَأَيْتَ إِنْ تَرَكَتْ الْغُسْلَ يَوْمَيْنِ أَوْ أَيَّامًا؟، قَالَ : تُسْتَتَابُ \"",
      "english": {
        "narrator": "",
        "text": ""
      }
    },
    {
      "id": 413,
      "chapterId": 1,
      "bookId": 9,
      "arabic": "أَخْبَرَنَا مُحَمَّدُ بْنُ يُوسُفَ ، حَدَّثَنَا سُفْيَانُ ، عَمَّنْ حَدَّثَهُ، عَنْ مُجَاهِدٍ \" # وَلا تَقْرَبُوهُنَّ حَتَّى يَطْهُرْنَ سورة البقرة آية 222 #، قَالَ : حَتَّى يَنْقَطِعَ الدَّمُ، # فَإِذَا تَطَهَّرْنَ سورة البقرة آية 222 #، قَالَ : إِذَا اغْتَسَلْنَ \"",
      "english": {
        "narrator": "",
        "text": ""
      }
    },
    {
      "id": 414,
      "chapterId": 1,
      "bookId": 9,
      "arabic": "حَدَّثَنَا عُبَيْدُ اللَّهِ بْنُ مُوسَى ، عَنْ سُفْيَانَ ، عَنْ ابْنِ أَبِي نَجِيحٍ ،  عَنْ مُجَاهِدٍ \" # حَتَّى يَطْهُرْنَ سورة البقرة آية 222 #، قَالَ : إِذَا انْقَطَعَ الدَّمُ، # فَإِذَا تَطَهَّرْنَ سورة البقرة آية 222 #، قَالَ : اغْتَسَلْنَ \"",
      "english": {
        "narrator": "",
        "text": ""
      }
    },
    {
      "id": 415,
      "chapterId": 1,
      "bookId": 9,
      "arabic": "أَخْبَرَنَا عُبَيْدُ اللَّهِ ، حَدَّثَنَا عُثْمَانُ بْنُ الْأَسْوَدِ ، قَالَ : سَأَلْتُ مُجَاهِدًا ، عَنْ امْرَأَةٍ رَأَتْ الطُّهْرَ : أَيَحِلُّ لِزَوْجِهَا أَنْ يَأْتِيَهَا قَبْلَ أَنْ تَغْتَسِلَ؟، قَالَ :\" لَا حَتَّى تَحِلَّ لَهَا الصَّلَاةُ \"",
      "english": {
        "narrator": "",
        "text": ""
      }
    },
    {
      "id": 416,
      "chapterId": 1,
      "bookId": 9,
      "arabic": "أَخْبَرَنَا الْمُعَلَّى بْنُ أَسَدٍ ، حَدَّثَنَا عَبْدُ الْوَاحِدِ هُوَ ابْنُ زِيَادٍ ، حَدَّثَنَا الْحَجَّاجُ بْنُ أَرْطَاةَ ، قَالَ : سَأَلْتُ عَطَاءً ، وَمَيْمُونَ بْنَ مِهْرَانَ ، وَحَدَّثَنِي حَمَّادٌ ، عَنْ إِبْرَاهِيمَ ، قَالُوا :\" لَا يَغْشَاهَا حَتَّى تَغْتَسِلَ \"",
      "english": {
        "narrator": "",
        "text": ""
      }
    },
    {
      "id": 417,
      "chapterId": 1,
      "bookId": 9,
      "arabic": "أَخْبَرَنَا يَزِيدُ بْنُ هَارُونَ ، عَنْ هِشَامٍ ، عَنْ الْحَسَنِ  فِي الرَّجُلِ يَطَأُ امْرَأَتَهُ وَقَدْ رَأَتْ الطُّهْرَ قَبْلَ أَنْ تَغْتَسِلَ، قَالَ :\" هِيَ حَائِضٌ مَا لَمْ تَغْتَسِلْ، وَعَلَيْهِ الْكَفَّارَةُ، وَلَهُ أَنْ يُرَاجِعَهَا مَا لَمْ تَغْتَسِلْ \"",
      "english": {
        "narrator": "",
        "text": ""
      }
    },
    {
      "id": 418,
      "chapterId": 1,
      "bookId": 9,
      "arabic": "أَخْبَرَنَا الْمُعَلَّى بْنُ أَسَدٍ ، حَدَّثَنَا عَبْدُ الْوَاحِدِ ، حَدَّثَنَا يُونُسُ ،  عَنْ الْحَسَنِ ، قَالَ :\" لَا يَغْشَاهَا زَوْجُهَا \"",
      "english": {
        "narrator": "",
        "text": ""
      }
    },
    {
      "id": 419,
      "chapterId": 1,
      "bookId": 9,
      "arabic": "أَخْبَرَنَا عَبْدُ اللَّهِ بْنُ يَزِيدَ  ، حَدَّثَنَا حَيْوَةُ بْنُ شُرَيْحٍ  ، قَالَ : سَمِعْتُ يَزِيدَ بْنَ أَبِي حَبِيبٍ  ، يَقُولُ : قَالَ أَبُو الْخَيْرِ مَرْثَدُ بْنُ عَبْدِ اللَّهِ الْيَزَنِيُّ  ، قَالَ : سَمِعْتُ عُقْبَةَ بْنَ عَامِرٍ الْجُهَنِيَّ   رَضِيَ اللهُ عَنْهُ، يَقُولُ :\" وَاللَّهِ إِنِّي لَا أُجَامِعُ امْرَأَتِي فِي الْيَوْمِ الَّذِي تَطْهُرُ فِيهِ حَتَّى يَمُرَّ يَوْمٌ \"",
      "english": {
        "narrator": "",
        "text": ""
      }
    },
    {
      "id": 420,
      "chapterId": 1,
      "bookId": 9,
      "arabic": "أَخْبَرَنَا يَعْلَى بْنُ عُبَيْدٍ حَدَّثَنَا عَبْدُ الْمَلِكِ ، عَنْ عَطَاءٍ  فِي الْمَرْأَةِ تَرَى الطُّهْرَ : أَيَأْتِيهَا زَوْجُهَا قَبْلَ أَنْ تَغْتَسِلَ؟، قَالَ :\" لَا، حَتَّى تَغْتَسِلَ \"",
      "english": {
        "narrator": "",
        "text": ""
      }
    },
    {
      "id": 421,
      "chapterId": 1,
      "bookId": 9,
      "arabic": "أَخْبَرَنَا أَبُو النُّعْمَانِ ، حَدَّثَنَا أَبُو عَوَانَةَ ، عَنْ لَيْثِ بْنِ أَبِي سُلَيْمٍ ، عَنْ عَطَاءٍ  فِي الْمَرْأَةِ يَنْقَطِعُ عَنْهَا الدَّمُ، قَالَ :\" إِنْ أَدْرَكَهُ الشَّبَقُ، غَسَلَتْ فَرْجَهَا ثُمَّ يَأْتِيَها \"",
      "english": {
        "narrator": "",
        "text": ""
      }
    },
    {
      "id": 422,
      "chapterId": 1,
      "bookId": 9,
      "arabic": "أَخْبَرَنَا فَرْوَةُ بْنُ أَبِي الْمَغْرَاءِ ، قَالَ : سَمِعْتُ شَرِيكًا وَسَأَلَهُ رَجُلٌ ، فَقَالَ : الْمَرْأَةُ يَنْقَطِعُ عَنْهَا الدَّمُ : أَيَأْتِيهَا زَوْجُهَا قَبْلَ أَنْ تَغْتَسِلَ؟، فَقَالَ : قَالَ عَبْدُ الْمَلِكِ : عَنْ عَطَاءٍ ، أَنَّهُ\" رَخَّصَ فِي ذَلِكَ لِلشَّبِقِ \"، قَالَ أَبُو مُحَمَّد : أَخَافُ أَنْ يَكُونَ أَخَطَأً، وأَخَافُ أَنْ يَكُونَ مِنْ حَدِيثِ لَيْثٍ، لَا أَعْرِفُهُ مِنْ حَدِيثِ عَبْدِ الْمَلِكِ ، قَالَ أَبُو مُحَمَّد : الشَّبِقُ الَّذِي يَشْتَهِي",
      "english": {
        "narrator": "",
        "text": ""
      }
    },
    {
      "id": 423,
      "chapterId": 1,
      "bookId": 9,
      "arabic": "أَخْبَرَنَا مُحَمَّدُ بْنُ عِيسَى ، قَالَ : زَعَمَ لَنَا هُشَيْمٌ ، عَنْ أَبِي حُرَّةَ وَاصِلِ بْنِ عَبْدِ الرَّحْمَنِ ، عَنْ الْحَسَنِ ، قَالَ :\" رَأَيْتُ نِسَاءً مِنْ نِسَاءِ الْمَدِينَةِ يُصَلِّينَ فِي الْخِضَابِ \"",
      "english": {
        "narrator": "",
        "text": ""
      }
    },
    {
      "id": 424,
      "chapterId": 1,
      "bookId": 9,
      "arabic": "أَخْبَرَنَا سَعِيدُ بْنُ عَامِرٍ  ، عَنْ شُعْبَةَ  ، عَنْ ابْنِ أَبِي نَجِيحٍ  ، عَمَّنْ  سَمِعَ عَائِشَةَ   سُئِلَتْ عَنْ الْمَرْأَةِ تَمْسَحُ عَلَى الْخِضَابِ، فَقَالَتْ :\" لَأَنْ تُقْطَعَ يَدِي بِالسَّكَاكِينِ أَحَبُّ إِلَيَّ مِنْ ذَلِكَ \"",
      "english": {
        "narrator": "",
        "text": ""
      }
    },
    {
      "id": 425,
      "chapterId": 1,
      "bookId": 9,
      "arabic": "أَخْبَرَنَا سَعِيدُ بْنُ عَامِرٍ  ، عَنْ ابْنِ عَوْنٍ  ، عَنْ أَبِي سَعِيدٍ  ، أَنَّ امْرَأَةً سَأَلَت عَائِشَةَ   تُصَلِّي الْمَرْأَةُ فِي الْخِضَابِ؟، قَالَتْ :\" اسْلُتِيهِ وَرَغْمًا \"، قَالَ أَبُو مُحَمَّد : أَبُو سَعِيدٍ هُوَ ابْنُ أَبِي الْعَنَبْسِ، وَاسْمُ أَبِي الْعَنَبْسِ : سَعِيدُ بْنُ كَثِيرِ بْنِ عُبَيْدٍ",
      "english": {
        "narrator": "",
        "text": ""
      }
    },
    {
      "id": 426,
      "chapterId": 1,
      "bookId": 9,
      "arabic": "أَخْبَرَنَا عَفَّانُ  ، حَدَّثَنَا أَبُو عَوَانَةَ  ، عَنْ قَتَادَةَ  ، عَنْ أَبِي مِجْلَزٍ  ، عَنْ ابْنِ عَبَّاسٍ   رَضِيَ اللهُ عَنْهُمَا، قَالَ :\" كُنَّ نِسَاءَنَا يَخْتَضِبْنَ بِاللَّيْلِ، فَإِذَا أَصْبَحْنَ، فَتَحْنَهُ فَتَوَضَّأْنَ وَصَلَّيْنَ، ثُمَّ يَخْتَضِبْنَ بَعْدَ الصَّلَاةِ، فَإِذَا كَانَ عِنْدَ الظُّهْرِ، فَتَحْنَهُ فَتَوَضَّأْنَ وَصَلَّيْنَ فَأَحْسَنَّ خِضَابًا، وَلَا يَمْنَعُ مِنْ الصَّلَاةِ \"",
      "english": {
        "narrator": "",
        "text": ""
      }
    },
    {
      "id": 427,
      "chapterId": 1,
      "bookId": 9,
      "arabic": "حَدَّثَنَا حَجَّاجٌ ، حَدَّثَنَا حَمَّادٌ ، عَنْ أَيُّوبَ ، عَنْ نَافِعٍ ، أَنَّ نِسَاءَ ابْنِ عُمَرَ رَضِيَ اللهُ عَنْهُ كُنّ\" يَخْتَضِبْنَ وَهُنَّ حُيَّضٌ \"",
      "english": {
        "narrator": "",
        "text": ""
      }
    },
    {
      "id": 428,
      "chapterId": 1,
      "bookId": 9,
      "arabic": "حَدَّثَنَا مُسْلِمُ بْنُ إِبْرَاهِيمَ  ، حَدَّثَنَا هِشَامٌ  ، حَدَّثَنَا قَتَادَةُ  ، عَنْ أَبِي مِجْلَزٍ  ، عَنْ ابْنِ عَبَّاسٍ   رَضِيَ اللهُ عَنْهُ، قَالَ :\" كُنَّ نِسَاؤُنَا إِذَا صَلَّيْنَ الْعِشَاءَ الْآخِرَةَ، اخْتَضَبْنَ، فَإِذَا أَصْبَحْنَ أَطْلَقْنَهُ وَتَوَضَّأْنَ وَصَلَّيْنَ، وَإِذَا صَلَّيْنَ الظُّهْرَ اخْتَضَبْنَ، فَإِذَا أَرَدْنَ أَنْ يُصَلِّينَ الْعَصْرَ، أَطْلَقْنَهُ فَأَحْسَنَّ خِضَابَهُ وَلَا يَحْبِسْنَ عَنْ الصَّلَاةِ \"",
      "english": {
        "narrator": "",
        "text": ""
      }
    },
    {
      "id": 429,
      "chapterId": 1,
      "bookId": 9,
      "arabic": "أَخْبَرَنَا مُحَمَّدُ بْنُ عِيسَى ، حَدَّثَنَا هُشَيْمٌ ، أَخْبَرَنَا مُغِيرَةُ ، عَنْ إِبْرَاهِيمَ .\nح وأَخْبَرَنَا إِسْمَاعِيل بْنُ أَبِي خَالِدٍ ، عَنْ عَامِرٍ  فِيمَنْ أَتَى أَهْلَهُ وَهِيَ حَائِضٌ، قَالَا :\" ذَنْبٌ أَتَاهُ، يَسْتَغْفِرُ اللَّهَ، وَيَتُوبُ إِلَيْهِ، وَلَا يَعُودُ \"، أَخْبَرَنَا مُحَمَّدُ بْنُ عِيسَى ، حَدَّثَنَا يَحْيَى بْنُ أَبِي زَائِدَةَ ، عَنْ الْمُثَنَّى ، عَنْ عَطَاءٍ ، مِثْلَهُ",
      "english": {
        "narrator": "",
        "text": ""
      }
    },
    {
      "id": 430,
      "chapterId": 1,
      "bookId": 9,
      "arabic": "حَدَّثَنَا مُحَمَّدُ بْنُ عِيسَى ، وَأَبُو النُّعْمَانِ ، قَالَا : حَدَّثَنَا عَبْدُ اللَّهِ بْنُ الْمُبَارَكِ ، عَنْ يَعْقُوبَ بْنِ الْقَعْقَاعِ ، عَنْ مُحَمَّدِ بْنِ زَيْدٍ ، عَنْ سَعِيدِ بْنِ جُبَيْرٍ ، قَالَ :\" ذَنْبٌ أَتَاهُ، وَلَيْسَ عَلَيْهِ كَفَّارَةٌ \"",
      "english": {
        "narrator": "",
        "text": ""
      }
    },
    {
      "id": 431,
      "chapterId": 1,
      "bookId": 9,
      "arabic": "أَخْبَرَنَا مُحَمَّدُ بْنُ عِيسَى ، حَدَّثَنَا يَحْيَى بْنُ سَعِيدٍ ، عَنْ عُبَيْدِ اللَّهِ بْنِ عُمَرَ ، عَنْ عَبْدِ الرَّحْمَنِ بْنِ الْقَاسِمِ ، عَنْ أَبِيهِ ، أَنَّهُ سُئِلَ عَنْ الَّذِي يَأْتِي امْرَأَتَهُ وَهِيَ حَائِضٌ، قَالَ :\" يَعْتَذِرُ إِلَى اللَّهِ، وَيَتُوبُ إِلَى اللَّهِ \"",
      "english": {
        "narrator": "",
        "text": ""
      }
    },
    {
      "id": 432,
      "chapterId": 1,
      "bookId": 9,
      "arabic": "حَدَّثَنَا مُحَمَّدُ بْنُ يُوسُفَ ، حَدَّثَنَا سُفْيَانُ ، عَنْ ابْنِ جُرَيْجٍ ، عَنْ عَطَاءٍ ، قَالَ :\" تَسْتَغْفِرُ اللَّهَ، وَلَيْسَ عَلَيْكَ شَيْءٌ \"، يَعْنِي : إِذَا وَقَعَ عَلَى امْرَأَتِهِ وَهِيَ حَائِضٌ",
      "english": {
        "narrator": "",
        "text": ""
      }
    },
    {
      "id": 433,
      "chapterId": 1,
      "bookId": 9,
      "arabic": "أَخْبَرَنَا عُثْمَانُ بْنُ مُحَمَّدٍ ، حَدَّثَنَا بِشْرُ بْنُ الْمُفَضَّلِ ، عَنْ مَالِكِ بْنِ الْخَطَّابِ الْعَنْبِرِيِّ ، عَنْ ابْنِ أَبِي مُلَيْكَةَ ، قَالَ : سُئِلَ وَأَنَا أَسْمَعُ عَنْ الرَّجُلِ يَأْتِي امْرَأَتَهُ وَهِيَ حَائِضٌ، قَالَ :\" يَسْتَغْفِرُ اللَّهَ \"",
      "english": {
        "narrator": "",
        "text": ""
      }
    },
    {
      "id": 434,
      "chapterId": 1,
      "bookId": 9,
      "arabic": "حَدَّثَنَا سُلَيْمَانُ بْنُ حَرْبٍ  ، حَدَّثَنَا حَمَّادُ بْنُ زَيْدٍ  ، عَنْ أَيُّوبَ  ، عَنْ أَبِي قِلَابَةَ  ، أَنَّ رَجُلًا أَتَى أَبَا بَكْرٍ   رَضِيَ اللهُ عَنْهُ، فَقَالَ : رَأَيْتُ فِي الْمَنَامِ كَأَنِّي أَبُولُ دَمًا، قَالَ : تَأْتِي امْرَأَتَكَ وَهِيَ حَائِضٌ؟، قَالَ : نَعَمْ، قَالَ :\" اتَّقِ اللَّهَ، وَلَا تَعُدْ \"",
      "english": {
        "narrator": "",
        "text": ""
      }
    },
    {
      "id": 435,
      "chapterId": 1,
      "bookId": 9,
      "arabic": "أَخْبَرَنَا مُحَمَّدُ بْنُ يُوسُفَ ، حَدَّثَنَا سُفْيَانُ ، عَنْ هِشَامٍ ، عَنْ مُحَمَّدِ بْنِ سِيرِينَ ، فِي الَّذِي يَقَعُ عَلَى امْرَأَتِهِ وَهِيَ حَائِضٌ، قَالَ :\" يَسْتَغْفِرُ اللَّهَ \"",
      "english": {
        "narrator": "",
        "text": ""
      }
    },
    {
      "id": 436,
      "chapterId": 1,
      "bookId": 9,
      "arabic": "أَخْبَرَنَا مُسْلِمُ بْنُ إِبْرَاهِيمَ ، حَدَّثَنَا يَزِيدُ بْنُ إِبْرَاهِيمَ ، قَالَ : سَمِعْتُ الْحَسَنَ ، يَقُولُ فِي الَّذِي يُفْطِرُ يَوْمًا مِنْ رَمَضَانَ، قَالَ :\" عَلَيْهِ عِتْقُ رَقَبَةٍ، أَوْ بَدَنَةٌ، أَوْ عِشْرِينَ صَاعًا لِأَرْبَعِينَ مِسْكِينًا، وَفِي الَّذِي يَغْشَى امْرَأَتَهُ وَهِيَ حَائِضٌ، مِثْلُ ذَلِكَ \"",
      "english": {
        "narrator": "",
        "text": ""
      }
    },
    {
      "id": 437,
      "chapterId": 1,
      "bookId": 9,
      "arabic": "أَخْبَرَنَا أَبُو الْوَلِيدِ  ، حَدَّثَنَا شَرِيكٌ  ، عَنْ خُصَيْفٍ  ، عَنْ مِقْسَمٍ  ، عَنْ ابْنِ عَبَّاسٍ   رَضِيَ اللهُ عَنْهُمَا، عَنْ النَّبِيِّ صَلَّى اللَّهُ عَلَيْهِ وَسَلَّمَ فِي الَّذِي يَأْتِي امْرَأَتَهُ وَهِيَ حَائِضٌ، قَالَ :\" يَتَصَدَّقُ بِنِصْفِ دِينَارٍ \"",
      "english": {
        "narrator": "",
        "text": ""
      }
    },
    {
      "id": 438,
      "chapterId": 1,
      "bookId": 9,
      "arabic": "حَدَّثَنَا أَبُو الْوَلِيدِ  ، حَدَّثَنَا شُعْبَةُ  ، عَنْ الْحَكَمِ  ، عَنْ عَبْدِ الْحَمِيدِ  ، عَنْ مِقْسَمٍ  ، عَنْ ابْنِ عَبَّاسٍ   رَضِيَ اللهُ عَنْهُمَا، فِي الَّذِي يَأْتِي امْرَأَتَهُ وَهِيَ حَائِضٌ، قَالَ :\" يَتَصَدَّقُ بِدِينَارٍ، أَوْ نِصْفِ دِينَارٍ شَكَّ الْحَكَمُ \"",
      "english": {
        "narrator": "",
        "text": ""
      }
    },
    {
      "id": 439,
      "chapterId": 1,
      "bookId": 9,
      "arabic": "أَخْبَرَنَا سَعِيدُ بْنُ عَامِرٍ  ، عَنْ شُعْبَةَ  ، عَنْ الْحَكَمِ  ، عَنْ عَبْدِ الْحَمِيدِ  ، عَنْ مِقْسَمٍ  ، عَنْ ابْنِ عَبَّاسٍ   رَضِيَ اللهُ عَنْهُمَا، فِي الَّذِي يَغْشَى امْرَأَتَهُ وَهِيَ حَائِضٌ\" يَتَصَدَّقُ بِدِينَارٍ، أَوْ نِصْفِ دِينَارٍ \"، قَالَ شُعْبَةُ : أَمَّا حِفْظِي فَهُوَ مَرْفُوعٌ، وَأَمَّا فُلَانٌ وَفُلَانٌ، فَقَالَا : غَيْرُ مَرْفُوعٍ، فَقَالَ بَعْضُ الْقَوْمِ : حَدِّثْنَا بِحِفْظِكَ، وَدَعْ مَا قَالَ فُلَانٌ وَفُلَانٌ، فَقَالَ : \" وَاللَّهِ مَا أُحِبُّ أَنِّي عُمِّرْتُ فِي الدُّنْيَا عُمُرَ نُوحٍ وَأَنِّي حَدَّثْتُ بِهَذَا، أَوْ سَكَتُّ عَنْ هَذَا \"، قَالَ أَبُو مُحَمَّد : عَبْدُ الحَمِيدِ بْنُ زَيْدِ بْنِ عَبْدِ الرَّحمَنِ بْنِ زَيدِ بْنِ الخَطَّابِ وَكَانَ وَالِيَ عُمَرَ بْنِ عَبْدِ الْعَزِيزِ عَلَى الْكُوفَةِ",
      "english": {
        "narrator": "",
        "text": ""
      }
    },
    {
      "id": 440,
      "chapterId": 1,
      "bookId": 9,
      "arabic": "أَخْبَرَنَا مُحَمَّدُ بْنُ يُوسُفَ  ، حَدَّثَنَا سُفْيَانُ  ، عَنْ ابْنِ جُرَيْجٍ  ، عَنْ عَبْدِ الْكَرِيمِ  ، عَنْ رَجُلٍ  ، عَنْ ابْنِ عَبَّاسٍ   رَضِيَ اللهُ عَنْهُمَا، قَالَ :\" إِذَا أَتَاهَا فِي دَمٍ فَدِينَارٌ، وَإِذَا أَتَاهَا وَقَدْ انْقَطَعَ الدَّمُ فَنِصْفُ دِينَارٍ \"",
      "english": {
        "narrator": "",
        "text": ""
      }
    },
    {
      "id": 441,
      "chapterId": 1,
      "bookId": 9,
      "arabic": "أَخْبَرَنَا مُحَمَّدُ بْنُ يُوسُفَ  ، حَدَّثَنَا سُفْيَانُ  ، عَنْ خُصَيْفٍ  ، عَنْ مِقْسَمٍ  ، عَنْ ابْنِ عَبَّاسٍ   رَضِيَ اللهُ عَنْهُمَا، قَالَ : قَالَ النَّبِيُّ صَلَّى اللَّهُ عَلَيْهِ وَسَلَّمَ فِي الَّذِي يَقَعُ عَلَى امْرَأَتِهِ وَهِيَ حَائِضٌ :\" يَتَصَدَّقُ بِنِصْفِ دِينَارٍ \"",
      "english": {
        "narrator": "",
        "text": ""
      }
    },
    {
      "id": 442,
      "chapterId": 1,
      "bookId": 9,
      "arabic": "أَخْبَرَنَا مُحَمَّدُ بْنُ يُوسُفَ  ، حَدَّثَنَا الْأَوْزَاعِيُّ  ، عَنْ يَزِيدَ بْنِ أَبِي مَالِكٍ  ، عَنْ عَبْدِ الْحَمِيدِ بْنِ زَيْدِ بْنِ الْخَطَّابِ  رَضِيَ اللهُ عَنْهُ، قَالَ : كَانَ لِعُمَرَ بْنِ الْخَطَّابِ   رَضِيَ اللهُ عَنْهُ امْرَأَةٌ تَكْرَهُ الْجِمَاعَ، فَكَانَ إِذَا أَرَادَ أَنْ يَأْتِيَهَا اعْتَلَّتْ عَلَيْهِ بِالْحَيْضِ، فَوَقَعَ عَلَيْهَا، فَإِذَا هِيَ صَادِقَةٌ، فَأَتَى النَّبِيَّ صَلَّى اللَّهُ عَلَيْهِ وَسَلَّمَ فَأَمَرَهُ :\" أَنْ يَتَصَدَّقَ بِخُمُسَيْ دِينَارٍ \"",
      "english": {
        "narrator": "",
        "text": ""
      }
    },
    {
      "id": 443,
      "chapterId": 1,
      "bookId": 9,
      "arabic": "أَخْبَرَنَا عُبَيْدُ اللَّهِ بْنُ مُوسَى  ، عَنْ أَبِي جَعْفَرٍ الرَّازِيِّ  ، عَنْ عَبْدِ الْكَرِيمِ  ، عَنْ مِقْسَمٍ  ، عَنْ ابْنِ عَبَّاسٍ   رَضِيَ اللهُ عَنْهُمَا، عَنْ النَّبِيِّ صَلَّى اللَّهُ عَلَيْهِ وَسَلَّمَ قَالَ :\" إِذَا أَتَى الرَّجُلُ امْرَأَتَهُ وَهِيَ حَائِضٌ، فَإِنْ كَانَ الدَّمُ عَبِيطًا، فَلْيَتَصَدَّقْ بِدِينَارٍ، وَإِنْ كَانَتْ صُفْرَةً، فَلْيَتَصَدَّقْ بِنِصْفِ دِينَارٍ \"",
      "english": {
        "narrator": "",
        "text": ""
      }
    },
    {
      "id": 444,
      "chapterId": 1,
      "bookId": 9,
      "arabic": "أَخْبَرَنَا عَبْدُ اللَّهِ بْنُ مُحَمَّدٍ  ، حَدَّثَنَا حَفْصٌ بْنُ غِيَاثٍ  ، عَنْ الْأَعْمَشِ  ، عَنْ الْحَكَمِ  ، عَنْ مِقْسَمٍ  ، عَنْ ابْنِ عَبَّاسٍ   رَضِيَ اللهُ عَنْهُمَا، أَنَّهُ سُئِلَ عَنْ الَّذِي يَأْتِي امْرَأَتَهُ وَهِيَ حَائِضٌ، قَالَ :\" يَتَصَدَّقُ بِدِينَارٍ، أَوْ بِنِصْفِ دِينَارٍ \"، وقَالَ إِبْرَاهِيمُ : \" يَسْتَغْفِرُ اللَّهَ \"",
      "english": {
        "narrator": "",
        "text": ""
      }
    },
    {
      "id": 445,
      "chapterId": 1,
      "bookId": 9,
      "arabic": "أَخْبَرَنَا عَمْرُو بْنُ عَوْنٍ  ، عَنْ خَالِدِ بْنِ عَبْدِ اللَّهِ  ، عَنْ ابْنِ أَبِي لَيْلَى  ، عَنْ عَطَاءٍ  ، عَنْ ابْنِ عَبَّاسٍ   رَضِيَ اللهُ عَنْهُمَا، قَالَ :\" إِذَا وَقَعَ عَلَى امْرَأَتِهِ وَهِيَ حَائِضٌ فَعَلَيْهِ أَنْ يَتَصَدَّقَ بِدِينَارٍ \"",
      "english": {
        "narrator": "",
        "text": ""
      }
    },
    {
      "id": 446,
      "chapterId": 1,
      "bookId": 9,
      "arabic": "أَخْبَرَنَا يَعْلَى بْنُ عُبَيْدٍ حَدَّثَنَا عَبْدُ الْمَلِكِ ، عَنْ عَطَاءٍ  فِي رَجُلٍ جَامَعَ امْرَأَتَهُ وَهِيَ حَائِضٌ، قَالَ :\" يَتَصَدَّقُ بِدِينَارٍ \"",
      "english": {
        "narrator": "",
        "text": ""
      }
    },
    {
      "id": 447,
      "chapterId": 1,
      "bookId": 9,
      "arabic": "أَخْبَرَنَا عُبَيْدُ اللَّهِ بْنُ مُوسَى  ، عَنْ ابْنِ أَبِي لَيْلَى  ، عَنْ مِقْسَمٍ  ، عَنْ ابْنِ عَبَّاسٍ   رَضِيَ اللهُ عَنْهُمَا، قَالَ :\" يَتَصَدَّقُ بِدِينَارٍ، أَوْ نِصْفِ دِينَارٍ \"",
      "english": {
        "narrator": "",
        "text": ""
      }
    },
    {
      "id": 448,
      "chapterId": 1,
      "bookId": 9,
      "arabic": "أَخْبَرَنَا وَهْبُ بْنُ سَعِيدٍ ، عَنْ شُعَيْبِ بْنِ إِسْحَاق ، عَنْ الْأَوْزَاعِيِّ  فِي رَجُلٍ يَغْشَى امْرَأَتَهُ وَهِيَ حَائِضٌ، أَوْ رَأَتْ الطُّهْرَ وَلَمْ تَغْتَسِلْ، قَالَ :\" يَسْتَغْفِرُ اللَّهَ، وَيَتَصَدَّقُ بِخُمُسَيْ دِينَارٍ \"",
      "english": {
        "narrator": "",
        "text": ""
      }
    },
    {
      "id": 449,
      "chapterId": 1,
      "bookId": 9,
      "arabic": "أَخْبَرَنَا مُحَمَّدُ بْنُ عُيَيْنَةَ ، عَنْ عَلِيِّ بْنِ مُسْهِرٍ ، عَنْ عَبْدِ الْمَلِكِ ، عَنْ عَطَاءٍ ، قَالَ :\" إِذَا وَقَعَ الرَّجُلُ عَلَى امْرَأَتِهِ وَهِيَ حَائِضٌ يَتَصَدَّقُ بِنِصْفِ دِينَارٍ \"، فَقَالَ لَهُ رَجُلٌ مِنْ الْقَوْمِ : فَإِنَّ الْحَسَنَ، يَقُولُ : يُعْتِقُ رَقَبَةً، فَقَالَ : \" مَا أَنْهَاكُمْ أَنْ تَقَرَّبُوا إِلَى اللَّهِ مَا اسْتَطَعْتُمْ \"",
      "english": {
        "narrator": "",
        "text": ""
      }
    },
    {
      "id": 450,
      "chapterId": 1,
      "bookId": 9,
      "arabic": "أَخْبَرَنَا عُبَيْدُ اللَّهِ بْنُ مُوسَى  ، عَنْ ابْنِ أَبِي لَيْلَى  ، عَنْ عَطَاءٍ  ، عَنْ ابْنِ عَبَّاسٍ   رَضِيَ اللهُ عَنْهُمَا، فِي الَّذِي يَقَعُ عَلَى امْرَأَتِهِ وَهِيَ حَائِضٌ، قَالَ :\" يَتَصَدَّقُ بِدِينَارٍ \"",
      "english": {
        "narrator": "",
        "text": ""
      }
    }
  ]
}