{
  "page": 82,
  "perPage": 50,
  "totalPages": 82,
  "totalCount": 4053,
  "nextPage": null,
  "prevPage": 81,
  "items": [
    {
      "id": 354,
      "chapterId": 49,
      "bookId": 4,
      "arabic": "حَدَّثَنَا مُحَمَّدُ بْنُ بَشَّارٍ، قَالَ حَدَّثَنَا وَهْبُ بْنُ جَرِيرٍ، قَالَ حَدَّثَنَا أَبِي قَالَ، سَمِعْتُ يَحْيَى بْنَ أَيُّوبَ، يُحَدِّثُ عَنْ يَزِيدَ بْنِ أَبِي حَبِيبٍ، عَنْ عَبْدِ الرَّحْمَنِ بْنِ شُمَاسَةَ، عَنْ زَيْدِ بْنِ ثَابِتٍ، قَالَ كُنَّا عِنْدَ رَسُولِ اللَّهِ صلى الله عليه وسلم نُؤَلِّفُ الْقُرْآنَ مِنَ الرِّقَاعِ فَقَالَ رَسُولُ اللَّهِ صلى الله عليه وسلم ‏\"‏ طُوبَى لِلشَّأْمِ ‏\"‏ ‏.‏ فَقُلْنَا لأَىٍّ ذَلِكَ يَا رَسُولَ اللَّهِ قَالَ ‏\"‏ لأَنَّ مَلاَئِكَةَ الرَّحْمَنِ بَاسِطَةٌ أَجْنِحَتَهَا عَلَيْهَا ‏\"‏ ‏.‏ هَذَا حَدِيثٌ حَسَنٌ غَرِيبٌ إِنَّمَا نَعْرِفُهُ مِنْ حَدِيثِ يَحْيَى بْنِ أَيُّوبَ ‏.‏",
      "english": {
        "narrator": "Narrated Zaid bin Thabit:",
        "text": "\"We were with the Messenger of Allah (ﷺ) collecting the Qur'an on pieces of cloth, so the Messenger of Allah (ﷺ) said: 'Tuba is for Ash-Sham.' So we said: 'Why is that O Messenger of Allah?' He said: 'Because the angels of Ar-Rahman spread their wings over it.'\""
      }
    },
    {
      "id": 355,
      "chapterId": 49,
      "bookId": 4,
      "arabic": "حَدَّثَنَا مُحَمَّدُ بْنُ بَشَّارٍ، قَالَ حَدَّثَنَا أَبُو عَامِرٍ الْعَقَدِيُّ، قَالَ حَدَّثَنَا هِشَامُ بْنُ سَعْدٍ، عَنْ سَعِيدِ بْنِ أَبِي سَعِيدٍ الْمَقْبُرِيِّ، عَنْ أَبِي هُرَيْرَةَ، عَنِ النَّبِيِّ صلى الله عليه وسلم قَالَ ‏\n\"‏ لَيَنْتَهِيَنَّ أَقْوَامٌ يَفْتَخِرُونَ بِآبَائِهِمُ الَّذِينَ مَاتُوا إِنَّمَا هُمْ فَحْمُ جَهَنَّمَ أَوْ لَيَكُونَنَّ أَهْوَنَ عَلَى اللَّهِ مِنَ الْجُعَلِ الَّذِي يُدَهْدِهُ الْخِرَاءَ بِأَنْفِهِ إِنَّ اللَّهَ قَدْ أَذْهَبَ عَنْكُمْ عُبِّيَّةَ الْجَاهِلِيَّةِ إِنَّمَا هُوَ مُؤْمِنٌ تَقِيٌّ وَفَاجِرٌ شَقِيٌّ النَّاسُ كُلُّهُمْ بَنُو آدَمَ وَآدَمُ خُلِقَ مِنْ تُرَابٍ ‏\"‏ ‏.‏ وَفِي الْبَابِ عَنِ ابْنِ عُمَرَ وَابْنِ عَبَّاسٍ ‏.‏وَهَذَا حَدِيثٌ حَسَنٌ غَرِيبٌ ‏.‏",
      "english": {
        "narrator": "Narrated Abu Hurairah:",
        "text": "that the Prophet (ﷺ) said: \"People should stop boasting about their fathers who have died, while they are but coals of Hell, or they will be more humiliated with Allah than the dung beetle who rolls dung with his nose. Indeed Allah has removed the pride of Jahiliyyah from you, and its boasting about lineage.  from dust.\""
      }
    },
    {
      "id": 356,
      "chapterId": 49,
      "bookId": 4,
      "arabic": "حَدَّثَنَا هَارُونُ بْنُ مُوسَى بْنِ أَبِي عَلْقَمَةَ الْفَرْوِيُّ الْمَدَنِيُّ، قَالَ حَدَّثَنِي أَبِي، عَنْ هِشَامِ بْنِ سَعْدٍ، عَنْ سَعِيدِ بْنِ أَبِي سَعِيدٍ، عَنْ أَبِيهِ، عَنْ أَبِي هُرَيْرَةَ، رضى الله عنه أَنَّ رَسُولَ اللَّهِ صلى الله عليه وسلم قَالَ ‏\n\"‏ قَدْ أَذْهَبَ اللَّهُ عَنْكُمْ عُبِّيَّةَ الْجَاهِلِيَّةِ وَفَخْرَهَا بِالآبَاءِ مُؤْمِنٌ تَقِيٌّ وَفَاجِرٌ شَقِيٌّ وَالنَّاسُ بَنُو آدَمَ وَآدَمُ مِنْ تُرَابٍ ‏\"‏ ‏.  هَذَا حَدِيثٌ حَسَنٌ صَحِيحٌ ‏.‏‏ وَهَذَا أَصَحُّ عِنْدَنَا مِنَ الْحَدِيثِ الأَوَّلِ ‏.‏ وَسَعِيدٌ الْمَقْبُرِيُّ قَدْ سَمِعَ مِنْ أَبِي هُرَيْرَةَ وَيَرْوِي عَنْ أَبِيهِ أَشْيَاءَ كَثِيرَةً عَنْ أَبِي هُرَيْرَةَ رضى الله عنه ‏.‏ وَقَدْ رَوَى سُفْيَانُ الثَّوْرِيُّ وَغَيْرُ وَاحِدٍ هَذَا الْحَدِيثَ عَنْ هِشَامِ ابْنِ سَعْدٍ عَنْ سَعِيدٍ الْمَقْبُرِيِّ عَنْ أَبِي هُرَيْرَةَ عَنِ النَّبِيِّ صلى الله عليه وسلم نَحْوَ حَدِيثِ أَبِي عَامِرٍ عَنْ هِشَامِ بْنِ سَعْدٍ ‏.‏",
      "english": {
        "narrator": "Narrated Abu Hurairah :",
        "text": "that the Messenger of Allah (ﷺ) said: \"Allah has removed the pride of Jahiliyyah from you and boasting about lineage. (A person is either) a pious believer or a miserable sinner, and the people are the children of Adam, and Adam is from dirt.\""
      }
    }
  ]
}