{
  "page": 36,
  "perPage": 50,
  "totalPages": 36,
  "totalCount": 1767,
  "nextPage": null,
  "prevPage": 35,
  "items": [
    {
      "id": 117,
      "chapterId": 16,
      "bookId": 12,
      "arabic": "وَعَنْ سَلْمَانَ ‏- رضى الله عنه ‏- قَالَ: قَالَ رَسُولُ اَللَّهِ ‏- صلى الله عليه وسلم ‏-{ إِنَّ رَبَّكُمْ حَيِيٌّ كَرِيمٌ, يَسْتَحِي مِنْ عَبْدِهِ إِذَا رَفَعَ إِلَيْهِ يَدَيْهِ أَنْ يَرُدَّهُمَا صِفَرًا }  أَخْرَجَهُ اَلْأَرْبَعَةُ إِلَّا النَّسَائِيَّ, وَصَحَّحَهُ اَلْحَاكِمُ .‏  1‏ .‏‏1 ‏- صحيح.‏ رواه أبو داود (1488)‏، والترمذي (3556)‏، وابن ماجه (3865)‏، والحاكم (1 / 497)‏.‏",
      "english": {
        "narrator": "Salman (RAA) narrated that the Messenger of Allah (ﷺ) said:",
        "text": "“Your Rabb (Lord of the Universe) is Modest and Generous, and would never turn the hands of a slave without gain when he raises them to Him (in supplication).” Related by the four lmams except An-Nasa’i. Al-Hakim graded it as Sahih."
      }
    },
    {
      "id": 118,
      "chapterId": 16,
      "bookId": 12,
      "arabic": "وَعَنْ عُمَرَ ‏- رضى الله عنه ‏- قَالَ: { كَانَ رَسُولُ اَللَّهِ ‏- صلى الله عليه وسلم ‏-إِذَا مَدَّ يَدَيْهِ فِي اَلدُّعَاءِ, لَمْ يَرُدَّهُمَا, حَتَّى يَمْسَحَ بِهِمَا وَجْهَهُ }  أَخْرَجَهُ اَلتِّرْمِذِيُّ .‏  1‏ .‏‏1 ‏- منكر.‏ رواه الترمذي (3386)‏ وقال:\" هذا حديث صحيح غريب، لا نعرفه إلا من حديث حماد بن عيسى، وقد تفرد به، وهو قليل الحديث، وقد حدث عنه الناس\".‏ قلت: وهو ضعيف، كما ذهب إلى ذلك الحافظ نفسه في\" التقريب\"، وقال أبو داود:\" ضعيف، روى أحاديث مناكير\".‏ قلت: وهذا الحديث لا شك أنه من تلك المناكير، إذ رفع اليدين في الدعاء ثابتة برواية الثقات، ولم يرد في شيء من ذلك مسح الوجه.‏",
      "english": {
        "narrator": "",
        "text": "'Umar (RAA) narrated, ‘When the Messenger of Allah (ﷺ) raised his hands in supplication, he did not lower them till he wiped his face with them.’ Related by At-Tirmidhi."
      }
    },
    {
      "id": 119,
      "chapterId": 16,
      "bookId": 12,
      "arabic": "وَلَهُ شَوَاهِدُ مِنْهَا: \nحَدِيثُ اِبْنِ عَبَّاسٍ: عَنْ أَبِي دَاوُدَ .‏  1‏ وَمَجْمُوعُهَا يَقْتَضِي أَنَّهُ حَدِيثٌ حَسَنٌ .‏  2‏ .‏‏1 ‏- منكر كسابقه.‏ رواه أبو داود، ولفظه:\" لا تستروا الجدر، من نظر في كتاب أخيه بغير إذنه فإنما ينظر في النار، سلوا الله ببطون أكفكم، ولا تسألوه بظهورها، فإذا فرغتم فامسحوا بها وجوهكم\".‏ وقال أبو داود:\" روى هذا الحديث من غير وجه عن محمد بن كعب، كلها واهية، وهذا الطريق أمثلها، وهو ضعيف ‏-أيضا‏-\"، وقال أبو حاتم في: العلل\" (2 / 351)‏: \" هذا حديث منكر\" .‏‏2 ‏- قلت: كيف، وقد تقدم تضعيف أبي داود للحديث، وإنكار أبي حاتم؟! بل قال البيهقي في\" الكبرى\" (2 / 212)‏:\" فأما مسح اليدين بالوجه عند الفراغ من الدعاء، فلست أحفظه عن أحد من السلف في دعاء القنوت، وإن كان يروى عن بعضهم في الدعاء خارج الصلاة، وقد روي فيه عن النبي ‏-صلى الله عليه وسلم‏- حديث فيه ضعف\"، وقد أنكره الإمام مالك‏- أي: مسح الوجه‏- وكرهه سفيان، ولم يسمع أحمد فيه بشيء\".‏",
      "english": {
        "narrator": "There are other traditions, which support this narration, of which is:",
        "text": "The Hadith narrated by Ibn ’Abbas (RAA) related by Abu Dawud and others. Put together, they confirm that it is Hasan."
      }
    },
    {
      "id": 120,
      "chapterId": 16,
      "bookId": 12,
      "arabic": "وَعَنِ ابْنِ مَسْعُودٍ ‏- رضى الله عنه ‏- قَالَ: قَالَ رَسُولُ اَللَّهِ ‏- صلى الله عليه وسلم ‏-{ إِنَّ أَوْلَى اَلنَّاسِ بِي يَوْمَ اَلْقِيَامَةِ, أَكْثَرُهُمْ عَلَيَّ صَلَاةً }  أَخْرَجَهُ اَلتِّرْمِذِيُّ وَصَحَّحَهُ اِبْنُ حِبَّانَ .‏  1‏ .‏‏1 ‏- ضعيف.‏ رواه الترمذي (484)‏، وابن حبان (911)‏ وقال الترمذي:\" هذا حديث حسن غريب\".‏ قلت: في سنده مجهول، وآخر سيئ الحفظ.‏",
      "english": {
        "narrator": "Ibn Mas'ud (RAA) narrated that the Messenger of Allah (ﷺ) said:",
        "text": "“Those who are nearest to me on the Day of Resurrection are those who invoke many blessings on me.” Related by At-Tirmidhi and Ibn Hibban graded it as Sahih."
      }
    },
    {
      "id": 121,
      "chapterId": 16,
      "bookId": 12,
      "arabic": "وَعَنْ شَدَّادِ بْنِ أَوْسٍ ‏- رضى الله عنه ‏- قَالَ: قَالَ رَسُولُ اَللَّهِ ‏- صلى الله عليه وسلم ‏-{ سَيِّدُ اَلِاسْتِغْفَارِ, أَنْ يَقُولَ اَلْعَبْدُ: اَللَّهُمَّ أَنْتَ رَبِّي, لَا إِلَهَ إِلَّا أَنْتَ, خَلَقْتَنِي, وَأَنَا عَبْدُكَ, وَأَنَا عَلَى عَهْدِكَ وَوَعْدِكَ مَا اِسْتَطَعْتُ, أَعُوذُ بِكَ مِنْ شَرِّ مَا صَنَعْتُ, أَبُوءُ لَكَ بِنِعْمَتِكَ عَلَيَّ, وَأَبُوءُ لَكَ بِذَنْبِي, فَاغْفِرْ لِي; فَإِنَّهُ لَا يَغْفِرُ اَلذُّنُوبَ إِلَّا أَنْتَ }  أَخْرَجَهُ اَلْبُخَارِيُّ .‏  1‏ .‏‏1 ‏- صحيح.‏ رواه البخاري (6306)‏ وليس عنده لفظ:\" العبد\" وإن كان عند غير، وزاد:\" من قالها من النهار، موقنا بها، فمات من يومه قبل أن يمسي، فهو من أهل الجنة، ومن قالها من الليل، وهو موقن بها، فمات قبل أن يصبح، فهو من أهل الجنة\"، و\" أبوء\": أعترف.‏",
      "english": {
        "narrator": "Shaddad bin Aus (RAA) narrated that the Messenger of Allah (ﷺ) said:",
        "text": "“The best manner of asking for forgiveness is to say: “O Allah! You are my Lord. None has the right to be worshipped except You. You created me and I am your servant and I abide by your covenant and promise as best I can. I seek refuge in you from the evil, which I have committed. I acknowledge your favor upon me and I acknowledge my sins, so forgive me, for verily none can forgive sin except you.” Related by Al-Bukhari."
      }
    },
    {
      "id": 122,
      "chapterId": 16,
      "bookId": 12,
      "arabic": "وَعَنِ ابْنِ عُمَرَ ‏-رَضِيَ اَللَّهُ عَنْهُمَا‏- قَالَ: { لَمْ يَكُنْ رَسُولُ اَللَّهِ ‏- صلى الله عليه وسلم ‏-يَدَعُ هَؤُلَاءِ اَلْكَلِمَاتِ حِينَ يُمْسِي وَحِينَ يُصْبِحُ: اَللَّهُمَّ إِنِّي أَسْأَلُكَ اَلْعَافِيَةَ فِي دِينِي, وَدُنْيَايَ, وَأَهْلِي, وَمَالِي, اَللَّهُمَّ اسْتُرْ عَوْرَاتِي, وَآمِنْ رَوْعَاتِي, وَاحْفَظْنِي مِنْ بَيْنِ يَدَيَّ, وَمِنْ خَلْفِي, وَعَنْ يَمِينِي, وَعَنْ شِمَالِي, وَمِنْ فَوْقِي, وَأَعُوذُ بِعَظَمَتِكَ أَنْ أُغْتَالَ مِنْ تَحْتِي }  أَخْرَجَهُ النَّسَائِيُّ, وَابْنُ مَاجَهْ, وَصَحَّحَهُ اَلْحَاكِمُ .‏  1‏ .‏‏1 ‏- صحيح.‏ رواه النسائي في\" عمل اليوم والليلة\" (566)‏، وابن ماجه (3871)‏، والحاكم (1 / 517‏- 518)‏.‏",
      "english": {
        "narrator": "Ibn ’Umar (RAA) narrated, ‘The Messenger of Allah (ﷺ) never failed to say these words in the morning and the evening:",
        "text": "“O Allah! I ask you for pardon and well-being in my religious and worldly affairs, and my family and my wealth. O Allah! Cover my weaknesses and set at ease my dismay. O Allah! Preserve me from the front and from behind and on my right and on my left and from above, and I seek refuge with you lest I be swallowed up by the earth.” Related by An-Nasa’i and Ibn Majah. Al-Hakim graded it as Sahih."
      }
    },
    {
      "id": 123,
      "chapterId": 16,
      "bookId": 12,
      "arabic": "وَعَنِ ابْنِ عُمَرَ ‏-رَضِيَ اَللَّهُ عَنْهُمَا‏- قَالَ: كَانَ رَسُولُ اَللَّهِ ‏- صلى الله عليه وسلم ‏-يَقُولُ: { اَللَّهُمَّ إِنِّي أَعُوذُ بِكَ مِنْ زَوَالِ نِعْمَتِكَ, وَتَحَوُّلِ عَافِيَتِكَ, وَفَجْأَةِ نِقْمَتِكَ, وَجَمِيعِ سَخَطِكَ }  أَخْرَجَهُ مُسْلِمٌ .‏  1‏ .‏‏1 ‏- صحيح.‏ رواه مسلم (2739)‏ وكذا وقع في\" الأصلين\":\" فجأة\"، ووقع في مسلم:\" فجاءة\"، وهما لغتان، والمراد: بغتة.‏",
      "english": {
        "narrator": "",
        "text": "Ibn 'Umar (RAA) narrated, ‘The Messenger of Allah (ﷺ) used to supplicate saying, “O Allah! I seek refuge in you from the withholding of your favor, the decline of the good health you have given, the suddenness of your vengeance and from all forms of your wrath.” Related by Muslim."
      }
    },
    {
      "id": 124,
      "chapterId": 16,
      "bookId": 12,
      "arabic": "وَعَنْ عَبْدِ اَللَّهِ بْنِ عُمَرَ ‏-رَضِيَ اَللَّهُ عَنْهُمَا‏- قَالَ: { كَانَ رَسُولُ اَللَّهِ ‏- صلى الله عليه وسلم ‏-يَقُولُ: اَللَّهُمَّ إِنِّي أَعُوذُ بِكَ مِنْ غَلَبَةِ اَلدَّيْنِ, وَغَلَبَةِ اَلْعَدُوِّ, وَشَمَاتَةِ اَلْأَعْدَاءِ }  رَوَاهُ النَّسَائِيُّ, وَصَحَّحَهُ اَلْحَاكِمُ .‏  1‏ .‏‏1 ‏- صحيح.‏ رواه النسائي (8 / 265)‏، والحاكم (1 / 104)‏.‏",
      "english": {
        "narrator": "",
        "text": "Ibn Umar (RAA) narrated, “The Messenger of Allah (ﷺ) used to say, “O Allah! I seek refuge in you from the burden of debts and from being over-powered by men and from the gloating of enemies (at an evil I am afflicted with).” Related by"
      }
    },
    {
      "id": 125,
      "chapterId": 16,
      "bookId": 12,
      "arabic": "وَعَنْ بُرَيْدَةَ ‏- رضى الله عنه ‏- قَالَ: { سَمِعَ اَلنَّبِيُّ ‏- صلى الله عليه وسلم ‏-رَجُلاً يَقُولُ: اَللَّهُمَّ إِنِّي أَسْأَلُكَ بِأَنِّي أَشْهَدُ أَنَّكَ أَنْتَ اَللَّهُ لَا إِلَهَ إِلَّا أَنْتَ, اَلْأَحَدُ اَلصَّمَدُ, اَلَّذِي لَمْ يَلِدْ, وَلَمْ يُولَدْ, وَلَمْ يَكُنْ لَهُ كُفُوًا أَحَدٌ.‏ فَقَالَ\" لَقَدْ سَأَلَ اَللَّهُ بِاسْمِهِ اَلَّذِي إِذَا سُئِلَ بِهِ أَعْطَى, وَإِذَا دُعِيَ بِهِ أَجَابَ }  أَخْرَجَهُ اَلْأَرْبَعَةُ, وَصَحَّحَهُ اِبْنُ حِبَّانَ .‏  1‏ .‏‏1 ‏- صحيح.‏ رواه أبو داود (1493)‏، والنسائي في\" الكبرى\" (4 / 394‏- 395)‏.‏ والترمذي (3475)‏، وابن ماجه (3857)‏، وابن حبان (2383)‏.‏",
      "english": {
        "narrator": "Buraidah (RAA) narrated, ‘The Messenger of Allah (ﷺ) heard a man saying:",
        "text": "‘O Allah! I ask you by virtue that I testify that you are Allah; there is no God but You, the one —· the Self Sufficient Master, Who did not beget, and was not begotten, and to whom no one is equal.’ Allah’s Messenger (ﷺ) then said, “He has asked Allah by His Name by which when asked, He gives, and by which when supplicated, He answers.” Related by the four Imams and Ibn Hibban graded it as Sahih."
      }
    },
    {
      "id": 126,
      "chapterId": 16,
      "bookId": 12,
      "arabic": "وَعَنْ أَبِي هُرَيْرَةَ ‏- رضى الله عنه ‏- قَالَ: { كَانَ رَسُولُ اَللَّهِ ‏- صلى الله عليه وسلم ‏-إِذَا أَصْبَحَ, يَقُولُ: اَللَّهُمَّ بِكَ أَصْبَحْنَا, وَبِكَ أَمْسَيْنَا, وَبِكَ نَحْيَا, وَبِكَ نَمُوتُ, وَإِلَيْكَ اَلنُّشُورُ }  وَإِذَا أَمْسَى قَالَ مِثْلَ ذَلِكَ ; إِلَّا أَنَّهُ قَالَ: { وَإِلَيْكَ اَلْمَصِيرُ }  أَخْرَجَهُ اَلْأَرْبَعَةُ .‏  1‏ .‏‏1 ‏- حسن.‏ رواه أبو داود (5068)‏، والنسائي في\" عمل اليوم والليلة\" (564)‏.‏ والترمذي (3391)‏، وابن ماجه (3868)‏.‏ وعند أبي داود:\" وإليك النشور\" في دعاء الصباح والمساء، وأما النسائي فعنده في دعاء المساء\" وإليك النشور\".‏ قال ومرة أخرى: \"وإليك المصير\"، وأما ابن ماجه والترمذي فروايتهما للحديث من أمره ‏-صلى الله عليه وسلم‏-:\" إذا أصبحتم فقولوا.‏.‏.‏.‏.‏\" أو:\" إذا اصبح أحدكم فليقل:.‏.‏.‏.‏\"، وعند الترمذي في دعاء الصباح\" وإليك المصير\" وفي دعاء المساء:\" وإليك النشور\"! وأما ابن ماجه ففي دعاء المساء كما قال الحافظ، إلا أنه في دعاء الصباح ليس عنده:\" وإليك النشور\"، وقال الترمذي:\" هذا حديث حسن\".‏",
      "english": {
        "narrator": "Abu Hurairah (RAA) narrated, ‘Allah’s Messenger (ﷺ) would say in the morning, “O Allah! By Your leave we have reached the morning and by your leave we have reached the evening. By Your leave we live and die. Unto you is our resurrection.” In the evening, he would say the same except the last phrase:",
        "text": "“and to you do we return.” Related by the four Imams."
      }
    },
    {
      "id": 127,
      "chapterId": 16,
      "bookId": 12,
      "arabic": "وَعَنْ أَنَسٍ ‏- رضى الله عنه ‏- قَالَ: { كَانَ أَكْثَرُ دُعَاءِ رَسُولِ اَللَّهِ ‏- صلى الله عليه وسلم ‏-رَبَّنَا آتِنَا فِي اَلدُّنْيَا حَسَنَةً, وَفِي اَلْآخِرَةِ حَسَنَةً, وَقِنَا عَذَابَ اَلنَّارِ }  مُتَّفَقٌ عَلَيْهِ .‏  1‏ .‏‏1 ‏- صحيح.‏ رواه البخاري (6389)‏، ومسلم (2690)‏ وفي رواية لمسلم\" اللهم\" بدل:\"ربنا\" والباقي مثله.‏",
      "english": {
        "narrator": "Anas (RAA) narrated, “The Messenger of Allah (ﷺ) used to supplicate frequently:",
        "text": "“O our Lord, grants us the best in this life and the best in the next life, and protects us from the punishment of the Fire.” Agreed upon."
      }
    },
    {
      "id": 128,
      "chapterId": 16,
      "bookId": 12,
      "arabic": "وَعَنْ أَبِي مُوسَى اَلْأَشْعَرِيِّ ‏- رضى الله عنه ‏- قَالَ: { كَانَ اَلنَّبِيُّ ‏- صلى الله عليه وسلم ‏-يَدْعُو: اَللَّهُمَّ اغْفِرْ لِي خَطِيئَتِي, وَجَهْلِي, وَإِسْرَافِي فِي أَمْرِي, وَمَا أَنْتَ أَعْلَمُ بِهِ مِنِّي, اَللَّهُمَّ اِغْفِرْ لِي جِدِّي, وَهَزْلِي, وَخَطَئِي, وَعَمْدِي, وَكُلُّ ذَلِكَ عِنْدِي, اَللَّهُمَّ اِغْفِرْ لِي مَا قَدَّمْتُ, وَمَا أَخَّرْتُ, وَمَا أَسْرَرْتُ, وَمَا أَعْلَنْتُ, وَمَا أَنْتَ أَعْلَمُ بِهِ مِنِّي, أَنْتَ اَلْمُقَدِّمُ وَالْمُؤَخِّرُ, وَأَنْتَ عَلَى كُلِّ شَيْءٍ قَدِيرٌ }  مُتَّفَقٌ عَلَيْهِ .‏  1‏ .‏‏1 ‏- صحيح.‏ رواه البخاري (6398)‏، ومسلم (2819)‏.‏",
      "english": {
        "narrator": "",
        "text": "Abu Musa al-Ash’ari (RAA) narrated, “The Messenger of Allah (ﷺ) used to supplicate, “O Allah, forgive me my faults, my ignorance, my immoderation in my concern. And you are better aware (of my affairs) than myself. O Allah, grant me forgiveness (of the faults which I committed) seriously or otherwise (and which I committed) inadvertently and deliberately. All these (failings) are in me. O Allah, grant me forgiveness from the faults, which I did in haste or deferred, which I committed in privacy or in public and you are better aware (of them) than myself. You are the First and the Last and over all things you are Omnipotent.” Agreed Upon."
      }
    },
    {
      "id": 129,
      "chapterId": 16,
      "bookId": 12,
      "arabic": "وَعَنْ أَبِي هُرَيْرَةَ ‏- رضى الله عنه ‏- قَالَ: { كَانَ رَسُولُ اَللَّهِ ‏- صلى الله عليه وسلم ‏-يَقُولُ: اَللَّهُمَّ أَصْلِحْ لِي دِينِي اَلَّذِي هُوَ عِصْمَةُ أَمْرِي, وَأَصْلِحْ لِي دُنْيَايَ اَلَّتِي فِيهَا مَعَاشِي, وَأَصْلِحْ لِي آخِرَتِي اَلَّتِي إِلَيْهَا مَعَادِي, وَاجْعَلْ اَلْحَيَاةَ زِيَادَةً لِي فِي كُلِّ خَيْرٍ, وَاجْعَلْ اَلْمَوْتَ رَاحَةً لِي مِنْ كُلِّ شَرٍّ }  أَخْرَجَهُ مُسْلِمٌ .‏  1‏ .‏‏1 ‏- صحيح.‏ رواه مسلم (2820)‏.‏",
      "english": {
        "narrator": "",
        "text": "Abu Hurairah (RAA) narrated that the Messenger of Allah (ﷺ) used to say, “O Allah! Set right for me my religion, which is the safeguard of my affairs. And set right for me the affairs of the world wherein is my living. Decree the Hereafter to be good for me. And make this life, for me, (a source) of abundance for every good and make my death (a source) of comfort to me and protection against every evil.” Related by Muslim."
      }
    },
    {
      "id": 130,
      "chapterId": 16,
      "bookId": 12,
      "arabic": "وَعَنْ أَنَسٍ ‏- رضى الله عنه ‏- قَالَ: { كَانَ رَسُولُ اَللَّهِ ‏- صلى الله عليه وسلم ‏-يَقُولُ:\" اَللَّهُمَّ اِنْفَعْنِي بِمَا عَلَّمْتَنِي, وَعَلِّمْنِي مَا يَنْفَعُنِي, وَارْزُقْنِي عِلْمًا يَنْفَعُنِي }  رَوَاهُ النَّسَائِيُّ, وَالْحَاكِمُ .‏  1‏ .‏‏1 ‏- حسن رواه الحاكم (1 / 510)‏ ويشهد له ما بعده، وأما عزوه للنسائي فلا أظنه إلا من أوهام الحافظ ‏-رحمه الله‏- إذ لم أجده لا في\" المجتبى\" ولا في\" الكبرى\" ولم أر أحدا عزاه للنسائي غير الحافظ، والله أعلم.‏",
      "english": {
        "narrator": "",
        "text": "Anas (RAA) narrated that the Messenger of Allah (ﷺ) used to say, “O Allah! Grant me benefit in what you have taught me, and teach me useful knowledge and provide me with knowledge that will benefit me.” Related by An-Nasa’i and Al-Hakim."
      }
    },
    {
      "id": 131,
      "chapterId": 16,
      "bookId": 12,
      "arabic": "وَلِلتِّرْمِذِيِّ: مِنْ حَدِيثِ أَبِي هُرَيْرَةَ نَحْوُهُ, وَقَالَ فِي آخِرِهِ: { وَزِدْنِي عِلْمًا, وَالْحَمْدُ لِلَّهِ عَلَى كُلِّ حَالٍ, وَأَعُوذُ بِاَللَّهِ مِنْ حَالِ أَهْلِ اَلنَّارِ }  وَإِسْنَادُهُ حَسَنٌ .‏  1‏ .‏‏1 ‏- حسن دون هذه الزيادة ؛ إذ في سندها ضعيف، ومجهول.‏ ورواه الترمذي (3599)‏ وغيره.‏ وقال:\" هذا حديث حسن غريب\".‏",
      "english": {
        "narrator": "",
        "text": "At-Tirmidhi reported a similar tradition on the authority of `Abu Hurairah (RAA), he said at its end, “And increase my knowledge. Praise be to Allah in all circumstances. I seek refuge in Allah from the state of those who will go to Hell.” Its chain of narrators is good."
      }
    },
    {
      "id": 132,
      "chapterId": 16,
      "bookId": 12,
      "arabic": "وَعَنْ عَائِشَةَ ‏-رَضِيَ اَللَّهُ عَنْهَا‏- أَنَّ اَلنَّبِيَّ ‏- صلى الله عليه وسلم ‏-عَلَّمَهَا هَذَا اَلدُّعَاءَ: { اَللَّهُمَّ إِنِّي أَسْأَلُكَ مِنَ الْخَيْرِ كُلِّهِ, عَاجِلِهِ وَآجِلِهِ, مَا عَلِمْتُ مِنْهُ وَمَا لَمْ أَعْلَمْ, وَأَعُوذُ بِكَ مِنَ الشَّرِّ كُلِّهِ, عَاجِلِهِ وَآجِلِهِ, مَا عَلِمْتُ مِنْهُ وَمَا لَمْ أَعْلَمْ, اَللَّهُمَّ إِنِّي أَسْأَلُكَ مِنْ خَيْرِ مَا سَأَلَكَ عَبْدُكَ وَنَبِيُّكَ, وَأَعُوذُ بِكَ مِنْ شَرِّ مَا عَاذَ بِهِ عَبْدُكَ وَنَبِيُّكَ, اَللَّهُمَّ إِنِّي أَسْأَلُكَ اَلْجَنَّةَ, وَمَا قَرَّبَ إِلَيْهَا مِنْ قَوْلٍ أَوْ عَمَلٍ, وَأَعُوذُ بِكَ مِنَ النَّارِ, وَمَا قَرَّبَ مِنْهَا مِنْ قَوْلٍ أَوْ عَمَلٍ, وَأَسْأَلُكَ أَنْ تَجْعَلَ كُلَّ قَضَاءٍ قَضَيْتَهُ لِي خَيْرًا }  أَخْرَجَهُ اِبْنُ مَاجَهْ, وَصَحَّحَهُ اِبْنُ حِبَّانَ, وَالْحَاكِمُ .‏  1‏ .‏‏1 ‏- صحيح.‏ رواه ابن ماجه (3846)‏، وابن حبان (869)‏، والحاكم (1 / 512‏- 522)‏ وفي سند ابن حبان سقط.‏",
      "english": {
        "narrator": "",
        "text": "’A’ishah (RAA) narrated, ‘Allah’s Messenger (ﷺ) taught her this supplication, “O Allah! I ask you of all good of what I have done and what I have not done in this world and in the Hereafter. I seek refuge in you from the evil of what I have done and what I have not done in this world and in the Hereafter. O Allah! I ask of you all good that your servant and Prophet Muhammad (ﷺ) used to ask of you. I seek refuge in you from all evil that your servant and Prophet Muhammad used to seek refuge in you from. O Allah! I ask you for Paradise and what brings me nearer to it of deeds and sayings. I seek refuge in You from Hell-Fire and what brings me near to it of deeds and sayings. I ask you for the good consequences of Your Decree.” Related by Ibn Majah Ibn Hibban and Al-Hakim graded it as Sahih"
      }
    },
    {
      "id": 133,
      "chapterId": 16,
      "bookId": 12,
      "arabic": "وَأَخْرَجَ اَلشَّيْخَانِ عَنْ أَبِي هُرَيْرَةَ ‏- رضى الله عنه ‏- قَالَ: قَالَ رَسُولُ اَللَّهِ ‏- صلى الله عليه وسلم ‏-{ كَلِمَتَانِ حَبِيبَتَانِ إِلَى اَلرَّحْمَنِ, خَفِيفَتَانِ عَلَى اَللِّسَانِ, ثَقِيلَتَانِ فِي اَلْمِيزَانِ, سُبْحَانَ اَللَّهِ وَبِحَمْدِهِ , سُبْحَانَ اَللَّهِ اَلْعَظِيمِ }   1‏‏1 ‏- صحيح.‏ رواه البخاري (6406)‏، ومسلم (2694)‏.‏",
      "english": {
        "narrator": "Abu Hurairah (RAA) narrated that the Messenger of Allah (ﷺ) said:",
        "text": "“Two phrases which are dear to the Compassionate One and are light on the tongue but heavy in the scale are: “How perfect Allah is and I praise Him; and How perfect Allah is the Most Great.” Agreed upon."
      }
    }
  ]
}