{
  "page": 28,
  "perPage": 50,
  "totalPages": 28,
  "totalCount": 1374,
  "nextPage": null,
  "prevPage": 27,
  "items": [
    {
      "id": 23,
      "chapterId": 7,
      "bookId": 8,
      "arabic": "حَدَّثَنَا عَبْدُ الرَّحْمَنِ بْنُ مَهْدِيٍّ، حَدَّثَنَا شُعْبَةُ، عَنْ جَامِعِ بْنِ شَدَّادٍ، عَنْ عَامِرِ بْنِ عَبْدِ اللَّهِ بْنِ الزُّبَيْرِ، عَنْ أَبِيهِ، قَالَ قُلْتُ لِأَبِي الزُّبَيْرِ بْنِ الْعَوَّامِ رَضِيَ اللَّهُ عَنْهُ مَا لَكَ لَا تُحَدِّثُ عَنْ رَسُولِ اللَّهِ صَلَّى اللَّهُ عَلَيْهِ وَسَلَّمَ قَالَ مَا فَارَقْتُهُ مُنْذُ أَسْلَمْتُ وَلَكِنِّي سَمِعْتُ مِنْهُ كَلِمَةً سَمِعْتُهُ يَقُولُ مَنْ كَذَبَ عَلَيَّ فَلْيَتَبَوَّأْ مَقْعَدَهُ مِنْ النَّارِ‏.‏",
      "english": {
        "narrator": "It was narrated from’`Amir bin ‘Abdullah bin az-Zubair (رضي الله عنه) that his father said:",
        "text": "I said to my father, az-Zubair bin al-Awwam (رضي الله عنه): “Why don`t you narrate from the Messenger of Allah (ﷺ).” He said: “I never left him since I became Muslim, but I heard him say something. He said: Whoever tells a lie about me, let him take his place in Hell.`"
      }
    },
    {
      "id": 24,
      "chapterId": 7,
      "bookId": 8,
      "arabic": "حَدَّثَنَا وَكِيعٌ، وَابْنُ، نُمَيْرٍ قَالَا حَدَّثَنَا هِشَامُ بْنُ عُرْوَةَ، عَنْ أَبِيهِ، عَنْ جَدِّهِ، قَالَ ابْنُ نُمَيْرٍ عَنِ الزُّبَيْرِ، رَضِيَ اللَّهُ عَنْهُ قَالَ قَالَ رَسُولُ اللَّهِ صَلَّى اللَّهُ عَلَيْهِ وَسَلَّمَ لَأَنْ يَأْخُذَ أَحَدُكُمْ أَحْبُلَهُ فَيَأْتِيَ الْجَبَلَ فَيَجِيءَ بِحُزْمَةٍ مِنْ حَطَبٍ عَلَى ظَهْرِهِ فَيَبِيعَهَا فَيَسْتَغْنِيَ بِثَمَنِهَا خَيْرٌ لَهُ مِنْ أَنْ يَسْأَلَ النَّاسَ أَعْطَوْهُ أَوْ مَنَعُوهُ‏.‏",
      "english": {
        "narrator": "Hisham bin `Urwah narrated from his father, that his grandfather Ibn Numair said that az-Zubair (رضي الله عنه) said:",
        "text": "The Messenger of Allah (ﷺ) said: “For one of you to take a rope and go to the mountains, then bring a bundle of firewood on his back and sell it, and make himself independent of means thereby, is better for him than to ask of people, whether they give him something or not.”"
      }
    },
    {
      "id": 25,
      "chapterId": 7,
      "bookId": 8,
      "arabic": "حَدَّثَنَا عَبْدُ الرَّحْمَنِ، حَدَّثَنَا حَرْبُ بْنُ شَدَّادٍ، عَنْ يَحْيَى بْنِ أَبِي كَثِيرٍ، أَنَّ يَعِيشَ بْنَ الْوَلِيدِ، حَدَّثَهُ أَنَّ مَوْلًى لِآلِ الزُّبَيْرِ حَدَّثَهُ أَنَّ الزُّبَيْرَ بْنَ الْعَوَّامِ رَضِيَ اللَّهُ عَنْهُ حَدَّثَهُ أَنَّ رَسُولَ اللَّهِ صَلَّى اللَّهُ عَلَيْهِ وَسَلَّمَ قَالَ دَبَّ إِلَيْكُمْ دَاءُ الْأُمَمِ قَبْلَكُمْ الْحَسَدُ وَالْبَغْضَاءُ وَالْبَغْضَاءُ هِيَ الْحَالِقَةُ لَا أَقُولُ تَحْلِقُ الشَّعْرَ وَلَكِنْ تَحْلِقُ الدِّينَ وَالَّذِي نَفْسِي بِيَدِهِ أَوْ وَالَّذِي نَفْسُ مُحَمَّدٍ بِيَدِهِ لَا تَدْخُلُوا الْجَنَّةَ حَتَّى تُؤْمِنُوا وَلَا تُؤْمِنُوا حَتَّى تَحَابُّوا أَفَلَا أُنَبِّئُكُمْ بِمَا يُثَبِّتُ ذَلِكَ لَكُمْ أَفْشُوا السَّلَامَ بَيْنَكُمْ حَدَّثَنَا أَبُو عَامِرٍ حَدَّثَنَا عَلِيُّ بْنُ الْمُبَارَكِ عَنْ يَحْيَى بْنِ أَبِي كَثِيرٍ عَنْ يَعِيشَ بْنِ الْوَلِيدِ أَنَّ مَوْلًى لِآلِ الزُّبَيْرِ حَدَّثَهُ أَنَّ الزُّبَيْرَ رَضِيَ اللَّهُ عَنْهُ حَدَّثَهُ أَنَّ النَّبِيَّ صَلَّى اللَّهُ عَلَيْهِ وَسَلَّمَ قَالَ دَبَّ إِلَيْكُمْ فَذَكَرَهُ حَدَّثَنَا إِبْرَاهِيمُ بْنُ خَالِدٍ حَدَّثَنَا رَبَاحٌ عَنْ مَعْمَرٍ عَنْ يَحْيَى بْنِ أَبِي كَثِيرٍ عَنْ يَعِيشَ بْنِ الْوَلِيدِ بْنِ هِشَامٍ عَنْ مَوْلًى لِآلِ الزُّبَيْرِ أَنَّ الزُّبَيْرَ بْنَ الْعَوَّامِ رَضِيَ اللَّهُ عَنْهُ حَدَّثَهُ أَنَّ رَسُولَ اللَّهِ صَلَّى اللَّهُ عَلَيْهِ وَسَلَّمَ قَالَ دَبَّ إِلَيْكُمْ فَذَكَرَهُ‏.‏",
      "english": {
        "narrator": "Ya`eesh bin al-Waleed narrated that a freed slave of the family of az-Zubair told him that azZubair bin al-`Awwam (رضي الله عنه) narrated to him that The Messenger of Allah (ﷺ) said:",
        "text": "“There has come to you the disease of the nations before you, jealousy and hatred. Hatred is the `shaver` (destroyer). I do not say that it shaves hair; rather its shaves (destroys) religious commitment. By the One in Whose Hand is the soul of Muhammad, you will not enter Paradise until you believe, and you will not believe until you love one another. Shall I not tell you of something that will help you to achieve that? Spread (the greeting of) salaam amongst yourselves.`\n\nIt was narrated from Ya`eesh bin al-Waleed that a freed slave of the family of az-Zubair told him that az-Zubair (رضي الله عنه) told him: The Prophet (ﷺ)  said: “There has come to you.” and he narrated it.\n\nIt was narrated from a freed slave of the family of az-Zubair (رضي الله عنه) that az-Zubair bin al-`Awwam (رضي الله عنه) told him that The Messenger of Allah (ﷺ) said: “There has come to you...` and he narrated it,"
      }
    },
    {
      "id": 26,
      "chapterId": 7,
      "bookId": 8,
      "arabic": "حَدَّثَنَا إِسْمَاعِيلُ، حَدَّثَنَا أَيُّوبُ، عَنِ الْحَسَنِ، قَالَ قَالَ رَجُلٌ لِلزُّبَيْرِ أَلَا أَقْتُلُ لَكَ عَلِيًّا قَالَ كَيْفَ تَقْتُلُهُ قَالَ أَفْتِكُ بِهِ قَالَ لَا قَالَ رَسُولُ اللَّهِ صَلَّى اللَّهُ عَلَيْهِ وَسَلَّمَ الْإِيمَانُ قَيْدُ الْفَتْكِ لَا يَفْتِكُ مُؤْمِنٌ‏.‏",
      "english": {
        "narrator": "It was narrated that al-Hasan said:",
        "text": "A man said to az-Zubair: “Shall I kill `Ali for you?” He said: “How would you kill him?” He said: “I will assassinate him.”He said: “No, the Messenger of Allah (ﷺ) said: Faith prohibits assassination; no believer should resort to that.`"
      }
    },
    {
      "id": 27,
      "chapterId": 7,
      "bookId": 8,
      "arabic": "حَدَّثَنَا ابْنُ نُمَيْرٍ، حَدَّثَنَا مُحَمَّدٌ يَعْنِي ابْنَ عَمْرٍو، عَنْ يَحْيَى بْنِ عَبْدِ الرَّحْمَنِ بْنِ حَاطِبٍ، عَنْ عَبْدِ اللَّهِ بْنِ الزُّبَيْرِ، عَنِ الزُّبَيْرِ بْنِ الْعَوَّامِ، قَالَ لَمَّا نَزَلَتْ هَذِهِ السُّورَةُ عَلَى رَسُولِ اللَّهِ صَلَّى اللَّهُ عَلَيْهِ وَسَلَّمَ ‏{‏إِنَّكَ مَيِّتٌ وَإِنَّهُمْ مَيِّتُونَ ‏.‏ ثُمَّ إِنَّكُمْ يَوْمَ الْقِيَامَةِ عِنْدَ رَبِّكُمْ تَخْتَصِمُونَ‏}‏ قَالَ الزُّبَيْرُ أَيْ رَسُولَ اللَّهِ صَلَّى اللَّهُ عَلَيْهِ وَسَلَّمَ أَيُكَرَّرُ عَلَيْنَا مَا كَانَ بَيْنَنَا فِي الدُّنْيَا مَعَ خَوَاصِّ الذُّنُوبِ قَالَ نَعَمْ لَيُكَرَّرَنَّ عَلَيْكُمْ حَتَّى يُؤَدَّى إِلَى كُلِّ ذِي حَقٍّ حَقُّهُ فَقَالَ الزُّبَيْرُ وَاللَّهِ إِنَّ الْأَمْرَ لَشَدِيدٌ‏.‏",
      "english": {
        "narrator": "It was narrated that az-Zubair bin al-`Awwam (رضي الله عنه) said:",
        "text": "When this surah was revealed to the Messenger of Allah (ﷺ): `Verily, you (O Muhammad is) will die, and verily, they (too) will die. Then, on the Day of Resurrection, you will be disputing before your Lord” (az-Zumar ), az-Zubair said: “O Messenger of Allah, will we face again the disputes we had among us in this world in addition to other sins?” He said: “Yes, you will face these disputes again until everyone who has a right has been given his right.” AzZubair said: “By Allah, the matter is very serious.”"
      }
    },
    {
      "id": 28,
      "chapterId": 7,
      "bookId": 8,
      "arabic": "حَدَّثَنَا سُفْيَانُ، قَالَ عَمْرٌو وَسَمِعْتُ عِكْرِمَةَ، ‏{‏وَإِذْ صَرَفْنَا إِلَيْكَ‏}‏ وَقُرِئَ عَلَى سُفْيَانَ عَنِ الزُّبَيْرِ نَفَرًا مِنْ الْجِنِّ يَسْتَمِعُونَ الْقُرْآنَ قَالَ بِنَخْلَةَ وَرَسُولُ اللَّهِ صَلَّى اللَّهُ عَلَيْهِ وَسَلَّمَ يُصَلِّي الْعِشَاءَ الْآخِرَةَ كَادُوا يَكُونُونَ عَلَيْهِ لِبَدًا قَالَ سُفْيَانُ كَانَ بَعْضُهُمْ عَلَى بَعْضٍ كَاللِّبَدِ بَعْضُهُ عَلَى بَعْضٍ‏.‏",
      "english": {
        "narrator": "`Urwah said:",
        "text": "I heard ‘lkrimah (recite): “And (remember) when We sent towards you (Muhammad (ﷺ)” and it was recited to Sufyan from az-Zubair, `a group (three to ten persons) of the jinn, (quietly) listening to the Qur`an` (al-Ahqaf ). Sufyan said: “They were one above the other, like thick masses of clouds one above the other.”"
      }
    },
    {
      "id": 29,
      "chapterId": 7,
      "bookId": 8,
      "arabic": "حَدَّثَنَا يَحْيَى بْنُ آدَمَ، حَدَّثَنَا ابْنُ أَبِي ذِئْبٍ، حَدَّثَنَا مُسْلِمُ بْنُ جُنْدُبٍ، حَدَّثَنِي مَنْ، سَمِعَ الزُّبَيْرَ بْنَ الْعَوَّامِ، رَضِيَ اللَّهُ عَنْهُ يَقُولُ كُنَّا نُصَلِّي مَعَ رَسُولِ اللَّهِ صَلَّى اللَّهُ عَلَيْهِ وَسَلَّمَ الْجُمُعَةَ ثُمَّ نُبَادِرُ فَمَا نَجِدُ مِنْ الظِّلِّ إِلَّا مَوْضِعَ أَقْدَامِنَا أَوْ قَالَ فَلَا نَجِدُ مِنْ الظِّلِّ مَوْضِعَ أَقْدَامِنَا‏.‏",
      "english": {
        "narrator": "Muslim bin Jundub narrated:",
        "text": "Someone who heard him told me that az-Zubair bin al ‘Awwam (رضي الله عنه) said: “We used to pray Jumu’ah with the Prophet (ﷺ), then we would leave and seek the shade of the fortress, but we would not find any shade except (an area) the width of our feet."
      }
    },
    {
      "id": 30,
      "chapterId": 7,
      "bookId": 8,
      "arabic": "حَدَّثَنَا كَثِيرُ بْنُ هِشَامٍ، حَدَّثَنَا هِشَامٌ، عَنْ أَبِي الزُّبَيْرِ، عَنْ عَبْدِ اللَّهِ بْنِ سَلِمَةَ، أَوْ مَسْلَمَةَ قَالَ كَثِيرٌ وَحِفْظِي سَلِمَةَ عَنْ عَلِيٍّ أَوْ عَنِ الزُّبَيْرِ قَالَ كَانَ رَسُولُ اللَّهِ صَلَّى اللَّهُ عَلَيْهِ وَسَلَّمَ يَخْطُبُنَا فَيُذَكِّرُنَا بِأَيَّامِ اللَّهِ حَتَّى نَعْرِفَ ذَلِكَ فِي وَجْهِهِ وَكَأَنَّهُ نَذِيرُ قَوْمٍ يُصَبِّحُهُمْ الْأَمْرُ غُدْوَةً وَكَانَ إِذَا كَانَ حَدِيثَ عَهْدٍ بِجِبْرِيلَ لَمْ يَتَبَسَّمْ ضَاحِكًا حَتَّى يَرْتَفِعَ عَنْهُ‏.‏",
      "english": {
        "narrator": "It was narrated that ‘Ali or az-Zubair said:",
        "text": "The Messenger of Allah (ﷺ) used to address us and remind us of the annals of Allah, until we could see that on his face (because of alarm). It was as if he was warning people against an enemy that would attack them in the morning. If he had just recently met with Jibreel, he would not smile until Jibreel had departed from him."
      }
    },
    {
      "id": 31,
      "chapterId": 7,
      "bookId": 8,
      "arabic": "حَدَّثَنَا أَسْوَدُ بْنُ عَامِرٍ، حَدَّثَنَا جَرِيرٌ، قَالَ سَمِعْتُ الْحَسَنَ، قَالَ قَالَ الزُّبَيْرُ بْنُ الْعَوَّامِ نَزَلَتْ هَذِهِ الْآيَةُ وَنَحْنُ مُتَوَافِرُونَ مَعَ رَسُولِ اللَّهِ صَلَّى اللَّهُ عَلَيْهِ وَسَلَّمَ ‏{‏وَاتَّقُوا فِتْنَةً لَا تُصِيبَنَّ الَّذِينَ ظَلَمُوا مِنْكُمْ خَاصَّةً‏}‏ فَجَعَلْنَا نَقُولُ مَا هَذِهِ الْفِتْنَةُ وَمَا نَشْعُرُ أَنَّهَا تَقَعُ حَيْثُ وَقَعَتْ‏.‏",
      "english": {
        "narrator": "Az-Zubair bin al-’Awwam (رضي الله عنه) said:",
        "text": "This verse was revealed when we were present with the Messenger of Allah (ﷺ) : `And fear the Fitnah (affliction and trial) which affects not in particular (only) those of you who do wrong (but it may afflict all the good and the bad people)`. (al-Anfal ). We started saying: “What is this fitnah? And we never thought that it would happen as it did.”"
      }
    },
    {
      "id": 1,
      "chapterId": 31,
      "bookId": 8,
      "arabic": "حَدَّثَنَا وَكِيعٌ، حَدَّثَنَا سُفْيَانُ، عَنْ إِيَادِ بْنِ لَقِيطٍ السَّدُوسِيِّ، عَنْ أَبِي رِمْثَةَ، قَالَ خَرَجْتُ مَعَ أَبِي حَتَّى أَتَيْنَا النَّبِيَّ صَلَّى اللَّهُ عَلَيْهِ وَسَلَّمَ فَرَأَيْتُ بِرَأْسِهِ رَدْعَ حِنَّاءٍ‏.‏",
      "english": {
        "narrator": "",
        "text": ""
      }
    },
    {
      "id": 2,
      "chapterId": 31,
      "bookId": 8,
      "arabic": "حَدَّثَنَا عَمْرُو بْنُ الْهَيْثَمِ أَبُو قَطَنٍ، وَأَبُو النَّضْرِ، قَالَا حَدَّثَنَا الْمَسْعُودِيُّ، عَنْ إِيَادِ بْنِ لَقِيطٍ، عَنْ أَبِي رِمْثَةَ، عَنْ النَّبِيِّ صَلَّى اللَّهُ عَلَيْهِ وَسَلَّمَ قَالَ يَدُ الْمُعْطِي الْعُلْيَا أُمَّكَ وَأَبَاكَ وَأُخْتَكَ وَأَخَاكَ ثُمَّ أَدْنَاكَ أَدْنَاكَ وَقَالَ رَجُلٌ يَا رَسُولَ اللَّهِ هَؤُلَاءِ بَنُو يَرْبُوعٍ قَتَلَةُ فُلَانٍ قَالَ أَلَا لَا تَجْنِي نَفْسٌ عَلَى أُخْرَى و قَالَ أَبِي قَالَ أَبُو النَّضْرِ فِي حَدِيثِهِ دَخَلْتُ الْمَسْجِدَ فَإِذَا رَسُولُ اللَّهِ صَلَّى اللَّهُ عَلَيْهِ وَسَلَّمَ يَخْطُبُ وَيَقُولُ يَدُ الْمُعْطِي الْعُلْيَا‏.‏",
      "english": {
        "narrator": "",
        "text": ""
      }
    },
    {
      "id": 3,
      "chapterId": 31,
      "bookId": 8,
      "arabic": "حَدَّثَنَا يُونُسُ، حَدَّثَنَا حَمَّادٌ يَعْنِي ابْنَ سَلَمَةَ، عَنْ عَبْدِ الْمَلِكِ بْنِ عُمَيْرٍ، حَدَّثَنَا إِيَادُ بْنُ لَقِيطٍ، عَنْ أَبِي رِمْثَةَ، قَالَ أَتَيْتُ النَّبِيَّ صَلَّى اللَّهُ عَلَيْهِ وَسَلَّمَ وَعِنْدَهُ نَاسٌ مِنْ رَبِيعَةَ يَخْتَصِمُونَ فِي دَمٍ فَقَالَ الْيَدُ الْعُلْيَا أُمُّكَ وَأَبُوكَ وَأُخْتُكَ وَأَخُوكَ وَأَدْنَاكَ أَدْنَاكَ قَالَ فَنَظَرَ فَقَالَ مَنْ هَذَا مَعَكَ أَبَا رِمْثَةَ قَالَ قُلْتُ ابْنِي قَالَ أَمَا إِنَّهُ لَا يَجْنِي عَلَيْكَ وَلَا تَجْنِي عَلَيْهِ وَذَكَرَ قِصَّةَ الْخَاتَمِ‏.‏",
      "english": {
        "narrator": "",
        "text": ""
      }
    },
    {
      "id": 4,
      "chapterId": 31,
      "bookId": 8,
      "arabic": "حَدَّثَنَا أَبُو نُعَيْمٍ، حَدَّثَنَا سُفْيَانُ، عَنْ إِيَادِ بْنِ لَقِيطٍ السَّدُوسِيِّ، قَالَ سَمِعْتُ أَبَا رِمْثَةَ التَّيْمِيَّ، قَالَ جِئْتُ مَعَ أَبِي إِلَى النَّبِيِّ صَلَّى اللَّهُ عَلَيْهِ وَسَلَّمَ فَقَالَ ابْنُكَ هَذَا قُلْتُ نَعَمْ قَالَ أَتُحِبُّهُ قُلْتُ نَعَمْ قَالَ أَمَا إِنَّهُ لَا يَجْنِي عَلَيْكَ وَلَا تَجْنِي عَلَيْهِ‏.‏",
      "english": {
        "narrator": "",
        "text": ""
      }
    },
    {
      "id": 5,
      "chapterId": 31,
      "bookId": 8,
      "arabic": "حَدَّثَنَا يُونُسُ، حَدَّثَنَا حَمَّادٌ يَعْنِي ابْنَ سَلَمَةَ، عَنْ عَاصِمٍ، عَنْ أَبِي رِمْثَةَ، قَالَ أَتَيْتُ رَسُولَ اللَّهِ صَلَّى اللَّهُ عَلَيْهِ وَسَلَّمَ وَعِنْدَهُ نَاسٌ مِنْ رَبِيعَةَ يَخْتَصِمُونَ فِي دَمِ الْعَمْدِ فَسَمِعْتُهُ يَقُولُ أُمَّكَ وَأَبَاكَ وَأُخْتَكَ وَأَخَاكَ ثُمَّ أَدْنَاكَ فَأَدْنَاكَ ثُمَّ قَالَ فَنَظَرَ ثُمَّ قَالَ مَنْ هَذَا مَعَكَ يَا أَبَا رِمْثَةَ فَقُلْتُ ابْنِي قَالَ أَمَا إِنَّهُ لَا يَجْنِي عَلَيْكَ وَلَا تَجْنِي عَلَيْهِ قَالَ فَنَظَرْتُ فَإِذَا فِي نُغْضِ كَتِفِهِ مِثْلُ بَعْرَةِ الْبَعِيرِ أَوْ بَيْضَةِ الْحَمَامَةِ فَقُلْتُ أَلَا أُدَاوِيكَ مِنْهَا يَا رَسُولَ اللَّهِ فَإِنَّا أَهْلُ بَيْتٍ نُطَبِّبُ فَقَالَ يُدَاوِيهَا الَّذِي وَضَعَهَا‏.‏",
      "english": {
        "narrator": "",
        "text": ""
      }
    },
    {
      "id": 6,
      "chapterId": 31,
      "bookId": 8,
      "arabic": "حَدَّثَنَا هِشَامُ بْنُ عَبْدِ الْمَلِكِ، وَعَفَّانُ، قَالَا حَدَّثَنَا عُبَيْدُ اللَّهِ بْنُ إِيَادٍ، حَدَّثَنَا إِيَادٌ، عَنْ أَبِي رِمْثَةَ، قَالَ انْطَلَقْتُ مَعَ أَبِي نَحْوَ رَسُولِ اللَّهِ صَلَّى اللَّهُ عَلَيْهِ وَسَلَّمَ فَلَمَّا رَأَيْتُهُ قَالَ لِي أَبِي هَلْ تَدْرِي مَنْ هَذَا قُلْتُ لَا فَقَالَ لِي أَبِي هَذَا رَسُولُ اللَّهِ صَلَّى اللَّهُ عَلَيْهِ وَسَلَّمَ فَاقْشَعْرَرْتُ حِينَ قَالَ ذَاكَ وَكُنْتُ أَظُنُّ رَسُولَ اللَّهِ صَلَّى اللَّهُ عَلَيْهِ وَسَلَّمَ شَيْئًا لَا يُشْبِهُ النَّاسَ فَإِذَا بَشَرٌ لَهُ وَفْرَةٌ قَالَ عَفَّانُ فِي حَدِيثِهِ ذُو وَفْرَةٍ وَبِهَا رَدْعٌ مِنْ حِنَّاءٍ عَلَيْهِ ثَوْبَانِ أَخْضَرَانِ فَسَلَّمَ عَلَيْهِ أَبِي ثُمَّ جَلَسْنَا فَتَحَدَّثْنَا سَاعَةً ثُمَّ إِنَّ رَسُولَ اللَّهِ صَلَّى اللَّهُ عَلَيْهِ وَسَلَّمَ قَالَ لِأَبِي ابْنُكَ هَذَا قَالَ إِي وَرَبِّ الْكَعْبَةِ قَالَ حَقًّا قَالَ أَشْهَدُ بِهِ فَتَبَسَّمَ رَسُولُ اللَّهِ صَلَّى اللَّهُ عَلَيْهِ وَسَلَّمَ ضَاحِكًا مِنْ ثَبْتِ شَبَهِي بِأَبِي وَمِنْ حَلِفِ أَبِي عَلَيَّ ثُمَّ قَالَ أَمَا إِنَّهُ لَا يَجْنِي عَلَيْكَ وَلَا تَجْنِي عَلَيْهِ قَالَ وَقَرَأَ رَسُولُ اللَّهِ صَلَّى اللَّهُ عَلَيْهِ وَسَلَّمَ ‏{‏وَلَا تَزِرُ وَازِرَةٌ وِزْرَ أُخْرَى‏}‏ قَالَ ثُمَّ نَظَرَ إِلَى مِثْلِ السِّلْعَةِ بَيْنَ كَتِفَيْهِ فَقَالَ يَا رَسُولَ اللَّهِ إِنِّي لَأَطَبُّ الرِّجَالِ أَلَا أُعَالِجُهَا لَكَ قَالَ لَا طَبِيبُهَا الَّذِي خَلَقَهَا‏.‏",
      "english": {
        "narrator": "",
        "text": ""
      }
    },
    {
      "id": 7,
      "chapterId": 31,
      "bookId": 8,
      "arabic": "حَدَّثَنَا عَبْد اللَّهِ، حَدَّثَنَا أَبُو بَكْرِ بْنُ أَبِي شَيْبَةَ، حَدَّثَنَا حُسَيْنُ بْنُ عَلِيٍّ، عَنِ ابْنِ أَبْجَرَ، عَنْ إِيَادِ بْنِ لَقِيطٍ، عَنْ أَبِي رِمْثَةَ، قَالَ انْطَلَقْتُ مَعَ أَبِي وَأَنَا غُلَامٌ، إِلَى النَّبِيِّ صَلَّى اللَّهُ عَلَيْهِ وَسَلَّمَ قَالَ فَقَالَ لَهُ أَبِي إِنِّي رَجُلٌ طَبِيبٌ فَأَرِنِي هَذِهِ السِّلْعَةَ الَّتِي بِظَهْرِكَ قَالَ وَمَا تَصْنَعُ بِهَا قَالَ أَقْطَعُهَا قَالَ لَسْتَ بِطَبِيبٍ وَلَكِنَّكَ رَفِيقٌ طَبِيبُهَا الَّذِي وَضَعَهَا وَقَالَ غَيْرُهُ الَّذِي خَلَقَهَا‏.‏",
      "english": {
        "narrator": "",
        "text": ""
      }
    },
    {
      "id": 8,
      "chapterId": 31,
      "bookId": 8,
      "arabic": "حَدَّثَنَا عَبْد اللَّهِ، حَدَّثَنَا سَعِيدُ بْنُ أَبِي الرَّبِيعِ السَّمَّانُ، حَدَّثَنَا أَبُو عَوَانَةَ، عَنْ عَبْدِ الْمَلِكِ بْنِ عُمَيْرٍ، عَنْ إِيَادِ بْنِ لَقِيطٍ الْعِجْلِيِّ، عَنْ أَبِي رِمْثَةَ التَّيْمِيِّ، تَيْمَ الرِّبَابِ قَالَ أَتَيْتُ النَّبِيَّ صَلَّى اللَّهُ عَلَيْهِ وَسَلَّمَ وَمَعِي ابْنِي فَأَرَانِيهِ إِيَّاهُ فَقُلْتُ لِابْنِي هَذَا رَسُولُ اللَّهِ صَلَّى اللَّهُ عَلَيْهِ وَسَلَّمَ فَأَخَذَتْهُ الرِّعْدَةُ هَيْبَةً لِرَسُولِ اللَّهِ صَلَّى اللَّهُ عَلَيْهِ وَسَلَّمَ فَقُلْتُ لَهُ يَا نَبِيَّ اللَّهِ إِنِّي رَجُلٌ طَبِيبٌ مِنْ أَهْلِ بَيْتٍ أَطِبَّاءَ فَأَرِنِي ظَهْرَكَ فَإِنْ تَكُنْ سِلْعَةً أَبُطُّهَا وَإِنْ تَكُ غَيْرَ ذَلِكَ أَخْبَرْتُكَ فَإِنَّهُ لَيْسَ مِنْ إِنْسَانٍ أَعْلَمَ بِجُرْحٍ أَوْ خُرَاجٍ مِنِّي قَالَ طَبِيبُهَا اللَّهُ وَعَلَيْهِ بُرْدَانِ أَخْضَرَانِ لَهُ شَعَرٌ قَدْ عَلَاهُ الْمَشِيبُ وَشَيْبُهُ أَحْمَرُ فَقَالَ ابْنُكَ هَذَا قُلْتُ إِي وَرَبِّ الْكَعْبَةِ قَالَ ابْنُ نَفْسِكَ قُلْتُ أَشْهَدُ بِهِ قَالَ فَإِنَّهُ لَا يَجْنِي عَلَيْكَ وَلَا تَجْنِي عَلَيْهِ‏.‏",
      "english": {
        "narrator": "",
        "text": ""
      }
    },
    {
      "id": 9,
      "chapterId": 31,
      "bookId": 8,
      "arabic": "حَدَّثَنَا عَبْد اللَّهِ، حَدَّثَنِي أَبُو بَكْرِ بْنُ أَبِي شَيْبَةَ، حَدَّثَنَا مُحَمَّدُ بْنُ بِشْرٍ، عَنْ عَلِيِّ بْنِ صَالِحٍ، حَدَّثَنِي إِيَادُ بْنُ لَقِيطٍ، عَنْ أَبِي رِمْثَةَ، قَالَ حَجَجْتُ فَرَأَيْتُ رَجُلًا جَالِسًا فِي ظِلِّ الْكَعْبَةِ فَقَالَ أَبِي تَدْرِي مَنْ هَذَا هَذَا رَسُولُ اللَّهِ صَلَّى اللَّهُ عَلَيْهِ وَسَلَّمَ فَلَمَّا انْتَهَيْنَا إِلَيْهِ إِذَا رَجُلٌ ذُو وَفْرَةٍ بِهِ رَدْعٌ وَعَلَيْهِ ثَوْبَانِ أَخْضَرَانِ‏.‏",
      "english": {
        "narrator": "",
        "text": ""
      }
    },
    {
      "id": 10,
      "chapterId": 31,
      "bookId": 8,
      "arabic": "حَدَّثَنَا عَبْد اللَّهِ، حَدَّثَنِي عَمْرُو بْنُ مُحَمَّدِ بْنِ بُكَيْرٍ النَّاقِدُ، حَدَّثَنَا هُشَيْمٌ، غَيْرَ مَرَّةٍ قَالَ أَخْبَرَنِي عَبْدُ الْمَلِكِ بْنُ عُمَيْرٍ، عَنْ إِيَادِ بْنِ لَقِيطٍ، عَنْ أَبِي رِمْثَةَ التَّيْمِيِّ، أَتَيْتُ النَّبِيَّ صَلَّى اللَّهُ عَلَيْهِ وَسَلَّمَ وَمَعِي ابْنٌ لِي فَقَالَ ابْنُكَ هَذَا قُلْتُ أَشْهَدُ بِهِ قَالَ لَا يَجْنِي عَلَيْكَ وَلَا تَجْنِي عَلَيْهِ قَالَ وَرَأَيْتُ الشَّيْبَ أَحْمَرَ‏.‏",
      "english": {
        "narrator": "",
        "text": ""
      }
    },
    {
      "id": 11,
      "chapterId": 31,
      "bookId": 8,
      "arabic": "حَدَّثَنَا عَبْد اللَّهِ، حَدَّثَنِي شَيْبَانُ بْنُ أَبِي شَيْبَةَ، حَدَّثَنَا يَزِيدُ يَعْنِي ابْنَ إِبْرَاهِيمَ التُّسْتَرِيُّ، حَدَّثَنَا صَدَقَةُ بْنُ أَبِي عِمْرَانَ، عَنْ رَجُلٍ، هُوَ ثَابِتُ بْنُ مُنْقِذٍ عَنْ أَبِي رِمْثَةَ، قَالَ انْطَلَقْتُ أَنَا وَأَبِي، إِلَى رَسُولِ اللَّهِ صَلَّى اللَّهُ عَلَيْهِ وَسَلَّمَ فَلَمَّا كُنَّا فِي بَعْضِ الطَّرِيقِ فَلَقِينَاهُ فَقَالَ لِي أَبِي يَا بُنَيَّ هَذَا رَسُولُ اللَّهِ صَلَّى اللَّهُ عَلَيْهِ وَسَلَّمَ قَالَ وَكُنْتُ أَحْسَبُ أَنَّ رَسُولَ اللَّهِ صَلَّى اللَّهُ عَلَيْهِ وَسَلَّمَ لَا يُشْبِهُ النَّاسَ فَإِذَا رَجُلٌ لَهُ وَفْرَةٌ بِهَا رَدْعٌ مِنْ حِنَّاءٍ عَلَيْهِ بُرْدَانِ أَخْضَرَانِ قَالَ كَأَنِّي أَنْظُرُ إِلَى سَاقَيْهِ قَالَ فَقَالَ لِأَبِي مَنْ هَذَا مَعَكَ قَالَ هَذَا وَاللَّهِ ابْنِي قَالَ فَضَحِكَ رَسُولُ اللَّهِ صَلَّى اللَّهُ عَلَيْهِ وَسَلَّمَ لِحَلِفِ أَبِي عَلَيَّ ثُمَّ قَالَ صَدَقْتَ أَمَا إِنَّكَ لَا تَجْنِي عَلَيْهِ وَلَا يَجْنِي عَلَيْكَ قَالَ وَتَلَا رَسُولُ اللَّهِ صَلَّى اللَّهُ عَلَيْهِ وَسَلَّمَ ‏{‏وَلَا تَزِرُ وَازِرَةٌ وِزْرَ أُخْرَى‏}‏‏.‏",
      "english": {
        "narrator": "",
        "text": ""
      }
    },
    {
      "id": 12,
      "chapterId": 31,
      "bookId": 8,
      "arabic": "حَدَّثَنَا عَبْد اللَّهِ، حَدَّثَنَا مُحَمَّدُ بْنُ بَكَّارٍ، حَدَّثَنَا قَيْسُ بْنُ الرَّبِيعِ الْأَسَدِيُّ، عَنْ إِيَادِ بْنِ لَقِيطٍ، عَنْ أَبِي رِمْثَةَ، قَالَ انْطَلَقْتُ مَعَ أَبِي وَأَنَا غُلَامٌ، فَأَتَيْنَا رَجُلًا مِنْ الْهَاجِرَةِ جَالِسًا فِي ظِلِّ بَيْتِهِ وَعَلَيْهِ بُرْدَانِ أَخْضَرَانِ وَشَعْرُهُ وَفْرَةٌ وَبِرَأْسِهِ رَدْعٌ مِنْ حِنَّاءٍ قَالَ فَقَالَ لِي أَبِي أَتَدْرِي مَنْ هَذَا فَقُلْتُ لَا قَالَ هَذَا رَسُولُ اللَّهِ صَلَّى اللَّهُ عَلَيْهِ وَسَلَّمَ قَالَ فَتَحَدَّثْنَا طَوِيلًا قَالَ فَقَالَ لَهُ أَبِي إِنِّي رَجُلٌ مِنْ أَهْلِ بَيْتِ طِبٍّ فَأَرِنِي الَّذِي بِبَاطِنِ كَتِفِكَ فَإِنْ تَكُ سِلْعَةً قَطَعْتُهَا وَإِنْ تَكُ غَيْرَ ذَلِكَ أَخْبَرْتُكَ قَالَ طَبِيبُهَا الَّذِي خَلَقَهَا قَالَ ثُمَّ نَظَرَ رَسُولُ اللَّهِ صَلَّى اللَّهُ عَلَيْهِ وَسَلَّمَ إِلَيَّ فَقَالَ لَهُ ابْنُكَ هَذَا قَالَ أَشْهَدُ بِهِ فَقَالَ لَهُ رَسُولُ اللَّهِ صَلَّى اللَّهُ عَلَيْهِ وَسَلَّمَ انْظُرْ مَا تَقُولُ قَالَ إِي وَرَبِّ الْكَعْبَةِ قَالَ فَضَحِكَ رَسُولُ اللَّهِ صَلَّى اللَّهُ عَلَيْهِ وَسَلَّمَ لِشَبَهِي بِأَبِي وَلِحَلِفِ أَبِي عَلَيَّ فَقَالَ رَسُولُ اللَّهِ صَلَّى اللَّهُ عَلَيْهِ وَسَلَّمَ يَا هَذَا لَا يَجْنِي عَلَيْكَ وَلَا تَجْنِي عَلَيْهِ‏.‏",
      "english": {
        "narrator": "",
        "text": ""
      }
    },
    {
      "id": 13,
      "chapterId": 31,
      "bookId": 8,
      "arabic": "حَدَّثَنَا عَبْد اللَّهِ، حَدَّثَنِي جَعْفَرُ بْنُ حُمَيْدٍ الْكُوفِيُّ، حَدَّثَنَا عُبَيْدُ اللَّهِ بْنُ إِيَادِ بْنِ لَقِيطٍ، عَنْ أَبِيهِ، عَنْ أَبِي رِمْثَةَ، قَالَ انْطَلَقْتُ مَعَ أَبِي نَحْوَ رَسُولِ اللَّهِ صَلَّى اللَّهُ عَلَيْهِ وَسَلَّمَ فَلَمَّا رَأَيْتُهُ قَالَ أَبِي هَلْ تَدْرِي مَنْ هَذَا قُلْتُ لَا قَالَ هَذَا مُحَمَّدٌ رَسُولُ اللَّهِ صَلَّى اللَّهُ عَلَيْهِ وَسَلَّمَ قَالَ فَاقْشَعْرَرْتُ حِينَ قَالَ ذَلِكَ وَكُنْتُ أَظُنُّ أَنَّ رَسُولَ اللَّهِ صَلَّى اللَّهُ عَلَيْهِ وَسَلَّمَ شَيْءٌ لَا يُشْبِهُ النَّاسَ فَإِذَا بَشَرٌ ذُو وَفْرَةٍ وَبِهَا رَدْعُ حِنَّاءٍ وَعَلَيْهِ بُرَدَانِ أَخْضَرَانِ فَسَلَّمَ عَلَيْهِ أَبِي ثُمَّ جَلَسْنَا فَتَحَدَّثْنَا سَاعَةً ثُمَّ إِنَّ رَسُولَ اللَّهِ صَلَّى اللَّهُ عَلَيْهِ وَسَلَّمَ قَالَ لِأَبِي ابْنُكَ هَذَا قَالَ إِي وَرَبِّ الْكَعْبَةِ قَالَ حَقًّا قَالَ أَشْهَدُ بِهِ فَتَبَسَّمَ رَسُولُ اللَّهِ صَلَّى اللَّهُ عَلَيْهِ وَسَلَّمَ ضَاحِكًا مِنْ تَثْبِيتِ شَبَهِي بِأَبِي وَمِنْ حَلِفِ أَبِي عَلَيَّ ثُمَّ قَالَ أَمَا إِنَّهُ لَا يَجْنِي عَلَيْكَ وَلَا تَجْنِي عَلَيْهِ وَقَرَأَ رَسُولُ اللَّهِ صَلَّى اللَّهُ عَلَيْهِ وَسَلَّمَ ‏{‏وَلَا تَزِرُ وَازِرَةٌ وِزْرَ أُخْرَى‏}‏ ثُمَّ نَظَرَ إِلَى مِثْلِ السِّلْعَةِ بَيْنَ كَتِفَيْهِ فَقَالَ يَا رَسُولَ اللَّهِ إِنِّي كَأَطَبِّ الرِّجَالِ أَلَا أُعَالِجُهَا لَكَ قَالَ لَا طَبِيبُهَا الَّذِي خَلَقَهَا‏.‏",
      "english": {
        "narrator": "",
        "text": ""
      }
    },
    {
      "id": 14,
      "chapterId": 31,
      "bookId": 8,
      "arabic": "حَدَّثَنَا عَبْد اللَّهِ، حَدَّثَنِي أَبِي وَأَبُو خَيْثَمَةَ زُهَيْرُ بْنُ حَرْبٍ قَالَا حَدَّثَنَا عَبْدُ الرَّحْمَنِ بْنُ مَهْدِيٍّ، حَدَّثَنَا عُبَيْدُ اللَّهِ بْنُ إِيَادِ بْنِ لَقِيطٍ، عَنْ أَبِيهِ، عَنْ أَبِي رِمْثَةَ، قَالَ أَتَيْتُ رَسُولَ اللَّهِ صَلَّى اللَّهُ عَلَيْهِ وَسَلَّمَ وَعَلَيْهِ بُرْدَانِ أَخْضَرَانِ‏.‏",
      "english": {
        "narrator": "",
        "text": ""
      }
    },
    {
      "id": 15,
      "chapterId": 31,
      "bookId": 8,
      "arabic": "حَدَّثَنَا عَبْد اللَّهِ، حَدَّثَنِي شَيْبَانُ بْنُ أَبِي شَيْبَةَ، حَدَّثَنَا جَرِيرٌ يَعْنِي ابْنَ حَازِمٍ، حَدَّثَنَا عَبْدُ الْمَلِكِ بْنُ عُمَيْرٍ، عَنْ إِيَادِ بْنِ لَقِيطٍ، عَنْ أَبِي رِمْثَةَ، قَالَ قَدِمْتُ الْمَدِينَةَ وَلَمْ أَكُنْ رَأَيْتُ رَسُولَ اللَّهِ صَلَّى اللَّهُ عَلَيْهِ وَسَلَّمَ فَخَرَجَ وَعَلَيْهِ ثَوْبَانِ أَخْضَرَانِ فَقُلْتُ لِابْنِي هَذَا وَاللَّهِ رَسُولُ اللَّهِ صَلَّى اللَّهُ عَلَيْهِ وَسَلَّمَ فَجَعَلَ ابْنِي يَرْتَعِدُ هَيْبَةً لِرَسُولِ اللَّهِ صَلَّى اللَّهُ عَلَيْهِ وَسَلَّمَ فَقُلْتُ يَا رَسُولَ اللَّهِ إِنِّي رَجُلٌ طَبِيبٌ وَإِنَّ أَبِي كَانَ طَبِيبًا وَإِنَّا أَهْلُ بَيْتِ طِبٍّ وَاللَّهِ مَا يَخْفَى عَلَيْنَا مِنْ الْجَسَدِ عِرْقٌ وَلَا عَظْمٌ فَأَرِنِي هَذِهِ الَّتِي عَلَى كَتِفِكَ فَإِنْ كَانَتْ سِلْعَةً قَطَعْتُهَا ثُمَّ دَاوَيْتُهَا قَالَ لَا طَبِيبُهَا اللَّهُ ثُمَّ قَالَ مَنْ هَذَا الَّذِي مَعَكَ قُلْتُ ابْنِي وَرَبِّ الْكَعْبَةِ فَقَالَ ابْنُكَ قَالَ ابْنِي أَشْهَدُ بِهِ قَالَ ابْنُكَ هَذَا لَا يَجْنِي عَلَيْكَ وَلَا تَجْنِي عَلَيْهِ‏.‏",
      "english": {
        "narrator": "",
        "text": ""
      }
    }
  ]
}