{
  "page": 27,
  "perPage": 50,
  "totalPages": 27,
  "totalCount": 1326,
  "nextPage": null,
  "prevPage": 26,
  "items": [
    {
      "id": 17,
      "chapterId": 55,
      "bookId": 13,
      "arabic": "حَدَّثَنَا مُوسَى، قَالَ‏:‏ حَدَّثَنَا عَبْدُ الْعَزِيزِ قَالَ‏:‏ حَدَّثَنِي شَيْخٌ مِنْ أَهْلِ الْخَيْرِ يُكَنَّى أَبَا عُقْبَةَ قَالَ‏:‏ مَرَرْتُ مَعَ ابْنِ عُمَرَ مَرَّةً بِالطَّرِيقِ، فَمَرَّ بِغِلْمَةٍ مِنَ الْحَبَشِ، فَرَآهُمْ يَلْعَبُونَ، فَأَخْرَجَ دِرْهَمَيْنِ فَأَعْطَاهُمْ‏.‏",
      "english": {
        "narrator": "",
        "text": "Abu 'Uqba said, \"I once walked along the road with Ibn 'Umar.\nI passed some Abyssinian lads who were playing and he brought out two dirhams\nwhich he gave to them.\""
      }
    },
    {
      "id": 18,
      "chapterId": 55,
      "bookId": 13,
      "arabic": "حَدَّثَنَا عَبْدُ اللهِ قَالَ‏:‏ أَخْبَرَنِي عَبْدُ الْعَزِيزِ بْنُ أَبِي سَلَمَةَ، عَنْ هِشَامٍ، عَنْ أَبِيهِ، عَنْ عَائِشَةَ، أَنَّ النَّبِيَّ صلى الله عليه وسلم كَانَ يُسَرِّبُ إِلَيَّ صَوَاحِبِي يَلْعَبْنَ بِاللَّعِبِ، الْبَنَاتِ الصِّغَارِ‏.‏",
      "english": {
        "narrator": "",
        "text": "'A'isha reported that the Prophet, may Allah bless him and grant\nhim peace, used to call her companions to her who were playing with dolls.\""
      }
    },
    {
      "id": 19,
      "chapterId": 55,
      "bookId": 13,
      "arabic": "حَدَّثَنَا شِهَابُ بْنُ مَعْمَرٍ، قَالَ‏:‏ حَدَّثَنَا حَمَّادُ بْنُ سَلَمَةَ، عَنْ مُحَمَّدِ بْنِ عَمْرٍو، عَنْ أَبِي سَلَمَةَ، عَنْ أَبِي هُرَيْرَةَ قَالَ‏:‏ رَأَى رَسُولُ اللهِ صلى الله عليه وسلم رَجُلاً يَتْبَعُ حَمَامَةً، قَالَ‏:‏ شَيْطَانٌ يَتْبَعُ شَيْطَانَةً‏.‏",
      "english": {
        "narrator": "",
        "text": "Abu Hurayra said, \"The Messenger of Allah, may Allah bless him\nand grant him peace, saw a man following a dove and said, 'A shaytan following\na shaytan.'\""
      }
    },
    {
      "id": 20,
      "chapterId": 55,
      "bookId": 13,
      "arabic": "حَدَّثَنَا مُوسَى بْنُ إِسْمَاعِيلَ، قَالَ‏:‏ حَدَّثَنَا يُوسُفُ بْنُ عَبْدَةَ، قَالَ‏:‏ حَدَّثَنَا الْحَسَنُ قَالَ‏:‏ كَانَ عُثْمَانُ لاَ يَخْطُبُ جُمُعَةً إِلاَّ أَمَرَ بِقَتْلِ الْكِلاَبِ، وَذَبْحِ الْحَمَامِ‏.‏",
      "english": {
        "narrator": "",
        "text": "Al-Hasan said, \"'Uthman did not speak on any Jumu'a without commanding\nthe killing of dogs and slaughtering of doves.\""
      }
    },
    {
      "id": 21,
      "chapterId": 55,
      "bookId": 13,
      "arabic": "حَدَّثَنَا مُحَمَّدٌ، قَالَ‏:‏ أَخْبَرَنَا عَبْدُ اللهِ، قَالَ‏:‏ حَدَّثَنَا يَحْيَى بْنُ أَيُّوبَ قَالَ‏:‏ حَدَّثَنِي عُقَيْلُ بْنُ خَالِدٍ، أَنَّ سَعِيدَ بْنَ سُلَيْمَانَ بْنِ زَيْدِ بْنِ ثَابِتٍ حَدَّثَهُ، عَنْ أَبِيهِ، عَنْ جَدِّهِ زَيْدِ بْنِ ثَابِتٍ، أَنَّ عُمَرَ بْنَ الْخَطَّابِ جَاءَهُ يَسْتَأْذِنُ عَلَيْهِ يَوْمًا، فَأَذِنَ لَهُ وَرَأْسُهُ فِي يَدِ جَارِيَةٍ لَهُ تُرَجِّلُهُ، فَنَزَعَ رَأْسَهُ، فَقَالَ لَهُ عُمَرُ‏:‏ دَعْهَا تُرَجِّلُكَ، فَقَالَ‏:‏ يَا أَمِيرَ الْمُؤْمِنِينَ، لَوْ أَرْسَلْتَ إِلَيَّ جِئْتُكَ، فَقَالَ عُمَرُ‏:‏ إِنَّمَا الْحَاجَةُ لِي‏.‏",
      "english": {
        "narrator": "",
        "text": "Zayd ibn Thabit reported that 'Umar ibn al-Khattab came to him\nto ask to see him one day and he gave him permission while his head was\nin the hands of a slavegirl of his who was combing his hair. He removed\nhis head and 'Umar said to him, 'Let her comb it.' He said, 'Amir al-Mu'minin,\nif you were to send for me, I would come to you.' ''Umar said, 'It is my\nneed.'\""
      }
    },
    {
      "id": 22,
      "chapterId": 55,
      "bookId": 13,
      "arabic": "حَدَّثَنَا مُوسَى، عَنْ حَمَّادِ بْنِ سَلَمَةَ، قَالَ‏:‏ أَخْبَرَنَا ثَابِتٌ، عَنْ عَبْدِ الرَّحْمَنِ بْنِ عَيَّاشٍ الْقُرَشِيِّ، عَنْ أَبِي هُرَيْرَةَ قَالَ‏:‏ إِذَا تَنَخَّعَ بَيْنَ يَدَيِ الْقَوْمِ فَلْيُوَارِ بِكَفَّيْهِ حَتَّى تَقَعَ نُخَاعَتُهُ إِلَى الأَرْضِ، وَإِذَا صَامَ فَلْيَدَّهِنْ، لاَ يُرَى عَلَيْهِ أَثَرُ الصَّوْمِ‏.‏",
      "english": {
        "narrator": "",
        "text": "Abu Hurayra said, \"When someone spits in the presence of people,\nlet him catch it with his palms so that his spit does not fall on the ground.\nWhen he fasts, he should oil his palm so that the trace of the fast is\nnot seen on him.\""
      }
    },
    {
      "id": 23,
      "chapterId": 55,
      "bookId": 13,
      "arabic": "حَدَّثَنَا مُحَمَّدُ بْنُ سَلاَمٍ، قَالَ‏:‏ أَخْبَرَنَا هُشَيْمٌ، عَنْ إِسْمَاعِيلَ بْنِ سَالِمٍ، عَنْ حَبِيبِ بْنِ أَبِي ثَابِتٍ قَالَ‏:‏ كَانُوا يُحِبُّونَ إِذَا حَدَّثَ الرَّجُلُ أَنْ لاَ يُقْبِلَ عَلَى الرَّجُلِ الْوَاحِدِ، وَلَكِنْ لِيَعُمَّهُمْ‏.‏",
      "english": {
        "narrator": "",
        "text": "Habib ibn Abi Thabit said, \"When a man spoke, they used to like\nthat he not turn to one particular man, but rather he should address everyone.\""
      }
    },
    {
      "id": 1,
      "chapterId": 56,
      "bookId": 13,
      "arabic": "حَدَّثَنَا قُتَيْبَةُ، قَالَ‏:‏ حَدَّثَنَا أَبُو بَكْرِ بْنُ عَيَّاشٍ، عَنِ الأَجْلَحِ، عَنِ ابْنِ أَبِي الْهُذَيْلِ قَالَ‏:‏ عَادَ عَبْدُ اللهِ رَجُلاً، وَمَعَهُ رَجُلٌ مِنْ أَصْحَابِهِ، فَلَمَّا دَخَلَ الدَّارَ جَعَلَ صَاحِبُهُ يَنْظُرُ، فَقَالَ لَهُ عَبْدُ اللهِ‏:‏ وَاللَّهِ لَوْ تَفَقَّأَتْ عَيْنَاكَ كَانَ خَيْرًا لَكَ‏.‏",
      "english": {
        "narrator": "",
        "text": "Ibn Abi'l-Hudhayl said, \"Messenger of Allah visited a man with\none of his companions. When he entered the house, his companion began to\nlook around. 'Abdullah told him, 'By Allah, it would have been better for\nyou if your eyes had been gouged out.\""
      }
    },
    {
      "id": 2,
      "chapterId": 56,
      "bookId": 13,
      "arabic": "حَدَّثَنَا خَلاَّدٌ، قَالَ‏:‏ حَدَّثَنَا عَبْدُ الْعَزِيزِ، عَنْ نَافِعٍ، أَنَّ نَفَرًا مِنْ أَهْلِ الْعِرَاقِ دَخَلُوا عَلَى ابْنِ عُمَرَ، فَرَأَوْا عَلَى خَادِمٍ لَهُمْ طَوْقًا مِنْ ذَهَبٍ، فَنَظَرَ بَعْضُهُمْ إِلَى بَعْضٍ، فَقَالَ‏:‏ مَا أَفْطَنَكُمْ لِلشَّرِّ‏.‏",
      "english": {
        "narrator": "",
        "text": "Nafi' reported that a group of the people of Iraq visited Ibn\n'Umar. They saw a gold crown on one of their servants and looked at one\nanother. He remarked, \"How quick you are to see evil!\""
      }
    },
    {
      "id": 3,
      "chapterId": 56,
      "bookId": 13,
      "arabic": "حَدَّثَنَا مُسَدَّدٌ، قَالَ‏:‏ حَدَّثَنَا مُعْتَمِرٌ، عَنْ لَيْثٍ، عَنْ عَطَاءٍ، عَنْ أَبِي هُرَيْرَةَ قَالَ‏:‏ لاَ خَيْرَ فِي فُضُولِ الْكَلامِ‏.‏",
      "english": {
        "narrator": "",
        "text": "Abu Hurayra said, \"There is no good in excess words.\""
      }
    },
    {
      "id": 4,
      "chapterId": 56,
      "bookId": 13,
      "arabic": "حَدَّثَنَا مَطَرٌ، قَالَ‏:‏ حَدَّثَنَا يَزِيدُ، قَالَ‏:‏ حَدَّثَنَا الْبَرَاءُ بْنُ يَزِيدَ، عَنْ عَبْدِ اللهِ بْنِ شَقِيقٍ، عَنْ أَبِي هُرَيْرَةَ، عَنِ النَّبِيِّ صلى الله عليه وسلم قَالَ‏:‏ شِرَارُ أُمَّتِي الثَّرْثَارُونَ، الْمُشَّدِّقُونَ، الْمُتَفَيْهِقُونَ، وَخِيَارُ أُمَّتِي أَحَاسِنُهُمْ أَخْلاقًا‏.‏",
      "english": {
        "narrator": "",
        "text": "Abu Hurayra reported that the Prophet, may Allah bless him and\ngrant him peace, said, \"The worst of my community are those who speak a\nlot, those who are diffuse in speech and those who fill their mouth with\nwords. The best of my community are the best of them in character.\""
      }
    },
    {
      "id": 5,
      "chapterId": 56,
      "bookId": 13,
      "arabic": "حَدَّثَنَا إِسْمَاعِيلُ قَالَ‏:‏ حَدَّثَنِي مَالِكٌ، عَنْ أَبِي الزِّنَادِ، عَنِ الأَعْرَجِ، عَنْ أَبِي هُرَيْرَةَ، أَنَّ رَسُولَ اللهِ صلى الله عليه وسلم قَالَ‏:‏ مِنْ شَرِّ النَّاسِ ذُو الْوَجْهَيْنِ، الَّذِي يَأْتِي هَؤُلاَءِ بِوَجْهٍ، وَهَؤُلاَءِ بِوَجْهٍ‏.‏",
      "english": {
        "narrator": "",
        "text": "Abu Hurayra reported that the Messenger of Allah, may Allah bless\nhim and grant him peace, said, \"The worst person is someone who is two-faced.\nHe is the person who comes to one group of people with one face and another\ngroup of people with another face.\""
      }
    },
    {
      "id": 6,
      "chapterId": 56,
      "bookId": 13,
      "arabic": "حَدَّثَنَا مُحَمَّدُ بْنُ سَعِيدٍ الأَصْبَهَانِيُّ، قَالَ‏:‏ حَدَّثَنَا شَرِيكٌ، عَنْ رُكَيْنٍ، عَنْ نُعَيْمِ بْنِ حَنْظَلَةَ، عَنْ عَمَّارِ بْنِ يَاسِرٍ قَالَ‏:‏ سَمِعْتُ النَّبِيَّ صلى الله عليه وسلم يَقُولُ‏:‏ مَنْ كَانَ ذَا وَجْهَيْنِ فِي الدُّنْيَا، كَانَ لَهُ لِسَانَانِ يَوْمَ الْقِيَامَةِ مِنْ نَارٍ، فَمَرَّ رَجُلٌ كَانَ ضَخْمًا، قَالَ‏:‏ هَذَا مِنْهُمْ‏.‏",
      "english": {
        "narrator": "",
        "text": "'Ammar ibn Yasir said, \"I heard the Prophet, may Allah bless him\nand grant him peace, say, \"The person who has two faces in this world will\nhave two tongues of the Fire on the Day of Rising.' He passed by a stout\nman and said, 'This is one of them.'\""
      }
    },
    {
      "id": 7,
      "chapterId": 56,
      "bookId": 13,
      "arabic": "حَدَّثَنَا صَدَقَةُ، قَالَ‏:‏ حَدَّثَنَا ابْنُ عُيَيْنَةَ قَالَ‏:‏ سَمِعْتُ ابْنَ الْمُنْكَدِرِ قَالَ‏:‏ سَمِعَ عُرْوَةَ بْنَ الزُّبَيْرِ أَنَّ عَائِشَةَ أَخْبَرَتْهُ‏:‏ اسْتَأْذَنَ رَجُلٌ عَلَى النَّبِيِّ صلى الله عليه وسلم فَقَالَ‏:‏ ائْذَنُوا لَهُ، بِئْسَ أَخُو الْعَشِيرَةِ، فَلَمَّا دَخَلَ أَلاَنَ لَهُ الْكَلاَمَ، فَقُلْتُ‏:‏ يَا رَسُولَ اللهِ، قُلْتَ الَّذِي قُلْتَ، ثُمَّ أَلَنْتَ الْكَلاَمَ، قَالَ‏:‏ أَيْ عَائِشَةُ، إِنَّ شَرَّ النَّاسِ مَنْ تَرَكَهُ النَّاسُ، أَوْ وَدَعَهُ النَّاسُ، اتِّقَاءَ فُحْشِهِ‏.‏",
      "english": {
        "narrator": "",
        "text": "'Urwa ibn az-Zubayr heard 'A'isha say, \"A man asked permission\nto visit the Prophet, may Allah bless him and grant him peace, and the\nProphet said, 'Give him permission. He is an evil brother of his tribe.'\nWhen he entered he spoke kindly to him. I said, 'Messenger of Allah, you\nsaid what you said and then you spoke kindly to him.' He replied, 'Yes,\n'A'isha. The worst of people is the one people avoid due to his harsh nature.'\""
      }
    },
    {
      "id": 8,
      "chapterId": 56,
      "bookId": 13,
      "arabic": "حَدَّثَنَا آدَمُ، قَالَ‏:‏ حَدَّثَنَا شُعْبَةُ، عَنْ قَتَادَةَ، عَنْ أَبِي السَّوَّارِ الْعَدَوِيِّ قَالَ‏:‏ سَمِعْتُ عِمْرَانَ بْنَ حُصَيْنٍ قَالَ‏:‏ قَالَ النَّبِيُّ صلى الله عليه وسلم‏:‏ الْحَيَاءُ لاَ يَأْتِي إِلاَّ بِخَيْرٍ، فَقَالَ بُشَيْرُ بْنُ كَعْبٍ‏:‏ مَكْتُوبٌ فِي الْحِكْمَةِ‏:‏ إِنَّ مِنَ الْحَيَاءِ وَقَارًا، إِنَّ مِنَ الْحَيَاءِ سَكِينَةً، فَقَالَ لَهُ عِمْرَانُ‏:‏ أُحَدِّثُكَ عَنْ رَسُولِ اللهِ صلى الله عليه وسلم وَتُحَدِّثُنِي عَنْ صَحِيفَتِكَ‏.‏",
      "english": {
        "narrator": "",
        "text": "'Imran ibn Husayn said, \"The Prophet, may Allah bless him and\ngrant him peace, said, \"Modesty brings nothing but good.\" Bashir ibn Ka'b\nsaid, \"It is written in books of wisdom, 'From modesty comes dignity. From\nmodesty comes tranquillity.''\" 'Imran said, \"I relate to you from the Messenger\nof Allah and you then relate to me from some book?!\""
      }
    },
    {
      "id": 9,
      "chapterId": 56,
      "bookId": 13,
      "arabic": "حَدَّثَنَا بِشْرُ بْنُ مُحَمَّدٍ، قَالَ‏:‏ أَخْبَرَنَا عَبْدُ اللهِ، قَالَ‏:‏ أَخْبَرَنَا جَرِيرُ بْنُ حَازِمٍ، عَنْ يَعْلَى بْنِ حَكِيمٍ، عَنْ سَعِيدِ بْنِ جُبَيْرٍ، عَنِ ابْنِ عُمَرَ قَالَ‏:‏ إِنَّ الْحَيَاءَ وَالإِيمَانَ قُرِنَا جَمِيعًا، فَإِذَا رُفِعَ أَحَدُهُمَا رُفِعَ الآخَرُ‏.‏",
      "english": {
        "narrator": "",
        "text": "Ibn 'Umar said, \"Modesty and belief are together. If one of them\nis removed, the other is removed.\""
      }
    },
    {
      "id": 10,
      "chapterId": 56,
      "bookId": 13,
      "arabic": "حَدَّثَنَا سَعِيدُ بْنُ سُلَيْمَانَ، قَالَ‏:‏ حَدَّثَنَا هُشَيْمٌ، عَنْ مَنْصُورٍ، عَنِ الْحَسَنِ، عَنْ أَبِي بَكْرَةَ، عَنِ النَّبِيِّ صلى الله عليه وسلم قَالَ‏:‏ الْحَيَاءُ مِنَ الإِيمَانِ، وَالإِيمَانُ فِي الْجَنَّةِ، وَالْبَذَاءُ مِنَ الْجَفَاءِ، وَالْجَفَاءُ فِي النَّارِ‏.‏",
      "english": {
        "narrator": "",
        "text": "Abu Bakra reported that the Prophet, may Allah bless him and grant\nhim peace, said, \"Modesty is part of belief. Belief is in the Garden. Foul\nlanguage is part of coarseness and coarseness is in the Fire.\""
      }
    },
    {
      "id": 11,
      "chapterId": 56,
      "bookId": 13,
      "arabic": "حَدَّثَنَا مُوسَى بْنُ إِسْمَاعِيلَ، قَالَ‏:‏ حَدَّثَنَا حَمَّادٌ، عَنِ ابْنِ عَقِيلٍ، عَنْ مُحَمَّدِ بْنِ عَلِيٍّ ابْنِ الْحَنَفِيَّةِ، عَنْ أَبِيهِ قَالَ‏:‏ كَانَ النَّبِيُّ صلى الله عليه وسلم ضَخْمَ الرَّأْسِ، عَظِيمَ الْعَيْنَيْنِ، إِذَا مَشَى تَكَفَّأَ، كَأَنَّمَا يَمْشِي فِي صَعَدٍ، إِذَا الْتَفَتَ الْتَفَتَ جَمِيعًا‏.‏",
      "english": {
        "narrator": "",
        "text": "Muhammad ibn al-Hanafiyya said, \"The Prophet, may Allah bless\nhim and grant him peace, had a large head and large eyes. When he walked,\nhe bent forward as if he was walking up a hill. When he turned around,\nhe turned completely.\""
      }
    },
    {
      "id": 12,
      "chapterId": 56,
      "bookId": 13,
      "arabic": "حَدَّثَنَا آدَمُ، قَالَ‏:‏ حَدَّثَنَا شُعْبَةُ، عَنْ مَنْصُورٍ قَالَ‏:‏ سَمِعْتُ رِبْعِيَّ بْنَ حِرَاشٍ يُحَدِّثُ، عَنْ أَبِي مَسْعُودٍ قَالَ‏:‏ قَالَ النَّبِيُّ صلى الله عليه وسلم‏:‏ إِنَّ مِمَّا أَدْرَكَ النَّاسَ مِنْ كَلاَمِ النُّبُوَّةِ الأُولَى‏:‏ إِذَا لَمْ تَسْتَحْيِ فَاصْنَعْ مَا شِئْتَ‏.‏",
      "english": {
        "narrator": "",
        "text": "Abu Mas'ud said, \"The Prophet, may Allah bless him and grant him\npeace, said, \"Part of what people know of the words of first prophethood\nis that if someone does not possess shyness, then he will do as he pleases.\""
      }
    },
    {
      "id": 1,
      "chapterId": 57,
      "bookId": 13,
      "arabic": "حَدَّثَنَا إِسْمَاعِيلُ قَالَ‏:‏ حَدَّثَنِي مَالِكٌ، عَنِ ابْنِ شِهَابٍ، عَنْ سَعِيدِ بْنِ الْمُسَيِّبِ، عَنْ أَبِي هُرَيْرَةَ، أَنَّ رَسُولَ اللهِ صلى الله عليه وسلم قَالَ‏:‏ لَيْسَ الشَّدِيدُ بِالصُّرَعَةِ، إِنَّمَا الشَّدِيدُ الَّذِي يَمْلِكُ نَفْسَهُ عِنْدَ الْغَضَبِ‏.‏",
      "english": {
        "narrator": "",
        "text": "Abu Hurayra reported that the Messenger of Allah, may Allah bless\nhim and grant him peace, said, \"The person who is strong is not strong\nbecause he can knock people down. The person who is strong is the one who\ncontrols himself when he is angry.\""
      }
    },
    {
      "id": 2,
      "chapterId": 57,
      "bookId": 13,
      "arabic": "حَدَّثَنَا أَحْمَدُ بْنُ يُونُسَ، قَالَ‏:‏ حَدَّثَنَا أَبُو شِهَابٍ عَبْدُ رَبِّهِ، عَنْ يُونُسَ، عَنِ الْحَسَنِ، عَنِ ابْنِ عُمَرَ قَالَ‏:‏ مَا مِنْ جَرْعَةٍ أَعْظَمَ عِنْدَ اللهِ أَجْرًا مِنْ جَرْعَةِ غَيْظٍ كَظَمَهَا عَبْدٌ ابْتِغَاءَ وَجْهِ اللهِ‏.‏",
      "english": {
        "narrator": "",
        "text": "Ibn 'Umar said, \"There is nothing that is swallowed greater with\nAllah in reward than a slave of Allah who swallows and contains his rancour\nout of desire for the pleasure of Allah.\""
      }
    },
    {
      "id": 3,
      "chapterId": 57,
      "bookId": 13,
      "arabic": "حَدَّثَنَا عَلِيُّ بْنُ عَبْدِ اللهِ، قَالَ‏:‏ حَدَّثَنَا أَبُو أُسَامَةَ قَالَ‏:‏ سَمِعْتُ الأَعْمَشَ يَقُولُ‏:‏ حَدَّثَنَا عَدِيُّ بْنُ ثَابِتٍ، عَنْ سُلَيْمَانَ بْنِ صُرَدٍ قَالَ‏:‏ اسْتَبَّ رَجُلاَنِ عِنْدَ النَّبِيِّ صلى الله عليه وسلم، فَجَعَلَ أَحَدُهُمَا يَغْضَبُ، وَيَحْمَرُّ وَجْهُهُ، فَنَظَرَ إِلَيْهِ النَّبِيُّ صلى الله عليه وسلم فَقَالَ‏:‏ إِنِّي لَأَعْلَمُ كَلِمَةً لَوْ قَالَهَا لَذَهَبَ هَذَا عَنْهُ‏:‏ أَعُوذُ بِاللَّهِ مِنَ الشَّيْطَانِ الرَّجِيمِ، فَقَامَ رَجُلٌ إِلَى ذَاكَ الرَّجُلِ فَقَالَ‏:‏ تَدْرِي مَا قَالَ‏؟‏ قَالَ‏:‏ قُلْ‏:‏ أَعُوذُ بِاللَّهِ مِنَ الشَّيْطَانِ الرَّجِيمِ، فَقَالَ الرَّجُلُ‏:‏ أَمَجْنُونًا تَرَانِي‏؟‏‏.‏",
      "english": {
        "narrator": "Sulayman ibn Surad said, \"Two men abused one another in the presence\nof the Prophet, may Allah bless him and grant him peace, and one of them\nbegan to get angry and his face got red. The Prophet, may Allah bless him\nand grant him peace, looked at him and said, 'I know some words that, if\nhe says them, will remove this from him. They are:",
        "text": "\"I seek refuge with\nAllah from the Accursed Shaytan.\"' The man went to that man and said, 'Do\nyou know what he said? He said, \"I seek refuge with Allah from the Accursed\nShaytan.\"' The man retorted. 'Do you think me mad?'\""
      }
    },
    {
      "id": 4,
      "chapterId": 57,
      "bookId": 13,
      "arabic": "حَدَّثَنَا عَبْدُ اللهِ بْنُ عُثْمَانَ قِرَاءَةً، عَنْ أَبِي حَمْزَةَ، عَنِ الأَعْمَشِ، عَنِ ابْنِ ثَابِتٍ، عَنْ سُلَيْمَانَ بْنِ صُرَدٍ قَالَ‏:‏ كُنْتُ جَالِسًا مَعَ النَّبِيِّ صلى الله عليه وسلم وَرَجُلاَنِ يَسْتَبَّانِ، فَأَحَدُهُمَا احْمَرَّ وَجْهُهُ، وَانْتَفَخَتْ أَوْدَاجُهُ، فَقَالَ النَّبِيُّ صلى الله عليه وسلم‏:‏ إِنِّي لَأَعْلَمُ كَلِمَةً لَوْ قَالَهَا لَذَهَبَ عَنْهُ مَا يَجِدُ، فَقَالُوا لَهُ‏:‏ إِنَّ النَّبِيَّ صلى الله عليه وسلم قَالَ‏:‏ تَعَوَّذْ بِاللَّهِ مِنَ الشَّيْطَانِ الرَّجِيمِ، قَالَ‏:‏ وَهَلْ بِي مِنْ جُنُونٍ‏؟‏‏.‏",
      "english": {
        "narrator": "",
        "text": "A variant of the previous hadith."
      }
    },
    {
      "id": 5,
      "chapterId": 57,
      "bookId": 13,
      "arabic": "حَدَّثَنَا مُسَدَّدٌ، قَالَ‏:‏ حَدَّثَنَا عَبْدُ الْوَاحِدِ بْنُ زِيَادٍ، قَالَ‏:‏ حَدَّثَنَا لَيْثٌ قَالَ‏:‏ حَدَّثَنِي طَاوُسٌ، عَنِ ابْنِ عَبَّاسٍ قَالَ‏:‏ قَالَ رَسُولُ اللهِ صلى الله عليه وسلم‏:‏ عَلِّمُوا وَيَسِّرُوا، عَلِّمُوا وَيَسِّرُوا، ثَلاَثَ مَرَّاتٍ، وَإِذَا غَضِبْتَ فَاسْكُتْ، مَرَّتَيْنِ‏.‏",
      "english": {
        "narrator": "",
        "text": "Ibn 'Abbas said, \"The Messenger of Allah, may Allah bless him\nand grant him peace, said, ' Teach and make it easy. Teach and make it\neasy.' three times. He went on, 'When you are angry, be silent' twice.\""
      }
    },
    {
      "id": 6,
      "chapterId": 57,
      "bookId": 13,
      "arabic": "حَدَّثَنَا عَبْدُ اللهِ، قَالَ‏:‏ حَدَّثَنَا مَرْوَانُ بْنُ مُعَاوِيَةَ، قَالَ‏:‏ حَدَّثَنَا مُحَمَّدُ بْنُ عُبَيْدٍ الْكِنْدِيُّ، عَنْ أَبِيهِ قَالَ‏:‏ سَمِعْتُ عَلِيًّا يَقُولُ لِابْنِ الْكَوَّاءِ‏:‏ هَلْ تَدْرِي مَا قَالَ الأَوَّلُ‏؟‏ أَحْبِبْ حَبِيبَكَ هَوْنًا مَا، عَسَى أَنْ يَكُونَ بَغِيضَكَ يَوْمًا مَا، وَأَبْغِضْ بَغِيضَكَ هَوْنًا مَا، عَسَى أَنْ يَكُونَ حَبِيبَكَ يَوْمًا مَا‏.‏",
      "english": {
        "narrator": "",
        "text": "'Ali was heard to say to Ibn al-Kawwa', \"Do you know what the\nfirst one said? 'Loving the one you love is an easy matter. It may be that\none day he will be the one you hate. Hating the one who hate is an easy\nmatter, It may be that one day he will be the one you hate.'\""
      }
    },
    {
      "id": 7,
      "chapterId": 57,
      "bookId": 13,
      "arabic": "حَدَّثَنَا سَعِيدُ بْنُ أَبِي مَرْيَمَ، قَالَ‏:‏ أَخْبَرَنَا مُحَمَّدُ بْنُ جَعْفَرٍ، قَالَ‏:‏ حَدَّثَنَا زَيْدُ بْنُ أَسْلَمَ، عَنْ أَبِيهِ، عَنْ عُمَرَ بْنِ الْخَطَّابِ قَالَ‏:‏ لاَ يَكُنْ حُبُّكَ كَلَفًا، وَلاَ بُغْضُكَ تَلَفًا، فَقُلْتُ‏:‏ كَيْفَ ذَاكَ‏؟‏ قَالَ‏:‏ إِذَا أَحْبَبْتَ كَلِفْتَ كَلَفَ الصَّبِيِّ، وَإِذَا أَبْغَضْتَ أَحْبَبْتَ لِصَاحِبِكَ التَّلَف‏.‏",
      "english": {
        "narrator": "",
        "text": "Aslam said, \" 'Umar ibn al-Khattab said, 'Do not let your love\nbe a total infatuation. Do not let your anger be destruction.' I asked,\n'How is that?' He replied, 'When you love, you are infatuated like a child.\nWhen you hate, you desire destruction for your companion.'\""
      }
    }
  ]
}