{
  "page": 106,
  "perPage": 50,
  "totalPages": 106,
  "totalCount": 5276,
  "nextPage": null,
  "prevPage": 105,
  "items": [
    {
      "id": 477,
      "chapterId": 43,
      "bookId": 3,
      "arabic": "حَدَّثَنَا عَبْدُ الْحَمِيدِ بْنُ بَيَانٍ السُّكَّرِيُّ، عَنْ إِسْحَاقَ بْنِ يُوسُفَ، عَنْ شَرِيكٍ، عَنْ أَبِي إِسْحَاقَ، عَنِ الْقَاسِمِ بْنِ عَبْدِ الرَّحْمَنِ، عَنْ أَبِيهِ، عَنِ ابْنِ مَسْعُودٍ، قَالَ قَالَ رَسُولُ اللَّهِ صلى الله عليه وسلم ‏\n\"‏ اقْتُلُوا الْحَيَّاتِ كُلَّهُنَّ فَمَنْ خَافَ ثَأْرَهُنَّ فَلَيْسَ مِنِّي ‏\"‏ ‏.‏",
      "english": {
        "narrator": "Narrated Abdullah ibn Mas'ud:",
        "text": "The Prophet (ﷺ) said: Kill all the snakes, and he who fears their revenge does not belong to me."
      }
    },
    {
      "id": 478,
      "chapterId": 43,
      "bookId": 3,
      "arabic": "حَدَّثَنَا عُثْمَانُ بْنُ أَبِي شَيْبَةَ، حَدَّثَنَا عَبْدُ اللَّهِ بْنُ نُمَيْرٍ، حَدَّثَنَا مُوسَى بْنُ مُسْلِمٍ، قَالَ سَمِعْتُ عِكْرِمَةَ، يَرْفَعُ الْحَدِيثَ فِيمَا أُرَى إِلَى ابْنِ عَبَّاسٍ قَالَ قَالَ رَسُولُ اللَّهِ صلى الله عليه وسلم ‏\n\"‏ مَنْ تَرَكَ الْحَيَّاتِ مَخَافَةَ طَلَبِهِنَّ فَلَيْسَ مِنَّا مَا سَالَمْنَاهُنَّ مُنْذُ حَارَبْنَاهُنَّ ‏\"‏ ‏.‏",
      "english": {
        "narrator": "Narrated Abdullah ibn Abbas:",
        "text": "The Prophet (ﷺ) said: He who leaves the snakes along through fear of their pursuit, does not belong to us. We have not made peace with them since we have fought with them."
      }
    },
    {
      "id": 479,
      "chapterId": 43,
      "bookId": 3,
      "arabic": "حَدَّثَنَا أَحْمَدُ بْنُ مَنِيعٍ، حَدَّثَنَا مَرْوَانُ بْنُ مُعَاوِيَةَ، عَنْ مُوسَى الطَّحَّانِ، قَالَ حَدَّثَنَا عَبْدُ الرَّحْمَنِ بْنُ سَابِطٍ، عَنِ الْعَبَّاسِ بْنِ عَبْدِ الْمُطَّلِبِ، أَنَّهُ قَالَ لِرَسُولِ اللَّهِ صلى الله عليه وسلم إِنَّا نُرِيدُ أَنْ نَكْنِسَ زَمْزَمَ وَإِنَّ فِيهَا مِنْ هَذِهِ الْجِنَّانِ - يَعْنِي الْحَيَّاتِ الصِّغَارَ - فَأَمَرَ النَّبِيُّ صلى الله عليه وسلم بِقَتْلِهِنَّ ‏.‏",
      "english": {
        "narrator": "Narrated Al-Abbas ibn AbdulMuttalib:",
        "text": "Al-Abbas said to the Messenger of Allah (ﷺ): We wish to sweep out Zamzam, but in it there are some of these Jinnan, meaning small snakes; so the Messenger of Allah (ﷺ) ordered that they should be killed."
      }
    },
    {
      "id": 480,
      "chapterId": 43,
      "bookId": 3,
      "arabic": "حَدَّثَنَا مُسَدَّدٌ، حَدَّثَنَا سُفْيَانُ، عَنِ الزُّهْرِيِّ، عَنْ سَالِمٍ، عَنْ أَبِيهِ، أَنَّ رَسُولَ اللَّهِ صلى الله عليه وسلم قَالَ ‏\n\"‏ اقْتُلُوا الْحَيَّاتِ وَذَا الطُّفْيَتَيْنِ وَالأَبْتَرَ فَإِنَّهُمَا يَلْتَمِسَانِ الْبَصَرَ وَيُسْقِطَانِ الْحَبَلَ ‏\"‏ ‏.‏ قَالَ وَكَانَ عَبْدُ اللَّهِ يَقْتُلُ كُلَّ حَيَّةٍ وَجَدَهَا فَأَبْصَرَهُ أَبُو لُبَابَةَ أَوْ زَيْدُ بْنُ الْخَطَّابِ وَهُوَ يُطَارِدُ حَيَّةً فَقَالَ إِنَّهُ قَدْ نُهِيَ عَنْ ذَوَاتِ الْبُيُوتِ ‏.‏",
      "english": {
        "narrator": "Ibn ‘Umar reported the Messenger of Allah(ﷺ) as saying:",
        "text": "Kill snakes, kill those which have two streaks and those with small tails, for they obliterate the eyesight and cause miscarriage.\n\n\nSalim said: ‘Abd Allah(b. ‘Umar) used to kill every snake which he found. Abu Lubabah or Zaid b. al-Khattab saw him chasing a snake. He said: He(the Prophet) prohibited house-snakes."
      }
    },
    {
      "id": 481,
      "chapterId": 43,
      "bookId": 3,
      "arabic": "حَدَّثَنَا الْقَعْنَبِيُّ، عَنْ مَالِكٍ، عَنْ نَافِعٍ، عَنْ أَبِي لُبَابَةَ، أَنَّ رَسُولَ اللَّهِ صلى الله عليه وسلم نَهَى عَنْ قَتْلِ الْجِنَّانِ الَّتِي تَكُونُ فِي الْبُيُوتِ إِلاَّ أَنْ يَكُونَ ذَا الطُّفْيَتَيْنِ وَالأَبْتَرَ فَإِنَّهُمَا يَخْطِفَانِ الْبَصَرَ وَيَطْرَحَانِ مَا فِي بُطُونِ النِّسَاءِ ‏.‏",
      "english": {
        "narrator": "Abu Lubabah said:",
        "text": "The Messenger of Allah(ﷺ) prohibited killing the jinnan(small snakes) that are in the house, except the one which have two streaks and the one with small tail, for they obliterate the eyesight and cause miscarriage."
      }
    },
    {
      "id": 482,
      "chapterId": 43,
      "bookId": 3,
      "arabic": "حَدَّثَنَا مُحَمَّدُ بْنُ عُبَيْدٍ، حَدَّثَنَا حَمَّادُ بْنُ زَيْدٍ، عَنْ أَيُّوبَ، عَنْ نَافِعٍ، أَنَّ ابْنَ عُمَرَ، وَجَدَ بَعْدَ ذَلِكَ - يَعْنِي بَعْدَ مَا حَدَّثَهُ أَبُو لُبَابَةَ - حَيَّةً فِي دَارِهِ فَأَمَرَ بِهَا فَأُخْرِجَتْ يَعْنِي إِلَى الْبَقِيعِ ‏.‏",
      "english": {
        "narrator": "Nafi said:",
        "text": "After that, that is, after Abu Lubabah had mentioned him this tradition, Ibn ‘Umar found a snake in his house; he commanded regarding it and it was driven away to al-Baqi'."
      }
    },
    {
      "id": 483,
      "chapterId": 43,
      "bookId": 3,
      "arabic": "حَدَّثَنَا ابْنُ السَّرْحِ، وَأَحْمَدُ بْنُ سَعِيدٍ الْهَمْدَانِيُّ، قَالاَ أَخْبَرَنَا ابْنُ وَهْبٍ، قَالَ أَخْبَرَنِي أُسَامَةُ، عَنْ نَافِعٍ، فِي هَذَا الْحَدِيثِ قَالَ نَافِعٌ ثُمَّ رَأَيْتُهَا بَعْدُ فِي بَيْتِهِ ‏.‏",
      "english": {
        "narrator": "The tradition mentioned above has also been transmitted by Nafi through a different chain of transmitters. In this version Nafi said:",
        "text": "After that I saw it again in his house."
      }
    },
    {
      "id": 484,
      "chapterId": 43,
      "bookId": 3,
      "arabic": "حَدَّثَنَا مُسَدَّدٌ، حَدَّثَنَا يَحْيَى، عَنْ مُحَمَّدِ بْنِ أَبِي يَحْيَى، قَالَ حَدَّثَنِي أَبِي أَنَّهُ، انْطَلَقَ هُوَ وَصَاحِبٌ لَهُ إِلَى أَبِي سَعِيدٍ يَعُودَانِهِ فَخَرَجْنَا مِنْ عِنْدِهِ فَلَقِينَا صَاحِبًا لَنَا وَهُوَ يُرِيدُ أَنْ يَدْخُلَ عَلَيْهِ فَأَقْبَلْنَا نَحْنُ فَجَلَسْنَا فِي الْمَسْجِدِ فَجَاءَ فَأَخْبَرَنَا أَنَّهُ سَمِعَ أَبَا سَعِيدٍ الْخُدْرِيَّ يَقُولُ قَالَ رَسُولُ اللَّهِ صلى الله عليه وسلم ‏\n\"‏ إِنَّ الْهَوَامَّ مِنَ الْجِنِّ فَمَنْ رَأَى فِي بَيْتِهِ شَيْئًا فَلْيُحَرِّجْ عَلَيْهِ ثَلاَثَ مَرَّاتٍ فَإِنْ عَادَ فَلْيَقْتُلْهُ فَإِنَّهُ شَيْطَانٌ ‏\"‏ ‏.‏",
      "english": {
        "narrator": "Narrated AbuSa'id al-Khudri:",
        "text": "Muhammad ibn AbuYahya said that his father told that he and his companion went to AbuSa'id al-Khudri to pay a sick visit to him. He said: Then we came out from him and met a companion of ours who wanted to go to him. We went ahead and sat in the mosque. He then came back and told us that he heard AbuSa'id al-Khudri say: The Messenger of Allah (ﷺ) said: Some snakes are jinn; so when anyone sees one of them in his house, he should give it a warning three times. If it return (after that), he should kill it, for it is a devil."
      }
    },
    {
      "id": 485,
      "chapterId": 43,
      "bookId": 3,
      "arabic": "حَدَّثَنَا يَزِيدُ بْنُ مَوْهَبٍ الرَّمْلِيُّ، حَدَّثَنَا اللَّيْثُ، عَنِ ابْنِ عَجْلاَنَ، عَنْ صَيْفِيٍّ أَبِي سَعِيدٍ، مَوْلَى الأَنْصَارِ عَنْ أَبِي السَّائِبِ، قَالَ أَتَيْتُ أَبَا سَعِيدٍ الْخُدْرِيَّ فَبَيْنَا أَنَا جَالِسٌ، عِنْدَهُ سَمِعْتُ تَحْتَ، سَرِيرِهِ تَحْرِيكَ شَىْءٍ فَنَظَرْتُ فَإِذَا حَيَّةٌ فَقُمْتُ فَقَالَ أَبُو سَعِيدٍ مَا لَكَ فَقُلْتُ حَيَّةٌ هَا هُنَا ‏.‏ قَالَ فَتُرِيدُ مَاذَا قُلْتُ أَقْتُلُهَا ‏.‏ فَأَشَارَ إِلَى بَيْتٍ فِي دَارِهِ تِلْقَاءَ بَيْتِهِ فَقَالَ إِنَّ ابْنَ عَمٍّ لِي كَانَ فِي هَذَا الْبَيْتِ فَلَمَّا كَانَ يَوْمُ الأَحْزَابِ اسْتَأْذَنَ إِلَى أَهْلِهِ وَكَانَ حَدِيثَ عَهْدٍ بِعُرْسٍ فَأَذِنَ لَهُ رَسُولُ اللَّهِ صلى الله عليه وسلم وَأَمَرَهُ أَنْ يَذْهَبَ بِسِلاَحِهِ فَأَتَى دَارَهُ فَوَجَدَ امْرَأَتَهُ قَائِمَةً عَلَى بَابِ الْبَيْتِ فَأَشَارَ إِلَيْهَا بِالرُّمْحِ فَقَالَتْ لاَ تَعْجَلْ حَتَّى تَنْظُرَ مَا أَخْرَجَنِي ‏.‏ فَدَخَلَ الْبَيْتَ فَإِذَا حَيَّةٌ مُنْكَرَةٌ فَطَعَنَهَا بِالرُّمْحِ ثُمَّ خَرَجَ بِهَا فِي الرُّمْحِ تَرْتَكِضُ قَالَ فَلاَ أَدْرِي أَيُّهُمَا كَانَ أَسْرَعَ مَوْتًا الرَّجُلُ أَوِ الْحَيَّةُ فَأَتَى قَوْمُهُ رَسُولَ اللَّهِ صلى الله عليه وسلم فَقَالُوا ادْعُ اللَّهَ أَنْ يَرُدَّ صَاحِبَنَا ‏.‏ فَقَالَ ‏\"‏ اسْتَغْفِرُوا لِصَاحِبِكُمْ ‏\"‏ ‏.‏ ثُمَّ قَالَ ‏\"‏ إِنَّ نَفَرًا مِنَ الْجِنِّ أَسْلَمُوا بِالْمَدِينَةِ فَإِذَا رَأَيْتُمْ أَحَدًا مِنْهُمْ فَحَذِّرُوهُ ثَلاَثَ مَرَّاتٍ ثُمَّ إِنْ بَدَا لَكُمْ بَعْدُ أَنْ تَقْتُلُوهُ فَاقْتُلُوهُ بَعْدَ الثَّلاَثِ ‏\"‏ ‏.‏",
      "english": {
        "narrator": "Abu al-Sa’ib said I went to visit Abu Sa’ld al-Khudri, and while I was sitting I heard a movement under under his couch. When I looked and found a snake there, I got up. Abu Sa’ld said:",
        "text": "what is with you? I said : Here is a snake. He said : what do you want ? I said : I shall kill it. He then pointed to a room in his house in front of his room and said : My cousin (son of my uncle) was in this room. He asked his permission to go to his wife on the occasion of the battle of Troops (Ahzab), as he was recently married. The Messenger of Allah (May peace be upon him) gave him permission and ordered him to take his weapon with him. He came to his house and found his wife standing at the door of the house. When he pointed to her with the lance, she said; do not make haste till you see what has brought me out. He entered the house and found an ugly snake there. He pierced in the lance while it was quivering. He said : I do not know which of them died first, the man or the snake. His people then came to the Messenger of Allah (May peace be upon him) and said: supplicate Allah to restore our companion to life for us. He said : Ask forgiveness for your Companion. Then he said : In Medina a group of Jinn have embraced Islam, so when you see one of them, pronounce a waring to it three times and if it appears to you after that, kill it after three days."
      }
    },
    {
      "id": 486,
      "chapterId": 43,
      "bookId": 3,
      "arabic": "حَدَّثَنَا مُسَدَّدٌ، حَدَّثَنَا يَحْيَى، عَنِ ابْنِ عَجْلاَنَ، بِهَذَا الْحَدِيثِ مُخْتَصَرًا قَالَ ‏\n\"‏ فَلْيُؤْذِنْهُ ثَلاَثًا فَإِنْ بَدَا لَهُ بَعْدُ فَلْيَقْتُلْهُ فَإِنَّهُ شَيْطَانٌ ‏\"‏ ‏.‏",
      "english": {
        "narrator": "The tradition mentioned above has also been transmitted by Ibn 'Ajilan through a different chain of narrators briefly. This version has:",
        "text": "He should give it a warning three times. If it appears to him after that, he should kill it, for it is a devil."
      }
    },
    {
      "id": 487,
      "chapterId": 43,
      "bookId": 3,
      "arabic": "حَدَّثَنَا أَحْمَدُ بْنُ سَعِيدٍ الْهَمْدَانِيُّ، أَخْبَرَنَا ابْنُ وَهْبٍ، قَالَ أَخْبَرَنَا مَالِكٌ، عَنْ صَيْفِيٍّ، مَوْلَى ابْنِ أَفْلَحَ قَالَ أَخْبَرَنِي أَبُو السَّائِبِ، مَوْلَى هِشَامِ بْنِ زُهْرَةَ أَنَّهُ دَخَلَ عَلَى أَبِي سَعِيدٍ الْخُدْرِيِّ فَذَكَرَ نَحْوَهُ وَأَتَمَّ مِنْهُ قَالَ ‏\n\"‏ فَآذِنُوهُ ثَلاَثَةَ أَيَّامٍ فَإِنْ بَدَا لَكُمْ بَعْدَ ذَلِكَ فَاقْتُلُوهُ فَإِنَّمَا هُوَ شَيْطَانٌ ‏\"‏ ‏.‏",
      "english": {
        "narrator": "The tradition mentioned above has also been transmitted by Abu Sa'id al-Khudri in a similar manner through a different chain of narrators. This version is more perfect. In this version he said :",
        "text": "give it a warning for three days; if it appears to you after that, then kill it, for it is only a devil."
      }
    },
    {
      "id": 488,
      "chapterId": 43,
      "bookId": 3,
      "arabic": "حَدَّثَنَا سَعِيدُ بْنُ سُلَيْمَانَ، عَنْ عَلِيِّ بْنِ هَاشِمٍ، حَدَّثَنَا ابْنُ أَبِي لَيْلَى، عَنْ ثَابِتٍ الْبُنَانِيِّ، عَنْ عَبْدِ الرَّحْمَنِ بْنِ أَبِي لَيْلَى، عَنْ أَبِيهِ، أَنَّ رَسُولَ اللَّهِ صلى الله عليه وسلم سُئِلَ عَنْ حَيَّاتِ الْبُيُوتِ فَقَالَ ‏\n\"‏ إِذَا رَأَيْتُمْ مِنْهُنَّ شَيْئًا فِي مَسَاكِنِكُمْ فَقُولُوا أَنْشُدُكُنَّ الْعَهْدَ الَّذِي أَخَذَ عَلَيْكُنَّ نُوحٌ أَنْشُدُكُنَّ الْعَهْدَ الَّذِي أَخَذَ عَلَيْكُنَّ سُلَيْمَانُ أَنْ لاَ تُؤْذُونَا فَإِنْ عُدْنَ فَاقْتُلُوهُنَّ ‏\"‏ ‏.‏",
      "english": {
        "narrator": "Narrated AbdurRahman Ibn AbuLayla:",
        "text": "The Messenger of Allah (ﷺ) was asked about the house-snakes. He said: When you see one of them in your dwelling, say: I adjure you by the covenant which Noah made with you, and I adjure you by the covenant which Solomon made with you not to harm us. Then if they come back, kill them."
      }
    },
    {
      "id": 489,
      "chapterId": 43,
      "bookId": 3,
      "arabic": "حَدَّثَنَا عَمْرُو بْنُ عَوْنٍ، أَخْبَرَنَا أَبُو عَوَانَةَ، عَنْ مُغِيرَةَ، عَنْ إِبْرَاهِيمَ، عَنِ ابْنِ مَسْعُودٍ، أَنَّهُ قَالَ اقْتُلُوا الْحَيَّاتِ كُلَّهَا إِلاَّ الْجَانَّ الأَبْيَضَ الَّذِي كَأَنَّهُ قَضِيبُ فِضَّةٍ ‏.‏ قَالَ أَبُو دَاوُدَ فَقَالَ لِي إِنْسَانٌ الْجَانُّ لاَ يَنْعَرِجُ فِي مِشْيَتِهِ فَإِذَا كَانَ هَذَا صَحِيحًا كَانَتْ عَلاَمَةً فِيهِ إِنْ شَاءَ اللَّهُ ‏.‏",
      "english": {
        "narrator": "Narrated Abdullah ibn Mas'ud:",
        "text": "Kill all the snakes except the little white one which looks like a silver wand.\n\n\n\nAbu Dawud said: A man said to me: A white snake does not wind in its movement. If it is correct, that is a sign in it, if Allah wills."
      }
    },
    {
      "id": 490,
      "chapterId": 43,
      "bookId": 3,
      "arabic": "حَدَّثَنَا أَحْمَدُ بْنُ مُحَمَّدِ بْنِ حَنْبَلٍ، حَدَّثَنَا عَبْدُ الرَّزَّاقِ، حَدَّثَنَا مَعْمَرٌ، عَنِ الزُّهْرِيِّ، عَنْ عَامِرِ بْنِ سَعْدٍ، عَنْ أَبِيهِ، قَالَ أَمَرَ رَسُولُ اللَّهِ صلى الله عليه وسلم بِقَتْلِ الْوَزَغِ وَسَمَّاهُ فُوَيْسِقًا ‏.‏",
      "english": {
        "narrator": "‘Amir b. Sa’d, quoting his father, said :",
        "text": "The Messenger of Allah (May peace be upon him) ordered a gecko to be killed, and calling it a noxious little creature."
      }
    },
    {
      "id": 491,
      "chapterId": 43,
      "bookId": 3,
      "arabic": "حَدَّثَنَا مُحَمَّدُ بْنُ الصَّبَّاحِ الْبَزَّازُ، حَدَّثَنَا إِسْمَاعِيلُ بْنُ زَكَرِيَّا، عَنْ سُهَيْلٍ، عَنْ أَبِيهِ، عَنْ أَبِي هُرَيْرَةَ، قَالَ قَالَ رَسُولُ اللَّهِ صلى الله عليه وسلم ‏\n\"‏ مَنْ قَتَلَ وَزَغَةً فِي أَوَّلِ ضَرْبَةٍ فَلَهُ كَذَا وَكَذَا حَسَنَةً وَمَنْ قَتَلَهَا فِي الضَّرْبَةِ الثَّانِيَةِ فَلَهُ كَذَا وَكَذَا حَسَنَةً أَدْنَى مِنَ الأَوَّلِ وَمَنْ قَتَلَهَا فِي الضَّرْبَةِ الثَّالِثَةِ فَلَهُ كَذَا وَكَذَا حَسَنَةً أَدْنَى مِنَ الثَّانِيَةِ ‏\"‏ ‏.‏",
      "english": {
        "narrator": "Narrated AbuHurayrah:",
        "text": "The Prophet (ﷺ) said: If anyone kills a gecko with the first blow, such and such number of good deeds will be recorded for him, if he kills it with the second blow, such and such number  of good deeds will be recorded for him less than the former; and if he kills it with the third blow, such and such number of good deeds will be recorded for him, less than the former."
      }
    },
    {
      "id": 492,
      "chapterId": 43,
      "bookId": 3,
      "arabic": "حَدَّثَنَا مُحَمَّدُ بْنُ الصَّبَّاحِ الْبَزَّازُ، حَدَّثَنَا إِسْمَاعِيلُ بْنُ زَكَرِيَّا، عَنْ سُهَيْلٍ، قَالَ حَدَّثَنِي أَخِي، أَوْ أُخْتِي عَنْ أَبِي هُرَيْرَةَ، عَنِ النَّبِيِّ صلى الله عليه وسلم أَنَّهُ قَالَ ‏\n\"‏ فِي أَوَّلِ ضَرْبَةٍ سَبْعِينَ حَسَنَةً ‏\"‏ ‏.‏",
      "english": {
        "narrator": "Narrated AbuHurayrah:",
        "text": "The Prophet (ﷺ) said: For the first blow seventy good deeds will be recorded."
      }
    },
    {
      "id": 493,
      "chapterId": 43,
      "bookId": 3,
      "arabic": "حَدَّثَنَا قُتَيْبَةُ بْنُ سَعِيدٍ، عَنِ الْمُغِيرَةِ، - يَعْنِي ابْنَ عَبْدِ الرَّحْمَنِ - عَنْ أَبِي الزِّنَادِ، عَنِ الأَعْرَجِ، عَنْ أَبِي هُرَيْرَةَ، أَنَّ النَّبِيَّ صلى الله عليه وسلم قَالَ ‏\n\"‏ نَزَلَ نَبِيٌّ مِنَ الأَنْبِيَاءِ تَحْتَ شَجَرَةٍ فَلَدَغَتْهُ نَمْلَةٌ فَأَمَرَ بِجَهَازِهِ فَأُخْرِجَ مِنْ تَحْتِهَا ثُمَّ أَمَرَ بِهَا فَأُحْرِقَتْ فَأَوْحَى اللَّهُ إِلَيْهِ فَهَلاَّ نَمْلَةً وَاحِدَةً ‏\"‏ ‏.‏",
      "english": {
        "narrator": "Abu hurairah reported the prophet (peace be upon him) as saying :",
        "text": "A prophet got down beneath a tree and he was stung by an ant. He ordered regarding the baggage and it was removed from beneath it. He then ordered regarding it and it was burnt. Allah then revealed to him : why not (just) one ant?"
      }
    },
    {
      "id": 494,
      "chapterId": 43,
      "bookId": 3,
      "arabic": "حَدَّثَنَا أَحْمَدُ بْنُ صَالِحٍ، حَدَّثَنَا عَبْدُ اللَّهِ بْنُ وَهْبٍ، أَخْبَرَنِي يُونُسُ، عَنِ ابْنِ شِهَابٍ، عَنْ أَبِي سَلَمَةَ بْنِ عَبْدِ الرَّحْمَنِ، وَسَعِيدِ بْنِ الْمُسَيَّبِ، عَنْ أَبِي هُرَيْرَةَ، عَنْ رَسُولِ اللَّهِ صلى الله عليه وسلم ‏\n\"‏ إِنَّ نَمْلَةً قَرَصَتْ نَبِيًّا مِنَ الأَنْبِيَاءِ فَأَمَرَ بِقَرْيَةِ النَّمْلِ فَأُحْرِقَتْ فَأَوْحَى اللَّهُ إِلَيْهِ فِي أَنْ قَرَصَتْكَ نَمْلَةٌ أَهْلَكْتَ أُمَّةً مِنَ الأُمَمِ تُسَبِّحُ ‏\"‏ ‏.‏",
      "english": {
        "narrator": "Abu Hurairah reported Messenger of Allah (May peace be upon him) as saying :",
        "text": "An ant stung a prophet. He ordered a colony of ants to be burned. Allah revealed to him : because an ant stung you, you have perished a community which glorifies Me."
      }
    },
    {
      "id": 495,
      "chapterId": 43,
      "bookId": 3,
      "arabic": "حَدَّثَنَا أَحْمَدُ بْنُ حَنْبَلٍ، حَدَّثَنَا عَبْدُ الرَّزَّاقِ، حَدَّثَنَا مَعْمَرٌ، عَنِ الزُّهْرِيِّ، عَنْ عُبَيْدِ اللَّهِ بْنِ عَبْدِ اللَّهِ بْنِ عُتْبَةَ، عَنِ ابْنِ عَبَّاسٍ، قَالَ إِنَّ النَّبِيَّ صلى الله عليه وسلم نَهَى عَنْ قَتْلِ أَرْبَعٍ مِنَ الدَّوَابِّ النَّمْلَةُ وَالنَّحْلَةُ وَالْهُدْهُدُ وَالصُّرَدُ ‏.‏",
      "english": {
        "narrator": "Narrated Abdullah ibn Abbas:",
        "text": "The Prophet (ﷺ) prohibited to kill four creatures: ants, bees, hoopoes, and sparrow-hawks."
      }
    },
    {
      "id": 496,
      "chapterId": 43,
      "bookId": 3,
      "arabic": "حَدَّثَنَا أَبُو صَالِحٍ، مَحْبُوبُ بْنُ مُوسَى أَخْبَرَنَا أَبُو إِسْحَاقَ الْفَزَارِيُّ، عَنْ أَبِي إِسْحَاقَ الشَّيْبَانِيِّ، عَنِ ابْنِ سَعْدٍ، - قَالَ أَبُو دَاوُدَ وَهُوَ الْحَسَنُ بْنُ سَعْدٍ - عَنْ عَبْدِ الرَّحْمَنِ بْنِ عَبْدِ اللَّهِ، عَنْ أَبِيهِ، قَالَ كُنَّا مَعَ رَسُولِ اللَّهِ صلى الله عليه وسلم فِي سَفَرٍ فَانْطَلَقَ لِحَاجَتِهِ فَرَأَيْنَا حُمَّرَةً مَعَهَا فَرْخَانِ فَأَخَذْنَا فَرْخَيْهَا فَجَاءَتِ الْحُمَّرَةُ فَجَعَلَتْ تُعَرِّشُ فَجَاءَ النَّبِيُّ صلى الله عليه وسلم فَقَالَ ‏\"‏ مَنْ فَجَعَ هَذِهِ بِوَلَدِهَا رُدُّوا وَلَدَهَا إِلَيْهَا ‏\"‏ ‏.‏ وَرَأَى قَرْيَةَ نَمْلٍ قَدْ حَرَّقْنَاهَا فَقَالَ ‏\"‏ مَنْ حَرَّقَ هَذِهِ ‏\"‏ ‏.‏ قُلْنَا نَحْنُ ‏.‏ قَالَ ‏\"‏ إِنَّهُ لاَ يَنْبَغِي أَنْ يُعَذِّبَ بِالنَّارِ إِلاَّ رَبُّ النَّارِ ‏\"‏ ‏.‏",
      "english": {
        "narrator": "‘Abd al-Rahman b. ‘Abd Allah quoted his father as saying :",
        "text": "When we were on a journey with the Messenger of Allah (ﷺ) and he had gone to releive himself, we saw a Hummarah with two young ones. We took the young ones. The Hummarah came and began to spread out its wings. Then the prophet (May peace be upon him) came and said : who has pained this young by the loss of her young? Give her young ones back to her. We also saw an ant-hill which we had burned. He asked? Who has burned this? We replied : we have. He said: it is not fitting that anyone but the lord of the fire should punish with fire."
      }
    },
    {
      "id": 497,
      "chapterId": 43,
      "bookId": 3,
      "arabic": "حَدَّثَنَا مُحَمَّدُ بْنُ كَثِيرٍ، أَخْبَرَنَا سُفْيَانُ، عَنِ ابْنِ أَبِي ذِئْبٍ، عَنْ سَعِيدِ بْنِ خَالِدٍ، عَنْ سَعِيدِ بْنِ الْمُسَيَّبِ، عَنْ عَبْدِ الرَّحْمَنِ بْنِ عُثْمَانَ، أَنَّ طَبِيبًا، سَأَلَ النَّبِيَّ صلى الله عليه وسلم عَنْ ضِفْدَعٍ يَجْعَلُهَا فِي دَوَاءٍ فَنَهَاهُ النَّبِيُّ صلى الله عليه وسلم عَنْ قَتْلِهَا ‏.‏",
      "english": {
        "narrator": "Narrated AbdurRahman ibn Uthman:",
        "text": "When a physician consulted the Prophet (ﷺ) about putting frogs in medicine, he forbade him to kill them."
      }
    },
    {
      "id": 498,
      "chapterId": 43,
      "bookId": 3,
      "arabic": "حَدَّثَنَا حَفْصُ بْنُ عُمَرَ، حَدَّثَنَا شُعْبَةُ، عَنْ قَتَادَةَ، عَنْ عُقْبَةَ بْنِ صُهْبَانَ، عَنْ عَبْدِ اللَّهِ بْنِ مُغَفَّلٍ، قَالَ نَهَى رَسُولُ اللَّهِ صلى الله عليه وسلم عَنِ الْخَذْفِ قَالَ ‏\n\"‏ إِنَّهُ لاَ يَصِيدُ صَيْدًا وَلاَ يَنْكَأُ عَدُوًّا وَإِنَّمَا يَفْقَأُ الْعَيْنَ وَيَكْسِرُ السِّنَّ ‏\"‏ ‏.‏",
      "english": {
        "narrator": "‘Abd b. Mughaffal said :",
        "text": "The Messenger of Allah (ﷺ) prohibited throwing pebbles (in sport) saying : game is not caught by such means. Neither is an enemy injured, but it may sometimes put out an eye or break a tooth."
      }
    },
    {
      "id": 499,
      "chapterId": 43,
      "bookId": 3,
      "arabic": "حَدَّثَنَا سُلَيْمَانُ بْنُ عَبْدِ الرَّحْمَنِ الدِّمَشْقِيُّ، وَعَبْدُ الْوَهَّابِ بْنُ عَبْدِ الرَّحِيمِ الأَشْجَعِيُّ، قَالاَ حَدَّثَنَا مَرْوَانُ، حَدَّثَنَا مُحَمَّدُ بْنُ حَسَّانَ، - قَالَ عَبْدُ الْوَهَّابِ الْكُوفِيُّ - عَنْ عَبْدِ الْمَلِكِ بْنِ عُمَيْرٍ، عَنْ أُمِّ عَطِيَّةَ الأَنْصَارِيَّةِ، أَنَّ امْرَأَةً، كَانَتْ تَخْتِنُ بِالْمَدِينَةِ فَقَالَ لَهَا النَّبِيُّ صلى الله عليه وسلم ‏\n\"‏ لاَ تُنْهِكِي فَإِنَّ ذَلِكَ أَحْظَى لِلْمَرْأَةِ وَأَحَبُّ إِلَى الْبَعْلِ ‏\"‏ ‏.‏ قَالَ أَبُو دَاوُدَ رُوِيَ عَنْ عُبَيْدِ اللَّهِ بْنِ عَمْرٍو عَنْ عَبْدِ الْمَلِكِ بِمَعْنَاهُ وَإِسْنَادِهِ ‏.‏ قَالَ أَبُو دَاوُدَ لَيْسَ هُوَ بِالْقَوِيِّ وَقَدْ رُوِيَ مُرْسَلاً ‏.‏ قَالَ أَبُو دَاوُدَ وَمُحَمَّدُ بْنُ حَسَّانَ مَجْهُولٌ وَهَذَا الْحَدِيثُ ضَعِيفٌ ‏.‏",
      "english": {
        "narrator": "Narrated Umm Atiyyah al-Ansariyyah:",
        "text": "A woman used to perform circumcision in Medina. The Prophet (ﷺ) said to her: Do not cut severely as that is better for a woman and more desirable for a husband.\n\n\nAbu Dawud said: It has been transmitted by 'Ubaid Allah b. 'Amr from 'Abd al-Malik to the same effect through a different chain.\n\n\nAbu Dawud said: It is not a strong tradition. It has been transmitted in mursal form (missing the link of the Companions)\n\n\nAbu Dawud said: Muhammad b. Hasan is obscure, and this tradition is weak."
      }
    },
    {
      "id": 500,
      "chapterId": 43,
      "bookId": 3,
      "arabic": "حَدَّثَنَا عَبْدُ اللَّهِ بْنُ مَسْلَمَةَ، حَدَّثَنَا عَبْدُ الْعَزِيزِ، - يَعْنِي ابْنَ مُحَمَّدٍ عَنْ أَبِي الْيَمَانِ، عَنْ شَدَّادِ بْنِ أَبِي عَمْرِو بْنِ حِمَاسٍ، عَنْ أَبِيهِ، عَنْ حَمْزَةَ بْنِ أَبِي أُسَيْدٍ الأَنْصَارِيِّ، عَنْ أَبِيهِ، أَنَّهُ سَمِعَ رَسُولَ اللَّهِ صلى الله عليه وسلم يَقُولُ وَهُوَ خَارِجٌ مِنَ الْمَسْجِدِ فَاخْتَلَطَ الرِّجَالُ مَعَ النِّسَاءِ فِي الطَّرِيقِ فَقَالَ رَسُولُ اللَّهِ صلى الله عليه وسلم لِلنِّسَاءِ ‏\n\"‏ اسْتَأْخِرْنَ فَإِنَّهُ لَيْسَ لَكُنَّ أَنْ تَحْقُقْنَ الطَّرِيقَ عَلَيْكُنَّ بِحَافَاتِ الطَّرِيقِ ‏\"‏ ‏.‏ فَكَانَتِ الْمَرْأَةُ تَلْتَصِقُ بِالْجِدَارِ حَتَّى إِنَّ ثَوْبَهَا لَيَتَعَلَّقُ بِالْجِدَارِ مِنْ لُصُوقِهَا بِهِ ‏.‏",
      "english": {
        "narrator": "Narrated AbuUsayd al-Ansari:",
        "text": "AbuUsayd heard the Messenger of Allah (ﷺ) say when he was coming out of the mosque, and men and women were mingled in the road: Draw back, for you must not walk in the middle of the road; keep to the sides of the road. Then women were keeping so close to the wall that their garments were rubbing against it."
      }
    },
    {
      "id": 501,
      "chapterId": 43,
      "bookId": 3,
      "arabic": "حَدَّثَنَا مُحَمَّدُ بْنُ يَحْيَى بْنِ فَارِسٍ، حَدَّثَنَا أَبُو قُتَيْبَةَ، سَلْمُ بْنُ قُتَيْبَةَ عَنْ دَاوُدَ بْنِ أَبِي صَالِحٍ الْمُزَنِيِّ، عَنْ نَافِعٍ، عَنِ ابْنِ عُمَرَ، أَنَّ النَّبِيَّ صلى الله عليه وسلم نَهَى أَنْ يَمْشِيَ - يَعْنِي الرَّجُلَ - بَيْنَ الْمَرْأَتَيْنِ ‏.‏",
      "english": {
        "narrator": "Narrated Abdullah ibn Umar:",
        "text": "The Prophet (ﷺ) prohibited that one, i.e. man, should walk between two women."
      }
    },
    {
      "id": 502,
      "chapterId": 43,
      "bookId": 3,
      "arabic": "حَدَّثَنَا مُحَمَّدُ بْنُ الصَّبَّاحِ بْنِ سُفْيَانَ، وَابْنُ السَّرْحِ، قَالاَ حَدَّثَنَا سُفْيَانُ، عَنِ الزُّهْرِيِّ، عَنْ سَعِيدٍ، عَنْ أَبِي هُرَيْرَةَ، عَنِ النَّبِيِّ صلى الله عليه وسلم ‏\n\"‏ يَقُولُ اللَّهُ عَزَّ وَجَلَّ يُؤْذِينِي ابْنُ آدَمَ يَسُبُّ الدَّهْرَ وَأَنَا الدَّهْرُ بِيَدِيَ الأَمْرُ أُقَلِّبُ اللَّيْلَ وَالنَّهَارَ ‏\"‏ ‏.‏ قَالَ ابْنُ السَّرْحِ عَنِ ابْنِ الْمُسَيَّبِ مَكَانَ سَعِيدٍ ‏.‏ وَاللَّهُ أَعْلَمُ ‏.‏",
      "english": {
        "narrator": "Abu Hurairah reported the prophet (ﷺ) as saying:",
        "text": "Allah most high says : “The son of Adam injures me by abusing time, whereas I am time. Authority is in my hand. I alternate the night and the day”.\n\n\nIbn al-Sarh said: “on the authority of Ibn al-Musayyab instead of Sa’id’."
      }
    }
  ]
}